4149
2005
4585
6759
2045
4303
92521
27436
23451
23373
861
2313
4094
9659
5378
27044
4595
1879
4261
79728
3717
5910
6657
4233
2042
22978
5450
602
121227
30012
55159
57674
11177
54880
54738
23048
3791
9612
26040
29126
4613
9101
10962
7704
7080
2175
6887
3237
472
1441
107984923
54487
94025
581
143187
10978
23013
57670
6184
6392
55160
2178
3572
5079
1630
4869
29102
5884
3799
207
2122
868
4654
8243
2130
9314
6391
29974
84295
1616
2199
4436
7750
5966
5155
171023
80380
4781
1656
8294
6421
4300
9113
54949
2264
8833
7128
8115
5413
9817
2322
8471
1643
340419
4893
405
7006
64109
57448
83596
1785
4773
5796
1540
5295
4849
2132
1387
1106
5108
5460
151963
6602
10215
26511
2034
217
64324
4088
2181
63035
1277
4352
3371
3326
1654
2625
2272
2956
6278
256646
5777
4286
4291
3716
63976
580
492
8091
6428
8295
9444
399
196528
4666
4193
6092
5605
26986
8764
5551
29844
2189
6794
11200
23305
1029
50515
1019
26039
6756
10644
3207
1108
4214
4913
10721
1045
7030
8493
865
1999
7175
8312
3195
54894
9611
8648
26524
3932
6774
5900
30835
1009
1496
7514
23157
11116
5087
84870
90993
641
57698
608
4292
5156
6608
2735
595
2623
6385
92017
7486
3205
6427
4629
1015
5783
5787
7157
5428
340578
10320
5290
53353
1050
4644
2000
3492
3927
7048
4602
7454
53335
5468
8880
8178
8028
7403
6964
168975
9869
57120
546
5573
3535
55596
1031
3337
10272
2115
25937
5292
8021
5159
51755
4298
4841
4297
867
4928
54855
51059
6446
1499
23067
2120
8405
7248
463
7555
9715
695
208
5371
4194
2176
4853
639
8218
5925
6938
9321
6934
6778
1974
668
5518
79145
1213
2719
3895
2065
3936
23152
999
9401
7994
23092
120114
23624
442444
4794
5566
9203
79577
114825
346389
5537
54904
694
3084
7849
675
84441
23405
57007
25766
64783
4087
4004
776
811
79058
7430
9135
10142
283149
2177
8314
1523
84902
6850
92
25913
6146
7253
57492
10736
4926
2237
2903
6605
4780
7428
6757
4610
8242
57082
51199
8805
6497
1788
2064
8241
58508
145788
3718
3646
2475
65268
1236
2068
653489
51517
1500
80204
79718
7171
6098
5081
2118
345930
1280
1345
3977
2776
6424
8289
8013
2531
672
4916
8313
3092
5890
7307
545
3845
23365
604
6125
26065
10397
7942
6455
25
4221
29072
85414
3021
8233
369
1027
4921
2261
394
80304
701
4515
10499
2767
2078
2521
3399
2213
2308
83990
940
11166
2060
3817
5187
23522
7150
4089
11197
3418
10274
324
27125
55193
6926
10664
79633
23261
5093
11168
4066
7015
2119
4615
5753
355
5426
3558
8031
4791
11328
6714
57167
64784
8915
5594
2260
22849
5291
1008
6935
23185
5424
7913
7508
6777
5324
55294
4958
5903
4627
5781
6927
64764
5979
4301
596
55500
23598
8019
8651
5727
833
51340
8522
8358
1281
8085
605
2033
10019
55654
4330
4026
50615
9967
7037
6134
7249
3105
2309
4683
57105
2066
2006
3685
3239
4299
221895
6491
5879
91464
83417
6886
114788
2316
330
5728
6760
84231
7409
1501
6917
9098
8929
2271
9709
6000
10000
3110
4255
898
862
1662
100533467
1655
353088
4609
4582
3551
476
2195
3159
2913
5077
5546
1558
84101
5396
23476
3181
836
7490
657
201163
5579
9639
4914
10568
728130
286530
4302
673
5927
6597
2324
5885
23085
2624
3762
5335
5914
10243
5987
2131
84376
27
3662
90
283150
3020
50802
10735
8148
863
3815
171017
8496
51176
6495
10892
1649
567
25925
238
3169
4478
55422
2071
6598
973
10342
6418
27086
1026
471
4763
286
841
55252
653
9935
1436
8216
9950
1956
6389
54790
894
892
8626
607
6390
8726
8030
10801
10006
51592
139285
124583
7531
116028
23512
1385
5604
124540
9901
1316
9175
55728
90827
9968
4000
7799
6416
23484
5788
80312
2072
51119
4005
5894
6957
4665
11064
3575
613
3227
842
90417
3899
11122
3320
6801
3725
2146
387
3131
2778
5395
5049
80243
2242
6929
51684
4851
3702
11143
64919
974
7113
466
729262
2262
8452
7170
81608
140885
7507
23462
3265
3417
7468
1233
3229
972
57820
2263
7852
26047
4771
2188
26960
3209
1639
1021
10186
5789
3091
2099
51366
367
8301
57591
6955
9582
84133
896
84433
6249
9774
