R-HSA-109582,0.08623853211009175
R-HSA-114608,0.02666666666666667
R-HSA-76005,0.037037037037037035
R-HSA-76002,0.08962264150943396
R-HSA-6798695,0.03927492447129909
R-HSA-168256,0.07944915254237288
R-HSA-168249,0.07303974221267455
R-HSA-211859,0.3333333333333333
R-HSA-1430728,0.037300177619893425
R-HSA-156582,0.0
R-HSA-156580,0.0
R-HSA-15869,0.125
R-HSA-8956321,0.0
R-HSA-74217,0.0
R-HSA-8957275,0.02631578947368421
R-HSA-392499,0.06334596643205198
R-HSA-421270,0.16216216216216217
R-HSA-418990,0.21428571428571427
R-HSA-446728,0.109375
R-HSA-1500931,0.13725490196078433
R-HSA-1266738,0.11764705882352941
R-HSA-525793,0.2
R-HSA-381426,0.016666666666666666
R-HSA-597592,0.06877470355731226
R-HSA-109581,0.11428571428571428
R-HSA-5653656,0.06109324758842444
R-HSA-5663202,0.2506811989100817
R-HSA-1280215,0.12244897959183673
R-HSA-69242,0.11875
R-HSA-111447,0.3333333333333333
R-HSA-3700989,0.16473988439306358
R-HSA-109606,0.2641509433962264
R-HSA-69202,0.14457831325301204
R-HSA-9007101,0.06363636363636363
R-HSA-162582,0.10789252728799328
R-HSA-194138,0.22857142857142856
R-HSA-5633007,0.1875
R-HSA-69206,0.1076923076923077
R-HSA-6804759,0.35714285714285715
R-HSA-5628897,0.14666666666666667
R-HSA-210745,0.8
R-HSA-9614085,0.3541666666666667
R-HSA-6804757,0.3611111111111111
R-HSA-1358803,0.5384615384615384
R-HSA-397795,0.15625
R-HSA-8941332,0.8
R-HSA-6804758,0.27586206896551724
R-HSA-5674400,0.52
R-HSA-8878166,0.1981981981981982
R-HSA-9006931,0.17803030303030304
R-HSA-1280218,0.09116022099447514
R-HSA-8939211,0.20574162679425836
R-HSA-199418,0.3235294117647059
R-HSA-392451,0.16
R-HSA-211163,1.0
R-HSA-199991,0.05752961082910321
R-HSA-8948751,0.08823529411764706
R-HSA-372790,0.07623318385650224
R-HSA-389513,0.3333333333333333
R-HSA-2219528,0.425531914893617
R-HSA-4420097,0.23711340206185566
R-HSA-69278,0.10144927536231885
R-HSA-9607240,0.4864864864864865
R-HSA-8876198,0.047619047619047616
R-HSA-1640170,0.11566617862371889
R-HSA-212436,0.14542020774315392
R-HSA-1227986,0.3877551020408163
R-HSA-453279,0.14864864864864866
R-HSA-5218920,0.3333333333333333
R-HSA-389357,0.36363636363636365
R-HSA-198323,0.5714285714285714
R-HSA-73857,0.13755274261603376
R-HSA-389356,0.3333333333333333
R-HSA-1257604,0.21484375
R-HSA-388841,0.2537313432835821
R-HSA-9006925,0.2027491408934708
R-HSA-9614399,0.5454545454545454
R-HSA-9634638,0.5
R-HSA-74160,0.13132075471698113
R-HSA-8863795,0.35714285714285715
R-HSA-1643685,0.1315426997245179
R-HSA-6807070,0.12949640287769784
R-HSA-186712,0.36
R-HSA-198693,0.7777777777777778
R-HSA-5357801,0.10891089108910891
R-HSA-6806003,0.3611111111111111
R-HSA-9006934,0.17154811715481172
R-HSA-388396,0.08184143222506395
R-HSA-114452,0.23333333333333334
R-HSA-9009391,0.2777777777777778
R-HSA-69656,0.1411764705882353
R-HSA-381340,0.2318840579710145
R-HSA-556833,0.04
R-HSA-1989781,0.14634146341463414
R-HSA-400206,0.14285714285714285
R-HSA-383280,0.125
R-HSA-8963693,0.0
R-HSA-71291,0.014084507042253521
R-HSA-2172127,0.26666666666666666
R-HSA-9033241,0.0
R-HSA-8957322,0.09090909090909091
R-HSA-193368,0.0
R-HSA-2046104,0.0
R-HSA-2046106,0.0
R-HSA-194068,0.0
R-HSA-8978868,0.0
R-HSA-390918,0.0
R-HSA-192105,0.0
R-HSA-390247,0.0
R-HSA-389887,0.0
R-HSA-9609507,0.0
R-HSA-9664422,0.20689655172413793
R-HSA-9013149,0.09395973154362416
R-HSA-195258,0.11356466876971609
R-HSA-9013423,0.10204081632653061
R-HSA-9012999,0.07769423558897243
R-HSA-2029480,0.2375
R-HSA-9658195,0.12087912087912088
R-HSA-5663205,0.10262828535669587
R-HSA-5663213,0.19444444444444445
R-HSA-9716542,0.09502923976608187
R-HSA-194315,0.09281437125748503
R-HSA-9013404,0.11864406779661017
R-HSA-2029482,0.23333333333333334
R-HSA-9664417,0.20689655172413793
R-HSA-9664407,0.20689655172413793
R-HSA-70326,0.09836065573770492
R-HSA-71387,0.055944055944055944
R-HSA-70171,0.11320754716981132
R-HSA-5576891,0.03636363636363636
R-HSA-397014,0.05303030303030303
R-HSA-5576890,0.2
R-HSA-5576893,0.08333333333333333
R-HSA-166166,0.12631578947368421
R-HSA-168928,0.13157894736842105
R-HSA-936964,0.0
R-HSA-168164,0.12087912087912088
R-HSA-937061,0.12631578947368421
R-HSA-9013973,0.0
R-HSA-168898,0.11643835616438356
R-HSA-933541,0.13333333333333333
R-HSA-166016,0.13385826771653545
R-HSA-3371556,0.16091954022988506
R-HSA-157118,0.13551401869158877
R-HSA-5617833,0.05945945945945946
R-HSA-3371511,0.25
R-HSA-2122947,0.3023255813953488
R-HSA-2262752,0.09937888198757763
R-HSA-2894862,0.22
R-HSA-9646399,0.024390243902439025
R-HSA-8953897,0.09831029185867896
R-HSA-8940973,0.47619047619047616
R-HSA-1632852,0.05511811023622047
R-HSA-2644602,0.22
R-HSA-9663891,0.05194805194805195
R-HSA-8941326,0.4074074074074074
R-HSA-2644606,0.22
R-HSA-1980143,0.19696969696969696
R-HSA-2644603,0.22
R-HSA-9613829,0.10526315789473684
R-HSA-9612973,0.056338028169014086
R-HSA-2894858,0.22
R-HSA-350054,0.2692307692307692
R-HSA-9615710,0.0
R-HSA-1852241,0.07380073800738007
R-HSA-198933,0.047619047619047616
R-HSA-9675108,0.0989010989010989
R-HSA-373760,0.1308411214953271
R-HSA-422475,0.09751434034416825
R-HSA-73886,0.10606060606060606
R-HSA-174430,0.0
R-HSA-174411,0.07692307692307693
R-HSA-180786,0.13725490196078433
R-HSA-157579,0.11538461538461539
R-HSA-174417,0.14705882352941177
R-HSA-1482839,0.0
R-HSA-381038,0.09090909090909091
R-HSA-1482801,0.0
R-HSA-1483257,0.047619047619047616
R-HSA-381119,0.09836065573770492
R-HSA-1482925,0.0
R-HSA-1482788,0.0
R-HSA-1483115,0.0
R-HSA-1483166,0.0
R-HSA-1483206,0.0
R-HSA-381070,0.047619047619047616
R-HSA-8943724,0.18032786885245902
R-HSA-5210891,0.2
R-HSA-5675482,0.13793103448275862
R-HSA-162599,0.07633587786259542
R-HSA-5213460,0.13793103448275862
R-HSA-162588,0.0
R-HSA-5218859,0.16
R-HSA-162906,0.08849557522123894
R-HSA-162587,0.09722222222222222
R-HSA-5339562,0.3333333333333333
R-HSA-9614657,0.6363636363636364
R-HSA-73887,0.11538461538461539
R-HSA-6802952,0.28846153846153844
R-HSA-111453,0.125
R-HSA-9645723,0.15384615384615385
R-HSA-8878159,0.23655913978494625
R-HSA-6802957,0.2318840579710145
R-HSA-204998,0.10526315789473684
R-HSA-193648,0.07407407407407407
R-HSA-111446,0.0
R-HSA-193704,0.11627906976744186
R-HSA-8952158,0.75
R-HSA-8863678,0.2222222222222222
R-HSA-8862803,0.2222222222222222
R-HSA-5205647,0.04
R-HSA-5205685,0.0
R-HSA-1268020,0.0
R-HSA-9706369,0.3333333333333333
R-HSA-983231,0.12
R-HSA-1433557,0.46511627906976744
R-HSA-1433559,0.4375
R-HSA-446203,0.027649769585253458
R-HSA-5609975,0.0
R-HSA-3781865,0.21052631578947367
R-HSA-446193,0.0
R-HSA-446219,0.0
R-HSA-4085001,0.0
R-HSA-5668914,0.06896551724137931
R-HSA-4085011,0.0
R-HSA-1296071,0.029411764705882353
R-HSA-1296061,0.0
R-HSA-112316,0.058823529411764705
R-HSA-373076,0.0380952380952381
R-HSA-375276,0.0
R-HSA-418594,0.07954545454545454
R-HSA-500792,0.0365296803652968
R-HSA-444821,0.0
R-HSA-195253,0.08536585365853659
R-HSA-195721,0.12225705329153605
R-HSA-4641262,0.16666666666666666
R-HSA-196299,0.29411764705882354
R-HSA-201681,0.15454545454545454
R-HSA-162791,0.0
R-HSA-163125,0.0
R-HSA-416482,0.07017543859649122
R-HSA-5688426,0.11913357400722022
R-HSA-5689880,0.10880829015544041
R-HSA-1461957,0.0
R-HSA-1461973,0.0
R-HSA-6803157,0.0
R-HSA-174577,0.0
R-HSA-977606,0.0
R-HSA-166658,0.0
R-HSA-166663,0.0
R-HSA-983169,0.047619047619047616
R-HSA-983168,0.033783783783783786
R-HSA-8951664,0.039473684210526314
R-HSA-199977,0.03225806451612903
R-HSA-168181,0.12790697674418605
R-HSA-5357769,0.20833333333333334
R-HSA-8856688,0.03125
R-HSA-6811442,0.04216867469879518
R-HSA-975138,0.12941176470588237
R-HSA-6807878,0.02247191011235955
R-HSA-168138,0.125
R-HSA-937041,0.08695652173913043
R-HSA-937072,0.0
R-HSA-975163,0.0
R-HSA-6811434,0.015151515151515152
R-HSA-948021,0.031007751937984496
R-HSA-975155,0.12790697674418605
R-HSA-140534,0.125
R-HSA-2562578,0.1111111111111111
R-HSA-5696398,0.11009174311926606
R-HSA-5696394,0.07894736842105263
R-HSA-5693532,0.14906832298136646
R-HSA-5685939,0.3
R-HSA-110362,0.125
R-HSA-5696400,0.18421052631578946
R-HSA-73884,0.08641975308641975
R-HSA-73894,0.14329268292682926
R-HSA-73933,0.13513513513513514
R-HSA-110373,0.12
R-HSA-5693538,0.1590909090909091
R-HSA-5696399,0.10714285714285714
R-HSA-5696395,0.13953488372093023
R-HSA-9012852,0.2
R-HSA-9013695,0.4117647058823529
R-HSA-1980145,0.15384615384615385
R-HSA-9013508,0.4
R-HSA-9013694,0.11392405063291139
R-HSA-2197563,0.5714285714285714
R-HSA-8941856,0.3333333333333333
R-HSA-1912422,0.15384615384615385
R-HSA-210744,0.36363636363636365
R-HSA-1912408,0.16666666666666666
R-HSA-5683057,0.1611842105263158
R-HSA-6806834,0.208955223880597
R-HSA-8851805,0.36363636363636365
R-HSA-5684996,0.1482889733840304
R-HSA-5673001,0.14396887159533073
R-HSA-3371453,0.13636363636363635
R-HSA-6805567,0.0
R-HSA-111465,0.15789473684210525
R-HSA-8878171,0.19196428571428573
R-HSA-8935964,0.0
R-HSA-351906,0.2727272727272727
R-HSA-75153,0.12
R-HSA-167287,0.07142857142857142
R-HSA-167152,0.1
R-HSA-167200,0.10526315789473684
R-HSA-167246,0.10526315789473684
R-HSA-6796648,0.2542372881355932
R-HSA-167172,0.07692307692307693
R-HSA-167169,0.10526315789473684
R-HSA-167238,0.07692307692307693
R-HSA-167290,0.07142857142857142
R-HSA-167243,0.07692307692307693
R-HSA-112382,0.14035087719298245
R-HSA-674695,0.1125
R-HSA-75955,0.14035087719298245
R-HSA-68877,0.10256410256410256
R-HSA-68886,0.07673267326732673
R-HSA-68875,0.10948905109489052
R-HSA-2514853,0.0
R-HSA-2299718,0.07692307692307693
R-HSA-190828,0.1111111111111111
R-HSA-190861,0.0
R-HSA-157858,0.11428571428571428
R-HSA-112303,0.0
R-HSA-112307,0.0
R-HSA-774815,0.046153846153846156
R-HSA-2555396,0.05240174672489083
R-HSA-141444,0.07446808510638298
R-HSA-606279,0.046153846153846156
R-HSA-5663220,0.08088235294117647
R-HSA-69618,0.06422018348623854
R-HSA-6783310,0.21621621621621623
R-HSA-2500257,0.09016393442622951
R-HSA-68882,0.05263157894736842
R-HSA-69620,0.09655172413793103
R-HSA-9648025,0.07079646017699115
R-HSA-141424,0.07446808510638298
R-HSA-2467813,0.059782608695652176
R-HSA-5173105,0.09090909090909091
R-HSA-913709,0.1111111111111111
R-HSA-2424491,0.4
R-HSA-9709957,0.038461538461538464
R-HSA-2187338,0.0
R-HSA-9648002,0.1875
R-HSA-2514856,0.0
R-HSA-2514859,0.0
R-HSA-162909,0.10077519379844961
R-HSA-432722,0.08888888888888889
R-HSA-199992,0.06451612903225806
R-HSA-432720,0.07142857142857142
R-HSA-2132295,0.04672897196261682
R-HSA-164938,0.19047619047619047
R-HSA-164940,0.2
R-HSA-164952,0.17857142857142858
R-HSA-3108232,0.2087912087912088
R-HSA-4570464,0.0851063829787234
R-HSA-2990846,0.20212765957446807
R-HSA-3108214,0.18181818181818182
R-HSA-2559580,0.14782608695652175
R-HSA-8953750,0.16129032258064516
R-HSA-4551638,0.08450704225352113
R-HSA-4655427,0.058823529411764705
R-HSA-2559583,0.14673913043478262
R-HSA-8939243,0.2894736842105263
R-HSA-3899300,0.2
R-HSA-72172,0.07027027027027027
R-HSA-6781823,0.09615384615384616
R-HSA-72163,0.06779661016949153
R-HSA-72203,0.07112970711297072
R-HSA-6782135,0.12698412698412698
R-HSA-6782210,0.0967741935483871
R-HSA-8953854,0.05092592592592592
R-HSA-6781827,0.11688311688311688
R-HSA-3065678,0.0
R-HSA-3215018,0.0
R-HSA-3065676,0.0
R-HSA-379724,0.0
R-HSA-379716,0.0
R-HSA-72766,0.028
R-HSA-1630316,0.058823529411764705
R-HSA-382551,0.023575638506876228
R-HSA-2142845,0.0
R-HSA-2142850,0.0
R-HSA-382556,0.0
R-HSA-1369007,0.0
R-HSA-5619115,0.045454545454545456
R-HSA-5619084,0.0
R-HSA-5683371,0.0
R-HSA-5578775,0.0
R-HSA-5678420,0.0
R-HSA-1296065,0.03333333333333333
R-HSA-1296025,0.0
R-HSA-8964043,0.038461538461538464
R-HSA-4090294,0.13333333333333333
R-HSA-9024446,0.1724137931034483
R-HSA-9029569,0.21739130434782608
R-HSA-9632974,0.0
R-HSA-9029558,0.0
R-HSA-9623433,0.42857142857142855
R-HSA-8866427,0.1
R-HSA-9031528,0.0
R-HSA-9031525,0.0
R-HSA-174824,0.044444444444444446
R-HSA-446652,0.07462686567164178
R-HSA-9012546,0.0
R-HSA-9008059,0.3333333333333333
R-HSA-449147,0.13895216400911162
R-HSA-3906995,0.0
R-HSA-5621480,0.2
R-HSA-5083632,0.3333333333333333
R-HSA-5083636,1.0
R-HSA-5083625,1.0
R-HSA-977068,0.0
R-HSA-5621481,0.13934426229508196
R-HSA-191859,0.07547169811320754
R-HSA-194441,0.07547169811320754
R-HSA-983712,0.0449438202247191
R-HSA-936837,0.09090909090909091
R-HSA-72165,0.06
R-HSA-3560782,0.0
R-HSA-4420332,0.0
R-HSA-975634,0.0
R-HSA-2024096,0.0
R-HSA-6806667,0.0
R-HSA-3560783,0.0
R-HSA-1971475,0.0
R-HSA-1793185,0.0
R-HSA-2022928,1.0
R-HSA-3656237,1.0
R-HSA-196854,0.047619047619047616
R-HSA-3656253,1.0
R-HSA-1638091,0.25
R-HSA-3560801,0.0
R-HSA-9662361,0.15
R-HSA-9662360,0.09302325581395349
R-HSA-9659379,0.09090909090909091
R-HSA-428157,0.0
R-HSA-1660661,0.0
R-HSA-1296346,0.0
R-HSA-5576886,0.0
R-HSA-1299308,0.0
R-HSA-2022923,0.0
R-HSA-8856828,0.08759124087591241
R-HSA-2682334,0.11627906976744186
R-HSA-3928662,0.0975609756097561
R-HSA-977225,0.04597701149425287
R-HSA-1474244,0.05982905982905983
R-HSA-1474228,0.06451612903225806
R-HSA-2564830,0.375
R-HSA-5389840,0.0
R-HSA-5368287,0.0
R-HSA-9013405,0.1
R-HSA-9013148,0.09322033898305085
R-HSA-877300,0.12698412698412698
R-HSA-913531,0.09195402298850575
R-HSA-2672351,0.07142857142857142
R-HSA-69473,0.16853932584269662
R-HSA-5693548,0.3333333333333333
R-HSA-5693554,0.4230769230769231
R-HSA-5693607,0.13043478260869565
R-HSA-1500620,0.16666666666666666
R-HSA-5693567,0.15079365079365079
R-HSA-5693537,0.3235294117647059
R-HSA-5693579,0.30952380952380953
R-HSA-5693565,0.14084507042253522
R-HSA-69481,0.09036144578313253
R-HSA-5693616,0.3076923076923077
R-HSA-6804756,0.17391304347826086
R-HSA-5685938,0.32432432432432434
R-HSA-912446,0.14285714285714285
R-HSA-5685942,0.234375
R-HSA-1474165,0.1651376146788991
R-HSA-2559586,0.15714285714285714
R-HSA-5693606,0.1388888888888889
R-HSA-5693568,0.3333333333333333
R-HSA-5693571,0.09523809523809523
R-HSA-68884,0.3076923076923077
R-HSA-983189,0.029411764705882353
R-HSA-204005,0.047619047619047616
R-HSA-5694530,0.0
R-HSA-380259,0.12903225806451613
R-HSA-8854518,0.12307692307692308
R-HSA-380320,0.10714285714285714
R-HSA-380287,0.10810810810810811
R-HSA-3371497,0.09615384615384616
R-HSA-5620912,0.1
R-HSA-69275,0.06842105263157895
R-HSA-380270,0.10810810810810811
R-HSA-380284,0.12903225806451613
R-HSA-6811436,0.04878048780487805
R-HSA-453274,0.06770833333333333
R-HSA-2565942,0.09876543209876543
R-HSA-76009,0.09375
R-HSA-2454202,0.16923076923076924
R-HSA-416476,0.10714285714285714
R-HSA-114508,0.0
R-HSA-392517,0.125
R-HSA-1169092,0.6
R-HSA-1168372,0.1375
R-HSA-354192,0.1111111111111111
R-HSA-983705,0.16363636363636364
R-HSA-2871837,0.05194805194805195
R-HSA-166520,0.25
R-HSA-187037,0.25688073394495414
R-HSA-177504,0.21428571428571427
R-HSA-9707564,0.10810810810810811
R-HSA-1428517,0.04225352112676056
R-HSA-611105,0.054945054945054944
R-HSA-163200,0.04716981132075472
R-HSA-9711123,0.08823529411764706
R-HSA-8854214,0.03333333333333333
R-HSA-8980692,0.10377358490566038
R-HSA-983170,0.125
R-HSA-196807,0.0
R-HSA-400253,0.1864406779661017
R-HSA-196849,0.0
R-HSA-1368108,0.21052631578947367
R-HSA-197264,0.0
R-HSA-6811440,0.022222222222222223
R-HSA-8984722,0.3333333333333333
R-HSA-447115,0.15151515151515152
R-HSA-9020956,0.36363636363636365
R-HSA-416700,0.0
R-HSA-373755,0.16923076923076924
R-HSA-9609690,0.1322314049586777
R-HSA-9609646,0.1103448275862069
R-HSA-5658442,0.0847457627118644
R-HSA-71064,0.0
R-HSA-2980736,0.25
R-HSA-2022377,0.0
R-HSA-9035034,0.0625
R-HSA-418038,0.0
R-HSA-417957,0.0
R-HSA-70263,0.0
R-HSA-70635,0.0
R-HSA-174143,0.023255813953488372
R-HSA-176187,0.05405405405405406
R-HSA-69615,0.13432835820895522
R-HSA-69236,0.3404255319148936
R-HSA-171319,0.14285714285714285
R-HSA-69563,0.13846153846153847
R-HSA-2559582,0.12871287128712872
R-HSA-9675126,0.2972972972972973
R-HSA-176408,0.012658227848101266
R-HSA-6791312,0.17777777777777778
R-HSA-69306,0.032
R-HSA-68962,0.030303030303030304
R-HSA-187577,0.1
R-HSA-8849470,0.8333333333333334
R-HSA-69017,0.014285714285714285
R-HSA-69231,0.3404255319148936
R-HSA-69002,0.012048192771084338
R-HSA-69239,0.03389830508474576
R-HSA-8848021,0.39622641509433965
R-HSA-69580,0.13846153846153847
R-HSA-1538133,0.1111111111111111
R-HSA-69273,0.08
R-HSA-68911,0.0
R-HSA-68949,0.0
R-HSA-9006927,0.39622641509433965
R-HSA-6804116,0.36363636363636365
R-HSA-9616222,0.2625
R-HSA-69052,0.011235955056179775
R-HSA-69200,0.5
R-HSA-9659787,0.5294117647058824
R-HSA-9661069,0.5294117647058824
R-HSA-453276,0.023255813953488372
R-HSA-9687139,0.2571428571428571
R-HSA-5365859,0.0
R-HSA-5362517,0.0
R-HSA-2453902,0.0
R-HSA-6791226,0.01775147928994083
R-HSA-6790901,0.0
R-HSA-72312,0.015873015873015872
R-HSA-8868773,0.016666666666666666
R-HSA-445355,0.06666666666666667
R-HSA-72202,0.09523809523809523
R-HSA-159234,0.11904761904761904
R-HSA-159236,0.09333333333333334
R-HSA-72187,0.08771929824561403
R-HSA-73856,0.07575757575757576
R-HSA-159230,0.11428571428571428
R-HSA-159227,0.11764705882352941
R-HSA-159231,0.12195121951219512
R-HSA-9632693,1.0
R-HSA-3214858,0.20588235294117646
R-HSA-9630750,1.0
R-HSA-4839726,0.17647058823529413
R-HSA-9630794,1.0
R-HSA-9675132,1.0
R-HSA-3247509,0.17647058823529413
R-HSA-2559585,0.2727272727272727
R-HSA-75815,0.0392156862745098
R-HSA-9630747,1.0
R-HSA-9632697,1.0
R-HSA-9632700,1.0
R-HSA-9630791,1.0
R-HSA-3781860,0.0
R-HSA-4720475,0.0
R-HSA-8876725,0.0
R-HSA-8941858,0.09090909090909091
R-HSA-4086400,0.0449438202247191
R-HSA-4641258,0.017857142857142856
R-HSA-68867,0.0
R-HSA-5668541,0.04
R-HSA-69601,0.0196078431372549
R-HSA-8854050,0.0
R-HSA-376176,0.06930693069306931
R-HSA-5689603,0.0625
R-HSA-5610785,0.03389830508474576
R-HSA-1169091,0.10606060606060606
R-HSA-69613,0.0196078431372549
R-HSA-179419,0.014084507042253521
R-HSA-4641257,0.037037037037037035
R-HSA-69541,0.10714285714285714
R-HSA-5607761,0.01694915254237288
R-HSA-5610783,0.03389830508474576
R-HSA-180534,0.0
R-HSA-5607764,0.09090909090909091
R-HSA-1234174,0.08333333333333333
R-HSA-202403,0.11304347826086956
R-HSA-1236975,0.07216494845360824
R-HSA-9010553,0.032467532467532464
R-HSA-1236978,0.0
R-HSA-202424,0.09574468085106383
R-HSA-176814,0.013513513513513514
R-HSA-211733,0.0
R-HSA-9707587,0.046875
R-HSA-8939902,0.043478260869565216
R-HSA-5358346,0.016129032258064516
R-HSA-174154,0.0
R-HSA-5678895,0.0
R-HSA-5687128,0.11627906976744186
R-HSA-350562,0.0
R-HSA-174178,0.014084507042253521
R-HSA-450531,0.05813953488372093
R-HSA-1234176,0.046153846153846156
R-HSA-176409,0.0136986301369863
R-HSA-5632684,0.08860759493670886
R-HSA-450408,0.01818181818181818
R-HSA-174084,0.0
R-HSA-1236974,0.06741573033707865
R-HSA-8852276,0.0547945205479452
R-HSA-9020702,0.05102040816326531
R-HSA-3858494,0.055944055944055944
R-HSA-5610780,0.05084745762711865
R-HSA-4608870,0.0
R-HSA-5676590,0.017241379310344827
R-HSA-69610,0.0196078431372549
R-HSA-169911,0.0
R-HSA-8939236,0.14049586776859505
R-HSA-174184,0.014285714285714285
R-HSA-180585,0.0
R-HSA-9604323,0.037037037037037035
R-HSA-174113,0.0
R-HSA-5362768,0.0
R-HSA-5610787,0.06382978723404255
R-HSA-5387390,0.0
R-HSA-68827,0.0
R-HSA-5358351,0.07575757575757576
R-HSA-351202,0.0
R-HSA-349425,0.0392156862745098
R-HSA-8932339,0.05357142857142857
R-HSA-1442490,0.030303030303030304
R-HSA-2691230,0.1111111111111111
R-HSA-2660825,0.16666666666666666
R-HSA-177929,0.2826086956521739
R-HSA-9013700,0.0
R-HSA-2979096,0.05263157894736842
R-HSA-2691232,0.1111111111111111
R-HSA-9013507,0.045454545454545456
R-HSA-2122948,0.037037037037037035
R-HSA-3928665,0.13333333333333333
R-HSA-2660826,0.16666666666666666
R-HSA-180024,0.13043478260869565
R-HSA-111885,0.1
R-HSA-9006115,0.36
R-HSA-399956,0.0625
R-HSA-9031628,0.34615384615384615
R-HSA-198725,0.22916666666666666
R-HSA-9032845,0.16666666666666666
R-HSA-419812,0.0
R-HSA-9664433,0.09803921568627451
R-HSA-9660821,0.08695652173913043
R-HSA-418555,0.0547945205479452
R-HSA-9662851,0.09803921568627451
R-HSA-373080,0.03773584905660377
R-HSA-901032,0.0
R-HSA-901042,0.05555555555555555
R-HSA-532668,0.03333333333333333
R-HSA-8934593,1.0
R-HSA-4755510,0.09090909090909091
R-HSA-4085377,0.11764705882352941
R-HSA-6794362,0.057971014492753624
R-HSA-8849932,0.09523809523809523
R-HSA-9013106,0.14754098360655737
R-HSA-9013026,0.14
R-HSA-5689901,0.11538461538461539
R-HSA-499943,0.0
R-HSA-76042,0.06521739130434782
R-HSA-167158,0.0625
R-HSA-73776,0.06521739130434782
R-HSA-167160,0.07692307692307693
R-HSA-73762,0.06382978723404255
R-HSA-73779,0.06521739130434782
R-HSA-5250941,0.0594059405940594
R-HSA-6807505,0.013888888888888888
R-HSA-73854,0.06796116504854369
R-HSA-77075,0.07692307692307693
R-HSA-167161,0.06521739130434782
R-HSA-73772,0.05405405405405406
R-HSA-427413,0.061224489795918366
R-HSA-72086,0.07142857142857142
R-HSA-75953,0.06521739130434782
R-HSA-212165,0.10714285714285714
R-HSA-73864,0.0673076923076923
R-HSA-113418,0.0625
R-HSA-167162,0.06521739130434782
R-HSA-73863,0.0
R-HSA-9613354,0.0
R-HSA-163560,0.08333333333333333
R-HSA-8979227,0.06666666666666667
R-HSA-9706019,0.5
R-HSA-6811438,0.11538461538461539
R-HSA-8978934,0.375
R-HSA-2142789,0.0
R-HSA-390471,0.15384615384615385
R-HSA-391251,0.08139534883720931
R-HSA-390466,0.0875
R-HSA-2173793,0.2619047619047619
R-HSA-9006936,0.1956521739130435
R-HSA-170834,0.21739130434782608
R-HSA-2173796,0.2413793103448276
R-HSA-5419276,0.0
R-HSA-5368286,0.0
R-HSA-418457,0.0
R-HSA-392154,0.0
R-HSA-418346,0.08333333333333333
R-HSA-1296052,0.0
R-HSA-947581,0.0
R-HSA-8849175,0.0
R-HSA-72306,0.08888888888888889
R-HSA-6784531,0.12903225806451613
R-HSA-177135,0.0
R-HSA-156587,0.0
R-HSA-159424,0.0
R-HSA-177128,0.0
R-HSA-176034,0.0
R-HSA-9018519,0.1956521739130435
R-HSA-9013422,0.06666666666666667
R-HSA-9013418,0.18181818181818182
R-HSA-9706574,0.13333333333333333
R-HSA-182971,0.18518518518518517
R-HSA-190236,0.21052631578947367
R-HSA-5654726,0.28
R-HSA-5654736,0.3170731707317073
R-HSA-5654738,0.21311475409836064
R-HSA-5654733,0.3333333333333333
R-HSA-5654741,0.38235294117647056
R-HSA-1295596,0.375
R-HSA-5654727,0.2692307692307692
R-HSA-5654743,0.41935483870967744
R-HSA-5654732,0.30434782608695654
R-HSA-8856825,0.09183673469387756
R-HSA-6807004,0.25
R-HSA-8875360,0.2857142857142857
R-HSA-8876384,0.42105263157894735
R-HSA-9013420,0.06451612903225806
R-HSA-917729,0.0
R-HSA-9649948,0.25
R-HSA-6802949,0.25
R-HSA-6802946,0.25
R-HSA-6802948,0.2857142857142857
R-HSA-6802955,0.25
R-HSA-5674135,0.2564102564102564
R-HSA-9656223,0.2682926829268293
R-HSA-9702518,0.5714285714285714
R-HSA-69560,0.6666666666666666
R-HSA-8864260,0.3
R-HSA-8941855,0.7142857142857143
R-HSA-69895,0.6666666666666666
R-HSA-9703465,0.5294117647058824
R-HSA-9617828,0.7272727272727273
R-HSA-8866911,0.25
R-HSA-9703648,0.6428571428571429
R-HSA-6785807,0.2857142857142857
R-HSA-9682385,0.46153846153846156
R-HSA-5625900,0.25
R-HSA-1502540,0.38461538461538464
R-HSA-2473224,0.25
R-HSA-1221632,0.13043478260869565
R-HSA-9670095,0.1016949152542373
R-HSA-110328,0.06521739130434782
R-HSA-201722,0.2289156626506024
R-HSA-5619507,0.1782178217821782
R-HSA-110331,0.044444444444444446
R-HSA-211000,0.1
R-HSA-5625740,0.12941176470588237
R-HSA-73927,0.044444444444444446
R-HSA-5250924,0.08433734939759036
R-HSA-5334118,0.08771929824561403
R-HSA-5625886,0.10526315789473684
R-HSA-427359,0.06666666666666667
R-HSA-212300,0.12307692307692308
R-HSA-73929,0.06382978723404255
R-HSA-73928,0.06521739130434782
R-HSA-110330,0.044444444444444446
R-HSA-110329,0.06521739130434782
R-HSA-8936459,0.14814814814814814
R-HSA-5578749,0.08163265306122448
R-HSA-5617472,0.1782178217821782
R-HSA-9710421,0.125
R-HSA-5250913,0.08080808080808081
R-HSA-73728,0.07272727272727272
R-HSA-171306,0.046511627906976744
R-HSA-427389,0.07246376811594203
R-HSA-2408508,0.0
R-HSA-1614635,0.0
R-HSA-2408522,0.03488372093023256
R-HSA-1614603,0.0
R-HSA-2173788,0.16
R-HSA-2173789,0.1935483870967742
R-HSA-2470946,0.4
R-HSA-2468052,0.36363636363636365
R-HSA-9679191,0.11428571428571428
R-HSA-9679506,0.10714285714285714
R-HSA-201688,0.0
R-HSA-3214815,0.07058823529411765
R-HSA-418597,0.05405405405405406
R-HSA-9646303,1.0
R-HSA-3232118,0.25
R-HSA-111471,0.2777777777777778
R-HSA-9645722,0.5
R-HSA-8853884,0.17142857142857143
R-HSA-9646304,1.0
R-HSA-70895,0.0
R-HSA-9013409,0.11904761904761904
R-HSA-9013408,0.10204081632653061
R-HSA-9013406,0.0851063829787234
R-HSA-428540,0.07692307692307693
R-HSA-9013407,0.15789473684210525
R-HSA-75102,0.0
R-HSA-909733,0.09615384615384616
R-HSA-75072,0.5
R-HSA-75064,0.0
R-HSA-77042,0.0
R-HSA-76046,0.0
R-HSA-76071,0.0
R-HSA-74158,0.0
R-HSA-749476,0.0
R-HSA-917977,0.037037037037037035
R-HSA-9639288,0.020833333333333332
R-HSA-74752,0.208955223880597
R-HSA-917937,0.025
R-HSA-1222556,0.0
R-HSA-77387,0.0
R-HSA-9711097,0.043795620437956206
R-HSA-9033658,0.0
R-HSA-9037629,0.0
R-HSA-5689896,0.15789473684210525
R-HSA-3000171,0.06382978723404255
R-HSA-8875878,0.1
R-HSA-8874081,0.10526315789473684
R-HSA-3000157,0.041666666666666664
R-HSA-165159,0.14634146341463414
R-HSA-166208,0.041666666666666664
R-HSA-380972,0.13793103448275862
R-HSA-391160,0.2857142857142857
R-HSA-156590,0.0
R-HSA-5661270,0.0
R-HSA-2022854,0.0
R-HSA-1638074,0.0
R-HSA-5602358,0.12903225806451613
R-HSA-5603041,0.1111111111111111
R-HSA-5260271,0.12903225806451613
R-HSA-168179,0.13131313131313133
R-HSA-5686938,0.0
R-HSA-5602498,0.11764705882352941
R-HSA-168188,0.13541666666666666
R-HSA-181438,0.13131313131313133
R-HSA-166058,0.13541666666666666
R-HSA-1369062,0.0
R-HSA-379726,0.0
R-HSA-1614558,0.0
R-HSA-8949664,0.0
R-HSA-8949215,0.0
R-HSA-399721,0.08333333333333333
R-HSA-5682910,0.0
R-HSA-399719,0.08333333333333333
R-HSA-112315,0.07142857142857142
R-HSA-112314,0.08743169398907104
R-HSA-112308,0.0
R-HSA-8866906,0.0
R-HSA-1234158,0.625
R-HSA-8866907,0.18181818181818182
R-HSA-399955,0.14285714285714285
R-HSA-399954,0.25
R-HSA-9609736,0.05555555555555555
R-HSA-389977,0.0
R-HSA-9668328,0.0
R-HSA-389958,0.0
R-HSA-389960,0.0
R-HSA-442755,0.14942528735632185
R-HSA-1445148,0.09090909090909091
R-HSA-5620924,0.025
R-HSA-190840,0.0
R-HSA-2995410,0.041666666666666664
R-HSA-8955332,0.0
R-HSA-9619483,0.0
R-HSA-190872,0.0
R-HSA-437239,0.16666666666666666
R-HSA-5626467,0.17857142857142858
R-HSA-438064,0.16
R-HSA-156584,0.0
R-HSA-389957,0.0
R-HSA-8851680,0.0
R-HSA-1483213,0.0
R-HSA-1483191,0.0
R-HSA-5627123,0.22727272727272727
R-HSA-400685,0.28
R-HSA-5627117,0.15
R-HSA-416572,0.23809523809523808
R-HSA-3928663,0.24
R-HSA-450294,0.13114754098360656
R-HSA-975871,0.1375
R-HSA-448424,0.11594202898550725
R-HSA-168142,0.1375
R-HSA-450321,0.05
R-HSA-168176,0.1375
R-HSA-450302,0.0
R-HSA-168638,0.16666666666666666
R-HSA-168643,0.16981132075471697
R-HSA-445989,0.07692307692307693
R-HSA-9687136,0.05555555555555555
R-HSA-176407,0.0
R-HSA-174048,0.0
R-HSA-141405,0.05263157894736842
R-HSA-176412,0.0
R-HSA-179409,0.045454545454545456
R-HSA-141430,0.05263157894736842
R-HSA-6803205,0.4
R-HSA-5633008,0.24
R-HSA-5626978,0.0
R-HSA-5357905,0.15151515151515152
R-HSA-75893,0.11904761904761904
R-HSA-5357956,0.13333333333333333
R-HSA-1483226,0.0
R-HSA-4615885,0.1111111111111111
R-HSA-1912420,0.3333333333333333
R-HSA-6809371,0.0
R-HSA-163685,0.11842105263157894
R-HSA-381676,0.09375
R-HSA-422356,0.10714285714285714
R-HSA-1251985,0.2
R-HSA-9619665,0.25
R-HSA-2032785,0.07692307692307693
R-HSA-2028269,0.25
R-HSA-8951671,0.14285714285714285
R-HSA-1236394,0.23529411764705882
R-HSA-5173214,0.0
R-HSA-5083635,0.0
R-HSA-6804760,0.3157894736842105
R-HSA-1655829,0.11764705882352941
R-HSA-203615,0.2857142857142857
R-HSA-202131,0.2727272727272727
R-HSA-3214847,0.08333333333333333
R-HSA-77289,0.0
R-HSA-381771,0.0
R-HSA-400508,0.0
R-HSA-2871809,0.21212121212121213
R-HSA-114604,0.30303030303030304
R-HSA-2871796,0.34375
R-HSA-9014325,0.0
R-HSA-9645460,0.0
R-HSA-937042,0.0
R-HSA-8857538,0.5
R-HSA-110313,0.05128205128205128
R-HSA-110312,0.0
R-HSA-5655862,0.0
R-HSA-5656121,0.0
R-HSA-73893,0.041666666666666664
R-HSA-202733,0.125
R-HSA-8949613,0.0
R-HSA-1592230,0.11688311688311688
R-HSA-163210,0.0
R-HSA-8866652,0.0
R-HSA-8852135,0.04225352112676056
R-HSA-389599,0.0
R-HSA-9603798,0.0
R-HSA-425986,0.0
R-HSA-425407,0.013513513513513514
R-HSA-5619102,0.12903225806451613
R-HSA-425393,0.0
R-HSA-5619092,0.0
R-HSA-72695,0.02702702702702703
R-HSA-72689,0.04597701149425287
R-HSA-72706,0.05154639175257732
R-HSA-72649,0.05660377358490566
R-HSA-72613,0.057692307692307696
R-HSA-72737,0.057692307692307696
R-HSA-156827,0.061855670103092786
R-HSA-72662,0.05555555555555555
R-HSA-72702,0.03773584905660377
R-HSA-428890,0.25
R-HSA-8874211,0.2222222222222222
R-HSA-1474290,0.05172413793103448
R-HSA-1650814,0.08333333333333333
R-HSA-112310,0.0
R-HSA-212676,0.0
R-HSA-181429,0.0
R-HSA-210500,0.0
R-HSA-181430,0.0
R-HSA-264642,0.0
R-HSA-9707616,0.3235294117647059
R-HSA-1368082,0.3333333333333333
R-HSA-6804114,0.16666666666666666
R-HSA-2426168,0.2
R-HSA-2151201,0.20930232558139536
R-HSA-211976,0.375
R-HSA-193807,0.0
R-HSA-211945,0.3333333333333333
R-HSA-159418,0.0
R-HSA-211897,0.375
R-HSA-9696264,0.08333333333333333
R-HSA-416550,0.375
R-HSA-380994,0.0
R-HSA-9648895,0.14285714285714285
R-HSA-9633012,0.046511627906976744
R-HSA-381042,0.037037037037037035
R-HSA-1566948,0.08571428571428572
R-HSA-2129379,0.1
R-HSA-9610379,0.05825242718446602
R-HSA-2173782,0.11764705882352941
R-HSA-3000484,0.5
R-HSA-140877,0.0
R-HSA-140875,0.0
R-HSA-163765,0.0
R-HSA-727802,0.0
R-HSA-425397,0.0
R-HSA-5663020,0.0
R-HSA-5619037,0.0
R-HSA-196819,0.0
R-HSA-380108,0.08333333333333333
R-HSA-5687613,0.0
R-HSA-5683826,0.0
R-HSA-427652,0.0
R-HSA-5687583,1.0
R-HSA-5619045,1.0
R-HSA-427589,1.0
R-HSA-6814122,0.07894736842105263
R-HSA-390450,0.0
R-HSA-5620920,0.0
R-HSA-5620922,0.0
R-HSA-8964038,0.07142857142857142
R-HSA-166786,0.0
R-HSA-166662,0.0
R-HSA-5083629,0.0
R-HSA-5083633,0.0
R-HSA-3299685,0.0
R-HSA-196757,0.0
R-HSA-1181150,0.2631578947368421
R-HSA-8956319,0.5
R-HSA-74259,0.5
R-HSA-879518,0.0
R-HSA-189445,0.0
R-HSA-189483,0.0
R-HSA-5619110,0.0
R-HSA-429947,0.14285714285714285
R-HSA-429914,0.07692307692307693
R-HSA-8956320,0.25
R-HSA-73817,0.25
R-HSA-9678108,0.07692307692307693
R-HSA-9694635,0.05555555555555555
R-HSA-9683701,0.0
R-HSA-9694516,0.08823529411764706
R-HSA-9694548,0.07692307692307693
R-HSA-9694719,0.0
R-HSA-9683673,0.0
R-HSA-6794361,0.025
R-HSA-76066,0.0
R-HSA-76061,0.0
R-HSA-73980,0.0
R-HSA-1834949,0.11666666666666667
R-HSA-73780,0.0
R-HSA-3928664,0.1111111111111111
R-HSA-9617629,0.5
R-HSA-622312,0.16666666666666666
R-HSA-9664424,0.125
R-HSA-844456,0.15384615384615385
R-HSA-9660826,0.125
R-HSA-156711,0.06666666666666667
R-HSA-1433617,0.1
R-HSA-264876,0.14285714285714285
R-HSA-5620916,0.0
R-HSA-428359,1.0
R-HSA-1489509,0.15625
R-HSA-111933,0.15384615384615385
R-HSA-111932,0.09090909090909091
R-HSA-111996,0.17857142857142858
R-HSA-9619229,0.14285714285714285
R-HSA-442729,0.125
R-HSA-112040,0.15555555555555556
R-HSA-112043,0.175
R-HSA-111997,0.15384615384615385
R-HSA-6803204,0.3125
R-HSA-6806942,0.2
R-HSA-8852405,0.0
R-HSA-191273,0.0
R-HSA-8849468,0.4
R-HSA-8866654,0.057692307692307696
R-HSA-456926,0.125
R-HSA-392518,0.0967741935483871
R-HSA-428930,0.08333333333333333
R-HSA-5676594,0.058823529411764705
R-HSA-5669034,0.1111111111111111
R-HSA-3595172,0.0
R-HSA-3595174,0.0
R-HSA-2024101,0.0
R-HSA-3595177,0.0
R-HSA-2022870,0.0
R-HSA-451326,0.0
R-HSA-400042,0.0
R-HSA-420092,0.08
R-HSA-8964315,0.05555555555555555
R-HSA-418217,0.0
R-HSA-977444,0.029411764705882353
R-HSA-392851,0.05263157894736842
R-HSA-991365,0.029411764705882353
R-HSA-997272,0.034482758620689655
R-HSA-1296041,0.034482758620689655
R-HSA-500657,0.0
R-HSA-4086398,0.07272727272727272
R-HSA-8964616,0.0
R-HSA-418592,0.09090909090909091
R-HSA-1296059,0.034482758620689655
R-HSA-445717,0.05
R-HSA-432040,0.05
R-HSA-392170,0.0
R-HSA-977443,0.029411764705882353
R-HSA-202040,0.08333333333333333
R-HSA-6807047,0.0
R-HSA-6807062,0.0
R-HSA-9013424,0.14814814814814814
R-HSA-419771,0.0
R-HSA-1679131,0.0
R-HSA-5578768,0.14285714285714285
R-HSA-163615,0.375
R-HSA-170660,0.0
R-HSA-164378,0.2857142857142857
R-HSA-170670,0.0
R-HSA-111931,0.3076923076923077
R-HSA-163359,0.11764705882352941
R-HSA-442720,0.25
R-HSA-9664323,0.2
R-HSA-8964041,0.0
R-HSA-8964058,0.0
R-HSA-8963899,0.0
R-HSA-174414,0.2631578947368421
R-HSA-69183,0.13333333333333333
R-HSA-69109,0.07142857142857142
R-HSA-5696397,0.09090909090909091
R-HSA-69091,0.07142857142857142
R-HSA-5651801,0.14285714285714285
R-HSA-5358508,0.3333333333333333
R-HSA-5358606,0.2857142857142857
R-HSA-69190,0.0625
R-HSA-69166,0.14285714285714285
R-HSA-174437,0.23529411764705882
R-HSA-5358565,0.35714285714285715
R-HSA-110314,0.07407407407407407
R-HSA-69186,0.1
R-HSA-5656169,0.0625
R-HSA-1963640,0.4666666666666667
R-HSA-1963642,0.4666666666666667
R-HSA-6785631,0.42857142857142855
R-HSA-9665686,0.47619047619047616
R-HSA-2219530,0.38235294117647056
R-HSA-8847993,0.5
R-HSA-1227990,0.48
R-HSA-9664565,0.5
R-HSA-6811558,0.3157894736842105
R-HSA-1250342,0.4444444444444444
R-HSA-1250196,0.38095238095238093
R-HSA-1250347,0.38461538461538464
R-HSA-9020591,0.13636363636363635
R-HSA-8950505,0.09090909090909091
R-HSA-156588,0.0
R-HSA-426117,0.0
R-HSA-9696270,0.09090909090909091
R-HSA-2162123,0.0
R-HSA-8937144,0.2857142857142857
R-HSA-3371571,0.2727272727272727
R-HSA-2142753,0.0
R-HSA-3371568,0.35714285714285715
R-HSA-2855086,0.0
R-HSA-447041,0.1111111111111111
R-HSA-3301854,0.11428571428571428
R-HSA-176033,0.13333333333333333
R-HSA-168276,0.10810810810810811
R-HSA-3232142,0.21052631578947367
R-HSA-1169410,0.10810810810810811
R-HSA-177243,0.16666666666666666
R-HSA-180910,0.13333333333333333
R-HSA-168274,0.16129032258064516
R-HSA-165054,0.14705882352941177
R-HSA-168333,0.16129032258064516
R-HSA-180746,0.15151515151515152
R-HSA-168271,0.12903225806451613
R-HSA-5619107,0.13793103448275862
R-HSA-1169408,0.10144927536231885
R-HSA-2980766,0.11764705882352941
R-HSA-168325,0.13793103448275862
R-HSA-168255,0.07801418439716312
R-HSA-170822,0.13793103448275862
R-HSA-168273,0.044444444444444446
R-HSA-3214842,0.09302325581395349
R-HSA-429958,0.0
R-HSA-2029485,0.3125
R-HSA-5607763,0.08333333333333333
R-HSA-983695,0.3181818181818182
R-HSA-5218921,0.3684210526315789
R-HSA-9662834,0.16666666666666666
R-HSA-6804115,0.08333333333333333
R-HSA-2465910,0.1
R-HSA-2980767,0.0
R-HSA-6782315,0.0
R-HSA-5627083,0.3333333333333333
R-HSA-9664535,0.0
R-HSA-391906,0.5
R-HSA-391903,0.0
R-HSA-975576,0.0
R-HSA-975578,0.0
R-HSA-193993,0.0
R-HSA-193048,0.0
R-HSA-209952,0.0
R-HSA-209822,0.0
R-HSA-375281,0.1111111111111111
R-HSA-209776,0.0
R-HSA-196071,0.0
R-HSA-209968,0.0
R-HSA-8866910,0.3333333333333333
R-HSA-9664420,0.16666666666666666
R-HSA-9673324,0.16666666666666666
R-HSA-5668599,0.13636363636363635
R-HSA-888590,0.0
R-HSA-5654696,0.36363636363636365
R-HSA-9028731,0.36363636363636365
R-HSA-5654706,0.35714285714285715
R-HSA-5654693,0.3333333333333333
R-HSA-5654687,0.34782608695652173
R-HSA-5654700,0.29411764705882354
R-HSA-5654716,0.47058823529411764
R-HSA-9696273,0.1111111111111111
R-HSA-5654712,0.4166666666666667
R-HSA-5654708,0.42105263157894735
R-HSA-8853334,0.6
R-HSA-5655332,0.4375
R-HSA-5654710,0.3333333333333333
R-HSA-8853338,0.4375
R-HSA-8853659,0.1891891891891892
R-HSA-112399,0.34210526315789475
R-HSA-5654695,0.26666666666666666
R-HSA-169893,0.35714285714285715
R-HSA-170968,0.4166666666666667
R-HSA-2428924,0.32558139534883723
R-HSA-5655253,0.2
R-HSA-1226099,0.3269230769230769
R-HSA-5655291,0.6363636363636364
R-HSA-5654720,0.4
R-HSA-109704,0.29411764705882354
R-HSA-74751,0.3181818181818182
R-HSA-187687,0.29411764705882354
R-HSA-2404192,0.32558139534883723
R-HSA-5654689,0.3076923076923077
R-HSA-5655302,0.4827586206896552
R-HSA-2428928,0.3333333333333333
R-HSA-1660662,0.0
R-HSA-70921,0.0
R-HSA-193775,0.0
R-HSA-427601,0.0
R-HSA-174362,0.0
R-HSA-1566977,0.0
R-HSA-389397,0.0
R-HSA-8873719,0.0
R-HSA-2151209,0.0
R-HSA-9615017,0.4
R-HSA-5660668,0.5
R-HSA-1592389,0.0
R-HSA-2160916,0.0
R-HSA-75067,0.07407407407407407
R-HSA-77595,0.1111111111111111
R-HSA-168315,0.0
R-HSA-964827,0.0
R-HSA-964739,0.0
R-HSA-6814848,0.0
R-HSA-1483255,0.0847457627118644
R-HSA-3214841,0.2537313432835821
R-HSA-975957,0.04854368932038835
R-HSA-927802,0.04854368932038835
R-HSA-196108,0.0
R-HSA-1799339,0.033707865168539325
R-HSA-9609523,0.0
R-HSA-977347,0.0
R-HSA-75035,0.15384615384615385
R-HSA-73943,0.0
R-HSA-73942,0.0
R-HSA-112126,0.0
R-HSA-446353,0.05555555555555555
R-HSA-352230,0.0
R-HSA-5619108,0.0
R-HSA-804914,0.0
R-HSA-75876,0.0
R-HSA-75105,0.0
R-HSA-8854691,0.24
R-HSA-389661,0.0
R-HSA-5601884,0.07142857142857142
R-HSA-1810476,0.1875
R-HSA-9686347,0.25
R-HSA-168927,0.10526315789473684
R-HSA-9013957,0.16666666666666666
R-HSA-1606322,0.15
R-HSA-3295583,0.0
R-HSA-9615933,0.037037037037037035
R-HSA-5083627,0.0
R-HSA-1839117,0.6
R-HSA-1839124,0.45454545454545453
R-HSA-1253288,0.4
R-HSA-2022857,0.0
R-HSA-3656244,0.0
R-HSA-3656225,0.0
R-HSA-3656243,0.0
R-HSA-2534343,0.0
R-HSA-1187000,0.0
R-HSA-193670,0.0
R-HSA-5635838,0.13333333333333333
R-HSA-5619113,0.0
R-HSA-5660883,0.0
R-HSA-210991,0.0
R-HSA-5637810,0.6
R-HSA-9665249,0.5
R-HSA-9652282,0.5
R-HSA-5637815,0.5
R-HSA-9665348,0.5625
R-HSA-9665250,0.5
R-HSA-9665230,0.5
R-HSA-1236382,0.5
R-HSA-9665233,0.5
R-HSA-9634285,0.45454545454545453
R-HSA-9665246,0.5
R-HSA-9665247,0.5
R-HSA-5637812,0.6
R-HSA-9665251,0.5
R-HSA-9665245,0.5
R-HSA-9665737,0.5
R-HSA-1643713,0.4090909090909091
R-HSA-9665244,0.5
R-HSA-388844,0.21428571428571427
R-HSA-9007892,0.0
R-HSA-1482922,0.0
R-HSA-9635486,0.38461538461538464
R-HSA-9636383,0.0
R-HSA-9637690,0.3333333333333333
R-HSA-9637687,0.0
R-HSA-430039,0.06666666666666667
R-HSA-8853336,0.5
R-HSA-1483249,0.0
R-HSA-1855167,0.0
R-HSA-2393930,0.0
R-HSA-201451,0.23529411764705882
R-HSA-180689,0.6666666666666666
R-HSA-162592,0.25
R-HSA-164843,0.2857142857142857
R-HSA-177539,0.6666666666666666
R-HSA-162594,0.25
R-HSA-175567,0.6666666666666666
R-HSA-8963743,0.0
R-HSA-8935690,0.0
R-HSA-189085,0.0
R-HSA-189200,0.0
R-HSA-2408552,0.0
R-HSA-3772470,0.07692307692307693
R-HSA-5675221,0.23255813953488372
R-HSA-9652817,0.14285714285714285
R-HSA-112409,0.1875
R-HSA-72764,0.038461538461538464
R-HSA-156902,0.04
R-HSA-975956,0.04938271604938271
R-HSA-192823,0.04054054054054054
R-HSA-2408557,0.0410958904109589
R-HSA-156842,0.0375
R-HSA-1475029,0.0
R-HSA-391908,0.0
R-HSA-4793950,0.0
R-HSA-390650,0.0
R-HSA-375280,0.0
R-HSA-912694,0.3076923076923077
R-HSA-5250971,0.0
R-HSA-168799,0.0
R-HSA-3248023,0.0
R-HSA-3134975,0.0
R-HSA-1834941,0.07142857142857142
R-HSA-3270619,0.0
R-HSA-5579026,0.0
R-HSA-2395516,0.0
R-HSA-5579029,0.0
R-HSA-1362409,0.0
R-HSA-975577,0.0
R-HSA-2142691,0.0
R-HSA-211979,0.0
R-HSA-211935,0.0
R-HSA-5649702,0.0
R-HSA-390648,0.0
R-HSA-1855204,0.0
R-HSA-399997,0.2857142857142857
R-HSA-1300645,0.0
R-HSA-196741,0.0
R-HSA-181431,0.0
R-HSA-622323,0.0
R-HSA-622327,0.0
R-HSA-629597,0.0
R-HSA-629594,0.0
R-HSA-450604,0.058823529411764705
R-HSA-450385,0.058823529411764705
R-HSA-450513,0.0
R-HSA-426048,0.0
R-HSA-1482883,0.0
R-HSA-351143,0.0
R-HSA-629587,0.0
R-HSA-2142816,0.0
R-HSA-211958,0.0
R-HSA-5579011,0.0
R-HSA-425366,0.0
R-HSA-429593,0.0
R-HSA-975144,0.08333333333333333
R-HSA-5603027,0.3333333333333333
R-HSA-933542,0.14285714285714285
R-HSA-5603029,0.2857142857142857
R-HSA-937039,0.08333333333333333
R-HSA-5602636,0.3333333333333333
R-HSA-5684264,0.21428571428571427
R-HSA-933543,0.16666666666666666
R-HSA-8981607,0.0
R-HSA-9022699,0.2
R-HSA-8986944,0.2391304347826087
R-HSA-5666185,0.1111111111111111
R-HSA-8964572,0.0
R-HSA-1483148,0.0
R-HSA-71288,0.0
R-HSA-982772,0.25
R-HSA-1266695,0.29411764705882354
R-HSA-203641,0.2
R-HSA-187024,0.2
R-HSA-187015,0.16666666666666666
R-HSA-549132,0.0
R-HSA-5619071,0.0
R-HSA-561048,0.0
R-HSA-4755609,0.0
R-HSA-446199,0.0
R-HSA-177162,0.0
R-HSA-8963889,0.0
R-HSA-8963901,0.0
R-HSA-8849469,0.3333333333333333
R-HSA-373752,0.12
R-HSA-1300642,0.0
R-HSA-165158,0.25
R-HSA-5140745,0.08333333333333333
R-HSA-190873,0.25
R-HSA-164939,0.5
R-HSA-182218,0.0
R-HSA-167590,0.1111111111111111
R-HSA-416993,0.09090909090909091
R-HSA-196025,0.2727272727272727
R-HSA-5099900,0.13333333333333333
R-HSA-5223345,0.0
R-HSA-264870,0.16666666666666666
R-HSA-166665,0.0
R-HSA-196836,0.0
R-HSA-381753,0.0
R-HSA-163841,0.0
R-HSA-5358493,0.0
R-HSA-192456,0.0
R-HSA-168275,0.5
R-HSA-427975,0.0
R-HSA-209931,0.0
R-HSA-112122,0.0
R-HSA-8939242,0.0
R-HSA-6783783,0.1
R-HSA-173107,0.3333333333333333
R-HSA-2161522,0.0
R-HSA-71384,0.0
R-HSA-2161541,0.0
R-HSA-5679001,0.0
R-HSA-6803211,0.5
R-HSA-174403,0.0
R-HSA-5423646,0.0
R-HSA-71240,0.0
R-HSA-2485179,0.0
R-HSA-5689877,0.0
R-HSA-6799198,0.0
R-HSA-5579005,0.0
R-HSA-6788467,0.23529411764705882
R-HSA-6783589,0.2916666666666667
R-HSA-447043,0.14285714285714285
R-HSA-6782861,0.0
R-HSA-3000480,0.25
R-HSA-75892,0.0
R-HSA-216083,0.07352941176470588
R-HSA-8948216,0.05555555555555555
R-HSA-2022090,0.025
R-HSA-430116,0.4
R-HSA-3000170,0.11764705882352941
R-HSA-2243919,0.0
R-HSA-3000178,0.05084745762711865
R-HSA-2214320,0.0
R-HSA-5250958,0.0
R-HSA-186797,0.375
R-HSA-375165,0.17391304347826086
R-HSA-419037,0.038461538461538464
R-HSA-5620971,0.2857142857142857
R-HSA-9679504,0.0
R-HSA-9694676,0.0
R-HSA-446107,0.0
R-HSA-6793080,0.0
R-HSA-8868766,0.0
R-HSA-1296072,0.0
R-HSA-379401,0.0
R-HSA-379397,0.0
R-HSA-156581,0.0
R-HSA-379398,0.0
R-HSA-112311,0.0
R-HSA-425410,0.0
R-HSA-5652084,0.0
R-HSA-70350,0.0
R-HSA-1362300,0.0
R-HSA-69205,0.04
R-HSA-1362277,0.1111111111111111
R-HSA-433692,0.0
R-HSA-417973,0.0
R-HSA-111367,0.0
R-HSA-77588,0.0
R-HSA-189451,0.0
R-HSA-5619049,0.0
R-HSA-5619060,0.0
R-HSA-420029,0.0
R-HSA-200425,0.0
R-HSA-175474,0.0
R-HSA-174490,0.0
R-HSA-174495,0.0
R-HSA-8877330,0.75
R-HSA-71406,0.12121212121212122
R-HSA-880009,0.0
R-HSA-418886,0.375
R-HSA-5663084,0.0
R-HSA-2206291,0.0
R-HSA-2206281,0.0
R-HSA-881907,0.375
R-HSA-9022707,0.6666666666666666
R-HSA-450282,0.16129032258064516
R-HSA-199920,0.2857142857142857
R-HSA-442742,0.17857142857142858
R-HSA-9022702,0.25
R-HSA-9022692,0.15625
R-HSA-450341,0.2
R-HSA-918233,0.15384615384615385
R-HSA-5621575,0.3888888888888889
R-HSA-8939246,0.75
R-HSA-3134973,0.6
R-HSA-4839743,0.3333333333333333
R-HSA-4839744,0.2857142857142857
R-HSA-5358752,0.3333333333333333
R-HSA-5358749,0.3333333333333333
R-HSA-5467340,0.2857142857142857
R-HSA-5339716,0.3333333333333333
R-HSA-4839748,0.2857142857142857
R-HSA-4791275,0.23333333333333334
R-HSA-5358747,0.3333333333333333
R-HSA-4839735,0.2857142857142857
R-HSA-5467348,0.2857142857142857
R-HSA-5467337,0.2857142857142857
R-HSA-5358751,0.3333333333333333
R-HSA-8934903,0.09090909090909091
R-HSA-422085,0.0
R-HSA-400511,0.0
R-HSA-8849471,0.42857142857142855
R-HSA-170984,0.2857142857142857
R-HSA-8875656,0.125
R-HSA-372708,0.06666666666666667
R-HSA-912631,0.2857142857142857
R-HSA-8875555,0.18181818181818182
R-HSA-186763,0.5172413793103449
R-HSA-512988,0.3191489361702128
R-HSA-9006335,0.4
R-HSA-9027284,0.35714285714285715
R-HSA-173623,0.0
R-HSA-139910,0.0
R-HSA-2173795,0.3181818181818182
R-HSA-192814,0.0
R-HSA-5619097,0.0
R-HSA-9694631,0.0
R-HSA-9683610,0.0
R-HSA-71403,0.36363636363636365
R-HSA-432142,0.25
R-HSA-171007,0.4
R-HSA-376172,0.2222222222222222
R-HSA-167044,0.3333333333333333
R-HSA-198753,0.09090909090909091
R-HSA-449836,0.2857142857142857
R-HSA-451927,0.29545454545454547
R-HSA-912526,0.2962962962962963
R-HSA-5688890,0.0
R-HSA-5688849,0.0
R-HSA-9674555,0.3
R-HSA-9705462,0.30434782608695654
R-HSA-1170546,0.2
R-HSA-203927,0.13636363636363635
R-HSA-180292,0.3333333333333333
R-HSA-202427,0.1
R-HSA-389948,0.23809523809523808
R-HSA-2474795,0.0
R-HSA-2453864,0.0
R-HSA-9675143,0.0
R-HSA-445144,0.3333333333333333
R-HSA-390696,0.0
R-HSA-5660489,0.0
R-HSA-5660526,0.0
R-HSA-1614517,0.0
R-HSA-428643,0.0
R-HSA-1660499,0.1724137931034483
R-HSA-5362798,0.16666666666666666
R-HSA-5625970,0.36363636363636365
R-HSA-1606341,0.0
R-HSA-5602571,0.0
R-HSA-5602566,0.0
R-HSA-3769402,0.3
R-HSA-4641265,0.16666666666666666
R-HSA-5339700,0.3333333333333333
R-HSA-166187,0.0
R-HSA-9673163,0.0
R-HSA-435368,0.0
R-HSA-435354,0.0
R-HSA-9020933,0.2222222222222222
R-HSA-8876493,0.5714285714285714
R-HSA-4411364,0.5714285714285714
R-HSA-8951430,0.5714285714285714
R-HSA-392023,0.0
R-HSA-9635465,0.6666666666666666
R-HSA-448706,0.0
R-HSA-9678110,0.3333333333333333
R-HSA-9694614,0.25
R-HSA-1236977,0.25
R-HSA-73614,0.0
R-HSA-73621,0.0
R-HSA-5654228,0.4
R-HSA-190322,0.0
R-HSA-1307965,0.3333333333333333
R-HSA-5654719,0.4
R-HSA-1236973,0.0
R-HSA-1663150,0.0
R-HSA-936440,0.058823529411764705
R-HSA-5357786,0.23076923076923078
R-HSA-2142670,0.0
R-HSA-9018678,0.0
R-HSA-9018677,0.0
R-HSA-9018681,0.0
R-HSA-211981,0.25
R-HSA-9018682,0.0
R-HSA-211957,0.0
R-HSA-9027307,0.0
R-HSA-5579000,0.0
R-HSA-211999,0.0
R-HSA-6806664,0.0
R-HSA-211994,0.0
R-HSA-194002,0.0
R-HSA-5579017,0.0
R-HSA-5579028,0.0
R-HSA-193144,0.0
R-HSA-5579030,0.0
R-HSA-2187335,0.0
R-HSA-9640463,0.0
R-HSA-8848584,0.0
R-HSA-5579021,0.0
R-HSA-5579010,0.0
R-HSA-211916,0.0
R-HSA-196791,0.0
R-HSA-5578996,0.0
R-HSA-8866376,0.0
R-HSA-70268,0.0
R-HSA-5083628,0.0
R-HSA-418889,0.375
R-HSA-9670615,1.0
R-HSA-9670613,1.0
R-HSA-9673013,1.0
R-HSA-9006821,1.0
R-HSA-9670621,1.0
R-HSA-5658623,0.0
R-HSA-6802953,0.8
R-HSA-209905,0.0
R-HSA-418890,0.0
R-HSA-428542,0.3
R-HSA-418885,0.21428571428571427
R-HSA-77288,0.0
R-HSA-5662702,0.0
R-HSA-75094,0.5
R-HSA-72200,0.5
R-HSA-381033,0.09090909090909091
R-HSA-381183,0.1111111111111111
R-HSA-879415,0.1111111111111111
R-HSA-9694686,0.5
R-HSA-9679514,0.5
R-HSA-9682706,0.5
R-HSA-9694682,0.5
R-HSA-3134963,0.2857142857142857
R-HSA-1462054,0.0
R-HSA-71032,0.0
R-HSA-3359478,0.0
R-HSA-3296469,0.0
R-HSA-3296482,0.0
R-HSA-3359475,0.0
R-HSA-390522,0.10526315789473684
R-HSA-173736,0.0
R-HSA-140342,0.14285714285714285
R-HSA-111457,0.5
R-HSA-1474151,0.2857142857142857
R-HSA-500753,0.0
R-HSA-204626,0.0
R-HSA-350864,0.0
R-HSA-204174,0.0
R-HSA-6783984,0.0
R-HSA-451308,0.0
R-HSA-9620244,0.17391304347826086
R-HSA-451306,0.0
R-HSA-9617324,0.047619047619047616
R-HSA-442982,0.15
R-HSA-438066,0.047619047619047616
R-HSA-447038,0.14285714285714285
R-HSA-9690406,0.16666666666666666
R-HSA-8982491,0.0
R-HSA-70221,0.0
R-HSA-164944,0.25
R-HSA-9032759,0.2
R-HSA-9032500,0.2857142857142857
R-HSA-4549356,0.0
R-HSA-916853,0.0
R-HSA-390651,0.0
R-HSA-3560792,0.0
R-HSA-2179392,0.4444444444444444
R-HSA-179812,0.36363636363636365
R-HSA-5336415,0.4
R-HSA-5638302,0.16666666666666666
R-HSA-5638303,0.16666666666666666
R-HSA-212718,0.2857142857142857
R-HSA-180336,0.3333333333333333
R-HSA-202670,0.15384615384615385
R-HSA-5368598,0.0
R-HSA-113510,0.09090909090909091
R-HSA-68689,0.0
R-HSA-113501,0.15384615384615385
R-HSA-139915,0.25
R-HSA-111448,0.25
R-HSA-77350,0.0
R-HSA-77352,0.0
R-HSA-77348,0.0
R-HSA-77286,0.0
R-HSA-77310,0.0
R-HSA-77346,0.0
R-HSA-8963896,0.14285714285714285
R-HSA-8963898,0.0625
R-HSA-5682113,0.0
R-HSA-419408,0.0
R-HSA-5578997,0.0
R-HSA-5624138,0.0
R-HSA-426486,0.1111111111111111
R-HSA-8948700,0.0
R-HSA-426496,0.0
R-HSA-8943723,0.0
R-HSA-1251932,0.75
R-HSA-72731,0.0
R-HSA-351200,0.0
R-HSA-140179,0.0
R-HSA-141334,0.0
R-HSA-6787639,0.0
R-HSA-450520,0.42857142857142855
R-HSA-8939245,0.6
R-HSA-8939247,0.6666666666666666
R-HSA-5633231,0.0
R-HSA-140837,0.0
R-HSA-5221030,0.0
R-HSA-1660514,0.0
R-HSA-1660517,0.0
R-HSA-1660516,0.0
R-HSA-8931987,1.0
R-HSA-5624958,0.0
R-HSA-4419969,0.13333333333333333
R-HSA-2995383,0.1111111111111111
R-HSA-8983711,0.3333333333333333
R-HSA-9636667,0.0
R-HSA-83936,0.0
R-HSA-8951936,0.5714285714285714
R-HSA-6811555,0.25
R-HSA-452723,0.5
R-HSA-8849473,0.6
R-HSA-9664873,0.25
R-HSA-2892247,0.4444444444444444
R-HSA-3065679,0.0
R-HSA-9027277,0.2857142857142857
R-HSA-9027283,0.2857142857142857
R-HSA-9027276,0.3333333333333333
R-HSA-428559,0.0
R-HSA-1306955,0.6
R-HSA-165181,1.0
R-HSA-165160,0.5
R-HSA-109703,0.5
R-HSA-8939256,0.75
R-HSA-5683678,0.0
R-HSA-5688399,0.0
R-HSA-9671555,0.75
R-HSA-9673768,1.0
R-HSA-2168880,0.0
R-HSA-159740,0.0
R-HSA-9651496,0.0
R-HSA-9672391,0.0
R-HSA-9657688,0.0
R-HSA-9662001,0.0
R-HSA-159782,0.0
R-HSA-159763,0.0
R-HSA-159854,0.0
R-HSA-9671793,0.0
R-HSA-5684045,0.0
R-HSA-2046105,0.0
R-HSA-140834,0.0
R-HSA-9672395,0.0
R-HSA-9672393,0.0
R-HSA-9672387,0.0
R-HSA-9672383,0.0
R-HSA-9672397,0.0
R-HSA-9668250,0.0
R-HSA-9674519,0.0
R-HSA-9673202,0.0
R-HSA-9672396,0.0
R-HSA-9673218,0.0
R-HSA-9673221,0.0
R-HSA-9673240,0.0
R-HSA-9657689,0.0
R-HSA-380615,1.0
R-HSA-380612,1.0
R-HSA-400451,0.2857142857142857
R-HSA-434313,0.5
R-HSA-8963691,0.0
R-HSA-8963684,0.0
R-HSA-9020558,0.5
R-HSA-199220,0.0
R-HSA-9033500,0.0
R-HSA-2730905,0.26666666666666666
R-HSA-2029481,0.16666666666666666
R-HSA-73843,0.0
R-HSA-71336,0.0
R-HSA-373756,0.0
R-HSA-2466712,0.0
R-HSA-71262,0.0
R-HSA-354194,0.06666666666666667
R-HSA-5654699,0.26666666666666666
R-HSA-190241,0.1
R-HSA-5654688,0.3076923076923077
R-HSA-1839130,0.2
R-HSA-5654704,0.3333333333333333
R-HSA-1839126,0.041666666666666664
R-HSA-5654219,0.25
R-HSA-2033519,0.125
R-HSA-190371,0.25
R-HSA-2033514,0.2
R-HSA-1839122,0.16666666666666666
R-HSA-8851708,0.0
R-HSA-190370,0.5
R-HSA-190239,0.2
R-HSA-190242,0.125
R-HSA-190373,0.14285714285714285
R-HSA-5654227,0.2857142857142857
R-HSA-190372,0.2
R-HSA-190375,0.16666666666666666
R-HSA-190377,0.14285714285714285
R-HSA-5654221,0.2
R-HSA-210747,0.0
R-HSA-5576892,0.0
R-HSA-190374,0.3333333333333333
R-HSA-1839120,1.0
R-HSA-2033515,1.0
R-HSA-8853333,1.0
R-HSA-2023837,1.0
R-HSA-1839128,1.0
R-HSA-195399,0.25
R-HSA-194313,0.25
R-HSA-3656535,0.25
R-HSA-2025928,0.125
R-HSA-3656534,0.42857142857142855
R-HSA-3304351,0.5
R-HSA-2173791,0.18181818181818182
R-HSA-9660537,0.375
R-HSA-5673000,0.3235294117647059
R-HSA-8854521,0.0
R-HSA-4755583,0.0
R-HSA-844455,0.3333333333333333
R-HSA-5657560,0.0
R-HSA-111461,0.23076923076923078
R-HSA-111458,0.18181818181818182
R-HSA-9627069,0.18181818181818182
R-HSA-9013425,0.2
R-HSA-9715370,0.16666666666666666
R-HSA-9013419,0.3333333333333333
R-HSA-1483248,0.0
R-HSA-6803529,0.0
R-HSA-167242,0.0
R-HSA-5676934,0.0
R-HSA-5659996,0.0
R-HSA-6791461,0.0
R-HSA-6791465,0.0
R-HSA-5339717,0.0
R-HSA-2142700,0.0
R-HSA-418360,0.0
R-HSA-139853,0.0
R-HSA-5250968,0.0
R-HSA-5250981,0.0
R-HSA-5250955,0.0
R-HSA-5652227,0.0
R-HSA-445095,0.05
R-HSA-3000497,0.0
R-HSA-173599,0.0
R-HSA-5579020,0.0
R-HSA-75109,0.0
R-HSA-9683686,0.0
R-HSA-194306,0.25
R-HSA-9702581,1.0
R-HSA-9702590,1.0
R-HSA-9706377,0.5
R-HSA-9702998,1.0
R-HSA-9702509,1.0
R-HSA-9706374,0.5
R-HSA-9645135,0.42857142857142855
R-HSA-9702605,1.0
R-HSA-9702620,1.0
R-HSA-9702636,1.0
R-HSA-9702596,1.0
R-HSA-9702600,1.0
R-HSA-9702632,1.0
R-HSA-9702506,1.0
R-HSA-9702577,1.0
R-HSA-9702614,1.0
R-HSA-9703009,1.0
R-HSA-9702624,1.0
R-HSA-9702569,1.0
R-HSA-434316,0.2857142857142857
R-HSA-217271,0.0
R-HSA-5579019,0.0
R-HSA-8853383,0.0
R-HSA-428543,0.25
R-HSA-425381,0.0
R-HSA-205043,0.0
R-HSA-193692,0.0
R-HSA-9017802,0.0
R-HSA-9708296,1.0
R-HSA-5619083,0.0
R-HSA-6798163,0.0
R-HSA-1912399,0.3333333333333333
R-HSA-442380,0.0
R-HSA-2559584,0.4
R-HSA-162710,0.0
R-HSA-444473,0.0
R-HSA-110357,0.2222222222222222
R-HSA-68616,0.0
R-HSA-113507,0.0
R-HSA-373753,0.13043478260869565
R-HSA-68952,0.125
R-HSA-420597,0.0
R-HSA-1483196,0.0
R-HSA-2142696,0.0
R-HSA-9025094,0.0
R-HSA-9025106,0.0
R-HSA-9018683,0.0
R-HSA-9026290,0.0
R-HSA-2142712,0.0
R-HSA-9018676,0.0
R-HSA-2142688,0.0
R-HSA-9020265,0.0
R-HSA-9018679,0.0
R-HSA-9018896,0.0
R-HSA-9026286,0.0
R-HSA-9026403,0.0
R-HSA-9023661,0.0
R-HSA-9027604,0.0
R-HSA-2142770,0.0
R-HSA-5619076,0.0
R-HSA-9033807,0.0
R-HSA-202433,0.12903225806451613
R-HSA-389359,0.3333333333333333
R-HSA-9670439,0.55
R-HSA-9669938,0.55
R-HSA-210990,0.5
R-HSA-1855191,0.0
R-HSA-1482798,0.0
R-HSA-3229121,0.0
R-HSA-3274531,0.0
R-HSA-3229133,0.0
R-HSA-5357609,0.0
R-HSA-8851907,0.5
R-HSA-8865999,0.4
R-HSA-9028335,0.2857142857142857
R-HSA-420499,0.0
R-HSA-480985,0.0
R-HSA-9022927,0.0
R-HSA-888568,0.0
R-HSA-5609977,0.0
R-HSA-70370,0.0
R-HSA-6787450,0.0
R-HSA-5609976,0.0
R-HSA-2206290,0.0
R-HSA-110320,0.0
R-HSA-5609978,0.0
R-HSA-9034015,0.5333333333333333
R-HSA-9603505,0.5
R-HSA-8964208,0.0
R-HSA-9005895,0.3333333333333333
R-HSA-9697154,0.3333333333333333
R-HSA-9022538,0.0
R-HSA-9675151,0.3333333333333333
R-HSA-9005891,0.3333333333333333
R-HSA-2586552,0.36363636363636365
R-HSA-3359473,0.0
R-HSA-3359474,0.0
R-HSA-75896,0.0
R-HSA-162658,0.07142857142857142
R-HSA-8964026,0.0
R-HSA-5682294,0.0
R-HSA-5632681,0.16666666666666666
R-HSA-202430,0.058823529411764705
R-HSA-433137,0.0
R-HSA-176417,0.0
R-HSA-68881,0.0
R-HSA-3878781,0.0
R-HSA-3322077,0.0
R-HSA-5619073,0.0
R-HSA-5619035,0.0
R-HSA-9014826,0.0
R-HSA-4085023,0.0
R-HSA-446210,0.0
R-HSA-9035968,0.0
R-HSA-5579022,0.0
R-HSA-4793953,0.0
R-HSA-5653890,0.0
R-HSA-5578998,0.0
R-HSA-3359457,0.0
R-HSA-3359462,0.0
R-HSA-3359463,0.0
R-HSA-191650,0.3333333333333333
R-HSA-190827,0.0
R-HSA-190704,0.0
R-HSA-205025,0.3333333333333333
R-HSA-71737,0.0
R-HSA-1855183,0.0
R-HSA-8964539,0.0
R-HSA-4341670,0.0
R-HSA-2206308,0.0
R-HSA-5578999,0.0
R-HSA-444257,0.14285714285714285
R-HSA-5635851,0.0
R-HSA-8941284,0.25
R-HSA-210455,0.0
R-HSA-112313,0.0
R-HSA-2206305,0.0
R-HSA-1237112,0.0
R-HSA-5619058,0.0
R-HSA-432047,0.0
R-HSA-5619036,0.0
R-HSA-425561,0.0
R-HSA-210993,0.3888888888888889
R-HSA-8866904,0.0
R-HSA-3000471,0.0
R-HSA-4641263,0.29411764705882354
R-HSA-5619052,0.0
R-HSA-444209,0.0
R-HSA-9022537,0.42857142857142855
R-HSA-8964540,0.0
R-HSA-9673767,0.6666666666666666
R-HSA-9034864,0.5
R-HSA-2428933,0.3333333333333333
R-HSA-9673770,0.6666666666666666
R-HSA-9026519,0.3333333333333333
R-HSA-112412,0.42857142857142855
R-HSA-74749,0.1
R-HSA-8983432,0.2857142857142857
R-HSA-74713,0.0
R-HSA-399710,0.0
R-HSA-451307,0.0
R-HSA-180897,0.0
R-HSA-844615,0.0
R-HSA-3249367,0.3333333333333333
R-HSA-168277,0.0
R-HSA-2408550,0.0
R-HSA-5579006,0.0
R-HSA-9026395,0.0
R-HSA-9026762,0.0
R-HSA-9675135,0.875
R-HSA-5423599,0.8
R-HSA-5632968,1.0
R-HSA-5632928,0.6666666666666666
R-HSA-446388,0.0
R-HSA-8942233,0.0
R-HSA-8963678,0.0
R-HSA-8963676,0.0
R-HSA-2206292,0.0
R-HSA-3828062,0.0
R-HSA-3814836,0.0
R-HSA-3785653,0.0
R-HSA-446205,0.0
R-HSA-4724289,0.0
R-HSA-3858516,0.0
R-HSA-75108,0.25
R-HSA-5655799,0.0
R-HSA-75205,0.0
R-HSA-6785470,0.0
R-HSA-77305,0.0
R-HSA-77285,0.0
R-HSA-1480926,0.0
R-HSA-1237044,0.0
R-HSA-1247673,0.0
R-HSA-8964011,0.0
R-HSA-3656234,0.0
R-HSA-3656248,0.0
R-HSA-5576894,0.0
R-HSA-8875513,0.2
R-HSA-8875791,0.6666666666666666
R-HSA-5619056,0.0
R-HSA-3323169,0.0
R-HSA-196780,0.0
R-HSA-3371599,0.0
R-HSA-77111,0.0
R-HSA-74182,0.0
R-HSA-964975,0.0
R-HSA-111464,0.2857142857142857
R-HSA-111469,0.25
R-HSA-111459,0.3333333333333333
R-HSA-111463,0.2857142857142857
R-HSA-6803207,0.42857142857142855
R-HSA-5467333,1.0
R-HSA-9634635,0.6666666666666666
R-HSA-9649913,1.0
R-HSA-3359471,0.0
R-HSA-73930,0.0
R-HSA-110381,0.0
R-HSA-168330,0.0
R-HSA-8948747,0.25
R-HSA-192905,1.0
R-HSA-8869496,0.3333333333333333
R-HSA-8963888,0.0
R-HSA-390666,0.0
R-HSA-2206280,0.0
R-HSA-8964046,0.0
R-HSA-8866423,0.0
R-HSA-6799990,0.0
R-HSA-1299344,0.0
R-HSA-5579004,0.0
R-HSA-2978092,1.0
R-HSA-389542,1.0
R-HSA-2206296,0.0
R-HSA-2206302,0.0
R-HSA-877312,0.35714285714285715
R-HSA-5658034,0.0
R-HSA-5218900,0.18181818181818182
R-HSA-69416,0.18181818181818182
R-HSA-3371378,0.18181818181818182
R-HSA-75157,0.4
R-HSA-209543,0.2
R-HSA-209560,0.1
R-HSA-193639,0.15384615384615385
R-HSA-9014843,0.0
R-HSA-8985947,0.4444444444444444
R-HSA-9020958,0.5
R-HSA-1059683,0.5454545454545454
R-HSA-112411,0.5714285714285714
R-HSA-110056,0.5714285714285714
R-HSA-446343,0.0
R-HSA-432030,0.0
R-HSA-210746,0.0
R-HSA-975110,0.1
R-HSA-198203,0.5555555555555556
R-HSA-9603381,0.6666666666666666
R-HSA-8949275,0.0
R-HSA-5690338,0.0
R-HSA-1296067,0.0
R-HSA-1296053,0.0
R-HSA-5683177,0.0
R-HSA-1299503,0.0
R-HSA-1299316,0.0
R-HSA-9667769,0.0
R-HSA-8850843,0.0
R-HSA-5657562,0.0
R-HSA-77108,0.0
R-HSA-9680187,1.0
R-HSA-9669935,1.0
R-HSA-9669929,1.0
R-HSA-9669914,1.0
R-HSA-9669917,1.0
R-HSA-9669921,1.0
R-HSA-9669936,1.0
R-HSA-9669926,1.0
R-HSA-9669924,1.0
R-HSA-9669934,1.0
R-HSA-9669933,1.0
R-HSA-9669937,1.0
R-HSA-9636249,0.0
R-HSA-193697,0.1
R-HSA-8985586,0.25
R-HSA-209563,0.25
R-HSA-193634,0.1111111111111111
R-HSA-166020,0.0
R-HSA-5659898,0.0
R-HSA-5083630,0.5
R-HSA-8941333,0.6666666666666666
R-HSA-352238,0.3333333333333333
R-HSA-8941413,0.0
R-HSA-5340588,0.14285714285714285
R-HSA-9026766,0.0
R-HSA-1222449,0.0
R-HSA-1222499,0.0
R-HSA-5690714,0.6
R-HSA-3304356,0.5
R-HSA-3315487,1.0
R-HSA-3304349,0.5714285714285714
R-HSA-3311021,1.0
R-HSA-3656532,0.5
R-HSA-3304347,1.0
R-HSA-2206285,0.0
R-HSA-141333,0.0
R-HSA-5579012,0.0
R-HSA-5579024,0.0
R-HSA-5579031,0.0
R-HSA-176974,0.0
R-HSA-9022535,0.25
R-HSA-9022534,0.0
R-HSA-4793952,0.0
R-HSA-975574,0.0
R-HSA-5657655,1.0
R-HSA-5545483,1.0
R-HSA-5632987,1.0
R-HSA-4043916,0.0
R-HSA-9637628,0.0
R-HSA-4551295,0.0
R-HSA-5632927,0.5
R-HSA-5661231,0.0
R-HSA-3359469,0.0
R-HSA-3359467,0.0
R-HSA-9608287,1.0
R-HSA-9608290,1.0
R-HSA-9605308,0.0
R-HSA-9605310,1.0
R-HSA-5603037,0.25
R-HSA-5602680,0.5
R-HSA-2206282,0.0
R-HSA-6803544,0.0
R-HSA-167021,0.6666666666666666
R-HSA-167060,0.0
R-HSA-193681,0.0
R-HSA-205017,0.0
R-HSA-187042,0.5
R-HSA-198745,0.6666666666666666
R-HSA-187706,0.4
R-HSA-9036866,0.0
R-HSA-203754,0.0
R-HSA-2644605,0.4
R-HSA-2644607,0.4
R-HSA-418359,0.3333333333333333
R-HSA-5619048,0.0
R-HSA-9025046,0.0
R-HSA-9034013,0.5
R-HSA-9034793,0.6666666666666666
R-HSA-9026357,0.0
R-HSA-9026527,0.25
R-HSA-9616333,1.0
R-HSA-9630222,1.0
R-HSA-9630221,1.0
R-HSA-9024909,0.0
R-HSA-9656255,0.0
R-HSA-9657050,0.0
R-HSA-9656249,0.0
R-HSA-9656256,0.0
R-HSA-5619066,0.0
R-HSA-549127,0.0
R-HSA-388479,0.0
R-HSA-171286,0.0
R-HSA-2160456,0.0
R-HSA-211728,0.0
R-HSA-211736,0.5
R-HSA-3238698,0.0
R-HSA-163680,0.125
R-HSA-163358,0.2
R-HSA-163767,0.14285714285714285
R-HSA-5662853,0.0
R-HSA-3359485,0.0
R-HSA-111957,0.0
R-HSA-444411,0.0
R-HSA-9674415,1.0
R-HSA-9674404,1.0
R-HSA-9674396,1.0
R-HSA-9674428,1.0
R-HSA-9674403,1.0
R-HSA-9674401,1.0
R-HSA-9636467,0.0
R-HSA-196843,0.0
R-HSA-9634600,0.16666666666666666
R-HSA-5609974,0.0
R-HSA-2161517,0.0
R-HSA-5678771,0.0
R-HSA-8847453,0.0
R-HSA-111995,0.5
R-HSA-196783,0.0
R-HSA-4043911,0.0
R-HSA-4719377,0.0
R-HSA-4719360,0.0
R-HSA-162699,0.0
R-HSA-4717374,0.0
R-HSA-163282,0.0
R-HSA-75944,0.0
R-HSA-2892245,0.6666666666666666
R-HSA-5579016,0.0
R-HSA-5579002,0.0
R-HSA-1483076,0.0
R-HSA-5619101,0.0
R-HSA-442660,0.0
R-HSA-5660686,0.0
R-HSA-162585,0.0
R-HSA-162589,0.0
R-HSA-164516,0.0
R-HSA-164525,0.0
R-HSA-5619099,0.0
R-HSA-9036092,0.0
R-HSA-9636003,0.0
R-HSA-9629232,0.0
R-HSA-5619063,0.0
R-HSA-9010642,0.2222222222222222
R-HSA-5619078,0.0
R-HSA-8849474,0.5
R-HSA-5619088,0.0
R-HSA-114516,0.2
R-HSA-3359458,0.0
R-HSA-9652169,0.75
R-HSA-5674499,0.8333333333333334
R-HSA-198765,0.0
R-HSA-4549380,0.0
R-HSA-169131,0.0
R-HSA-70688,0.0
R-HSA-1483152,0.0
R-HSA-5579015,0.0
R-HSA-1299287,0.0
R-HSA-9708530,0.0
R-HSA-5674404,1.0
R-HSA-140180,0.0
R-HSA-8849472,0.3333333333333333
R-HSA-9673766,1.0
R-HSA-111452,0.0
R-HSA-9663199,1.0
R-HSA-9675136,1.0
R-HSA-9699150,1.0
R-HSA-114294,0.5
R-HSA-5683329,0.0
R-HSA-844623,0.0
R-HSA-9661070,1.0
R-HSA-6809583,0.0
R-HSA-5619042,0.0
R-HSA-9037628,0.0
R-HSA-5619114,0.0
R-HSA-5658471,0.0
R-HSA-8985801,0.25
R-HSA-9694493,0.0
R-HSA-9683683,0.0
R-HSA-8981373,0.0
R-HSA-6804754,1.0
R-HSA-5679090,0.0
R-HSA-5679096,0.0
R-HSA-5688031,0.0
R-HSA-5688354,0.0
R-HSA-2206307,0.0
R-HSA-5340573,0.0
R-HSA-5619067,0.0
R-HSA-5619062,0.0
R-HSA-5619043,0.0
R-HSA-5619098,0.0
R-HSA-5660862,0.0
R-HSA-5619050,0.0
R-HSA-5656364,0.0
R-HSA-5658208,0.0
R-HSA-5619096,0.0
R-HSA-888593,0.0
R-HSA-5619109,0.0
R-HSA-5619081,0.0
R-HSA-5660724,0.0
R-HSA-5619087,0.0
R-HSA-5619070,0.0
R-HSA-5619040,0.0
R-HSA-5619111,0.0
R-HSA-5619053,0.0
R-HSA-5250992,0.0
R-HSA-5250989,0.0
R-HSA-5250982,0.0
R-HSA-3371598,0.0
R-HSA-380095,0.0
R-HSA-6791462,0.0
R-HSA-6791055,0.0
R-HSA-163754,0.0
R-HSA-5579032,0.0
R-HSA-3359454,0.0
R-HSA-3645790,0.3333333333333333
R-HSA-3642278,0.3333333333333333
R-HSA-3642279,0.5
R-HSA-5602415,0.0
R-HSA-5602410,0.0
R-HSA-9693928,0.2
R-HSA-8877627,0.0
R-HSA-5687868,0.0
R-HSA-5263617,0.0
R-HSA-167826,0.0
R-HSA-167827,0.0
R-HSA-5619072,0.0
R-HSA-69478,0.0
R-HSA-4793954,0.0
R-HSA-9636569,0.0
R-HSA-4724325,0.0
R-HSA-4720489,0.0
R-HSA-4755579,0.0
R-HSA-9616334,0.0
R-HSA-163316,0.0
R-HSA-4720454,0.0
R-HSA-5545619,0.0
R-HSA-8941237,0.0
R-HSA-5619068,0.0
R-HSA-168268,0.5
R-HSA-168316,0.5
R-HSA-1483101,0.0
R-HSA-1299361,0.0
R-HSA-75158,0.125
R-HSA-4549349,0.0
R-HSA-8951911,0.5
R-HSA-5678520,0.0
R-HSA-5619054,0.0
R-HSA-1368071,0.3333333333333333
R-HSA-170145,0.0
R-HSA-3560796,0.0
R-HSA-9635644,0.0
R-HSA-5619089,0.0
R-HSA-4570571,0.0
R-HSA-5619077,0.0
R-HSA-5619061,0.0
R-HSA-3282872,0.0
R-HSA-5579013,0.0
R-HSA-5579007,0.0
R-HSA-4687000,0.0
R-HSA-1855231,0.0
R-HSA-5619039,0.0
