entity,score,rank,graphlet,graphlet_adj,score_method
R-HSA-8939902,0.0053584691460950235,1.0,4,$\widetilde{A}_{G_4}$,moving_distance
R-HSA-5625900,0.00457959650558725,2.0,4,$\widetilde{A}_{G_4}$,moving_distance
R-HSA-9645723,0.004453254438578255,3.0,4,$\widetilde{A}_{G_4}$,moving_distance
R-HSA-2995410,0.004381868175764311,4.0,4,$\widetilde{A}_{G_4}$,moving_distance
R-HSA-6802957,0.004177260622034894,5.0,4,$\widetilde{A}_{G_4}$,moving_distance
R-HSA-1500620,0.003995650840883653,6.0,4,$\widetilde{A}_{G_4}$,moving_distance
R-HSA-1474165,0.0039956508408836525,7.0,4,$\widetilde{A}_{G_4}$,moving_distance
R-HSA-4090294,0.00396852492897407,8.0,4,$\widetilde{A}_{G_4}$,moving_distance
R-HSA-1221632,0.003857743280344782,9.0,4,$\widetilde{A}_{G_4}$,moving_distance
R-HSA-1251985,0.003687701138796907,10.0,4,$\widetilde{A}_{G_4}$,moving_distance
R-HSA-1660499,0.003674529392532334,11.0,4,$\widetilde{A}_{G_4}$,moving_distance
R-HSA-5675482,0.003566413613639988,12.0,4,$\widetilde{A}_{G_4}$,moving_distance
R-HSA-5213460,0.0035664136136399852,13.0,4,$\widetilde{A}_{G_4}$,moving_distance
R-HSA-9013418,0.003440512472004362,14.0,4,$\widetilde{A}_{G_4}$,moving_distance
R-HSA-2173782,0.0034009226099869045,15.0,4,$\widetilde{A}_{G_4}$,moving_distance
R-HSA-389948,0.0032441338552726714,16.0,4,$\widetilde{A}_{G_4}$,moving_distance
R-HSA-9679191,0.0031927640191978936,17.0,4,$\widetilde{A}_{G_4}$,moving_distance
R-HSA-8864260,0.003167361391457162,18.0,4,$\widetilde{A}_{G_4}$,moving_distance
R-HSA-3371511,0.0031533220797290936,19.0,4,$\widetilde{A}_{G_4}$,moving_distance
R-HSA-9706574,0.003151438093915445,20.0,4,$\widetilde{A}_{G_4}$,moving_distance
R-HSA-6802952,0.0028907680320131033,21.0,4,$\widetilde{A}_{G_4}$,moving_distance
R-HSA-2980766,0.002881288809097263,22.0,4,$\widetilde{A}_{G_4}$,moving_distance
R-HSA-8934903,0.002878171339325286,23.0,4,$\widetilde{A}_{G_4}$,moving_distance
R-HSA-75153,0.0028047951258338808,24.0,4,$\widetilde{A}_{G_4}$,moving_distance
R-HSA-1236394,0.0027819143174828242,25.0,4,$\widetilde{A}_{G_4}$,moving_distance
R-HSA-1483255,0.002683397877542262,26.0,4,$\widetilde{A}_{G_4}$,moving_distance
R-HSA-211000,0.0026580383389126884,27.0,4,$\widetilde{A}_{G_4}$,moving_distance
R-HSA-8876384,0.0026577233813992406,28.0,4,$\widetilde{A}_{G_4}$,moving_distance
R-HSA-372708,0.002589820103848018,29.0,4,$\widetilde{A}_{G_4}$,moving_distance
R-HSA-1500931,0.002586136860307296,30.0,4,$\widetilde{A}_{G_4}$,moving_distance
R-HSA-381033,0.0025671520078866792,31.0,4,$\widetilde{A}_{G_4}$,moving_distance
R-HSA-1483257,0.00254473885725389,32.0,4,$\widetilde{A}_{G_4}$,moving_distance
R-HSA-2565942,0.0025084135092253417,33.0,4,$\widetilde{A}_{G_4}$,moving_distance
R-HSA-1295596,0.002494068030622452,34.0,4,$\widetilde{A}_{G_4}$,moving_distance
R-HSA-5654732,0.0024814236414716145,35.0,4,$\widetilde{A}_{G_4}$,moving_distance
R-HSA-168273,0.002480462471883267,36.0,4,$\widetilde{A}_{G_4}$,moving_distance
R-HSA-9646399,0.0024686983930880604,37.0,4,$\widetilde{A}_{G_4}$,moving_distance
R-HSA-9009391,0.0024616452833696742,38.0,4,$\widetilde{A}_{G_4}$,moving_distance
R-HSA-383280,0.0024606334834444588,39.0,4,$\widetilde{A}_{G_4}$,moving_distance
R-HSA-983170,0.0024477657811138036,40.0,4,$\widetilde{A}_{G_4}$,moving_distance
R-HSA-6806834,0.0024342942213048655,41.0,4,$\widetilde{A}_{G_4}$,moving_distance
R-HSA-5654726,0.0024249003748827306,42.0,4,$\widetilde{A}_{G_4}$,moving_distance
R-HSA-3371556,0.002404269239182144,43.0,4,$\widetilde{A}_{G_4}$,moving_distance
R-HSA-3371497,0.002384877219384332,44.0,4,$\widetilde{A}_{G_4}$,moving_distance
R-HSA-5654733,0.0023683850328598995,45.0,4,$\widetilde{A}_{G_4}$,moving_distance
R-HSA-390522,0.002368172418484859,46.0,4,$\widetilde{A}_{G_4}$,moving_distance
R-HSA-5654727,0.002365066543669212,47.0,4,$\widetilde{A}_{G_4}$,moving_distance
R-HSA-5654741,0.002336375952890286,48.0,4,$\widetilde{A}_{G_4}$,moving_distance
R-HSA-5654736,0.0023193249803257297,49.0,4,$\widetilde{A}_{G_4}$,moving_distance
R-HSA-2219530,0.0023006676535754647,50.0,4,$\widetilde{A}_{G_4}$,moving_distance
R-HSA-5654743,0.0022738775234194468,51.0,4,$\widetilde{A}_{G_4}$,moving_distance
R-HSA-9664407,0.002267205730754552,52.5,4,$\widetilde{A}_{G_4}$,moving_distance
R-HSA-9664422,0.002267205730754552,52.5,4,$\widetilde{A}_{G_4}$,moving_distance
R-HSA-9664417,0.0022672057307545506,54.0,4,$\widetilde{A}_{G_4}$,moving_distance
R-HSA-381119,0.00226522446986277,55.0,4,$\widetilde{A}_{G_4}$,moving_distance
R-HSA-2029481,0.002261760125875547,56.0,4,$\widetilde{A}_{G_4}$,moving_distance
R-HSA-202427,0.0022543007519380946,57.0,4,$\widetilde{A}_{G_4}$,moving_distance
R-HSA-9664323,0.0022205878032833244,58.0,4,$\widetilde{A}_{G_4}$,moving_distance
R-HSA-381042,0.0022151500454098876,59.0,4,$\widetilde{A}_{G_4}$,moving_distance
R-HSA-8940973,0.002213926848320796,60.0,4,$\widetilde{A}_{G_4}$,moving_distance
R-HSA-68884,0.0021932060457621402,61.0,4,$\widetilde{A}_{G_4}$,moving_distance
R-HSA-3000171,0.002185216955654113,62.0,4,$\widetilde{A}_{G_4}$,moving_distance
R-HSA-380320,0.002157890050066342,63.0,4,$\widetilde{A}_{G_4}$,moving_distance
R-HSA-9674555,0.0021366647778833553,64.0,4,$\widetilde{A}_{G_4}$,moving_distance
R-HSA-9663891,0.0021347088128508807,65.0,4,$\widetilde{A}_{G_4}$,moving_distance
R-HSA-202433,0.002063818378278643,66.0,4,$\widetilde{A}_{G_4}$,moving_distance
R-HSA-512988,0.002043211580097761,67.0,4,$\widetilde{A}_{G_4}$,moving_distance
R-HSA-8957275,0.002034836865926751,68.0,4,$\widetilde{A}_{G_4}$,moving_distance
R-HSA-5626467,0.002024126836762779,69.0,4,$\widetilde{A}_{G_4}$,moving_distance
R-HSA-3000178,0.002014145997255378,70.0,4,$\widetilde{A}_{G_4}$,moving_distance
R-HSA-202733,0.0020080610659980722,71.0,4,$\widetilde{A}_{G_4}$,moving_distance
R-HSA-9613829,0.0019869076357267347,72.0,4,$\widetilde{A}_{G_4}$,moving_distance
R-HSA-5689896,0.001963298919858082,73.0,4,$\widetilde{A}_{G_4}$,moving_distance
R-HSA-3371568,0.0019365167435544857,74.0,4,$\widetilde{A}_{G_4}$,moving_distance
R-HSA-9682385,0.0019302596250653046,75.0,4,$\widetilde{A}_{G_4}$,moving_distance
R-HSA-166658,0.0019131398546564206,76.0,4,$\widetilde{A}_{G_4}$,moving_distance
R-HSA-2219528,0.0019091750906606699,77.0,4,$\widetilde{A}_{G_4}$,moving_distance
R-HSA-5218859,0.0018826327060789782,78.0,4,$\widetilde{A}_{G_4}$,moving_distance
R-HSA-9607240,0.0018737593490707513,79.0,4,$\widetilde{A}_{G_4}$,moving_distance
R-HSA-8852276,0.001868761856852984,80.0,4,$\widetilde{A}_{G_4}$,moving_distance
R-HSA-6811558,0.0018610401443398127,81.0,4,$\widetilde{A}_{G_4}$,moving_distance
R-HSA-912631,0.0018268831019796507,82.0,4,$\widetilde{A}_{G_4}$,moving_distance
R-HSA-844456,0.0018205969070691924,83.0,4,$\widetilde{A}_{G_4}$,moving_distance
R-HSA-6802948,0.0018178996424087377,84.0,4,$\widetilde{A}_{G_4}$,moving_distance
R-HSA-110312,0.0018129405799679984,85.0,4,$\widetilde{A}_{G_4}$,moving_distance
R-HSA-111465,0.0018113817421435063,86.0,4,$\widetilde{A}_{G_4}$,moving_distance
R-HSA-8854518,0.0018019292063952822,87.0,4,$\widetilde{A}_{G_4}$,moving_distance
R-HSA-354192,0.0018007835508223769,88.5,4,$\widetilde{A}_{G_4}$,moving_distance
R-HSA-76009,0.0018007835508223769,88.5,4,$\widetilde{A}_{G_4}$,moving_distance
R-HSA-3000170,0.001800444601921049,90.0,4,$\widetilde{A}_{G_4}$,moving_distance
R-HSA-3371571,0.001790114869375659,91.0,4,$\widetilde{A}_{G_4}$,moving_distance
R-HSA-418885,0.0017841784620797091,92.0,4,$\widetilde{A}_{G_4}$,moving_distance
R-HSA-5358747,0.0017813189691066504,93.0,4,$\widetilde{A}_{G_4}$,moving_distance
R-HSA-5339716,0.0017813189691066502,94.5,4,$\widetilde{A}_{G_4}$,moving_distance
R-HSA-5358752,0.0017813189691066502,94.5,4,$\widetilde{A}_{G_4}$,moving_distance
R-HSA-5358751,0.00178131896910665,96.0,4,$\widetilde{A}_{G_4}$,moving_distance
R-HSA-4839743,0.0017813189691066498,97.5,4,$\widetilde{A}_{G_4}$,moving_distance
R-HSA-5358749,0.0017813189691066498,97.5,4,$\widetilde{A}_{G_4}$,moving_distance
R-HSA-199418,0.0017761555710707332,99.0,4,$\widetilde{A}_{G_4}$,moving_distance
R-HSA-389513,0.0017760450141899914,100.0,4,$\widetilde{A}_{G_4}$,moving_distance
R-HSA-216083,0.0017737504333354933,101.0,4,$\widetilde{A}_{G_4}$,moving_distance
R-HSA-5655862,0.0017466587806772291,102.0,4,$\widetilde{A}_{G_4}$,moving_distance
R-HSA-380287,0.001740881077702311,103.5,4,$\widetilde{A}_{G_4}$,moving_distance
R-HSA-380270,0.001740881077702311,103.5,4,$\widetilde{A}_{G_4}$,moving_distance
R-HSA-8874081,0.0017343474427748806,105.0,4,$\widetilde{A}_{G_4}$,moving_distance
R-HSA-5218921,0.0017210733363395279,106.0,4,$\widetilde{A}_{G_4}$,moving_distance
R-HSA-380284,0.001714390120615377,107.5,4,$\widetilde{A}_{G_4}$,moving_distance
R-HSA-380259,0.001714390120615377,107.5,4,$\widetilde{A}_{G_4}$,moving_distance
R-HSA-373752,0.0017055751588108846,109.0,4,$\widetilde{A}_{G_4}$,moving_distance
R-HSA-456926,0.0017049453919364425,110.0,4,$\widetilde{A}_{G_4}$,moving_distance
R-HSA-4420097,0.0016963666407225984,111.0,4,$\widetilde{A}_{G_4}$,moving_distance
R-HSA-445095,0.0016826156032595876,112.0,4,$\widetilde{A}_{G_4}$,moving_distance
R-HSA-5674135,0.0016812613446815646,113.0,4,$\widetilde{A}_{G_4}$,moving_distance
R-HSA-3928663,0.001651356305001443,114.0,4,$\widetilde{A}_{G_4}$,moving_distance
R-HSA-196299,0.0016487638218250277,115.0,4,$\widetilde{A}_{G_4}$,moving_distance
R-HSA-5656121,0.0016472960080045388,116.0,4,$\widetilde{A}_{G_4}$,moving_distance
R-HSA-977606,0.0016472039023105573,117.0,4,$\widetilde{A}_{G_4}$,moving_distance
R-HSA-5637810,0.0016455517824056356,118.0,4,$\widetilde{A}_{G_4}$,moving_distance
R-HSA-5637812,0.0016455517824056345,119.0,4,$\widetilde{A}_{G_4}$,moving_distance
R-HSA-5676594,0.0016454711085829698,120.0,4,$\widetilde{A}_{G_4}$,moving_distance
R-HSA-5620912,0.001632534597320238,121.0,4,$\widetilde{A}_{G_4}$,moving_distance
R-HSA-1474228,0.001630743848757678,122.0,4,$\widetilde{A}_{G_4}$,moving_distance
R-HSA-8941326,0.001629056320463145,123.0,4,$\widetilde{A}_{G_4}$,moving_distance
R-HSA-622312,0.001625008004418688,124.0,4,$\widetilde{A}_{G_4}$,moving_distance
R-HSA-381426,0.0016097690814652268,125.0,4,$\widetilde{A}_{G_4}$,moving_distance
R-HSA-8875360,0.0016023539763492549,126.0,4,$\widetilde{A}_{G_4}$,moving_distance
R-HSA-198933,0.0015930259039492274,127.0,4,$\widetilde{A}_{G_4}$,moving_distance
R-HSA-6807004,0.001591118843060724,128.0,4,$\widetilde{A}_{G_4}$,moving_distance
R-HSA-9656223,0.0015883780986410858,129.0,4,$\widetilde{A}_{G_4}$,moving_distance
R-HSA-9664424,0.0015788949653264132,130.0,4,$\widetilde{A}_{G_4}$,moving_distance
R-HSA-9660826,0.001578894965326413,131.0,4,$\widetilde{A}_{G_4}$,moving_distance
R-HSA-4641262,0.0015761569885064056,132.0,4,$\widetilde{A}_{G_4}$,moving_distance
R-HSA-5673000,0.0015600731946148678,133.0,4,$\widetilde{A}_{G_4}$,moving_distance
R-HSA-9620244,0.0015523740201704068,134.0,4,$\widetilde{A}_{G_4}$,moving_distance
R-HSA-392518,0.0015491327713375482,135.0,4,$\widetilde{A}_{G_4}$,moving_distance
R-HSA-9665348,0.001547852424683261,136.0,4,$\widetilde{A}_{G_4}$,moving_distance
R-HSA-4791275,0.001541952950090551,137.0,4,$\widetilde{A}_{G_4}$,moving_distance
R-HSA-9609690,0.0015384476921520849,138.0,4,$\widetilde{A}_{G_4}$,moving_distance
R-HSA-388841,0.0015307419013094498,139.0,4,$\widetilde{A}_{G_4}$,moving_distance
R-HSA-110320,0.0015201326857997124,140.0,4,$\widetilde{A}_{G_4}$,moving_distance
R-HSA-390450,0.0015162555415251227,141.0,4,$\widetilde{A}_{G_4}$,moving_distance
R-HSA-350054,0.0015160338175127222,142.0,4,$\widetilde{A}_{G_4}$,moving_distance
R-HSA-1170546,0.0015152117689876076,143.0,4,$\widetilde{A}_{G_4}$,moving_distance
R-HSA-9634285,0.0015046282736473435,144.0,4,$\widetilde{A}_{G_4}$,moving_distance
R-HSA-114608,0.0014972396996442653,145.0,4,$\widetilde{A}_{G_4}$,moving_distance
R-HSA-2129379,0.0014968142827741998,146.0,4,$\widetilde{A}_{G_4}$,moving_distance
R-HSA-2029480,0.0014908356772820165,147.0,4,$\widetilde{A}_{G_4}$,moving_distance
R-HSA-418990,0.0014816380692766133,148.0,4,$\widetilde{A}_{G_4}$,moving_distance
R-HSA-114604,0.00145840505974212,149.0,4,$\widetilde{A}_{G_4}$,moving_distance
R-HSA-9013106,0.0014529957899279855,150.0,4,$\widetilde{A}_{G_4}$,moving_distance
R-HSA-9020558,0.0014474274555294588,151.0,4,$\widetilde{A}_{G_4}$,moving_distance
R-HSA-375165,0.0014458706567479183,152.0,4,$\widetilde{A}_{G_4}$,moving_distance
R-HSA-164952,0.001442825757508899,153.0,4,$\widetilde{A}_{G_4}$,moving_distance
R-HSA-1566948,0.0014407442280035777,154.0,4,$\widetilde{A}_{G_4}$,moving_distance
R-HSA-210990,0.0014389736480040155,155.0,4,$\widetilde{A}_{G_4}$,moving_distance
R-HSA-2995383,0.0014336601014920505,156.0,4,$\widetilde{A}_{G_4}$,moving_distance
R-HSA-9013026,0.001413044979024622,157.0,4,$\widetilde{A}_{G_4}$,moving_distance
R-HSA-70263,0.0014036691825626464,158.0,4,$\widetilde{A}_{G_4}$,moving_distance
R-HSA-418555,0.001396959075046788,159.0,4,$\widetilde{A}_{G_4}$,moving_distance
R-HSA-6802946,0.0013934208967891373,160.0,4,$\widetilde{A}_{G_4}$,moving_distance
R-HSA-9649948,0.0013934208967891371,161.5,4,$\widetilde{A}_{G_4}$,moving_distance
R-HSA-6802955,0.0013934208967891371,161.5,4,$\widetilde{A}_{G_4}$,moving_distance
R-HSA-6802949,0.001393420896789137,163.0,4,$\widetilde{A}_{G_4}$,moving_distance
R-HSA-5686938,0.0013873559075699014,164.0,4,$\widetilde{A}_{G_4}$,moving_distance
R-HSA-5637815,0.0013782300049593676,165.0,4,$\widetilde{A}_{G_4}$,moving_distance
R-HSA-1236382,0.0013782300049593674,166.0,4,$\widetilde{A}_{G_4}$,moving_distance
R-HSA-380994,0.0013768991312592257,167.0,4,$\widetilde{A}_{G_4}$,moving_distance
R-HSA-76005,0.0013761490189173192,168.0,4,$\widetilde{A}_{G_4}$,moving_distance
R-HSA-392517,0.0013694376304946559,169.0,4,$\widetilde{A}_{G_4}$,moving_distance
R-HSA-354194,0.001363144199179812,170.0,4,$\widetilde{A}_{G_4}$,moving_distance
R-HSA-9615017,0.0013589822721022243,171.0,4,$\widetilde{A}_{G_4}$,moving_distance
R-HSA-5663213,0.0013578840531251858,172.0,4,$\widetilde{A}_{G_4}$,moving_distance
R-HSA-3928664,0.001352739650802801,173.0,4,$\widetilde{A}_{G_4}$,moving_distance
R-HSA-2029482,0.0013463647554719084,174.0,4,$\widetilde{A}_{G_4}$,moving_distance
R-HSA-2029485,0.001344051546756668,175.0,4,$\widetilde{A}_{G_4}$,moving_distance
R-HSA-9027276,0.0013296658437699591,176.0,4,$\widetilde{A}_{G_4}$,moving_distance
R-HSA-6814122,0.001319090060729251,177.0,4,$\widetilde{A}_{G_4}$,moving_distance
R-HSA-429958,0.0013179474751319122,178.0,4,$\widetilde{A}_{G_4}$,moving_distance
R-HSA-9013695,0.0012964105935112146,179.0,4,$\widetilde{A}_{G_4}$,moving_distance
R-HSA-421270,0.0012943606972865074,180.0,4,$\widetilde{A}_{G_4}$,moving_distance
R-HSA-381070,0.0012847350292189562,181.0,4,$\widetilde{A}_{G_4}$,moving_distance
R-HSA-373753,0.0012823638328853376,182.0,4,$\widetilde{A}_{G_4}$,moving_distance
R-HSA-9665686,0.0012809754059413638,183.0,4,$\widetilde{A}_{G_4}$,moving_distance
R-HSA-9662851,0.0012773130345470583,184.0,4,$\widetilde{A}_{G_4}$,moving_distance
R-HSA-9664433,0.001277313034547057,185.0,4,$\widetilde{A}_{G_4}$,moving_distance
R-HSA-163560,0.0012752681025380186,186.0,4,$\widetilde{A}_{G_4}$,moving_distance
R-HSA-2980736,0.001274472809689486,187.0,4,$\widetilde{A}_{G_4}$,moving_distance
R-HSA-3299685,0.0012697255950340394,188.0,4,$\widetilde{A}_{G_4}$,moving_distance
R-HSA-1266695,0.0012607921718082399,189.0,4,$\widetilde{A}_{G_4}$,moving_distance
R-HSA-9675151,0.0012585959945914042,190.0,4,$\widetilde{A}_{G_4}$,moving_distance
R-HSA-9697154,0.001258595994591404,191.0,4,$\widetilde{A}_{G_4}$,moving_distance
R-HSA-9005895,0.0012585959945914037,192.5,4,$\widetilde{A}_{G_4}$,moving_distance
R-HSA-9005891,0.0012585959945914037,192.5,4,$\widetilde{A}_{G_4}$,moving_distance
R-HSA-432722,0.0012568422004199183,194.0,4,$\widetilde{A}_{G_4}$,moving_distance
R-HSA-1643713,0.0012496203267083293,195.0,4,$\widetilde{A}_{G_4}$,moving_distance
R-HSA-983231,0.0012454857013467293,196.0,4,$\widetilde{A}_{G_4}$,moving_distance
R-HSA-388844,0.0012426374602981685,197.0,4,$\widetilde{A}_{G_4}$,moving_distance
R-HSA-9664565,0.0012379442364232767,198.0,4,$\widetilde{A}_{G_4}$,moving_distance
R-HSA-9662360,0.0012368482749151911,199.0,4,$\widetilde{A}_{G_4}$,moving_distance
R-HSA-202424,0.001232831360137592,200.0,4,$\widetilde{A}_{G_4}$,moving_distance
R-HSA-1226099,0.001230538018924794,201.0,4,$\widetilde{A}_{G_4}$,moving_distance
R-HSA-6804115,0.0012269025830835948,202.0,4,$\widetilde{A}_{G_4}$,moving_distance
R-HSA-5576891,0.0012244357365454256,203.0,4,$\widetilde{A}_{G_4}$,moving_distance
R-HSA-381038,0.0012240815538046865,204.0,4,$\widetilde{A}_{G_4}$,moving_distance
R-HSA-9659379,0.00121492295217121,205.0,4,$\widetilde{A}_{G_4}$,moving_distance
R-HSA-9013508,0.0012133807451060901,206.0,4,$\widetilde{A}_{G_4}$,moving_distance
R-HSA-5696397,0.0012099656767274784,207.0,4,$\widetilde{A}_{G_4}$,moving_distance
R-HSA-450513,0.0011993428743275402,208.0,4,$\widetilde{A}_{G_4}$,moving_distance
R-HSA-1227990,0.0011971443762328988,209.0,4,$\widetilde{A}_{G_4}$,moving_distance
R-HSA-389357,0.0011941432325530956,210.0,4,$\widetilde{A}_{G_4}$,moving_distance
R-HSA-450385,0.0011852627469040719,211.0,4,$\widetilde{A}_{G_4}$,moving_distance
R-HSA-8875878,0.0011793894880355212,212.0,4,$\widetilde{A}_{G_4}$,moving_distance
R-HSA-8979227,0.0011793768061180265,213.0,4,$\widetilde{A}_{G_4}$,moving_distance
R-HSA-69205,0.00117687839299674,214.0,4,$\widetilde{A}_{G_4}$,moving_distance
R-HSA-397795,0.0011756028976730132,215.0,4,$\widetilde{A}_{G_4}$,moving_distance
R-HSA-438066,0.001173284163116883,216.0,4,$\widetilde{A}_{G_4}$,moving_distance
R-HSA-157858,0.0011727719174248973,217.0,4,$\widetilde{A}_{G_4}$,moving_distance
R-HSA-167160,0.0011591420696162682,218.0,4,$\widetilde{A}_{G_4}$,moving_distance
R-HSA-77075,0.001159142069616268,219.0,4,$\widetilde{A}_{G_4}$,moving_distance
R-HSA-199992,0.0011553364074257594,220.0,4,$\widetilde{A}_{G_4}$,moving_distance
R-HSA-1650814,0.0011539680277752025,221.0,4,$\widetilde{A}_{G_4}$,moving_distance
R-HSA-392451,0.0011481964197183681,222.0,4,$\widetilde{A}_{G_4}$,moving_distance
R-HSA-9013407,0.0011431004822080922,223.0,4,$\widetilde{A}_{G_4}$,moving_distance
R-HSA-2132295,0.0011430264673186086,224.0,4,$\widetilde{A}_{G_4}$,moving_distance
R-HSA-3371453,0.0011399277215494216,225.0,4,$\widetilde{A}_{G_4}$,moving_distance
R-HSA-164938,0.0011392512401230098,226.0,4,$\widetilde{A}_{G_4}$,moving_distance
R-HSA-210744,0.0011362836333632248,227.0,4,$\widetilde{A}_{G_4}$,moving_distance
R-HSA-8854691,0.0011360290319757382,228.0,4,$\widetilde{A}_{G_4}$,moving_distance
R-HSA-432142,0.0011291654235465365,229.0,4,$\widetilde{A}_{G_4}$,moving_distance
R-HSA-179812,0.0011290705205963193,230.0,4,$\widetilde{A}_{G_4}$,moving_distance
R-HSA-72086,0.0011275392800690288,231.0,4,$\widetilde{A}_{G_4}$,moving_distance
R-HSA-77595,0.0011230654929412138,232.0,4,$\widetilde{A}_{G_4}$,moving_distance
R-HSA-3928662,0.001120943420023669,233.0,4,$\widetilde{A}_{G_4}$,moving_distance
R-HSA-180336,0.0011200554195863973,234.0,4,$\widetilde{A}_{G_4}$,moving_distance
R-HSA-446728,0.0011179715765542119,235.0,4,$\widetilde{A}_{G_4}$,moving_distance
R-HSA-176412,0.0011149579965044154,236.0,4,$\widetilde{A}_{G_4}$,moving_distance
R-HSA-4641265,0.0011112209881969316,237.0,4,$\widetilde{A}_{G_4}$,moving_distance
R-HSA-9696264,0.0011111528253913894,238.0,4,$\widetilde{A}_{G_4}$,moving_distance
R-HSA-450604,0.0010989394063984279,239.0,4,$\widetilde{A}_{G_4}$,moving_distance
R-HSA-69541,0.001094299148488776,240.0,4,$\widetilde{A}_{G_4}$,moving_distance
R-HSA-390466,0.001094128047426759,241.0,4,$\widetilde{A}_{G_4}$,moving_distance
R-HSA-349425,0.001093261561769791,242.0,4,$\widetilde{A}_{G_4}$,moving_distance
R-HSA-8863678,0.0010874374269817537,243.0,4,$\widetilde{A}_{G_4}$,moving_distance
R-HSA-8862803,0.0010874374269817526,244.0,4,$\widetilde{A}_{G_4}$,moving_distance
R-HSA-75035,0.0010862520808892647,245.0,4,$\widetilde{A}_{G_4}$,moving_distance
R-HSA-1839126,0.0010857157587105513,246.0,4,$\widetilde{A}_{G_4}$,moving_distance
R-HSA-8851708,0.0010857157587105509,247.0,4,$\widetilde{A}_{G_4}$,moving_distance
R-HSA-6785807,0.0010854190352891611,248.0,4,$\widetilde{A}_{G_4}$,moving_distance
R-HSA-399721,0.0010849955377824677,249.0,4,$\widetilde{A}_{G_4}$,moving_distance
R-HSA-399719,0.0010849955377824675,250.0,4,$\widetilde{A}_{G_4}$,moving_distance
R-HSA-437239,0.0010815746542276248,251.0,4,$\widetilde{A}_{G_4}$,moving_distance
R-HSA-422356,0.0010792919327233576,252.0,4,$\widetilde{A}_{G_4}$,moving_distance
R-HSA-432720,0.0010781278506255504,253.0,4,$\widetilde{A}_{G_4}$,moving_distance
R-HSA-141430,0.0010774330234054488,254.0,4,$\widetilde{A}_{G_4}$,moving_distance
R-HSA-141405,0.0010774330234054484,255.0,4,$\widetilde{A}_{G_4}$,moving_distance
R-HSA-373755,0.0010766747470902106,256.0,4,$\widetilde{A}_{G_4}$,moving_distance
R-HSA-6804756,0.0010664799500863784,257.0,4,$\widetilde{A}_{G_4}$,moving_distance
R-HSA-6794361,0.0010645571245936028,258.0,4,$\widetilde{A}_{G_4}$,moving_distance
R-HSA-6790901,0.0010628408036032558,259.0,4,$\widetilde{A}_{G_4}$,moving_distance
R-HSA-983189,0.0010614094252328645,260.0,4,$\widetilde{A}_{G_4}$,moving_distance
R-HSA-176407,0.0010585348399612799,261.0,4,$\widetilde{A}_{G_4}$,moving_distance
R-HSA-446107,0.0010523044569322028,262.0,4,$\widetilde{A}_{G_4}$,moving_distance
R-HSA-69563,0.0010520289620157292,263.5,4,$\widetilde{A}_{G_4}$,moving_distance
R-HSA-69580,0.0010520289620157292,263.5,4,$\widetilde{A}_{G_4}$,moving_distance
R-HSA-167044,0.0010480966051117874,265.0,4,$\widetilde{A}_{G_4}$,moving_distance
R-HSA-937041,0.001046668668155458,266.0,4,$\widetilde{A}_{G_4}$,moving_distance
R-HSA-69615,0.0010441980847137027,267.0,4,$\widetilde{A}_{G_4}$,moving_distance
R-HSA-1362300,0.001043646722141348,268.0,4,$\widetilde{A}_{G_4}$,moving_distance
R-HSA-9678108,0.0010386239339929707,269.0,4,$\widetilde{A}_{G_4}$,moving_distance
R-HSA-373076,0.0010379053835249377,270.0,4,$\widetilde{A}_{G_4}$,moving_distance
R-HSA-3928665,0.001037266958570042,271.0,4,$\widetilde{A}_{G_4}$,moving_distance
R-HSA-70221,0.0010349192540289424,272.0,4,$\widetilde{A}_{G_4}$,moving_distance
R-HSA-5260271,0.001033653271358057,273.0,4,$\widetilde{A}_{G_4}$,moving_distance
R-HSA-5602358,0.0010336532713580565,274.0,4,$\widetilde{A}_{G_4}$,moving_distance
R-HSA-69473,0.0010321347119161815,275.0,4,$\widetilde{A}_{G_4}$,moving_distance
R-HSA-9013422,0.0010313586173879082,276.0,4,$\widetilde{A}_{G_4}$,moving_distance
R-HSA-389359,0.0010265515218808989,277.0,4,$\widetilde{A}_{G_4}$,moving_distance
R-HSA-180292,0.0010261282469753335,278.0,4,$\widetilde{A}_{G_4}$,moving_distance
R-HSA-1433557,0.0010234899389588257,279.0,4,$\widetilde{A}_{G_4}$,moving_distance
R-HSA-450408,0.001021487071559403,280.0,4,$\widetilde{A}_{G_4}$,moving_distance
R-HSA-1963642,0.0010212928979632789,281.0,4,$\widetilde{A}_{G_4}$,moving_distance
R-HSA-399955,0.0010192879743474794,282.0,4,$\widetilde{A}_{G_4}$,moving_distance
R-HSA-391251,0.0010185515970604876,283.0,4,$\widetilde{A}_{G_4}$,moving_distance
R-HSA-2586552,0.0010148151533039334,284.0,4,$\widetilde{A}_{G_4}$,moving_distance
R-HSA-72695,0.0010137920943341916,285.0,4,$\widetilde{A}_{G_4}$,moving_distance
R-HSA-190828,0.0010131152731385363,286.0,4,$\widetilde{A}_{G_4}$,moving_distance
R-HSA-2408522,0.0010129887640961991,287.0,4,$\widetilde{A}_{G_4}$,moving_distance
R-HSA-389960,0.001012729542191873,288.0,4,$\widetilde{A}_{G_4}$,moving_distance
R-HSA-5218920,0.001012627581790687,289.0,4,$\widetilde{A}_{G_4}$,moving_distance
R-HSA-6799198,0.0010121446547553168,290.0,4,$\widetilde{A}_{G_4}$,moving_distance
R-HSA-881907,0.0010121079153893873,291.0,4,$\widetilde{A}_{G_4}$,moving_distance
R-HSA-389356,0.0010104414140286954,292.0,4,$\widetilde{A}_{G_4}$,moving_distance
R-HSA-8941856,0.0010081276763925428,293.0,4,$\widetilde{A}_{G_4}$,moving_distance
R-HSA-9609736,0.0010035681510413561,294.0,4,$\widetilde{A}_{G_4}$,moving_distance
R-HSA-167158,0.0010000420993355142,295.0,4,$\widetilde{A}_{G_4}$,moving_distance
R-HSA-113418,0.001000042099335514,296.0,4,$\widetilde{A}_{G_4}$,moving_distance
R-HSA-977225,0.0009994734742379263,297.0,4,$\widetilde{A}_{G_4}$,moving_distance
R-HSA-72649,0.0009984231011387732,298.0,4,$\widetilde{A}_{G_4}$,moving_distance
R-HSA-72702,0.0009974296151829501,299.0,4,$\widetilde{A}_{G_4}$,moving_distance
R-HSA-1963640,0.0009957436370800178,300.0,4,$\widetilde{A}_{G_4}$,moving_distance
R-HSA-5693606,0.000994674668068982,301.0,4,$\widetilde{A}_{G_4}$,moving_distance
R-HSA-9035034,0.0009940342822107927,302.0,4,$\widetilde{A}_{G_4}$,moving_distance
R-HSA-2408557,0.0009923295756101094,303.0,4,$\widetilde{A}_{G_4}$,moving_distance
R-HSA-192823,0.0009891535048280919,304.0,4,$\widetilde{A}_{G_4}$,moving_distance
R-HSA-156902,0.0009880261332565114,305.0,4,$\widetilde{A}_{G_4}$,moving_distance
R-HSA-72689,0.0009873622771284763,306.0,4,$\widetilde{A}_{G_4}$,moving_distance
R-HSA-429914,0.0009867113077083045,307.0,4,$\widetilde{A}_{G_4}$,moving_distance
R-HSA-525793,0.0009867045424141916,308.0,4,$\widetilde{A}_{G_4}$,moving_distance
R-HSA-68962,0.000986580803321061,309.0,4,$\widetilde{A}_{G_4}$,moving_distance
R-HSA-72662,0.000985311990853747,310.0,4,$\widetilde{A}_{G_4}$,moving_distance
R-HSA-9662361,0.000983182268900905,311.0,4,$\widetilde{A}_{G_4}$,moving_distance
R-HSA-156827,0.000982876830015321,312.0,4,$\widetilde{A}_{G_4}$,moving_distance
R-HSA-186763,0.0009816903710890236,313.0,4,$\widetilde{A}_{G_4}$,moving_distance
R-HSA-5625970,0.0009814287889364068,314.0,4,$\widetilde{A}_{G_4}$,moving_distance
R-HSA-72706,0.000981360577959676,315.0,4,$\widetilde{A}_{G_4}$,moving_distance
R-HSA-5627117,0.0009801624949230467,316.0,4,$\widetilde{A}_{G_4}$,moving_distance
R-HSA-427389,0.000979146132548865,317.0,4,$\widetilde{A}_{G_4}$,moving_distance
R-HSA-9013406,0.0009787217643165624,318.0,4,$\widetilde{A}_{G_4}$,moving_distance
R-HSA-416572,0.0009777530418339981,319.0,4,$\widetilde{A}_{G_4}$,moving_distance
R-HSA-156842,0.0009776415563194929,320.0,4,$\widetilde{A}_{G_4}$,moving_distance
R-HSA-156711,0.0009759377804829974,321.0,4,$\widetilde{A}_{G_4}$,moving_distance
R-HSA-111447,0.0009753533043378911,322.0,4,$\widetilde{A}_{G_4}$,moving_distance
R-HSA-975956,0.0009750838859352803,323.0,4,$\widetilde{A}_{G_4}$,moving_distance
R-HSA-9694516,0.0009748617355788757,324.0,4,$\widetilde{A}_{G_4}$,moving_distance
R-HSA-391160,0.0009734591310869496,325.0,4,$\widetilde{A}_{G_4}$,moving_distance
R-HSA-442982,0.0009707593335768299,326.0,4,$\widetilde{A}_{G_4}$,moving_distance
R-HSA-5655253,0.0009699453324024874,327.0,4,$\widetilde{A}_{G_4}$,moving_distance
R-HSA-5693565,0.0009689852972052008,328.0,4,$\widetilde{A}_{G_4}$,moving_distance
R-HSA-9013700,0.000965758385000359,329.0,4,$\widetilde{A}_{G_4}$,moving_distance
R-HSA-176187,0.0009640623022516418,330.0,4,$\widetilde{A}_{G_4}$,moving_distance
R-HSA-193692,0.0009637996502611122,331.0,4,$\widetilde{A}_{G_4}$,moving_distance
R-HSA-110314,0.0009618297260172581,332.0,4,$\widetilde{A}_{G_4}$,moving_distance
R-HSA-163685,0.0009612680869885427,333.0,4,$\widetilde{A}_{G_4}$,moving_distance
R-HSA-2871796,0.0009611342561226067,334.0,4,$\widetilde{A}_{G_4}$,moving_distance
R-HSA-9687136,0.0009595119775753015,335.0,4,$\widetilde{A}_{G_4}$,moving_distance
R-HSA-4641263,0.0009594332591417415,336.0,4,$\widetilde{A}_{G_4}$,moving_distance
R-HSA-72764,0.0009587139027248253,337.0,4,$\widetilde{A}_{G_4}$,moving_distance
R-HSA-373760,0.0009584645060958314,338.0,4,$\widetilde{A}_{G_4}$,moving_distance
R-HSA-73779,0.0009573774453111538,339.0,4,$\widetilde{A}_{G_4}$,moving_distance
R-HSA-73776,0.0009573774453111537,340.0,4,$\widetilde{A}_{G_4}$,moving_distance
R-HSA-75953,0.0009573774453111534,341.0,4,$\widetilde{A}_{G_4}$,moving_distance
R-HSA-167162,0.0009573774453111533,342.0,4,$\widetilde{A}_{G_4}$,moving_distance
R-HSA-167161,0.0009573774453111532,343.5,4,$\widetilde{A}_{G_4}$,moving_distance
R-HSA-76042,0.0009573774453111532,343.5,4,$\widetilde{A}_{G_4}$,moving_distance
R-HSA-400042,0.0009559287260130729,345.0,4,$\widetilde{A}_{G_4}$,moving_distance
R-HSA-190873,0.0009523920266640613,346.0,4,$\widetilde{A}_{G_4}$,moving_distance
R-HSA-4655427,0.0009512830191046047,347.0,4,$\widetilde{A}_{G_4}$,moving_distance
R-HSA-8853334,0.0009490308731766515,348.0,4,$\widetilde{A}_{G_4}$,moving_distance
R-HSA-1368082,0.0009472990263607316,349.0,4,$\widetilde{A}_{G_4}$,moving_distance
R-HSA-9670439,0.0009472749143194251,350.5,4,$\widetilde{A}_{G_4}$,moving_distance
R-HSA-9669938,0.0009472749143194251,350.5,4,$\widetilde{A}_{G_4}$,moving_distance
R-HSA-1250347,0.0009472747756666838,352.0,4,$\widetilde{A}_{G_4}$,moving_distance
R-HSA-210991,0.0009467463225391885,353.0,4,$\widetilde{A}_{G_4}$,moving_distance
R-HSA-447115,0.0009428329590130933,354.0,4,$\widetilde{A}_{G_4}$,moving_distance
R-HSA-442755,0.0009415938949455007,355.0,4,$\widetilde{A}_{G_4}$,moving_distance
R-HSA-2028269,0.0009415638225615641,356.0,4,$\widetilde{A}_{G_4}$,moving_distance
R-HSA-196025,0.0009410118533858052,357.0,4,$\widetilde{A}_{G_4}$,moving_distance
R-HSA-211859,0.0009375191761119791,358.0,4,$\widetilde{A}_{G_4}$,moving_distance
R-HSA-211945,0.0009375191761119787,359.0,4,$\widetilde{A}_{G_4}$,moving_distance
R-HSA-1799339,0.0009363905163018902,360.0,4,$\widetilde{A}_{G_4}$,moving_distance
R-HSA-438064,0.0009360934452438445,361.0,4,$\widetilde{A}_{G_4}$,moving_distance
R-HSA-5627123,0.0009341924068648786,362.0,4,$\widetilde{A}_{G_4}$,moving_distance
R-HSA-264870,0.0009333960881160589,363.0,4,$\widetilde{A}_{G_4}$,moving_distance
R-HSA-9694635,0.0009310521845366937,364.0,4,$\widetilde{A}_{G_4}$,moving_distance
R-HSA-75067,0.0009300978116227048,365.0,4,$\widetilde{A}_{G_4}$,moving_distance
R-HSA-9034015,0.0009289063284610097,366.0,4,$\widetilde{A}_{G_4}$,moving_distance
R-HSA-9683701,0.0009285913616915599,367.0,4,$\widetilde{A}_{G_4}$,moving_distance
R-HSA-400685,0.0009265310107034598,368.0,4,$\widetilde{A}_{G_4}$,moving_distance
R-HSA-9614399,0.0009262606888014708,369.0,4,$\widetilde{A}_{G_4}$,moving_distance
R-HSA-9633012,0.0009246874308396043,370.0,4,$\widetilde{A}_{G_4}$,moving_distance
R-HSA-167242,0.0009243020565057025,371.0,4,$\widetilde{A}_{G_4}$,moving_distance
R-HSA-5389840,0.0009227058360745547,372.0,4,$\widetilde{A}_{G_4}$,moving_distance
R-HSA-5655291,0.0009224760834533022,373.0,4,$\widetilde{A}_{G_4}$,moving_distance
R-HSA-5668599,0.0009214250326429393,374.0,4,$\widetilde{A}_{G_4}$,moving_distance
R-HSA-113510,0.0009179669804274465,375.0,4,$\widetilde{A}_{G_4}$,moving_distance
R-HSA-937072,0.0009179298447502127,376.0,4,$\widetilde{A}_{G_4}$,moving_distance
R-HSA-9619665,0.0009160425102827334,377.0,4,$\widetilde{A}_{G_4}$,moving_distance
R-HSA-186797,0.0009156808610204571,378.0,4,$\widetilde{A}_{G_4}$,moving_distance
R-HSA-5419276,0.000915348756364653,379.0,4,$\widetilde{A}_{G_4}$,moving_distance
R-HSA-6807505,0.0009147122619776296,380.0,4,$\widetilde{A}_{G_4}$,moving_distance
R-HSA-389957,0.0009142840962107706,381.0,4,$\widetilde{A}_{G_4}$,moving_distance
R-HSA-73762,0.0009130903529494963,382.0,4,$\widetilde{A}_{G_4}$,moving_distance
R-HSA-6794362,0.0009106136507092187,383.0,4,$\widetilde{A}_{G_4}$,moving_distance
R-HSA-167246,0.0009104656893221235,384.5,4,$\widetilde{A}_{G_4}$,moving_distance
R-HSA-167200,0.0009104656893221235,384.5,4,$\widetilde{A}_{G_4}$,moving_distance
R-HSA-167169,0.0009104656893221232,386.0,4,$\widetilde{A}_{G_4}$,moving_distance
R-HSA-389958,0.0009077607960584289,387.0,4,$\widetilde{A}_{G_4}$,moving_distance
R-HSA-4419969,0.0009067307338174721,388.0,4,$\widetilde{A}_{G_4}$,moving_distance
R-HSA-5655332,0.0009059709154536055,389.5,4,$\widetilde{A}_{G_4}$,moving_distance
R-HSA-8853338,0.0009059709154536055,389.5,4,$\widetilde{A}_{G_4}$,moving_distance
R-HSA-5099900,0.0009027427413998789,391.0,4,$\widetilde{A}_{G_4}$,moving_distance
R-HSA-70326,0.0009025633297319105,392.0,4,$\widetilde{A}_{G_4}$,moving_distance
R-HSA-9012852,0.0009019423925279146,393.0,4,$\widetilde{A}_{G_4}$,moving_distance
R-HSA-5368286,0.0009017902999401981,394.0,4,$\widetilde{A}_{G_4}$,moving_distance
R-HSA-5368287,0.0008996488128899635,395.0,4,$\widetilde{A}_{G_4}$,moving_distance
R-HSA-445355,0.0008989679062976493,396.0,4,$\widetilde{A}_{G_4}$,moving_distance
R-HSA-389977,0.0008978120430628077,397.0,4,$\widetilde{A}_{G_4}$,moving_distance
R-HSA-2470946,0.0008975388128123666,398.0,4,$\widetilde{A}_{G_4}$,moving_distance
R-HSA-3214815,0.0008965989354129719,399.0,4,$\widetilde{A}_{G_4}$,moving_distance
R-HSA-5619102,0.0008961038612518725,400.0,4,$\widetilde{A}_{G_4}$,moving_distance
R-HSA-5250913,0.0008920963206937198,401.0,4,$\widetilde{A}_{G_4}$,moving_distance
R-HSA-167152,0.0008914147387925519,402.0,4,$\widetilde{A}_{G_4}$,moving_distance
R-HSA-8875555,0.0008904585941095114,403.0,4,$\widetilde{A}_{G_4}$,moving_distance
R-HSA-2730905,0.0008897576088900384,404.0,4,$\widetilde{A}_{G_4}$,moving_distance
R-HSA-430039,0.0008881122084369604,405.0,4,$\widetilde{A}_{G_4}$,moving_distance
R-HSA-4615885,0.0008878982792337401,406.0,4,$\widetilde{A}_{G_4}$,moving_distance
R-HSA-5654716,0.0008859352194220415,407.0,4,$\widetilde{A}_{G_4}$,moving_distance
R-HSA-451326,0.0008857567323684956,408.0,4,$\widetilde{A}_{G_4}$,moving_distance
R-HSA-1810476,0.0008846874109609547,409.0,4,$\widetilde{A}_{G_4}$,moving_distance
R-HSA-379716,0.0008824043879940601,410.0,4,$\widetilde{A}_{G_4}$,moving_distance
R-HSA-936964,0.0008807579356708671,411.0,4,$\widetilde{A}_{G_4}$,moving_distance
R-HSA-72187,0.0008805580273123233,412.0,4,$\widetilde{A}_{G_4}$,moving_distance
R-HSA-75955,0.0008796800669472437,413.0,4,$\widetilde{A}_{G_4}$,moving_distance
R-HSA-112382,0.0008796800669472433,414.0,4,$\widetilde{A}_{G_4}$,moving_distance
R-HSA-381676,0.000879659399747863,415.0,4,$\widetilde{A}_{G_4}$,moving_distance
R-HSA-8851805,0.0008784727371268972,416.0,4,$\widetilde{A}_{G_4}$,moving_distance
R-HSA-500657,0.0008780766273431431,417.0,4,$\widetilde{A}_{G_4}$,moving_distance
R-HSA-5654708,0.000878074381829274,418.0,4,$\widetilde{A}_{G_4}$,moving_distance
R-HSA-5358346,0.0008778166016390795,419.0,4,$\widetilde{A}_{G_4}$,moving_distance
R-HSA-427413,0.0008738841569818662,420.0,4,$\widetilde{A}_{G_4}$,moving_distance
R-HSA-9617324,0.000873784577043927,421.0,4,$\widetilde{A}_{G_4}$,moving_distance
R-HSA-9027284,0.0008735742316394511,422.0,4,$\widetilde{A}_{G_4}$,moving_distance
R-HSA-379724,0.0008722939183513598,423.0,4,$\widetilde{A}_{G_4}$,moving_distance
R-HSA-3238698,0.0008722911749157433,424.0,4,$\widetilde{A}_{G_4}$,moving_distance
R-HSA-5387390,0.0008714446482850543,425.0,4,$\widetilde{A}_{G_4}$,moving_distance
R-HSA-5654699,0.0008705026192177528,426.0,4,$\widetilde{A}_{G_4}$,moving_distance
R-HSA-202670,0.0008704436257345608,427.0,4,$\widetilde{A}_{G_4}$,moving_distance
R-HSA-9006115,0.0008698872419274572,428.0,4,$\widetilde{A}_{G_4}$,moving_distance
R-HSA-912446,0.0008696199581087648,429.0,4,$\widetilde{A}_{G_4}$,moving_distance
R-HSA-9020956,0.0008669550720472699,430.0,4,$\widetilde{A}_{G_4}$,moving_distance
R-HSA-5250941,0.0008633785200892945,431.0,4,$\widetilde{A}_{G_4}$,moving_distance
R-HSA-5625740,0.0008594719360456829,432.0,4,$\widetilde{A}_{G_4}$,moving_distance
R-HSA-9673767,0.0008589523546303387,433.5,4,$\widetilde{A}_{G_4}$,moving_distance
R-HSA-9673770,0.0008589523546303387,433.5,4,$\widetilde{A}_{G_4}$,moving_distance
R-HSA-9634638,0.0008584501566072525,435.0,4,$\widetilde{A}_{G_4}$,moving_distance
R-HSA-1834949,0.0008581929547042345,436.0,4,$\widetilde{A}_{G_4}$,moving_distance
R-HSA-8943724,0.0008562302992051202,437.0,4,$\widetilde{A}_{G_4}$,moving_distance
R-HSA-429947,0.0008561985452617105,438.0,4,$\widetilde{A}_{G_4}$,moving_distance
R-HSA-877312,0.0008557101611333136,439.0,4,$\widetilde{A}_{G_4}$,moving_distance
R-HSA-9637690,0.0008551485601697055,440.0,4,$\widetilde{A}_{G_4}$,moving_distance
R-HSA-9013404,0.0008551177173759285,441.0,4,$\widetilde{A}_{G_4}$,moving_distance
R-HSA-6809371,0.0008546269986470776,442.5,4,$\widetilde{A}_{G_4}$,moving_distance
R-HSA-6805567,0.0008546269986470776,442.5,4,$\widetilde{A}_{G_4}$,moving_distance
R-HSA-1445148,0.0008545002898930898,444.0,4,$\widetilde{A}_{G_4}$,moving_distance
R-HSA-9028731,0.0008541163820137842,445.0,4,$\widetilde{A}_{G_4}$,moving_distance
R-HSA-5140745,0.0008535978325875861,446.0,4,$\widetilde{A}_{G_4}$,moving_distance
R-HSA-5654693,0.0008535407611893709,447.0,4,$\widetilde{A}_{G_4}$,moving_distance
R-HSA-69109,0.000852381826060349,448.0,4,$\widetilde{A}_{G_4}$,moving_distance
R-HSA-69091,0.0008523818260603483,449.0,4,$\widetilde{A}_{G_4}$,moving_distance
R-HSA-9013424,0.0008521886523959133,450.0,4,$\widetilde{A}_{G_4}$,moving_distance
R-HSA-1433559,0.0008504445042352912,451.0,4,$\widetilde{A}_{G_4}$,moving_distance
R-HSA-9703648,0.0008501321393241186,452.0,4,$\widetilde{A}_{G_4}$,moving_distance
R-HSA-9013405,0.0008493318047074047,453.0,4,$\widetilde{A}_{G_4}$,moving_distance
R-HSA-9614085,0.0008492273288531858,454.0,4,$\widetilde{A}_{G_4}$,moving_distance
R-HSA-167172,0.0008473094886205103,455.0,4,$\widetilde{A}_{G_4}$,moving_distance
R-HSA-8950505,0.000846924897623102,456.0,4,$\widetilde{A}_{G_4}$,moving_distance
R-HSA-111932,0.0008464307078342961,457.0,4,$\widetilde{A}_{G_4}$,moving_distance
R-HSA-73854,0.0008444941709675477,458.0,4,$\widetilde{A}_{G_4}$,moving_distance
R-HSA-176033,0.0008441956403963445,459.0,4,$\widetilde{A}_{G_4}$,moving_distance
R-HSA-180910,0.000844195640396344,460.0,4,$\widetilde{A}_{G_4}$,moving_distance
R-HSA-420092,0.0008441628992705587,461.0,4,$\widetilde{A}_{G_4}$,moving_distance
R-HSA-74752,0.0008439210611417647,462.0,4,$\widetilde{A}_{G_4}$,moving_distance
R-HSA-74751,0.000843921061141764,463.0,4,$\widetilde{A}_{G_4}$,moving_distance
R-HSA-202040,0.0008436693086536048,464.0,4,$\widetilde{A}_{G_4}$,moving_distance
R-HSA-73864,0.0008389316070142737,465.0,4,$\widetilde{A}_{G_4}$,moving_distance
R-HSA-5668541,0.0008384310830869063,466.0,4,$\widetilde{A}_{G_4}$,moving_distance
R-HSA-392170,0.0008377563285705146,467.0,4,$\widetilde{A}_{G_4}$,moving_distance
R-HSA-167243,0.0008369603031152591,468.0,4,$\widetilde{A}_{G_4}$,moving_distance
R-HSA-167238,0.0008369603031152589,469.0,4,$\widetilde{A}_{G_4}$,moving_distance
R-HSA-9013507,0.0008363888383812424,470.0,4,$\widetilde{A}_{G_4}$,moving_distance
R-HSA-9703465,0.0008360803525193317,471.0,4,$\widetilde{A}_{G_4}$,moving_distance
R-HSA-399956,0.0008350153253177717,472.0,4,$\widetilde{A}_{G_4}$,moving_distance
R-HSA-2122948,0.0008347558617289151,473.0,4,$\widetilde{A}_{G_4}$,moving_distance
R-HSA-70171,0.0008339384337605486,474.0,4,$\widetilde{A}_{G_4}$,moving_distance
R-HSA-9006335,0.0008337456012778715,475.0,4,$\widetilde{A}_{G_4}$,moving_distance
R-HSA-8964616,0.0008334894962707284,476.0,4,$\widetilde{A}_{G_4}$,moving_distance
R-HSA-73856,0.0008331565958174185,477.0,4,$\widetilde{A}_{G_4}$,moving_distance
R-HSA-674695,0.0008327948772244914,478.0,4,$\widetilde{A}_{G_4}$,moving_distance
R-HSA-418346,0.0008321864084845506,479.0,4,$\widetilde{A}_{G_4}$,moving_distance
R-HSA-5619107,0.0008317455893319717,480.0,4,$\widetilde{A}_{G_4}$,moving_distance
R-HSA-168325,0.0008317455893319716,481.0,4,$\widetilde{A}_{G_4}$,moving_distance
R-HSA-170822,0.0008317455893319715,482.0,4,$\widetilde{A}_{G_4}$,moving_distance
R-HSA-8964038,0.0008314330624730216,483.0,4,$\widetilde{A}_{G_4}$,moving_distance
R-HSA-8866654,0.0008313538890813146,484.0,4,$\widetilde{A}_{G_4}$,moving_distance
R-HSA-2871837,0.0008304710961723092,485.0,4,$\widetilde{A}_{G_4}$,moving_distance
R-HSA-1227986,0.0008296483108150197,486.0,4,$\widetilde{A}_{G_4}$,moving_distance
R-HSA-5654695,0.000827395661808096,487.0,4,$\widetilde{A}_{G_4}$,moving_distance
R-HSA-168276,0.0008271679646722831,488.0,4,$\widetilde{A}_{G_4}$,moving_distance
R-HSA-162658,0.0008262877284100292,489.0,4,$\widetilde{A}_{G_4}$,moving_distance
R-HSA-3301854,0.0008250695372736799,490.0,4,$\widetilde{A}_{G_4}$,moving_distance
R-HSA-442742,0.0008244215348717101,491.0,4,$\widetilde{A}_{G_4}$,moving_distance
R-HSA-2465910,0.0008241479822776687,492.0,4,$\widetilde{A}_{G_4}$,moving_distance
R-HSA-168271,0.0008229763426377741,493.0,4,$\widetilde{A}_{G_4}$,moving_distance
R-HSA-4839735,0.0008228331586978717,494.0,4,$\widetilde{A}_{G_4}$,moving_distance
R-HSA-5467340,0.0008228331586978715,495.0,4,$\widetilde{A}_{G_4}$,moving_distance
R-HSA-4839748,0.0008228331586978714,497.5,4,$\widetilde{A}_{G_4}$,moving_distance
R-HSA-5467348,0.0008228331586978714,497.5,4,$\widetilde{A}_{G_4}$,moving_distance
R-HSA-5467337,0.0008228331586978714,497.5,4,$\widetilde{A}_{G_4}$,moving_distance
R-HSA-4839744,0.0008228331586978714,497.5,4,$\widetilde{A}_{G_4}$,moving_distance
R-HSA-8849471,0.0008225764812190971,500.0,4,$\widetilde{A}_{G_4}$,moving_distance
R-HSA-9709957,0.0008178735476550162,501.0,4,$\widetilde{A}_{G_4}$,moving_distance
R-HSA-5362768,0.0008169146428174622,502.0,4,$\widetilde{A}_{G_4}$,moving_distance
R-HSA-8948216,0.0008164763379919273,503.0,4,$\widetilde{A}_{G_4}$,moving_distance
R-HSA-5250924,0.0008162026608118711,504.0,4,$\widetilde{A}_{G_4}$,moving_distance
R-HSA-167290,0.0008156342119365465,505.0,4,$\widetilde{A}_{G_4}$,moving_distance
R-HSA-167287,0.0008156342119365461,506.0,4,$\widetilde{A}_{G_4}$,moving_distance
R-HSA-6783310,0.0008153039445303881,507.0,4,$\widetilde{A}_{G_4}$,moving_distance
R-HSA-203927,0.000815287332477764,508.0,4,$\widetilde{A}_{G_4}$,moving_distance
R-HSA-8863795,0.000813965580419055,509.0,4,$\widetilde{A}_{G_4}$,moving_distance
R-HSA-72306,0.0008138317063110558,510.0,4,$\widetilde{A}_{G_4}$,moving_distance
R-HSA-8852135,0.0008136707786590823,511.0,4,$\widetilde{A}_{G_4}$,moving_distance
R-HSA-6784531,0.0008126732925507153,512.0,4,$\widetilde{A}_{G_4}$,moving_distance
R-HSA-113501,0.0008126137991648797,513.0,4,$\widetilde{A}_{G_4}$,moving_distance
R-HSA-977444,0.000812153409607521,514.0,4,$\widetilde{A}_{G_4}$,moving_distance
R-HSA-977443,0.0008121534096075206,515.0,4,$\widetilde{A}_{G_4}$,moving_distance
R-HSA-991365,0.0008121534096075205,516.0,4,$\widetilde{A}_{G_4}$,moving_distance
R-HSA-2682334,0.0008116729342724066,517.0,4,$\widetilde{A}_{G_4}$,moving_distance
R-HSA-3232142,0.0008102887030943431,518.0,4,$\widetilde{A}_{G_4}$,moving_distance
R-HSA-6811434,0.0008102408023289276,519.0,4,$\widetilde{A}_{G_4}$,moving_distance
R-HSA-70268,0.0008097401951909929,520.0,4,$\widetilde{A}_{G_4}$,moving_distance
R-HSA-4085377,0.0008074841573886756,521.0,4,$\widetilde{A}_{G_4}$,moving_distance
R-HSA-9615933,0.0008074788726148987,522.0,4,$\widetilde{A}_{G_4}$,moving_distance
R-HSA-5205647,0.0008073719453511682,523.0,4,$\widetilde{A}_{G_4}$,moving_distance
R-HSA-209560,0.0008071559044973794,524.0,4,$\widetilde{A}_{G_4}$,moving_distance
R-HSA-6796648,0.0008063960021859774,525.0,4,$\widetilde{A}_{G_4}$,moving_distance
R-HSA-500792,0.0008055099684141434,526.0,4,$\widetilde{A}_{G_4}$,moving_distance
R-HSA-445989,0.0008054430777400551,527.0,4,$\widetilde{A}_{G_4}$,moving_distance
R-HSA-73863,0.0008037386603326988,528.0,4,$\widetilde{A}_{G_4}$,moving_distance
R-HSA-9604323,0.0008032916343420889,529.0,4,$\widetilde{A}_{G_4}$,moving_distance
R-HSA-5578775,0.0008024610766776902,530.0,4,$\widetilde{A}_{G_4}$,moving_distance
R-HSA-9013423,0.0008009274233554383,531.0,4,$\widetilde{A}_{G_4}$,moving_distance
R-HSA-168927,0.0007999806709635967,532.0,4,$\widetilde{A}_{G_4}$,moving_distance
R-HSA-6811438,0.0007987371176944962,533.0,4,$\widetilde{A}_{G_4}$,moving_distance
R-HSA-77387,0.0007983415820612519,534.0,4,$\widetilde{A}_{G_4}$,moving_distance
R-HSA-400253,0.0007979888268831568,535.0,4,$\widetilde{A}_{G_4}$,moving_distance
R-HSA-202131,0.0007970550174369646,536.0,4,$\widetilde{A}_{G_4}$,moving_distance
R-HSA-2424491,0.0007965042002032284,537.0,4,$\widetilde{A}_{G_4}$,moving_distance
R-HSA-5654687,0.0007962984356998711,538.0,4,$\widetilde{A}_{G_4}$,moving_distance
R-HSA-191859,0.0007961284022181404,539.0,4,$\widetilde{A}_{G_4}$,moving_distance
R-HSA-194441,0.0007961284022181401,540.0,4,$\widetilde{A}_{G_4}$,moving_distance
R-HSA-210993,0.0007943557720657608,541.0,4,$\widetilde{A}_{G_4}$,moving_distance
R-HSA-611105,0.0007939235398554544,542.0,4,$\widetilde{A}_{G_4}$,moving_distance
R-HSA-163359,0.0007929282195703199,543.0,4,$\widetilde{A}_{G_4}$,moving_distance
R-HSA-174178,0.000792472699859196,544.0,4,$\widetilde{A}_{G_4}$,moving_distance
R-HSA-8941858,0.0007923368045407029,545.0,4,$\widetilde{A}_{G_4}$,moving_distance
R-HSA-1250196,0.0007922023220349675,546.0,4,$\widetilde{A}_{G_4}$,moving_distance
R-HSA-9617629,0.000791294681216835,547.0,4,$\widetilde{A}_{G_4}$,moving_distance
R-HSA-6785631,0.0007908390091600394,548.0,4,$\widetilde{A}_{G_4}$,moving_distance
R-HSA-9660821,0.0007889880380429398,549.0,4,$\widetilde{A}_{G_4}$,moving_distance
R-HSA-6804758,0.0007870045086380529,550.0,4,$\widetilde{A}_{G_4}$,moving_distance
R-HSA-8949613,0.0007847645915280224,551.0,4,$\widetilde{A}_{G_4}$,moving_distance
R-HSA-8853659,0.0007846815601440498,552.0,4,$\widetilde{A}_{G_4}$,moving_distance
R-HSA-9635486,0.0007835372104020214,553.0,4,$\widetilde{A}_{G_4}$,moving_distance
R-HSA-975163,0.0007823725210163822,554.0,4,$\widetilde{A}_{G_4}$,moving_distance
R-HSA-68949,0.0007820603884372003,555.0,4,$\widetilde{A}_{G_4}$,moving_distance
R-HSA-195253,0.000780610494483268,556.0,4,$\widetilde{A}_{G_4}$,moving_distance
R-HSA-8953750,0.00077974206146792,557.0,4,$\widetilde{A}_{G_4}$,moving_distance
R-HSA-1236978,0.0007797260290384903,558.0,4,$\widetilde{A}_{G_4}$,moving_distance
R-HSA-418217,0.000779596835116482,559.0,4,$\widetilde{A}_{G_4}$,moving_distance
R-HSA-1606322,0.0007788544859398228,560.0,4,$\widetilde{A}_{G_4}$,moving_distance
R-HSA-187687,0.0007761042544791282,561.0,4,$\widetilde{A}_{G_4}$,moving_distance
R-HSA-180746,0.0007728913401002629,562.0,4,$\widetilde{A}_{G_4}$,moving_distance
R-HSA-432040,0.0007726254488046627,563.0,4,$\widetilde{A}_{G_4}$,moving_distance
R-HSA-392851,0.0007726254488046621,564.5,4,$\widetilde{A}_{G_4}$,moving_distance
R-HSA-445717,0.0007726254488046621,564.5,4,$\widetilde{A}_{G_4}$,moving_distance
R-HSA-264876,0.0007712108044458305,566.0,4,$\widetilde{A}_{G_4}$,moving_distance
R-HSA-8854050,0.0007707375706377158,567.0,4,$\widetilde{A}_{G_4}$,moving_distance
R-HSA-912694,0.0007706460785235185,568.0,4,$\widetilde{A}_{G_4}$,moving_distance
R-HSA-174113,0.0007668427225964548,569.0,4,$\widetilde{A}_{G_4}$,moving_distance
R-HSA-1222556,0.0007639365660939891,570.0,4,$\widetilde{A}_{G_4}$,moving_distance
R-HSA-983695,0.0007616969729858054,571.0,4,$\widetilde{A}_{G_4}$,moving_distance
R-HSA-5205685,0.0007605858748788592,572.0,4,$\widetilde{A}_{G_4}$,moving_distance
R-HSA-180534,0.0007599820299237443,573.0,4,$\widetilde{A}_{G_4}$,moving_distance
R-HSA-68827,0.0007595198657667789,574.0,4,$\widetilde{A}_{G_4}$,moving_distance
R-HSA-442720,0.0007595108502985178,575.0,4,$\widetilde{A}_{G_4}$,moving_distance
R-HSA-8856688,0.0007590483924729951,576.0,4,$\widetilde{A}_{G_4}$,moving_distance
R-HSA-5610783,0.000758296492878032,577.0,4,$\widetilde{A}_{G_4}$,moving_distance
R-HSA-5610785,0.0007581482736028605,578.0,4,$\widetilde{A}_{G_4}$,moving_distance
R-HSA-8964043,0.0007580561099063915,579.0,4,$\widetilde{A}_{G_4}$,moving_distance
R-HSA-198753,0.0007578658275675886,580.0,4,$\widetilde{A}_{G_4}$,moving_distance
R-HSA-9619483,0.000757702302639716,581.0,4,$\widetilde{A}_{G_4}$,moving_distance
R-HSA-5610780,0.0007576236913911603,582.0,4,$\widetilde{A}_{G_4}$,moving_distance
R-HSA-68867,0.0007576060255578364,583.0,4,$\widetilde{A}_{G_4}$,moving_distance
R-HSA-9671555,0.0007562393771785533,584.0,4,$\widetilde{A}_{G_4}$,moving_distance
R-HSA-9617828,0.00075619355527164,585.0,4,$\widetilde{A}_{G_4}$,moving_distance
R-HSA-6811436,0.0007552432526744783,586.0,4,$\widetilde{A}_{G_4}$,moving_distance
R-HSA-8984722,0.0007544133537462418,587.0,4,$\widetilde{A}_{G_4}$,moving_distance
R-HSA-5601884,0.0007538311659304022,588.0,4,$\widetilde{A}_{G_4}$,moving_distance
R-HSA-9013694,0.000753753221226512,589.0,4,$\widetilde{A}_{G_4}$,moving_distance
R-HSA-111997,0.0007529155596190459,590.0,4,$\widetilde{A}_{G_4}$,moving_distance
R-HSA-111933,0.0007529155596190455,591.0,4,$\widetilde{A}_{G_4}$,moving_distance
R-HSA-9013408,0.000752373828984273,592.0,4,$\widetilde{A}_{G_4}$,moving_distance
R-HSA-4551638,0.0007512450569739878,593.0,4,$\widetilde{A}_{G_4}$,moving_distance
R-HSA-2172127,0.0007500915422160036,594.0,4,$\widetilde{A}_{G_4}$,moving_distance
R-HSA-169911,0.0007480441550231519,595.0,4,$\widetilde{A}_{G_4}$,moving_distance
R-HSA-211733,0.0007480441550231514,596.0,4,$\widetilde{A}_{G_4}$,moving_distance
R-HSA-180585,0.0007476924070469863,597.0,4,$\widetilde{A}_{G_4}$,moving_distance
R-HSA-9013420,0.0007475989193573348,598.0,4,$\widetilde{A}_{G_4}$,moving_distance
R-HSA-8948751,0.0007471754660821849,599.0,4,$\widetilde{A}_{G_4}$,moving_distance
R-HSA-4755510,0.0007468941006087338,600.0,4,$\widetilde{A}_{G_4}$,moving_distance
R-HSA-5607764,0.0007464653400036282,601.0,4,$\widetilde{A}_{G_4}$,moving_distance
R-HSA-5654696,0.0007461838030894382,602.0,4,$\widetilde{A}_{G_4}$,moving_distance
R-HSA-5654700,0.000745574902175956,603.0,4,$\widetilde{A}_{G_4}$,moving_distance
R-HSA-3214858,0.0007449161523359524,604.0,4,$\widetilde{A}_{G_4}$,moving_distance
R-HSA-5621575,0.0007440486110661943,605.0,4,$\widetilde{A}_{G_4}$,moving_distance
R-HSA-75815,0.0007440485936314487,606.0,4,$\widetilde{A}_{G_4}$,moving_distance
R-HSA-382556,0.0007438983712104893,607.0,4,$\widetilde{A}_{G_4}$,moving_distance
R-HSA-1168372,0.0007438130242774136,608.0,4,$\widetilde{A}_{G_4}$,moving_distance
R-HSA-69052,0.0007435100259431506,609.0,4,$\widetilde{A}_{G_4}$,moving_distance
R-HSA-5339562,0.000743469456035401,610.0,4,$\widetilde{A}_{G_4}$,moving_distance
R-HSA-1169091,0.0007427339924781099,611.0,4,$\widetilde{A}_{G_4}$,moving_distance
R-HSA-5685938,0.0007424277839411632,612.0,4,$\widetilde{A}_{G_4}$,moving_distance
R-HSA-4570464,0.0007420092424892208,613.0,4,$\widetilde{A}_{G_4}$,moving_distance
R-HSA-9639288,0.0007419939463096998,614.0,4,$\widetilde{A}_{G_4}$,moving_distance
R-HSA-917977,0.0007416150539017964,615.0,4,$\widetilde{A}_{G_4}$,moving_distance
R-HSA-418597,0.0007407113949204519,616.0,4,$\widetilde{A}_{G_4}$,moving_distance
R-HSA-181430,0.0007392742847660825,618.5,4,$\widetilde{A}_{G_4}$,moving_distance
R-HSA-212676,0.0007392742847660825,618.5,4,$\widetilde{A}_{G_4}$,moving_distance
R-HSA-210500,0.0007392742847660825,618.5,4,$\widetilde{A}_{G_4}$,moving_distance
R-HSA-181429,0.0007392742847660825,618.5,4,$\widetilde{A}_{G_4}$,moving_distance
R-HSA-264642,0.0007392742847660823,621.0,4,$\widetilde{A}_{G_4}$,moving_distance
R-HSA-9668328,0.0007392117292742744,622.0,4,$\widetilde{A}_{G_4}$,moving_distance
R-HSA-4086400,0.0007384129888578319,623.0,4,$\widetilde{A}_{G_4}$,moving_distance
R-HSA-112040,0.0007380711755610358,624.0,4,$\widetilde{A}_{G_4}$,moving_distance
R-HSA-351202,0.0007375157225021177,625.0,4,$\widetilde{A}_{G_4}$,moving_distance
R-HSA-4641257,0.0007363570308844291,626.0,4,$\widetilde{A}_{G_4}$,moving_distance
R-HSA-8949664,0.0007362870642621769,627.0,4,$\widetilde{A}_{G_4}$,moving_distance
R-HSA-453276,0.0007356483376230182,628.0,4,$\widetilde{A}_{G_4}$,moving_distance
R-HSA-174143,0.0007356483376230177,629.0,4,$\widetilde{A}_{G_4}$,moving_distance
R-HSA-166663,0.0007353830985658449,630.0,4,$\widetilde{A}_{G_4}$,moving_distance
R-HSA-5578749,0.0007353106500672888,631.0,4,$\widetilde{A}_{G_4}$,moving_distance
R-HSA-112310,0.0007352259166542607,632.0,4,$\widetilde{A}_{G_4}$,moving_distance
R-HSA-69601,0.0007351102403215012,633.0,4,$\widetilde{A}_{G_4}$,moving_distance
R-HSA-69613,0.000735110240321501,634.5,4,$\widetilde{A}_{G_4}$,moving_distance
R-HSA-69610,0.000735110240321501,634.5,4,$\widetilde{A}_{G_4}$,moving_distance
R-HSA-5602498,0.0007328076532591429,636.0,4,$\widetilde{A}_{G_4}$,moving_distance
R-HSA-5676590,0.0007326614973184325,637.0,4,$\widetilde{A}_{G_4}$,moving_distance
R-HSA-111996,0.0007325485328762403,638.0,4,$\widetilde{A}_{G_4}$,moving_distance
R-HSA-1059683,0.0007318955657256533,639.0,4,$\widetilde{A}_{G_4}$,moving_distance
R-HSA-8964315,0.0007317620355438792,640.0,4,$\widetilde{A}_{G_4}$,moving_distance
R-HSA-9020591,0.0007316878794629176,641.0,4,$\widetilde{A}_{G_4}$,moving_distance
R-HSA-8873719,0.0007315287846142468,642.0,4,$\widetilde{A}_{G_4}$,moving_distance
R-HSA-140534,0.0007311244415386811,643.0,4,$\widetilde{A}_{G_4}$,moving_distance
R-HSA-5357769,0.0007308743009263782,644.0,4,$\widetilde{A}_{G_4}$,moving_distance
R-HSA-5607761,0.0007302454150777853,645.0,4,$\widetilde{A}_{G_4}$,moving_distance
R-HSA-933542,0.0007298019285745935,646.0,4,$\widetilde{A}_{G_4}$,moving_distance
R-HSA-180024,0.0007287807938006737,647.0,4,$\widetilde{A}_{G_4}$,moving_distance
R-HSA-6804757,0.0007281555500069857,648.5,4,$\widetilde{A}_{G_4}$,moving_distance
R-HSA-6806003,0.0007281555500069857,648.5,4,$\widetilde{A}_{G_4}$,moving_distance
R-HSA-1236975,0.0007278030778475092,650.0,4,$\widetilde{A}_{G_4}$,moving_distance
R-HSA-112043,0.0007276664451418916,651.0,4,$\widetilde{A}_{G_4}$,moving_distance
R-HSA-2428924,0.0007273473471227365,652.5,4,$\widetilde{A}_{G_4}$,moving_distance
R-HSA-2404192,0.0007273473471227365,652.5,4,$\widetilde{A}_{G_4}$,moving_distance
R-HSA-8866652,0.0007256719706031229,654.0,4,$\widetilde{A}_{G_4}$,moving_distance
R-HSA-446353,0.0007241390994975386,655.0,4,$\widetilde{A}_{G_4}$,moving_distance
R-HSA-2173795,0.000723069450535266,656.0,4,$\widetilde{A}_{G_4}$,moving_distance
R-HSA-2468052,0.0007216949051806878,657.0,4,$\widetilde{A}_{G_4}$,moving_distance
R-HSA-163210,0.0007215528793895737,658.0,4,$\widetilde{A}_{G_4}$,moving_distance
R-HSA-111885,0.0007193275417505582,659.0,4,$\widetilde{A}_{G_4}$,moving_distance
R-HSA-450282,0.0007191486383183102,660.0,4,$\widetilde{A}_{G_4}$,moving_distance
R-HSA-390471,0.0007176676299654621,661.0,4,$\widetilde{A}_{G_4}$,moving_distance
R-HSA-179419,0.0007167550839180104,662.0,4,$\widetilde{A}_{G_4}$,moving_distance
R-HSA-5358508,0.0007158824790878396,663.0,4,$\widetilde{A}_{G_4}$,moving_distance
R-HSA-350562,0.0007147128882730296,664.0,4,$\widetilde{A}_{G_4}$,moving_distance
R-HSA-380972,0.0007135315399029211,665.0,4,$\widetilde{A}_{G_4}$,moving_distance
R-HSA-174184,0.0007133029546719471,666.0,4,$\widetilde{A}_{G_4}$,moving_distance
R-HSA-176409,0.0007120566610052089,667.0,4,$\widetilde{A}_{G_4}$,moving_distance
R-HSA-69002,0.0007109528302588939,668.0,4,$\widetilde{A}_{G_4}$,moving_distance
R-HSA-187577,0.0007105317990991025,669.0,4,$\widetilde{A}_{G_4}$,moving_distance
R-HSA-5358565,0.000710412221567414,670.0,4,$\widetilde{A}_{G_4}$,moving_distance
R-HSA-6807878,0.0007099488385241694,671.0,4,$\widetilde{A}_{G_4}$,moving_distance
R-HSA-3270619,0.0007095280022120663,672.0,4,$\widetilde{A}_{G_4}$,moving_distance
R-HSA-9673324,0.0007092842626980959,673.5,4,$\widetilde{A}_{G_4}$,moving_distance
R-HSA-9664420,0.0007092842626980959,673.5,4,$\widetilde{A}_{G_4}$,moving_distance
R-HSA-5696400,0.0007092295196694488,675.0,4,$\widetilde{A}_{G_4}$,moving_distance
R-HSA-6782210,0.0007091093489693568,676.0,4,$\widetilde{A}_{G_4}$,moving_distance
R-HSA-176408,0.0007080253764425815,677.0,4,$\widetilde{A}_{G_4}$,moving_distance
R-HSA-5678895,0.0007078934239691106,678.0,4,$\widetilde{A}_{G_4}$,moving_distance
R-HSA-174084,0.0007066848516170364,679.0,4,$\widetilde{A}_{G_4}$,moving_distance
R-HSA-4641258,0.0007063499116138293,680.0,4,$\widetilde{A}_{G_4}$,moving_distance
R-HSA-174154,0.00070591769134887,681.0,4,$\widetilde{A}_{G_4}$,moving_distance
R-HSA-9615710,0.0007058593044155083,682.0,4,$\widetilde{A}_{G_4}$,moving_distance
R-HSA-9031628,0.0007057799026172868,683.0,4,$\widetilde{A}_{G_4}$,moving_distance
R-HSA-176974,0.0007051665380907417,684.0,4,$\widetilde{A}_{G_4}$,moving_distance
R-HSA-428930,0.0007051069584833869,685.0,4,$\widetilde{A}_{G_4}$,moving_distance
R-HSA-176814,0.0007047739417686668,686.0,4,$\widetilde{A}_{G_4}$,moving_distance
R-HSA-5619084,0.0007045295391092317,687.0,4,$\widetilde{A}_{G_4}$,moving_distance
R-HSA-5625886,0.0007041507691198357,688.0,4,$\widetilde{A}_{G_4}$,moving_distance
R-HSA-399954,0.000704069747902745,689.0,4,$\widetilde{A}_{G_4}$,moving_distance
R-HSA-5682910,0.0007039284325827914,690.0,4,$\widetilde{A}_{G_4}$,moving_distance
R-HSA-166208,0.0007034670829780018,691.0,4,$\widetilde{A}_{G_4}$,moving_distance
R-HSA-982772,0.0007033896305839776,692.0,4,$\widetilde{A}_{G_4}$,moving_distance
R-HSA-204005,0.0007027838241139942,693.0,4,$\widetilde{A}_{G_4}$,moving_distance
R-HSA-5358606,0.0007016755462775617,694.0,4,$\widetilde{A}_{G_4}$,moving_distance
R-HSA-165159,0.0007014793384349536,695.0,4,$\widetilde{A}_{G_4}$,moving_distance
R-HSA-532668,0.0007001727547776544,696.0,4,$\widetilde{A}_{G_4}$,moving_distance
R-HSA-5655302,0.0007000017651441827,697.0,4,$\widetilde{A}_{G_4}$,moving_distance
R-HSA-1489509,0.0006987263110790043,698.0,4,$\widetilde{A}_{G_4}$,moving_distance
R-HSA-1980145,0.0006980930746625125,699.0,4,$\widetilde{A}_{G_4}$,moving_distance
R-HSA-8939243,0.0006979807161112788,700.0,4,$\widetilde{A}_{G_4}$,moving_distance
R-HSA-912526,0.0006978939065861085,701.0,4,$\widetilde{A}_{G_4}$,moving_distance
R-HSA-428540,0.0006973856105195524,702.0,4,$\widetilde{A}_{G_4}$,moving_distance
R-HSA-1296041,0.0006973014733764691,703.0,4,$\widetilde{A}_{G_4}$,moving_distance
R-HSA-997272,0.000697301473376469,704.0,4,$\widetilde{A}_{G_4}$,moving_distance
R-HSA-1296059,0.0006973014733764688,705.0,4,$\widetilde{A}_{G_4}$,moving_distance
R-HSA-5610787,0.0006971405802141568,706.0,4,$\widetilde{A}_{G_4}$,moving_distance
R-HSA-427359,0.0006963778078882072,707.0,4,$\widetilde{A}_{G_4}$,moving_distance
R-HSA-3215018,0.0006962007686817026,708.0,4,$\widetilde{A}_{G_4}$,moving_distance
R-HSA-111931,0.0006942800915585479,709.0,4,$\widetilde{A}_{G_4}$,moving_distance
R-HSA-418592,0.0006939518973446265,710.0,4,$\widetilde{A}_{G_4}$,moving_distance
R-HSA-2559586,0.0006934086438830447,711.0,4,$\widetilde{A}_{G_4}$,moving_distance
R-HSA-73728,0.0006932476243756119,712.0,4,$\widetilde{A}_{G_4}$,moving_distance
R-HSA-5617472,0.000691844603984899,713.0,4,$\widetilde{A}_{G_4}$,moving_distance
R-HSA-5619507,0.0006918446039848983,714.0,4,$\widetilde{A}_{G_4}$,moving_distance
R-HSA-73772,0.0006885959134130261,715.0,4,$\widetilde{A}_{G_4}$,moving_distance
R-HSA-450341,0.000687791081849385,716.0,4,$\widetilde{A}_{G_4}$,moving_distance
R-HSA-5218900,0.0006874545458796463,717.0,4,$\widetilde{A}_{G_4}$,moving_distance
R-HSA-3371378,0.0006874545458796461,718.5,4,$\widetilde{A}_{G_4}$,moving_distance
R-HSA-69416,0.0006874545458796461,718.5,4,$\widetilde{A}_{G_4}$,moving_distance
R-HSA-69186,0.0006871900762468279,720.0,4,$\widetilde{A}_{G_4}$,moving_distance
R-HSA-2428928,0.000686847366915057,721.0,4,$\widetilde{A}_{G_4}$,moving_distance
R-HSA-9006927,0.0006867409475455893,722.0,4,$\widetilde{A}_{G_4}$,moving_distance
R-HSA-8848021,0.0006867409475455889,723.0,4,$\widetilde{A}_{G_4}$,moving_distance
R-HSA-1236974,0.0006838347268718997,724.0,4,$\widetilde{A}_{G_4}$,moving_distance
R-HSA-8939236,0.0006834876798675909,725.0,4,$\widetilde{A}_{G_4}$,moving_distance
R-HSA-69017,0.0006833356843858479,726.0,4,$\widetilde{A}_{G_4}$,moving_distance
R-HSA-2672351,0.0006807001366697461,727.0,4,$\widetilde{A}_{G_4}$,moving_distance
R-HSA-1474290,0.0006805154693360718,728.0,4,$\widetilde{A}_{G_4}$,moving_distance
R-HSA-5357786,0.0006802231457079808,729.0,4,$\widetilde{A}_{G_4}$,moving_distance
R-HSA-2299718,0.0006800435580475584,730.0,4,$\widetilde{A}_{G_4}$,moving_distance
R-HSA-9707587,0.0006791133953144217,731.0,4,$\widetilde{A}_{G_4}$,moving_distance
R-HSA-193639,0.0006789512381281359,732.0,4,$\widetilde{A}_{G_4}$,moving_distance
R-HSA-6804760,0.0006774685702292454,733.0,4,$\widetilde{A}_{G_4}$,moving_distance
R-HSA-6782135,0.0006762334362320952,734.0,4,$\widetilde{A}_{G_4}$,moving_distance
R-HSA-4608870,0.0006758974249991397,735.0,4,$\widetilde{A}_{G_4}$,moving_distance
R-HSA-9013409,0.0006743534065819192,736.0,4,$\widetilde{A}_{G_4}$,moving_distance
R-HSA-1839117,0.0006737469806918026,737.0,4,$\widetilde{A}_{G_4}$,moving_distance
R-HSA-209543,0.0006728660652681163,738.0,4,$\widetilde{A}_{G_4}$,moving_distance
R-HSA-5620916,0.0006727040016359173,739.0,4,$\widetilde{A}_{G_4}$,moving_distance
R-HSA-9670095,0.0006719849392729177,740.0,4,$\widetilde{A}_{G_4}$,moving_distance
R-HSA-6781823,0.0006710166304704061,741.0,4,$\widetilde{A}_{G_4}$,moving_distance
R-HSA-2871809,0.000669498902132138,742.0,4,$\widetilde{A}_{G_4}$,moving_distance
R-HSA-111367,0.0006676371510175988,743.0,4,$\widetilde{A}_{G_4}$,moving_distance
R-HSA-9610379,0.0006670148080457986,744.0,4,$\widetilde{A}_{G_4}$,moving_distance
R-HSA-6781827,0.000666918480747459,745.0,4,$\widetilde{A}_{G_4}$,moving_distance
R-HSA-3214847,0.000665165694667968,746.0,4,$\widetilde{A}_{G_4}$,moving_distance
R-HSA-8949215,0.0006627672417921065,747.0,4,$\widetilde{A}_{G_4}$,moving_distance
R-HSA-174824,0.0006624078920692469,748.0,4,$\widetilde{A}_{G_4}$,moving_distance
R-HSA-112399,0.0006623469473539705,749.0,4,$\widetilde{A}_{G_4}$,moving_distance
R-HSA-373080,0.0006620281248455728,750.0,4,$\widetilde{A}_{G_4}$,moving_distance
R-HSA-198323,0.0006613656856973301,751.0,4,$\widetilde{A}_{G_4}$,moving_distance
R-HSA-3214842,0.0006609875081475234,752.0,4,$\widetilde{A}_{G_4}$,moving_distance
R-HSA-5689603,0.0006599255990320568,753.0,4,$\widetilde{A}_{G_4}$,moving_distance
R-HSA-8876725,0.0006588227588108285,754.0,4,$\widetilde{A}_{G_4}$,moving_distance
R-HSA-8932339,0.0006586249212694913,755.0,4,$\widetilde{A}_{G_4}$,moving_distance
R-HSA-174411,0.0006578864374897589,756.0,4,$\widetilde{A}_{G_4}$,moving_distance
R-HSA-6811440,0.0006569479022728336,757.0,4,$\widetilde{A}_{G_4}$,moving_distance
R-HSA-8983432,0.0006561146104453137,758.0,4,$\widetilde{A}_{G_4}$,moving_distance
R-HSA-193704,0.0006549907353754097,759.0,4,$\widetilde{A}_{G_4}$,moving_distance
R-HSA-5693571,0.0006549891257677729,760.0,4,$\widetilde{A}_{G_4}$,moving_distance
R-HSA-917937,0.0006532297691388484,761.0,4,$\widetilde{A}_{G_4}$,moving_distance
R-HSA-5696399,0.0006531663423601557,762.0,4,$\widetilde{A}_{G_4}$,moving_distance
R-HSA-5674400,0.0006528107144329761,763.0,4,$\widetilde{A}_{G_4}$,moving_distance
R-HSA-937061,0.0006519724967377024,764.0,4,$\widetilde{A}_{G_4}$,moving_distance
R-HSA-166166,0.000651972496737701,765.0,4,$\widetilde{A}_{G_4}$,moving_distance
R-HSA-198725,0.0006495776354760229,766.0,4,$\widetilde{A}_{G_4}$,moving_distance
R-HSA-2559582,0.0006468604984541677,767.0,4,$\widetilde{A}_{G_4}$,moving_distance
R-HSA-1834941,0.0006460033526012699,768.0,4,$\widetilde{A}_{G_4}$,moving_distance
R-HSA-5696394,0.0006456878127626408,769.0,4,$\widetilde{A}_{G_4}$,moving_distance
R-HSA-168164,0.0006449238915507291,770.0,4,$\widetilde{A}_{G_4}$,moving_distance
R-HSA-5603041,0.0006446626059153255,771.0,4,$\widetilde{A}_{G_4}$,moving_distance
R-HSA-182971,0.0006417743871216336,772.0,4,$\widetilde{A}_{G_4}$,moving_distance
R-HSA-186712,0.0006411922730152002,773.0,4,$\widetilde{A}_{G_4}$,moving_distance
R-HSA-1234174,0.0006407066270287221,774.0,4,$\widetilde{A}_{G_4}$,moving_distance
R-HSA-6804759,0.000636571907815481,775.0,4,$\widetilde{A}_{G_4}$,moving_distance
R-HSA-1839124,0.0006362512800111563,776.0,4,$\widetilde{A}_{G_4}$,moving_distance
R-HSA-8982491,0.0006357883446063797,777.0,4,$\widetilde{A}_{G_4}$,moving_distance
R-HSA-77588,0.0006351692506343645,778.0,4,$\widetilde{A}_{G_4}$,moving_distance
R-HSA-5694530,0.0006332701596529645,779.0,4,$\widetilde{A}_{G_4}$,moving_distance
R-HSA-69236,0.0006322847457748139,780.0,4,$\widetilde{A}_{G_4}$,moving_distance
R-HSA-69231,0.0006322847457748133,781.0,4,$\widetilde{A}_{G_4}$,moving_distance
R-HSA-5693616,0.0006320662931701641,782.0,4,$\widetilde{A}_{G_4}$,moving_distance
R-HSA-5658442,0.0006295338530500095,783.0,4,$\widetilde{A}_{G_4}$,moving_distance
R-HSA-9710421,0.0006288186045845703,784.0,4,$\widetilde{A}_{G_4}$,moving_distance
R-HSA-5696395,0.0006286322734020527,785.0,4,$\widetilde{A}_{G_4}$,moving_distance
R-HSA-193648,0.0006283928070466126,786.0,4,$\widetilde{A}_{G_4}$,moving_distance
R-HSA-381340,0.00062836320382968,787.0,4,$\widetilde{A}_{G_4}$,moving_distance
R-HSA-170968,0.0006282144935856944,788.0,4,$\widetilde{A}_{G_4}$,moving_distance
R-HSA-909733,0.000625314198434729,789.0,4,$\widetilde{A}_{G_4}$,moving_distance
R-HSA-5693579,0.0006241932225779647,790.0,4,$\widetilde{A}_{G_4}$,moving_distance
R-HSA-9020702,0.0006236961717348374,791.0,4,$\widetilde{A}_{G_4}$,moving_distance
R-HSA-416482,0.0006235006048327105,792.0,4,$\widetilde{A}_{G_4}$,moving_distance
R-HSA-5675221,0.000621690084554242,793.0,4,$\widetilde{A}_{G_4}$,moving_distance
R-HSA-5334118,0.0006208053298286066,794.0,4,$\widetilde{A}_{G_4}$,moving_distance
R-HSA-9694548,0.0006194653870864523,795.0,4,$\widetilde{A}_{G_4}$,moving_distance
R-HSA-2979096,0.0006193632541310953,796.0,4,$\widetilde{A}_{G_4}$,moving_distance
R-HSA-400206,0.0006193050788512185,797.0,4,$\widetilde{A}_{G_4}$,moving_distance
R-HSA-9614657,0.0006179049853682392,798.0,4,$\widetilde{A}_{G_4}$,moving_distance
R-HSA-1989781,0.0006130868555461261,799.0,4,$\widetilde{A}_{G_4}$,moving_distance
R-HSA-69190,0.0006127435814800099,800.0,4,$\widetilde{A}_{G_4}$,moving_distance
R-HSA-877300,0.0006106514385307968,801.0,4,$\widetilde{A}_{G_4}$,moving_distance
R-HSA-73980,0.0006103031778162349,802.0,4,$\widetilde{A}_{G_4}$,moving_distance
R-HSA-73780,0.0006103031778162348,803.0,4,$\widetilde{A}_{G_4}$,moving_distance
R-HSA-69183,0.0006095477509844957,804.0,4,$\widetilde{A}_{G_4}$,moving_distance
R-HSA-171319,0.0006087178794788242,805.0,4,$\widetilde{A}_{G_4}$,moving_distance
R-HSA-2426168,0.0006084453385638713,806.0,4,$\widetilde{A}_{G_4}$,moving_distance
R-HSA-3214841,0.0006076331936076203,807.0,4,$\widetilde{A}_{G_4}$,moving_distance
R-HSA-69166,0.0006065697767869617,808.0,4,$\widetilde{A}_{G_4}$,moving_distance
R-HSA-174048,0.0006045569060225359,809.0,4,$\widetilde{A}_{G_4}$,moving_distance
R-HSA-179409,0.0006031341719723405,810.0,4,$\widetilde{A}_{G_4}$,moving_distance
R-HSA-110331,0.0006025001236178319,811.0,4,$\widetilde{A}_{G_4}$,moving_distance
R-HSA-73929,0.0006025001236178315,812.0,4,$\widetilde{A}_{G_4}$,moving_distance
R-HSA-110330,0.0006025001236178314,813.0,4,$\widetilde{A}_{G_4}$,moving_distance
R-HSA-73927,0.0006025001236178312,814.0,4,$\widetilde{A}_{G_4}$,moving_distance
R-HSA-1592230,0.0006022805871507042,815.0,4,$\widetilde{A}_{G_4}$,moving_distance
R-HSA-71406,0.0006016732270899516,816.0,4,$\widetilde{A}_{G_4}$,moving_distance
R-HSA-168643,0.0006016346889298736,817.0,4,$\widetilde{A}_{G_4}$,moving_distance
R-HSA-450321,0.000601229409408303,818.0,4,$\widetilde{A}_{G_4}$,moving_distance
R-HSA-157579,0.0005990752107162776,819.0,4,$\widetilde{A}_{G_4}$,moving_distance
R-HSA-109704,0.0005985609534611276,820.0,4,$\widetilde{A}_{G_4}$,moving_distance
R-HSA-171007,0.0005979126179676184,821.0,4,$\widetilde{A}_{G_4}$,moving_distance
R-HSA-5668914,0.0005974587225493704,822.0,4,$\widetilde{A}_{G_4}$,moving_distance
R-HSA-3899300,0.0005962511703338019,823.0,4,$\widetilde{A}_{G_4}$,moving_distance
R-HSA-110329,0.0005944424759015763,824.5,4,$\widetilde{A}_{G_4}$,moving_distance
R-HSA-110328,0.0005944424759015763,824.5,4,$\widetilde{A}_{G_4}$,moving_distance
R-HSA-73928,0.0005944424759015758,826.0,4,$\widetilde{A}_{G_4}$,moving_distance
R-HSA-1502540,0.000594409033767922,827.0,4,$\widetilde{A}_{G_4}$,moving_distance
R-HSA-451927,0.0005941334513661861,828.0,4,$\widetilde{A}_{G_4}$,moving_distance
R-HSA-1234176,0.0005934591950566762,829.0,4,$\widetilde{A}_{G_4}$,moving_distance
R-HSA-72165,0.0005871088870477012,830.0,4,$\widetilde{A}_{G_4}$,moving_distance
R-HSA-171306,0.0005844375462400696,831.0,4,$\widetilde{A}_{G_4}$,moving_distance
R-HSA-162588,0.0005839423681683179,832.0,4,$\widetilde{A}_{G_4}$,moving_distance
R-HSA-163125,0.0005836079685834799,833.0,4,$\widetilde{A}_{G_4}$,moving_distance
R-HSA-212300,0.0005835064273845303,834.0,4,$\widetilde{A}_{G_4}$,moving_distance
R-HSA-112409,0.0005828293295818168,835.0,4,$\widetilde{A}_{G_4}$,moving_distance
R-HSA-71403,0.0005814625875715568,836.0,4,$\widetilde{A}_{G_4}$,moving_distance
R-HSA-5632684,0.0005801070510084544,837.0,4,$\widetilde{A}_{G_4}$,moving_distance
R-HSA-8957322,0.0005760913239351399,838.0,4,$\widetilde{A}_{G_4}$,moving_distance
R-HSA-177929,0.0005759324938384223,839.0,4,$\widetilde{A}_{G_4}$,moving_distance
R-HSA-9675126,0.0005701398451513264,840.0,4,$\widetilde{A}_{G_4}$,moving_distance
R-HSA-3232118,0.0005697721648524526,841.0,4,$\widetilde{A}_{G_4}$,moving_distance
R-HSA-8878159,0.0005688107530747319,842.0,4,$\widetilde{A}_{G_4}$,moving_distance
R-HSA-174417,0.0005687456274106451,843.0,4,$\widetilde{A}_{G_4}$,moving_distance
R-HSA-8854214,0.0005669764850061897,844.0,4,$\widetilde{A}_{G_4}$,moving_distance
R-HSA-2151209,0.0005668530649441122,845.0,4,$\widetilde{A}_{G_4}$,moving_distance
R-HSA-8856825,0.0005651380869903205,846.0,4,$\widetilde{A}_{G_4}$,moving_distance
R-HSA-1296065,0.0005632974225412649,847.5,4,$\widetilde{A}_{G_4}$,moving_distance
R-HSA-1296071,0.0005632974225412649,847.5,4,$\widetilde{A}_{G_4}$,moving_distance
R-HSA-5689901,0.0005628931170456463,849.0,4,$\widetilde{A}_{G_4}$,moving_distance
R-HSA-1655829,0.0005627229445109319,850.0,4,$\widetilde{A}_{G_4}$,moving_distance
R-HSA-6803204,0.0005622741714805103,851.0,4,$\widetilde{A}_{G_4}$,moving_distance
R-HSA-1483206,0.0005619699147845254,852.0,4,$\widetilde{A}_{G_4}$,moving_distance
R-HSA-76066,0.000561890738437617,853.0,4,$\widetilde{A}_{G_4}$,moving_distance
R-HSA-164940,0.000559292223458139,854.0,4,$\widetilde{A}_{G_4}$,moving_distance
R-HSA-9687139,0.0005591983650754622,855.0,4,$\widetilde{A}_{G_4}$,moving_distance
R-HSA-1358803,0.0005569972712268451,856.0,4,$\widetilde{A}_{G_4}$,moving_distance
R-HSA-5362517,0.000554772322440232,857.0,4,$\widetilde{A}_{G_4}$,moving_distance
R-HSA-6791312,0.0005546589979379552,858.0,4,$\widetilde{A}_{G_4}$,moving_distance
R-HSA-204998,0.0005534353643545764,859.0,4,$\widetilde{A}_{G_4}$,moving_distance
R-HSA-5620924,0.0005529631827977571,860.0,4,$\widetilde{A}_{G_4}$,moving_distance
R-HSA-5635838,0.000551480087752469,861.0,4,$\widetilde{A}_{G_4}$,moving_distance
R-HSA-9705462,0.0005507867039346673,862.0,4,$\widetilde{A}_{G_4}$,moving_distance
R-HSA-180786,0.0005457993058333414,863.0,4,$\widetilde{A}_{G_4}$,moving_distance
R-HSA-2151201,0.0005454692163797627,864.0,4,$\widetilde{A}_{G_4}$,moving_distance
R-HSA-8876198,0.0005453626662779255,865.0,4,$\widetilde{A}_{G_4}$,moving_distance
R-HSA-6804114,0.0005451838480694854,866.0,4,$\widetilde{A}_{G_4}$,moving_distance
R-HSA-5620971,0.0005451774989649051,867.0,4,$\widetilde{A}_{G_4}$,moving_distance
R-HSA-6783589,0.0005449432678120073,868.0,4,$\widetilde{A}_{G_4}$,moving_distance
R-HSA-76061,0.0005424343612087852,869.0,4,$\widetilde{A}_{G_4}$,moving_distance
R-HSA-450302,0.0005367893134018704,870.0,4,$\widetilde{A}_{G_4}$,moving_distance
R-HSA-3108214,0.0005367362641230915,871.0,4,$\widetilde{A}_{G_4}$,moving_distance
R-HSA-428157,0.0005367132313113568,872.0,4,$\widetilde{A}_{G_4}$,moving_distance
R-HSA-445144,0.0005348330044236222,873.0,4,$\widetilde{A}_{G_4}$,moving_distance
R-HSA-5685942,0.0005337190825578833,874.0,4,$\widetilde{A}_{G_4}$,moving_distance
R-HSA-901042,0.0005289077557524475,875.0,4,$\widetilde{A}_{G_4}$,moving_distance
R-HSA-169893,0.0005272543621676183,876.0,4,$\widetilde{A}_{G_4}$,moving_distance
R-HSA-389661,0.0005241112676802233,877.0,4,$\widetilde{A}_{G_4}$,moving_distance
R-HSA-174414,0.0005235112236990157,878.0,4,$\widetilde{A}_{G_4}$,moving_distance
R-HSA-5357905,0.0005216402868785066,879.0,4,$\widetilde{A}_{G_4}$,moving_distance
R-HSA-174437,0.0005187818570741935,880.0,4,$\widetilde{A}_{G_4}$,moving_distance
R-HSA-177504,0.0005159337965161136,881.0,4,$\widetilde{A}_{G_4}$,moving_distance
R-HSA-5607763,0.0005140644166626088,882.0,4,$\widetilde{A}_{G_4}$,moving_distance
R-HSA-76071,0.0005132195061016061,883.0,4,$\widetilde{A}_{G_4}$,moving_distance
R-HSA-5357956,0.000513187575884211,884.0,4,$\widetilde{A}_{G_4}$,moving_distance
R-HSA-1592389,0.0005119535578210661,885.0,4,$\widetilde{A}_{G_4}$,moving_distance
R-HSA-196854,0.00050852920694455,886.0,4,$\widetilde{A}_{G_4}$,moving_distance
R-HSA-9603798,0.0005077522511080437,887.0,4,$\widetilde{A}_{G_4}$,moving_distance
R-HSA-975144,0.0005071205496118508,888.5,4,$\widetilde{A}_{G_4}$,moving_distance
R-HSA-937039,0.0005071205496118508,888.5,4,$\widetilde{A}_{G_4}$,moving_distance
R-HSA-450531,0.0005011553535693179,890.0,4,$\widetilde{A}_{G_4}$,moving_distance
R-HSA-2173791,0.0004994486875477034,891.0,4,$\widetilde{A}_{G_4}$,moving_distance
R-HSA-5684264,0.0004990716834471972,892.0,4,$\widetilde{A}_{G_4}$,moving_distance
R-HSA-109606,0.0004921346602923805,893.0,4,$\widetilde{A}_{G_4}$,moving_distance
R-HSA-190236,0.0004901974942234562,894.0,4,$\widetilde{A}_{G_4}$,moving_distance
R-HSA-9706369,0.0004893133848935166,895.0,4,$\widetilde{A}_{G_4}$,moving_distance
R-HSA-9661069,0.0004884863859196804,896.0,4,$\widetilde{A}_{G_4}$,moving_distance
R-HSA-9659787,0.0004884863859196798,897.0,4,$\widetilde{A}_{G_4}$,moving_distance
R-HSA-75893,0.0004843597047961612,898.0,4,$\widetilde{A}_{G_4}$,moving_distance
R-HSA-114452,0.0004835644204642051,899.0,4,$\widetilde{A}_{G_4}$,moving_distance
R-HSA-6783783,0.0004810114714424554,900.0,4,$\widetilde{A}_{G_4}$,moving_distance
R-HSA-983712,0.00048058406545830657,901.0,4,$\widetilde{A}_{G_4}$,moving_distance
R-HSA-9627069,0.0004799894177495118,902.0,4,$\widetilde{A}_{G_4}$,moving_distance
R-HSA-111458,0.00047998941774951147,903.0,4,$\widetilde{A}_{G_4}$,moving_distance
R-HSA-917729,0.0004741263520341601,904.0,4,$\widetilde{A}_{G_4}$,moving_distance
R-HSA-76046,0.00047342304662638884,905.0,4,$\widetilde{A}_{G_4}$,moving_distance
R-HSA-749476,0.00047342304662638857,906.0,4,$\widetilde{A}_{G_4}$,moving_distance
R-HSA-74158,0.00047342304662638835,907.0,4,$\widetilde{A}_{G_4}$,moving_distance
R-HSA-1368108,0.00046903304907766917,908.0,4,$\widetilde{A}_{G_4}$,moving_distance
R-HSA-168179,0.00046492997851748416,909.0,4,$\widetilde{A}_{G_4}$,moving_distance
R-HSA-181438,0.00046492997851748253,910.0,4,$\widetilde{A}_{G_4}$,moving_distance
R-HSA-205043,0.00046466827945819845,911.0,4,$\widetilde{A}_{G_4}$,moving_distance
R-HSA-5173105,0.0004614144806313834,912.0,4,$\widetilde{A}_{G_4}$,moving_distance
R-HSA-168638,0.00045886924775860154,913.0,4,$\widetilde{A}_{G_4}$,moving_distance
R-HSA-5620920,0.00045719403377002103,914.0,4,$\widetilde{A}_{G_4}$,moving_distance
R-HSA-2559585,0.00045515888901544784,915.0,4,$\widetilde{A}_{G_4}$,moving_distance
R-HSA-2559580,0.0004545208172971727,916.0,4,$\widetilde{A}_{G_4}$,moving_distance
R-HSA-425407,0.00044468322590905337,917.0,4,$\widetilde{A}_{G_4}$,moving_distance
R-HSA-933543,0.00044448343301637473,918.0,4,$\widetilde{A}_{G_4}$,moving_distance
R-HSA-111461,0.00044166667955727174,919.0,4,$\widetilde{A}_{G_4}$,moving_distance
R-HSA-5693607,0.00043853715603402144,920.0,4,$\widetilde{A}_{G_4}$,moving_distance
R-HSA-5654738,0.0004384667757636378,921.0,4,$\widetilde{A}_{G_4}$,moving_distance
R-HSA-111471,0.0004379106688299215,922.0,4,$\widetilde{A}_{G_4}$,moving_distance
R-HSA-2022090,0.00043224913037290285,923.0,4,$\widetilde{A}_{G_4}$,moving_distance
R-HSA-918233,0.00043217316759915417,924.0,4,$\widetilde{A}_{G_4}$,moving_distance
R-HSA-774815,0.0004314874457611034,925.0,4,$\widetilde{A}_{G_4}$,moving_distance
R-HSA-606279,0.00043148744576110314,926.0,4,$\widetilde{A}_{G_4}$,moving_distance
R-HSA-2644603,0.0004252645811391694,927.5,4,$\widetilde{A}_{G_4}$,moving_distance
R-HSA-2644606,0.0004252645811391694,927.5,4,$\widetilde{A}_{G_4}$,moving_distance
R-HSA-2894862,0.0004252645811391693,930.0,4,$\widetilde{A}_{G_4}$,moving_distance
R-HSA-2644602,0.0004252645811391693,930.0,4,$\widetilde{A}_{G_4}$,moving_distance
R-HSA-2894858,0.0004252645811391693,930.0,4,$\widetilde{A}_{G_4}$,moving_distance
R-HSA-3772470,0.0004242060363479504,932.0,4,$\widetilde{A}_{G_4}$,moving_distance
R-HSA-8853884,0.0004214941420715734,933.0,4,$\widetilde{A}_{G_4}$,moving_distance
R-HSA-6803529,0.00041643713986155585,934.0,4,$\widetilde{A}_{G_4}$,moving_distance
R-HSA-9609523,0.00041450743667450883,935.0,4,$\widetilde{A}_{G_4}$,moving_distance
R-HSA-419037,0.0004103030717359003,936.0,4,$\widetilde{A}_{G_4}$,moving_distance
R-HSA-9648002,0.00041005206002345696,937.0,4,$\widetilde{A}_{G_4}$,moving_distance
R-HSA-416476,0.0004088153262941009,938.0,4,$\widetilde{A}_{G_4}$,moving_distance
R-HSA-5693567,0.00040816479815289873,939.0,4,$\widetilde{A}_{G_4}$,moving_distance
R-HSA-2122947,0.0004064119533794518,940.0,4,$\widetilde{A}_{G_4}$,moving_distance
R-HSA-5687128,0.0004046934810924303,941.0,4,$\widetilde{A}_{G_4}$,moving_distance
R-HSA-5628897,0.00040468384100139036,942.0,4,$\widetilde{A}_{G_4}$,moving_distance
R-HSA-1980143,0.00040351653671583386,943.0,4,$\widetilde{A}_{G_4}$,moving_distance
R-HSA-170834,0.00040298389750201,944.0,4,$\widetilde{A}_{G_4}$,moving_distance
R-HSA-168138,0.00040009788661870714,946.0,4,$\widetilde{A}_{G_4}$,moving_distance
R-HSA-168181,0.00040009788661870714,946.0,4,$\widetilde{A}_{G_4}$,moving_distance
R-HSA-975155,0.00040009788661870714,946.0,4,$\widetilde{A}_{G_4}$,moving_distance
R-HSA-975138,0.00039892778605867354,948.0,4,$\widetilde{A}_{G_4}$,moving_distance
R-HSA-69202,0.00039862750352859705,949.0,4,$\widetilde{A}_{G_4}$,moving_distance
R-HSA-166058,0.00039739716779279205,950.0,4,$\widetilde{A}_{G_4}$,moving_distance
R-HSA-168188,0.0003973971677927916,951.0,4,$\widetilde{A}_{G_4}$,moving_distance
R-HSA-5693537,0.0003971219320188217,952.0,4,$\widetilde{A}_{G_4}$,moving_distance
R-HSA-69656,0.0003942468224443658,953.0,4,$\widetilde{A}_{G_4}$,moving_distance
R-HSA-168142,0.0003938591084903114,955.0,4,$\widetilde{A}_{G_4}$,moving_distance
R-HSA-168176,0.0003938591084903114,955.0,4,$\widetilde{A}_{G_4}$,moving_distance
R-HSA-975871,0.0003938591084903114,955.0,4,$\widetilde{A}_{G_4}$,moving_distance
R-HSA-5693568,0.0003929300055459501,957.0,4,$\widetilde{A}_{G_4}$,moving_distance
R-HSA-933541,0.00039177949808586447,958.0,4,$\widetilde{A}_{G_4}$,moving_distance
R-HSA-5656169,0.0003801950558809484,959.0,4,$\widetilde{A}_{G_4}$,moving_distance
R-HSA-1912408,0.00037510351375438393,960.0,4,$\widetilde{A}_{G_4}$,moving_distance
R-HSA-3781865,0.00037458155509796436,961.0,4,$\widetilde{A}_{G_4}$,moving_distance
R-HSA-5633008,0.0003738261732410282,962.0,4,$\widetilde{A}_{G_4}$,moving_distance
R-HSA-5693554,0.0003668560293505884,963.0,4,$\widetilde{A}_{G_4}$,moving_distance
R-HSA-2173796,0.0003658926309037385,964.0,4,$\widetilde{A}_{G_4}$,moving_distance
R-HSA-9006936,0.0003611611982799673,965.0,4,$\widetilde{A}_{G_4}$,moving_distance
R-HSA-1630316,0.00035637154442560054,966.0,4,$\widetilde{A}_{G_4}$,moving_distance
R-HSA-1538133,0.0003522562936507745,967.0,4,$\widetilde{A}_{G_4}$,moving_distance
R-HSA-3000157,0.0003518601309774633,968.0,4,$\widetilde{A}_{G_4}$,moving_distance
R-HSA-110313,0.00034859240758131267,969.0,4,$\widetilde{A}_{G_4}$,moving_distance
R-HSA-1442490,0.00034805280600254,970.0,4,$\widetilde{A}_{G_4}$,moving_distance
R-HSA-1362277,0.0003452032952783479,971.0,4,$\widetilde{A}_{G_4}$,moving_distance
R-HSA-1912422,0.0003415277925181066,972.0,4,$\widetilde{A}_{G_4}$,moving_distance
R-HSA-201451,0.0003386731455033158,973.0,4,$\widetilde{A}_{G_4}$,moving_distance
R-HSA-448424,0.00033008105961566643,974.0,4,$\widetilde{A}_{G_4}$,moving_distance
R-HSA-901032,0.0003240525490708921,975.0,4,$\widetilde{A}_{G_4}$,moving_distance
R-HSA-450294,0.0003231247848789607,976.0,4,$\widetilde{A}_{G_4}$,moving_distance
R-HSA-1362409,0.0003137400419304577,977.0,4,$\widetilde{A}_{G_4}$,moving_distance
R-HSA-72202,0.0003110598992227528,978.0,4,$\widetilde{A}_{G_4}$,moving_distance
R-HSA-4086398,0.00030807410215499283,979.0,4,$\widetilde{A}_{G_4}$,moving_distance
R-HSA-174495,0.0003078530708170337,980.0,4,$\widetilde{A}_{G_4}$,moving_distance
R-HSA-175474,0.00030785307081703336,981.5,4,$\widetilde{A}_{G_4}$,moving_distance
R-HSA-174490,0.00030785307081703336,981.5,4,$\widetilde{A}_{G_4}$,moving_distance
R-HSA-168928,0.0002894288007778351,983.0,4,$\widetilde{A}_{G_4}$,moving_distance
R-HSA-9033241,0.00028840980879543026,984.0,4,$\widetilde{A}_{G_4}$,moving_distance
R-HSA-1268020,0.0002789477555633279,985.0,4,$\widetilde{A}_{G_4}$,moving_distance
R-HSA-6788467,0.00027839580628779854,986.0,4,$\widetilde{A}_{G_4}$,moving_distance
R-HSA-73893,0.00027300241168207623,987.0,4,$\widetilde{A}_{G_4}$,moving_distance
R-HSA-201722,0.00027163888411734096,988.0,4,$\widetilde{A}_{G_4}$,moving_distance
R-HSA-5651801,0.0002670866129677149,989.0,4,$\widetilde{A}_{G_4}$,moving_distance
R-HSA-936440,0.00025276875786575274,990.0,4,$\widetilde{A}_{G_4}$,moving_distance
R-HSA-2173793,0.00025170886654452213,991.0,4,$\widetilde{A}_{G_4}$,moving_distance
R-HSA-9707616,0.00024784690853804327,992.0,4,$\widetilde{A}_{G_4}$,moving_distance
R-HSA-110373,0.0002457188232873586,993.0,4,$\widetilde{A}_{G_4}$,moving_distance
R-HSA-9616222,0.00023966668287513188,994.0,4,$\widetilde{A}_{G_4}$,moving_distance
R-HSA-73933,0.00021580350651228617,995.0,4,$\widetilde{A}_{G_4}$,moving_distance
R-HSA-159236,0.00021359410257370498,996.0,4,$\widetilde{A}_{G_4}$,moving_distance
R-HSA-2173788,0.00020509333461523414,997.0,4,$\widetilde{A}_{G_4}$,moving_distance
R-HSA-69273,0.00020018436817269167,998.0,4,$\widetilde{A}_{G_4}$,moving_distance
R-HSA-163841,0.0001997608376418913,999.0,4,$\widetilde{A}_{G_4}$,moving_distance
R-HSA-3769402,0.0001986567992607957,1000.0,4,$\widetilde{A}_{G_4}$,moving_distance
R-HSA-2173789,0.00019451479460631324,1001.0,4,$\widetilde{A}_{G_4}$,moving_distance
R-HSA-73884,0.00018131416274756948,1002.0,4,$\widetilde{A}_{G_4}$,moving_distance
R-HSA-1169408,0.00018077814820891536,1003.0,4,$\widetilde{A}_{G_4}$,moving_distance
R-HSA-1169410,0.00018049517454778389,1004.0,4,$\widetilde{A}_{G_4}$,moving_distance
R-HSA-9022692,0.00017774246165929965,1005.0,4,$\widetilde{A}_{G_4}$,moving_distance
R-HSA-177243,0.00016999310994782345,1006.0,4,$\widetilde{A}_{G_4}$,moving_distance
R-HSA-2500257,0.00016441685182121645,1007.0,4,$\widetilde{A}_{G_4}$,moving_distance
R-HSA-9648025,0.00015582501663915236,1008.0,4,$\widetilde{A}_{G_4}$,moving_distance
R-HSA-168333,0.00015360774615144615,1009.0,4,$\widetilde{A}_{G_4}$,moving_distance
R-HSA-168274,0.00015360774615144545,1010.0,4,$\widetilde{A}_{G_4}$,moving_distance
R-HSA-165054,0.00015202174045486286,1011.0,4,$\widetilde{A}_{G_4}$,moving_distance
R-HSA-8986944,0.00014434544721976764,1012.0,4,$\widetilde{A}_{G_4}$,moving_distance
R-HSA-9029569,0.0001437509607312309,1013.0,4,$\widetilde{A}_{G_4}$,moving_distance
R-HSA-141424,0.00013724494293799498,1014.0,4,$\widetilde{A}_{G_4}$,moving_distance
R-HSA-141444,0.00013724494293799482,1015.0,4,$\widetilde{A}_{G_4}$,moving_distance
R-HSA-8936459,0.00013544476351124465,1016.0,4,$\widetilde{A}_{G_4}$,moving_distance
R-HSA-69618,0.00013377130046904868,1017.0,4,$\widetilde{A}_{G_4}$,moving_distance
R-HSA-5620922,0.00012794199279172347,1018.0,4,$\widetilde{A}_{G_4}$,moving_distance
R-HSA-9024446,0.00012269522766128908,1019.0,4,$\widetilde{A}_{G_4}$,moving_distance
R-HSA-159227,0.00011384567868788595,1020.0,4,$\widetilde{A}_{G_4}$,moving_distance
R-HSA-159230,0.00011325047253369287,1021.0,4,$\widetilde{A}_{G_4}$,moving_distance
R-HSA-159231,0.00010792826624934243,1022.0,4,$\widetilde{A}_{G_4}$,moving_distance
R-HSA-159234,0.00010672846828390494,1023.0,4,$\widetilde{A}_{G_4}$,moving_distance
