entity,score,rank,graphlet,graphlet_adj,score_method
R-HSA-389948,0.004038500862013937,1.0,7,$\widetilde{A}_{G_7}$,hybrid
R-HSA-5637812,0.0038611322633041343,2.0,7,$\widetilde{A}_{G_7}$,hybrid
R-HSA-5637810,0.003861132263304133,3.0,7,$\widetilde{A}_{G_7}$,hybrid
R-HSA-418990,0.003820834375123068,4.0,7,$\widetilde{A}_{G_7}$,hybrid
R-HSA-166663,0.0037839732932102407,5.0,7,$\widetilde{A}_{G_7}$,hybrid
R-HSA-202427,0.003702899432314298,6.0,7,$\widetilde{A}_{G_7}$,hybrid
R-HSA-4641263,0.003591318048317674,7.0,7,$\widetilde{A}_{G_7}$,hybrid
R-HSA-9665348,0.0035315994756492343,8.0,7,$\widetilde{A}_{G_7}$,hybrid
R-HSA-1236382,0.0034257294410514416,9.0,7,$\widetilde{A}_{G_7}$,hybrid
R-HSA-5637815,0.003425729441051441,10.0,7,$\widetilde{A}_{G_7}$,hybrid
R-HSA-5655291,0.003362554917737364,11.0,7,$\widetilde{A}_{G_7}$,hybrid
R-HSA-2730905,0.0033243663572433955,12.0,7,$\widetilde{A}_{G_7}$,hybrid
R-HSA-8853334,0.0032877429310079363,13.0,7,$\widetilde{A}_{G_7}$,hybrid
R-HSA-2029481,0.003253189762763786,14.0,7,$\widetilde{A}_{G_7}$,hybrid
R-HSA-9673770,0.003223779991501051,15.5,7,$\widetilde{A}_{G_7}$,hybrid
R-HSA-9673767,0.003223779991501051,15.5,7,$\widetilde{A}_{G_7}$,hybrid
R-HSA-5654716,0.0032107751484118123,17.0,7,$\widetilde{A}_{G_7}$,hybrid
R-HSA-1643713,0.0030019659144875045,18.0,7,$\widetilde{A}_{G_7}$,hybrid
R-HSA-1963642,0.002977812807862524,19.0,7,$\widetilde{A}_{G_7}$,hybrid
R-HSA-9664565,0.002959699665347747,20.0,7,$\widetilde{A}_{G_7}$,hybrid
R-HSA-210993,0.0029263529942689737,21.0,7,$\widetilde{A}_{G_7}$,hybrid
R-HSA-975163,0.0029247142806089633,22.0,7,$\widetilde{A}_{G_7}$,hybrid
R-HSA-6814122,0.0029074387776558035,23.0,7,$\widetilde{A}_{G_7}$,hybrid
R-HSA-5654708,0.0029062239340843956,24.0,7,$\widetilde{A}_{G_7}$,hybrid
R-HSA-9703648,0.002903513302941951,25.0,7,$\widetilde{A}_{G_7}$,hybrid
R-HSA-1227990,0.0028665908272896023,26.0,7,$\widetilde{A}_{G_7}$,hybrid
R-HSA-5654689,0.0028424510124626158,27.0,7,$\widetilde{A}_{G_7}$,hybrid
R-HSA-202040,0.0028363279756303734,28.0,7,$\widetilde{A}_{G_7}$,hybrid
R-HSA-2029485,0.002836284515596434,29.0,7,$\widetilde{A}_{G_7}$,hybrid
R-HSA-9034015,0.002822358894244382,30.0,7,$\widetilde{A}_{G_7}$,hybrid
R-HSA-418592,0.002822191920652381,31.0,7,$\widetilde{A}_{G_7}$,hybrid
R-HSA-180292,0.002812873453638392,32.0,7,$\widetilde{A}_{G_7}$,hybrid
R-HSA-5655332,0.0028060590499043112,33.0,7,$\widetilde{A}_{G_7}$,hybrid
R-HSA-8853338,0.0028060590499043095,34.0,7,$\widetilde{A}_{G_7}$,hybrid
R-HSA-202433,0.002805251735805024,35.0,7,$\widetilde{A}_{G_7}$,hybrid
R-HSA-2424491,0.002800606230736749,36.0,7,$\widetilde{A}_{G_7}$,hybrid
R-HSA-9634285,0.002797870061609586,37.0,7,$\widetilde{A}_{G_7}$,hybrid
R-HSA-421270,0.0027843231105324027,38.0,7,$\widetilde{A}_{G_7}$,hybrid
R-HSA-937072,0.0027726492217417143,39.0,7,$\widetilde{A}_{G_7}$,hybrid
R-HSA-1170546,0.0027725254070757105,40.0,7,$\widetilde{A}_{G_7}$,hybrid
R-HSA-9670439,0.002729484219068777,41.0,7,$\widetilde{A}_{G_7}$,hybrid
R-HSA-9669938,0.0027294842190687765,42.0,7,$\widetilde{A}_{G_7}$,hybrid
R-HSA-912631,0.0026738440136179578,43.0,7,$\widetilde{A}_{G_7}$,hybrid
R-HSA-180336,0.0026614345352736065,44.0,7,$\widetilde{A}_{G_7}$,hybrid
R-HSA-9006335,0.0026324493005618886,45.0,7,$\widetilde{A}_{G_7}$,hybrid
R-HSA-1251985,0.0026124977744036953,46.0,7,$\widetilde{A}_{G_7}$,hybrid
R-HSA-1250347,0.002593520627722494,47.0,7,$\widetilde{A}_{G_7}$,hybrid
R-HSA-9671555,0.0025907205881524303,48.0,7,$\widetilde{A}_{G_7}$,hybrid
R-HSA-9665686,0.002580262476891195,49.0,7,$\widetilde{A}_{G_7}$,hybrid
R-HSA-9027284,0.0025753905436433815,50.0,7,$\widetilde{A}_{G_7}$,hybrid
R-HSA-5654687,0.0025695207492433263,51.0,7,$\widetilde{A}_{G_7}$,hybrid
R-HSA-428930,0.0025562561176468252,52.0,7,$\widetilde{A}_{G_7}$,hybrid
R-HSA-9006115,0.002541940426598571,53.0,7,$\widetilde{A}_{G_7}$,hybrid
R-HSA-5654695,0.002539181455243532,54.0,7,$\widetilde{A}_{G_7}$,hybrid
R-HSA-5654712,0.0025383090340843715,55.0,7,$\widetilde{A}_{G_7}$,hybrid
R-HSA-9027276,0.002536383999276695,56.0,7,$\widetilde{A}_{G_7}$,hybrid
R-HSA-5654696,0.0025341699940028897,57.0,7,$\widetilde{A}_{G_7}$,hybrid
R-HSA-912526,0.0025232282208673944,58.0,7,$\widetilde{A}_{G_7}$,hybrid
R-HSA-209543,0.002510399256495075,59.0,7,$\widetilde{A}_{G_7}$,hybrid
R-HSA-166658,0.0024825403279908585,60.0,7,$\widetilde{A}_{G_7}$,hybrid
R-HSA-2172127,0.0024821171077883753,61.0,7,$\widetilde{A}_{G_7}$,hybrid
R-HSA-5654699,0.002444929172047348,62.0,7,$\widetilde{A}_{G_7}$,hybrid
R-HSA-8875878,0.0024263309296533825,63.0,7,$\widetilde{A}_{G_7}$,hybrid
R-HSA-5654688,0.002424839983035745,64.0,7,$\widetilde{A}_{G_7}$,hybrid
R-HSA-9028731,0.002423452537398346,65.0,7,$\widetilde{A}_{G_7}$,hybrid
R-HSA-1963640,0.0024039232513269767,66.0,7,$\widetilde{A}_{G_7}$,hybrid
R-HSA-983695,0.002398943530354406,67.0,7,$\widetilde{A}_{G_7}$,hybrid
R-HSA-210990,0.002396950173373943,68.0,7,$\widetilde{A}_{G_7}$,hybrid
R-HSA-936964,0.0023937934532274846,69.0,7,$\widetilde{A}_{G_7}$,hybrid
R-HSA-917937,0.0023867413144134293,70.0,7,$\widetilde{A}_{G_7}$,hybrid
R-HSA-5602358,0.0023383964719112926,71.0,7,$\widetilde{A}_{G_7}$,hybrid
R-HSA-5260271,0.0023383964719112913,72.0,7,$\widetilde{A}_{G_7}$,hybrid
R-HSA-186763,0.002338356488686667,73.0,7,$\widetilde{A}_{G_7}$,hybrid
R-HSA-977606,0.002326174615370273,74.0,7,$\widetilde{A}_{G_7}$,hybrid
R-HSA-8853659,0.0023187453747045526,75.0,7,$\widetilde{A}_{G_7}$,hybrid
R-HSA-512988,0.0022983884385615228,76.0,7,$\widetilde{A}_{G_7}$,hybrid
R-HSA-389359,0.002293812413047927,77.0,7,$\widetilde{A}_{G_7}$,hybrid
R-HSA-1433559,0.002272894954184877,78.0,7,$\widetilde{A}_{G_7}$,hybrid
R-HSA-392518,0.002269297977792132,79.0,7,$\widetilde{A}_{G_7}$,hybrid
R-HSA-5654743,0.0022656837686469465,80.0,7,$\widetilde{A}_{G_7}$,hybrid
R-HSA-5603041,0.002260451482303996,81.0,7,$\widetilde{A}_{G_7}$,hybrid
R-HSA-9020558,0.002242369203571305,82.0,7,$\widetilde{A}_{G_7}$,hybrid
R-HSA-373076,0.0022265157414946045,83.0,7,$\widetilde{A}_{G_7}$,hybrid
R-HSA-5621480,0.002206266425869122,84.0,7,$\widetilde{A}_{G_7}$,hybrid
R-HSA-8851805,0.002202226293244787,85.0,7,$\widetilde{A}_{G_7}$,hybrid
R-HSA-9620244,0.002193679301476055,86.0,7,$\widetilde{A}_{G_7}$,hybrid
R-HSA-5602498,0.0021895138565014897,87.0,7,$\widetilde{A}_{G_7}$,hybrid
R-HSA-193639,0.00217719457319596,88.0,7,$\widetilde{A}_{G_7}$,hybrid
R-HSA-5654706,0.00217701790344241,89.0,7,$\widetilde{A}_{G_7}$,hybrid
R-HSA-5654693,0.002165704788087285,90.0,7,$\widetilde{A}_{G_7}$,hybrid
R-HSA-456926,0.0021585843395737067,91.0,7,$\widetilde{A}_{G_7}$,hybrid
R-HSA-1236394,0.002145573186553374,92.0,7,$\widetilde{A}_{G_7}$,hybrid
R-HSA-5654741,0.002144937720866285,93.0,7,$\widetilde{A}_{G_7}$,hybrid
R-HSA-418346,0.002142215496067593,94.0,7,$\widetilde{A}_{G_7}$,hybrid
R-HSA-1502540,0.0021361168891535966,95.0,7,$\widetilde{A}_{G_7}$,hybrid
R-HSA-937041,0.002101248671521593,96.0,7,$\widetilde{A}_{G_7}$,hybrid
R-HSA-209560,0.002086121278964592,97.0,7,$\widetilde{A}_{G_7}$,hybrid
R-HSA-392517,0.002077479192167478,98.0,7,$\widetilde{A}_{G_7}$,hybrid
R-HSA-9662361,0.0020697528368708103,99.0,7,$\widetilde{A}_{G_7}$,hybrid
R-HSA-389513,0.0020522133140078104,100.0,7,$\widetilde{A}_{G_7}$,hybrid
R-HSA-9703465,0.0020426971046807424,101.0,7,$\widetilde{A}_{G_7}$,hybrid
R-HSA-1250196,0.0020407827283654293,102.0,7,$\widetilde{A}_{G_7}$,hybrid
R-HSA-1295596,0.0020287375558538457,103.0,7,$\widetilde{A}_{G_7}$,hybrid
R-HSA-1059683,0.002011031657995188,104.0,7,$\widetilde{A}_{G_7}$,hybrid
R-HSA-451927,0.001999300916937353,105.0,7,$\widetilde{A}_{G_7}$,hybrid
R-HSA-5654700,0.0019973576179740608,106.0,7,$\widetilde{A}_{G_7}$,hybrid
R-HSA-9006936,0.0019965431468402578,107.0,7,$\widetilde{A}_{G_7}$,hybrid
R-HSA-114604,0.0019950933583537697,108.0,7,$\widetilde{A}_{G_7}$,hybrid
R-HSA-5654733,0.0019729036922060948,109.0,7,$\widetilde{A}_{G_7}$,hybrid
R-HSA-2871796,0.001966850602914686,110.0,7,$\widetilde{A}_{G_7}$,hybrid
R-HSA-5686938,0.001966225113343227,111.0,7,$\widetilde{A}_{G_7}$,hybrid
R-HSA-8983432,0.0019652410920548645,112.0,7,$\widetilde{A}_{G_7}$,hybrid
R-HSA-1433557,0.0019565781112694304,113.0,7,$\widetilde{A}_{G_7}$,hybrid
R-HSA-1566948,0.0019393610996679999,114.0,7,$\widetilde{A}_{G_7}$,hybrid
R-HSA-9682385,0.001922186590554702,115.0,7,$\widetilde{A}_{G_7}$,hybrid
R-HSA-388841,0.0019125360713094174,116.0,7,$\widetilde{A}_{G_7}$,hybrid
R-HSA-9607240,0.0019047214776041024,117.0,7,$\widetilde{A}_{G_7}$,hybrid
R-HSA-390466,0.0019009990343702907,118.0,7,$\widetilde{A}_{G_7}$,hybrid
R-HSA-381038,0.0018987508412935774,119.0,7,$\widetilde{A}_{G_7}$,hybrid
R-HSA-442982,0.0018861269159234292,120.0,7,$\widetilde{A}_{G_7}$,hybrid
R-HSA-6791312,0.0018650366951826571,121.0,7,$\widetilde{A}_{G_7}$,hybrid
R-HSA-354192,0.0018579811409519735,122.0,7,$\widetilde{A}_{G_7}$,hybrid
R-HSA-1227986,0.0018547607247561867,123.0,7,$\widetilde{A}_{G_7}$,hybrid
R-HSA-5654736,0.0018546771192375548,124.0,7,$\widetilde{A}_{G_7}$,hybrid
R-HSA-112399,0.0018383040665928291,125.0,7,$\widetilde{A}_{G_7}$,hybrid
R-HSA-354194,0.0018380683321832971,126.0,7,$\widetilde{A}_{G_7}$,hybrid
R-HSA-2129379,0.0018305636928700286,127.0,7,$\widetilde{A}_{G_7}$,hybrid
R-HSA-5654727,0.001829558188749968,128.0,7,$\widetilde{A}_{G_7}$,hybrid
R-HSA-2586552,0.0018268791660937735,129.0,7,$\widetilde{A}_{G_7}$,hybrid
R-HSA-186797,0.0018238094551577698,130.0,7,$\widetilde{A}_{G_7}$,hybrid
R-HSA-2404192,0.001820115548794372,131.0,7,$\widetilde{A}_{G_7}$,hybrid
R-HSA-2428924,0.0018201155487943715,132.0,7,$\widetilde{A}_{G_7}$,hybrid
R-HSA-5654726,0.001820082333387613,133.0,7,$\widetilde{A}_{G_7}$,hybrid
R-HSA-74752,0.0018169011996210186,134.0,7,$\widetilde{A}_{G_7}$,hybrid
R-HSA-74751,0.0018169011996210182,135.0,7,$\widetilde{A}_{G_7}$,hybrid
R-HSA-5654732,0.0018049384705406306,136.0,7,$\widetilde{A}_{G_7}$,hybrid
R-HSA-8943724,0.0018008257413437807,137.0,7,$\widetilde{A}_{G_7}$,hybrid
R-HSA-391251,0.0017941624510534584,138.0,7,$\widetilde{A}_{G_7}$,hybrid
R-HSA-373753,0.0017822117456007464,139.0,7,$\widetilde{A}_{G_7}$,hybrid
R-HSA-2219530,0.0017804621361181112,140.0,7,$\widetilde{A}_{G_7}$,hybrid
R-HSA-1839117,0.0017798074709372968,141.0,7,$\widetilde{A}_{G_7}$,hybrid
R-HSA-881907,0.001778892298493329,142.0,7,$\widetilde{A}_{G_7}$,hybrid
R-HSA-5655302,0.0017765959464168361,143.0,7,$\widetilde{A}_{G_7}$,hybrid
R-HSA-9706369,0.0017738877211627964,144.0,7,$\widetilde{A}_{G_7}$,hybrid
R-HSA-2871809,0.001761939246886523,145.0,7,$\widetilde{A}_{G_7}$,hybrid
R-HSA-76009,0.0017617626496669097,146.0,7,$\widetilde{A}_{G_7}$,hybrid
R-HSA-438066,0.0017602567670375623,147.0,7,$\widetilde{A}_{G_7}$,hybrid
R-HSA-9662360,0.0017503370274187518,148.0,7,$\widetilde{A}_{G_7}$,hybrid
R-HSA-164952,0.0017465973366305439,149.0,7,$\widetilde{A}_{G_7}$,hybrid
R-HSA-140534,0.0017448170198501808,150.0,7,$\widetilde{A}_{G_7}$,hybrid
R-HSA-9663891,0.0017380186210872754,151.0,7,$\widetilde{A}_{G_7}$,hybrid
R-HSA-2428928,0.0017340898565919058,152.0,7,$\widetilde{A}_{G_7}$,hybrid
R-HSA-109704,0.00173358172439444,153.0,7,$\widetilde{A}_{G_7}$,hybrid
R-HSA-391160,0.0017233221477516067,154.0,7,$\widetilde{A}_{G_7}$,hybrid
R-HSA-9659379,0.0017117914243415346,155.0,7,$\widetilde{A}_{G_7}$,hybrid
R-HSA-9674555,0.0016982227716488974,156.0,7,$\widetilde{A}_{G_7}$,hybrid
R-HSA-451326,0.001663613085805305,157.0,7,$\widetilde{A}_{G_7}$,hybrid
R-HSA-500657,0.0016636130858053047,158.5,7,$\widetilde{A}_{G_7}$,hybrid
R-HSA-418217,0.0016636130858053047,158.5,7,$\widetilde{A}_{G_7}$,hybrid
R-HSA-177929,0.0016593102524802266,160.0,7,$\widetilde{A}_{G_7}$,hybrid
R-HSA-389356,0.0016567568997010985,161.0,7,$\widetilde{A}_{G_7}$,hybrid
R-HSA-9705462,0.0016450965926100513,162.0,7,$\widetilde{A}_{G_7}$,hybrid
R-HSA-2029482,0.0016383015733442083,163.0,7,$\widetilde{A}_{G_7}$,hybrid
R-HSA-9020591,0.0016328546948592728,164.0,7,$\widetilde{A}_{G_7}$,hybrid
R-HSA-163359,0.0016309988355970699,165.0,7,$\widetilde{A}_{G_7}$,hybrid
R-HSA-5654738,0.0016136484315681968,166.0,7,$\widetilde{A}_{G_7}$,hybrid
R-HSA-202424,0.0015907066832058414,167.0,7,$\widetilde{A}_{G_7}$,hybrid
R-HSA-8875555,0.0015898421515262015,168.0,7,$\widetilde{A}_{G_7}$,hybrid
R-HSA-2029480,0.0015828390664622762,169.0,7,$\widetilde{A}_{G_7}$,hybrid
R-HSA-442742,0.00157257825838212,170.0,7,$\widetilde{A}_{G_7}$,hybrid
R-HSA-1222556,0.0015724128309133256,171.0,7,$\widetilde{A}_{G_7}$,hybrid
R-HSA-9013407,0.0015686161977840065,172.0,7,$\widetilde{A}_{G_7}$,hybrid
R-HSA-167044,0.0015683739273932797,173.0,7,$\widetilde{A}_{G_7}$,hybrid
R-HSA-9639288,0.001565864769986039,174.0,7,$\widetilde{A}_{G_7}$,hybrid
R-HSA-997272,0.001556710926828617,177.0,7,$\widetilde{A}_{G_7}$,hybrid
R-HSA-1296041,0.001556710926828617,177.0,7,$\widetilde{A}_{G_7}$,hybrid
R-HSA-1296065,0.001556710926828617,177.0,7,$\widetilde{A}_{G_7}$,hybrid
R-HSA-1296071,0.001556710926828617,177.0,7,$\widetilde{A}_{G_7}$,hybrid
R-HSA-1296059,0.001556710926828617,177.0,7,$\widetilde{A}_{G_7}$,hybrid
R-HSA-9664323,0.0015562976040404606,180.0,7,$\widetilde{A}_{G_7}$,hybrid
R-HSA-8876384,0.0015552591369134817,181.0,7,$\widetilde{A}_{G_7}$,hybrid
R-HSA-8875360,0.0015545180459240566,182.0,7,$\widetilde{A}_{G_7}$,hybrid
R-HSA-5621575,0.0015429703784705481,183.0,7,$\widetilde{A}_{G_7}$,hybrid
R-HSA-912694,0.0015239021912317994,184.0,7,$\widetilde{A}_{G_7}$,hybrid
R-HSA-1839124,0.0015228467490559928,185.0,7,$\widetilde{A}_{G_7}$,hybrid
R-HSA-9013420,0.0015096235820424577,186.0,7,$\widetilde{A}_{G_7}$,hybrid
R-HSA-77387,0.0015059104588741382,187.0,7,$\widetilde{A}_{G_7}$,hybrid
R-HSA-190236,0.0014991639348034206,188.0,7,$\widetilde{A}_{G_7}$,hybrid
R-HSA-181438,0.0014974319234975016,189.0,7,$\widetilde{A}_{G_7}$,hybrid
R-HSA-168179,0.0014974319234975011,190.0,7,$\widetilde{A}_{G_7}$,hybrid
R-HSA-877312,0.0014971864444578975,191.0,7,$\widetilde{A}_{G_7}$,hybrid
R-HSA-5676594,0.001489821146837593,192.0,7,$\widetilde{A}_{G_7}$,hybrid
R-HSA-416476,0.0014878659535008541,193.0,7,$\widetilde{A}_{G_7}$,hybrid
R-HSA-877300,0.001487491369625392,194.0,7,$\widetilde{A}_{G_7}$,hybrid
R-HSA-168188,0.001470850033489044,195.5,7,$\widetilde{A}_{G_7}$,hybrid
R-HSA-166058,0.001470850033489044,195.5,7,$\widetilde{A}_{G_7}$,hybrid
R-HSA-9617324,0.001469305254374182,197.0,7,$\widetilde{A}_{G_7}$,hybrid
R-HSA-6785631,0.0014611328385025558,198.0,7,$\widetilde{A}_{G_7}$,hybrid
R-HSA-5689896,0.0014611161080252905,199.0,7,$\widetilde{A}_{G_7}$,hybrid
R-HSA-1500931,0.0014590733681637048,200.0,7,$\widetilde{A}_{G_7}$,hybrid
R-HSA-8864260,0.001447753661817008,201.0,7,$\widetilde{A}_{G_7}$,hybrid
R-HSA-422356,0.0014429593506289228,202.0,7,$\widetilde{A}_{G_7}$,hybrid
R-HSA-8957275,0.001437770123112374,203.0,7,$\widetilde{A}_{G_7}$,hybrid
R-HSA-163685,0.0014362924497268836,204.0,7,$\widetilde{A}_{G_7}$,hybrid
R-HSA-6811558,0.001420219839507626,205.0,7,$\widetilde{A}_{G_7}$,hybrid
R-HSA-8854691,0.0014171944852023697,206.0,7,$\widetilde{A}_{G_7}$,hybrid
R-HSA-428540,0.0014123323728334237,207.0,7,$\widetilde{A}_{G_7}$,hybrid
R-HSA-193692,0.001410161200613596,208.0,7,$\widetilde{A}_{G_7}$,hybrid
R-HSA-9035034,0.0014095945432667902,209.0,7,$\widetilde{A}_{G_7}$,hybrid
R-HSA-111885,0.0014074594445278267,210.0,7,$\widetilde{A}_{G_7}$,hybrid
R-HSA-447115,0.0014064500942347364,211.0,7,$\widetilde{A}_{G_7}$,hybrid
R-HSA-975138,0.0014017137766710835,212.0,7,$\widetilde{A}_{G_7}$,hybrid
R-HSA-168181,0.0013988401898060165,214.0,7,$\widetilde{A}_{G_7}$,hybrid
R-HSA-168138,0.0013988401898060165,214.0,7,$\widetilde{A}_{G_7}$,hybrid
R-HSA-975155,0.0013988401898060165,214.0,7,$\widetilde{A}_{G_7}$,hybrid
R-HSA-9609736,0.0013948819578150637,216.0,7,$\widetilde{A}_{G_7}$,hybrid
R-HSA-9664417,0.0013942145288475699,217.0,7,$\widetilde{A}_{G_7}$,hybrid
R-HSA-9664422,0.0013942145288475696,218.5,7,$\widetilde{A}_{G_7}$,hybrid
R-HSA-9664407,0.0013942145288475696,218.5,7,$\widetilde{A}_{G_7}$,hybrid
R-HSA-450321,0.0013920322886219999,220.0,7,$\widetilde{A}_{G_7}$,hybrid
R-HSA-6783589,0.0013889864293028522,221.0,7,$\widetilde{A}_{G_7}$,hybrid
R-HSA-205043,0.0013869256886559068,222.0,7,$\widetilde{A}_{G_7}$,hybrid
R-HSA-1266695,0.0013869229432434608,223.0,7,$\widetilde{A}_{G_7}$,hybrid
R-HSA-991365,0.001386276813093879,225.0,7,$\widetilde{A}_{G_7}$,hybrid
R-HSA-977443,0.001386276813093879,225.0,7,$\widetilde{A}_{G_7}$,hybrid
R-HSA-977444,0.001386276813093879,225.0,7,$\widetilde{A}_{G_7}$,hybrid
R-HSA-933541,0.0013825993946415176,227.0,7,$\widetilde{A}_{G_7}$,hybrid
R-HSA-917977,0.0013813306589570058,228.0,7,$\widetilde{A}_{G_7}$,hybrid
R-HSA-9020956,0.001378441459158154,229.0,7,$\widetilde{A}_{G_7}$,hybrid
R-HSA-2022090,0.0013781977465052847,230.0,7,$\widetilde{A}_{G_7}$,hybrid
R-HSA-446728,0.0013730325547432172,231.0,7,$\widetilde{A}_{G_7}$,hybrid
R-HSA-201451,0.0013724460159287475,232.0,7,$\widetilde{A}_{G_7}$,hybrid
R-HSA-5655253,0.0013684792006940015,233.0,7,$\widetilde{A}_{G_7}$,hybrid
R-HSA-9013507,0.001363171870987261,234.0,7,$\widetilde{A}_{G_7}$,hybrid
R-HSA-169893,0.0013605151026810623,235.0,7,$\widetilde{A}_{G_7}$,hybrid
R-HSA-8984722,0.001355089261814743,236.0,7,$\widetilde{A}_{G_7}$,hybrid
R-HSA-4090294,0.0013507326584303809,237.0,7,$\widetilde{A}_{G_7}$,hybrid
R-HSA-2219528,0.0013474466411154263,238.0,7,$\widetilde{A}_{G_7}$,hybrid
R-HSA-389357,0.0013448897486047148,239.0,7,$\widetilde{A}_{G_7}$,hybrid
R-HSA-975871,0.0013407363926312217,240.5,7,$\widetilde{A}_{G_7}$,hybrid
R-HSA-168176,0.0013407363926312217,240.5,7,$\widetilde{A}_{G_7}$,hybrid
R-HSA-168142,0.0013407363926312213,242.0,7,$\widetilde{A}_{G_7}$,hybrid
R-HSA-3371511,0.0013361554079025346,243.0,7,$\widetilde{A}_{G_7}$,hybrid
R-HSA-5625900,0.0013357292966470738,244.0,7,$\widetilde{A}_{G_7}$,hybrid
R-HSA-418555,0.0013336390823250664,245.0,7,$\widetilde{A}_{G_7}$,hybrid
R-HSA-8964315,0.0013319827954600088,246.0,7,$\widetilde{A}_{G_7}$,hybrid
R-HSA-5357769,0.0013277187128057735,247.0,7,$\widetilde{A}_{G_7}$,hybrid
R-HSA-392851,0.0013259579427966986,248.0,7,$\widetilde{A}_{G_7}$,hybrid
R-HSA-168927,0.0013240615071210672,249.0,7,$\widetilde{A}_{G_7}$,hybrid
R-HSA-933543,0.001322176358149479,250.0,7,$\widetilde{A}_{G_7}$,hybrid
R-HSA-199418,0.0013182527683036746,251.0,7,$\widetilde{A}_{G_7}$,hybrid
R-HSA-6807004,0.0013142514049213352,252.0,7,$\widetilde{A}_{G_7}$,hybrid
R-HSA-164938,0.0013045361546119595,253.0,7,$\widetilde{A}_{G_7}$,hybrid
R-HSA-1660499,0.0013032990875586977,254.0,7,$\widetilde{A}_{G_7}$,hybrid
R-HSA-187687,0.0013030212175523745,255.0,7,$\widetilde{A}_{G_7}$,hybrid
R-HSA-937039,0.0012921311681520298,256.0,7,$\widetilde{A}_{G_7}$,hybrid
R-HSA-975144,0.0012921311681520296,257.0,7,$\widetilde{A}_{G_7}$,hybrid
R-HSA-168638,0.0012855415928688058,258.0,7,$\widetilde{A}_{G_7}$,hybrid
R-HSA-9013424,0.0012744062256088223,259.0,7,$\widetilde{A}_{G_7}$,hybrid
R-HSA-168643,0.0012743778611481798,260.0,7,$\widetilde{A}_{G_7}$,hybrid
R-HSA-420092,0.0012723961618477195,261.0,7,$\widetilde{A}_{G_7}$,hybrid
R-HSA-372708,0.0012660371560941832,262.0,7,$\widetilde{A}_{G_7}$,hybrid
R-HSA-6783783,0.0012650275466197668,263.0,7,$\widetilde{A}_{G_7}$,hybrid
R-HSA-418885,0.0012643395963097936,264.0,7,$\widetilde{A}_{G_7}$,hybrid
R-HSA-2132295,0.0012620868913900117,265.0,7,$\widetilde{A}_{G_7}$,hybrid
R-HSA-4420097,0.0012606824621961997,266.0,7,$\widetilde{A}_{G_7}$,hybrid
R-HSA-6806834,0.001259539352693115,267.0,7,$\widetilde{A}_{G_7}$,hybrid
R-HSA-5675482,0.0012544902910157452,268.0,7,$\widetilde{A}_{G_7}$,hybrid
R-HSA-5213460,0.001254490291015745,269.0,7,$\widetilde{A}_{G_7}$,hybrid
R-HSA-432142,0.0012539041998781972,270.0,7,$\widetilde{A}_{G_7}$,hybrid
R-HSA-397795,0.0012537402483702247,271.0,7,$\widetilde{A}_{G_7}$,hybrid
R-HSA-450302,0.001252052729184756,272.0,7,$\widetilde{A}_{G_7}$,hybrid
R-HSA-438064,0.0012493738045030564,273.0,7,$\widetilde{A}_{G_7}$,hybrid
R-HSA-177504,0.001242262659468459,274.0,7,$\widetilde{A}_{G_7}$,hybrid
R-HSA-4086398,0.0012395847402485419,275.0,7,$\widetilde{A}_{G_7}$,hybrid
R-HSA-982772,0.0012360557562525194,276.0,7,$\widetilde{A}_{G_7}$,hybrid
R-HSA-9648002,0.0012350252262922834,277.0,7,$\widetilde{A}_{G_7}$,hybrid
R-HSA-198933,0.001232698774331481,278.0,7,$\widetilde{A}_{G_7}$,hybrid
R-HSA-445989,0.0012222936110232996,279.0,7,$\widetilde{A}_{G_7}$,hybrid
R-HSA-9662851,0.001221316496396483,280.5,7,$\widetilde{A}_{G_7}$,hybrid
R-HSA-9664433,0.001221316496396483,280.5,7,$\widetilde{A}_{G_7}$,hybrid
R-HSA-400042,0.001215080267612656,282.0,7,$\widetilde{A}_{G_7}$,hybrid
R-HSA-8940973,0.0012111637904671845,283.0,7,$\widetilde{A}_{G_7}$,hybrid
R-HSA-442755,0.0012105146371342447,284.0,7,$\widetilde{A}_{G_7}$,hybrid
R-HSA-6799198,0.001206919838185386,285.0,7,$\widetilde{A}_{G_7}$,hybrid
R-HSA-6804115,0.0011988680917530724,286.0,7,$\widetilde{A}_{G_7}$,hybrid
R-HSA-8866427,0.0011966338624388654,287.0,7,$\widetilde{A}_{G_7}$,hybrid
R-HSA-392170,0.0011918544975044138,288.0,7,$\widetilde{A}_{G_7}$,hybrid
R-HSA-445717,0.001187817882893872,289.5,7,$\widetilde{A}_{G_7}$,hybrid
R-HSA-432040,0.001187817882893872,289.5,7,$\widetilde{A}_{G_7}$,hybrid
R-HSA-8964616,0.0011869393833268066,291.0,7,$\widetilde{A}_{G_7}$,hybrid
R-HSA-390450,0.001186494626121952,292.0,7,$\widetilde{A}_{G_7}$,hybrid
R-HSA-937061,0.0011837150512146288,293.0,7,$\widetilde{A}_{G_7}$,hybrid
R-HSA-166166,0.0011837150512146286,294.0,7,$\widetilde{A}_{G_7}$,hybrid
R-HSA-1226099,0.0011831472178627847,295.0,7,$\widetilde{A}_{G_7}$,hybrid
R-HSA-1810476,0.001182880181020045,296.0,7,$\widetilde{A}_{G_7}$,hybrid
R-HSA-182971,0.001175382585059275,297.0,7,$\widetilde{A}_{G_7}$,hybrid
R-HSA-5601884,0.0011740411833315284,298.0,7,$\widetilde{A}_{G_7}$,hybrid
R-HSA-5140745,0.0011643377859525633,299.0,7,$\widetilde{A}_{G_7}$,hybrid
R-HSA-6803529,0.0011616823498552637,300.0,7,$\widetilde{A}_{G_7}$,hybrid
R-HSA-9656223,0.0011508180995726367,301.0,7,$\widetilde{A}_{G_7}$,hybrid
R-HSA-8939902,0.0011491382602565887,302.0,7,$\widetilde{A}_{G_7}$,hybrid
R-HSA-164940,0.0011460573374376675,303.0,7,$\widetilde{A}_{G_7}$,hybrid
R-HSA-112043,0.0011421681018494905,304.0,7,$\widetilde{A}_{G_7}$,hybrid
R-HSA-9020702,0.0011405350837526234,305.0,7,$\widetilde{A}_{G_7}$,hybrid
R-HSA-170968,0.0011398821052265127,306.0,7,$\widetilde{A}_{G_7}$,hybrid
R-HSA-176974,0.0011361292120000083,307.0,7,$\widetilde{A}_{G_7}$,hybrid
R-HSA-9009391,0.0011215511729347756,308.0,7,$\widetilde{A}_{G_7}$,hybrid
R-HSA-6802955,0.0011187395997768366,309.5,7,$\widetilde{A}_{G_7}$,hybrid
R-HSA-9649948,0.0011187395997768366,309.5,7,$\widetilde{A}_{G_7}$,hybrid
R-HSA-6802946,0.0011187395997768364,311.5,7,$\widetilde{A}_{G_7}$,hybrid
R-HSA-6802949,0.0011187395997768364,311.5,7,$\widetilde{A}_{G_7}$,hybrid
R-HSA-68884,0.0011177764055851321,313.0,7,$\widetilde{A}_{G_7}$,hybrid
R-HSA-9709957,0.001104270402579238,314.0,7,$\widetilde{A}_{G_7}$,hybrid
R-HSA-416482,0.0010966621434567708,315.0,7,$\widetilde{A}_{G_7}$,hybrid
R-HSA-375165,0.0010907201127326814,316.0,7,$\widetilde{A}_{G_7}$,hybrid
R-HSA-381070,0.0010906053268494203,317.0,7,$\widetilde{A}_{G_7}$,hybrid
R-HSA-9013409,0.001088505303321649,318.0,7,$\widetilde{A}_{G_7}$,hybrid
R-HSA-1606322,0.001085110378332331,319.0,7,$\widetilde{A}_{G_7}$,hybrid
R-HSA-6788467,0.0010832964724199787,320.0,7,$\widetilde{A}_{G_7}$,hybrid
R-HSA-6802948,0.0010752040757767353,321.0,7,$\widetilde{A}_{G_7}$,hybrid
R-HSA-8941326,0.0010740118190820192,322.0,7,$\widetilde{A}_{G_7}$,hybrid
R-HSA-844456,0.001069614229780311,323.0,7,$\widetilde{A}_{G_7}$,hybrid
R-HSA-112040,0.0010653460658495773,324.0,7,$\widetilde{A}_{G_7}$,hybrid
R-HSA-8849471,0.001064965863904986,325.0,7,$\widetilde{A}_{G_7}$,hybrid
R-HSA-5099900,0.0010595177396240884,326.0,7,$\widetilde{A}_{G_7}$,hybrid
R-HSA-5357956,0.0010594404004140075,327.0,7,$\widetilde{A}_{G_7}$,hybrid
R-HSA-918233,0.0010564242550105069,328.0,7,$\widetilde{A}_{G_7}$,hybrid
R-HSA-622312,0.0010560130750885267,329.0,7,$\widetilde{A}_{G_7}$,hybrid
R-HSA-204998,0.0010532707049852787,330.0,7,$\widetilde{A}_{G_7}$,hybrid
R-HSA-399954,0.0010523263415945748,331.0,7,$\widetilde{A}_{G_7}$,hybrid
R-HSA-8948216,0.0010424640728338799,332.0,7,$\widetilde{A}_{G_7}$,hybrid
R-HSA-8848021,0.001040124516529202,333.5,7,$\widetilde{A}_{G_7}$,hybrid
R-HSA-9006927,0.001040124516529202,333.5,7,$\widetilde{A}_{G_7}$,hybrid
R-HSA-3928665,0.0010366532909883725,335.0,7,$\widetilde{A}_{G_7}$,hybrid
R-HSA-8863795,0.0010364900204422004,336.0,7,$\widetilde{A}_{G_7}$,hybrid
R-HSA-75035,0.0010334392838286,337.0,7,$\widetilde{A}_{G_7}$,hybrid
R-HSA-5218921,0.0010327396954989152,338.0,7,$\widetilde{A}_{G_7}$,hybrid
R-HSA-912446,0.0010233603188455002,339.0,7,$\widetilde{A}_{G_7}$,hybrid
R-HSA-392451,0.001021776087087966,340.0,7,$\widetilde{A}_{G_7}$,hybrid
R-HSA-3000171,0.0010212756906634289,341.0,7,$\widetilde{A}_{G_7}$,hybrid
R-HSA-381426,0.0010171920166275525,342.0,7,$\widetilde{A}_{G_7}$,hybrid
R-HSA-5674135,0.0010023527617137335,343.0,7,$\widetilde{A}_{G_7}$,hybrid
R-HSA-1474290,0.0009974727998130445,344.0,7,$\widetilde{A}_{G_7}$,hybrid
R-HSA-9013423,0.0009931635499892668,345.0,7,$\widetilde{A}_{G_7}$,hybrid
R-HSA-9613829,0.00099050722578574,346.0,7,$\widetilde{A}_{G_7}$,hybrid
R-HSA-9660826,0.000990427321306973,347.0,7,$\widetilde{A}_{G_7}$,hybrid
R-HSA-9664424,0.0009904273213069729,348.0,7,$\widetilde{A}_{G_7}$,hybrid
R-HSA-3371568,0.0009827653917175167,349.0,7,$\widetilde{A}_{G_7}$,hybrid
R-HSA-6802952,0.0009753172649036297,350.0,7,$\widetilde{A}_{G_7}$,hybrid
R-HSA-450294,0.0009753164555973921,351.0,7,$\widetilde{A}_{G_7}$,hybrid
R-HSA-5357905,0.0009745379736398645,352.0,7,$\widetilde{A}_{G_7}$,hybrid
R-HSA-933542,0.0009699727868267084,353.0,7,$\widetilde{A}_{G_7}$,hybrid
R-HSA-202733,0.0009649259764381482,354.0,7,$\widetilde{A}_{G_7}$,hybrid
R-HSA-5673000,0.000962595866586003,355.0,7,$\widetilde{A}_{G_7}$,hybrid
R-HSA-6785807,0.0009600219836570714,356.0,7,$\widetilde{A}_{G_7}$,hybrid
R-HSA-427389,0.0009580897840280815,357.0,7,$\widetilde{A}_{G_7}$,hybrid
R-HSA-9696264,0.0009549906562006852,358.0,7,$\widetilde{A}_{G_7}$,hybrid
R-HSA-5668541,0.0009484868380722474,359.0,7,$\widetilde{A}_{G_7}$,hybrid
R-HSA-1839126,0.0009483451879698107,360.0,7,$\widetilde{A}_{G_7}$,hybrid
R-HSA-3000178,0.0009482646863085215,361.0,7,$\widetilde{A}_{G_7}$,hybrid
R-HSA-6794361,0.0009476735305487614,362.0,7,$\widetilde{A}_{G_7}$,hybrid
R-HSA-419037,0.0009385924277271793,363.0,7,$\widetilde{A}_{G_7}$,hybrid
R-HSA-8856825,0.0009384895648804715,364.0,7,$\widetilde{A}_{G_7}$,hybrid
R-HSA-3928663,0.0009382470972794187,365.0,7,$\widetilde{A}_{G_7}$,hybrid
R-HSA-448424,0.0009344633612798952,366.0,7,$\widetilde{A}_{G_7}$,hybrid
R-HSA-157858,0.0009322130060829138,367.0,7,$\widetilde{A}_{G_7}$,hybrid
R-HSA-5218900,0.0009211869691622632,369.0,7,$\widetilde{A}_{G_7}$,hybrid
R-HSA-69416,0.0009211869691622632,369.0,7,$\widetilde{A}_{G_7}$,hybrid
R-HSA-3371378,0.0009211869691622632,369.0,7,$\widetilde{A}_{G_7}$,hybrid
R-HSA-3928664,0.0009182014307955329,371.0,7,$\widetilde{A}_{G_7}$,hybrid
R-HSA-390522,0.0009178950298830323,372.0,7,$\widetilde{A}_{G_7}$,hybrid
R-HSA-168164,0.0009162188679710499,373.0,7,$\widetilde{A}_{G_7}$,hybrid
R-HSA-399721,0.000915142590628751,374.5,7,$\widetilde{A}_{G_7}$,hybrid
R-HSA-399719,0.000915142590628751,374.5,7,$\widetilde{A}_{G_7}$,hybrid
R-HSA-193704,0.0009105774888411509,376.0,7,$\widetilde{A}_{G_7}$,hybrid
R-HSA-8964038,0.0009068538019092638,377.0,7,$\widetilde{A}_{G_7}$,hybrid
R-HSA-380972,0.0009058004959117956,378.0,7,$\widetilde{A}_{G_7}$,hybrid
R-HSA-389960,0.0009051950997484245,379.0,7,$\widetilde{A}_{G_7}$,hybrid
R-HSA-381676,0.00090389927368453,380.0,7,$\widetilde{A}_{G_7}$,hybrid
R-HSA-111932,0.0009018833471140428,381.0,7,$\widetilde{A}_{G_7}$,hybrid
R-HSA-168928,0.0008992011501324758,382.0,7,$\widetilde{A}_{G_7}$,hybrid
R-HSA-5357786,0.0008947523060072691,383.0,7,$\widetilde{A}_{G_7}$,hybrid
R-HSA-9646399,0.0008904997729680154,384.0,7,$\widetilde{A}_{G_7}$,hybrid
R-HSA-9013026,0.0008850707770179911,385.0,7,$\widetilde{A}_{G_7}$,hybrid
R-HSA-75893,0.0008839212120979297,386.0,7,$\widetilde{A}_{G_7}$,hybrid
R-HSA-9013418,0.000876209631880818,387.0,7,$\widetilde{A}_{G_7}$,hybrid
R-HSA-5684264,0.0008757045212370134,388.0,7,$\widetilde{A}_{G_7}$,hybrid
R-HSA-5218920,0.0008728799810038791,389.0,7,$\widetilde{A}_{G_7}$,hybrid
R-HSA-983189,0.0008648708606958667,390.0,7,$\widetilde{A}_{G_7}$,hybrid
R-HSA-176187,0.0008613025629803405,391.0,7,$\widetilde{A}_{G_7}$,hybrid
R-HSA-399956,0.0008611242379496091,392.0,7,$\widetilde{A}_{G_7}$,hybrid
R-HSA-9013695,0.0008446518302503421,393.0,7,$\widetilde{A}_{G_7}$,hybrid
R-HSA-373752,0.0008402356727827855,394.0,7,$\widetilde{A}_{G_7}$,hybrid
R-HSA-1650814,0.0008390151879358167,395.0,7,$\widetilde{A}_{G_7}$,hybrid
R-HSA-5678895,0.0008384058185848335,396.0,7,$\widetilde{A}_{G_7}$,hybrid
R-HSA-450408,0.0008337425441597269,397.0,7,$\widetilde{A}_{G_7}$,hybrid
R-HSA-5620922,0.0008280450690000658,398.0,7,$\widetilde{A}_{G_7}$,hybrid
R-HSA-193648,0.0008254809853984641,399.0,7,$\widetilde{A}_{G_7}$,hybrid
R-HSA-5619084,0.0008244025935122439,400.0,7,$\widetilde{A}_{G_7}$,hybrid
R-HSA-5663213,0.0008236675010187037,401.0,7,$\widetilde{A}_{G_7}$,hybrid
R-HSA-611105,0.0008230503960995159,402.0,7,$\widetilde{A}_{G_7}$,hybrid
R-HSA-210500,0.0008216852945743369,405.0,7,$\widetilde{A}_{G_7}$,hybrid
R-HSA-212676,0.0008216852945743369,405.0,7,$\widetilde{A}_{G_7}$,hybrid
R-HSA-181430,0.0008216852945743369,405.0,7,$\widetilde{A}_{G_7}$,hybrid
R-HSA-181429,0.0008216852945743369,405.0,7,$\widetilde{A}_{G_7}$,hybrid
R-HSA-264642,0.0008216852945743369,405.0,7,$\widetilde{A}_{G_7}$,hybrid
R-HSA-8852276,0.0008209698831657113,408.0,7,$\widetilde{A}_{G_7}$,hybrid
R-HSA-437239,0.0008207532114510598,409.0,7,$\widetilde{A}_{G_7}$,hybrid
R-HSA-5626467,0.000819718629984994,410.0,7,$\widetilde{A}_{G_7}$,hybrid
R-HSA-111447,0.0008166765012661086,411.0,7,$\widetilde{A}_{G_7}$,hybrid
R-HSA-445144,0.0008138517776412799,412.0,7,$\widetilde{A}_{G_7}$,hybrid
R-HSA-1236978,0.0008130075721040938,413.0,7,$\widetilde{A}_{G_7}$,hybrid
R-HSA-9660821,0.0008082165241256832,414.0,7,$\widetilde{A}_{G_7}$,hybrid
R-HSA-349425,0.0008081084145498019,415.0,7,$\widetilde{A}_{G_7}$,hybrid
R-HSA-9013422,0.0008066970968060069,416.0,7,$\widetilde{A}_{G_7}$,hybrid
R-HSA-2682334,0.0008059068387356944,417.0,7,$\widetilde{A}_{G_7}$,hybrid
R-HSA-3371497,0.0008053414111844639,418.0,7,$\widetilde{A}_{G_7}$,hybrid
R-HSA-2894858,0.0008038252881092879,419.0,7,$\widetilde{A}_{G_7}$,hybrid
R-HSA-2644606,0.0008038252881092878,420.5,7,$\widetilde{A}_{G_7}$,hybrid
R-HSA-2644602,0.0008038252881092878,420.5,7,$\widetilde{A}_{G_7}$,hybrid
R-HSA-2894862,0.0008038252881092877,422.0,7,$\widetilde{A}_{G_7}$,hybrid
R-HSA-2644603,0.0008038252881092874,423.0,7,$\widetilde{A}_{G_7}$,hybrid
R-HSA-3371571,0.0008025552877533735,424.0,7,$\widetilde{A}_{G_7}$,hybrid
R-HSA-418597,0.0008021233867273001,425.0,7,$\widetilde{A}_{G_7}$,hybrid
R-HSA-9012852,0.0008009337213908149,426.0,7,$\widetilde{A}_{G_7}$,hybrid
R-HSA-429947,0.0008003899538431392,427.0,7,$\widetilde{A}_{G_7}$,hybrid
R-HSA-176407,0.0008003293534623516,428.0,7,$\widetilde{A}_{G_7}$,hybrid
R-HSA-9013408,0.0007924465536565797,429.0,7,$\widetilde{A}_{G_7}$,hybrid
R-HSA-180534,0.0007865223448507939,430.0,7,$\widetilde{A}_{G_7}$,hybrid
R-HSA-196025,0.0007850894072669815,431.0,7,$\widetilde{A}_{G_7}$,hybrid
R-HSA-3000157,0.0007846152273346493,432.0,7,$\widetilde{A}_{G_7}$,hybrid
R-HSA-5218859,0.000784086963779283,433.0,7,$\widetilde{A}_{G_7}$,hybrid
R-HSA-1834949,0.0007833738890220681,434.0,7,$\widetilde{A}_{G_7}$,hybrid
R-HSA-211733,0.0007796532140431041,435.0,7,$\widetilde{A}_{G_7}$,hybrid
R-HSA-169911,0.0007796532140431037,436.0,7,$\widetilde{A}_{G_7}$,hybrid
R-HSA-190873,0.0007788521053378101,437.0,7,$\widetilde{A}_{G_7}$,hybrid
R-HSA-69541,0.0007778096895306485,438.0,7,$\widetilde{A}_{G_7}$,hybrid
R-HSA-9604323,0.0007774852475948672,439.0,7,$\widetilde{A}_{G_7}$,hybrid
R-HSA-1445148,0.0007764159268085873,440.0,7,$\widetilde{A}_{G_7}$,hybrid
R-HSA-8854050,0.0007743967076544199,441.0,7,$\widetilde{A}_{G_7}$,hybrid
R-HSA-1236974,0.0007731682798230589,442.0,7,$\widetilde{A}_{G_7}$,hybrid
R-HSA-9013405,0.0007691732875084779,443.0,7,$\widetilde{A}_{G_7}$,hybrid
R-HSA-383280,0.0007689737039597165,444.0,7,$\widetilde{A}_{G_7}$,hybrid
R-HSA-8874081,0.0007671757478254863,445.0,7,$\widetilde{A}_{G_7}$,hybrid
R-HSA-3214842,0.0007649733809358794,446.0,7,$\widetilde{A}_{G_7}$,hybrid
R-HSA-180585,0.0007589689151055541,447.0,7,$\widetilde{A}_{G_7}$,hybrid
R-HSA-9710421,0.0007586639057192657,448.0,7,$\widetilde{A}_{G_7}$,hybrid
R-HSA-75815,0.0007560767326565317,449.0,7,$\widetilde{A}_{G_7}$,hybrid
R-HSA-390471,0.000754052257337482,450.0,7,$\widetilde{A}_{G_7}$,hybrid
R-HSA-8932339,0.0007538984707360199,451.0,7,$\widetilde{A}_{G_7}$,hybrid
R-HSA-9013404,0.0007515875898434867,452.0,7,$\widetilde{A}_{G_7}$,hybrid
R-HSA-174113,0.0007509422747029729,453.0,7,$\widetilde{A}_{G_7}$,hybrid
R-HSA-1442490,0.00075085205862912,454.0,7,$\widetilde{A}_{G_7}$,hybrid
R-HSA-6802957,0.0007506852721422372,455.0,7,$\widetilde{A}_{G_7}$,hybrid
R-HSA-4641258,0.000749395145682991,456.0,7,$\widetilde{A}_{G_7}$,hybrid
R-HSA-69610,0.0007492943543467955,457.0,7,$\widetilde{A}_{G_7}$,hybrid
R-HSA-69613,0.0007492943543467954,458.0,7,$\widetilde{A}_{G_7}$,hybrid
R-HSA-69601,0.0007492943543467951,459.0,7,$\widetilde{A}_{G_7}$,hybrid
R-HSA-8941858,0.0007492282892350124,460.0,7,$\widetilde{A}_{G_7}$,hybrid
R-HSA-5334118,0.0007464656348111932,461.0,7,$\widetilde{A}_{G_7}$,hybrid
R-HSA-6804116,0.0007450013043110856,462.0,7,$\widetilde{A}_{G_7}$,hybrid
R-HSA-6807878,0.0007449058996966908,463.0,7,$\widetilde{A}_{G_7}$,hybrid
R-HSA-373760,0.0007433946474631741,464.0,7,$\widetilde{A}_{G_7}$,hybrid
R-HSA-1483255,0.0007430391929829504,465.0,7,$\widetilde{A}_{G_7}$,hybrid
R-HSA-2122947,0.0007419241710931777,466.0,7,$\widetilde{A}_{G_7}$,hybrid
R-HSA-2871837,0.0007409864506584113,467.0,7,$\widetilde{A}_{G_7}$,hybrid
R-HSA-5362768,0.0007402838771590144,468.0,7,$\widetilde{A}_{G_7}$,hybrid
R-HSA-5387390,0.000740283877159013,469.0,7,$\widetilde{A}_{G_7}$,hybrid
R-HSA-3214815,0.0007399630267899468,470.0,7,$\widetilde{A}_{G_7}$,hybrid
R-HSA-1489509,0.0007392318622452366,471.0,7,$\widetilde{A}_{G_7}$,hybrid
R-HSA-1358803,0.000737975805449608,472.0,7,$\widetilde{A}_{G_7}$,hybrid
R-HSA-1236975,0.0007375064447030915,473.0,7,$\widetilde{A}_{G_7}$,hybrid
R-HSA-2173789,0.0007354514013475003,474.0,7,$\widetilde{A}_{G_7}$,hybrid
R-HSA-68827,0.0007352529004129914,475.0,7,$\widetilde{A}_{G_7}$,hybrid
R-HSA-5610785,0.0007348549993890314,476.0,7,$\widetilde{A}_{G_7}$,hybrid
R-HSA-5676590,0.0007346175417036378,477.0,7,$\widetilde{A}_{G_7}$,hybrid
R-HSA-9013700,0.0007342318611538635,478.0,7,$\widetilde{A}_{G_7}$,hybrid
R-HSA-68949,0.0007336545771823361,479.0,7,$\widetilde{A}_{G_7}$,hybrid
R-HSA-9706574,0.0007310756343884594,480.0,7,$\widetilde{A}_{G_7}$,hybrid
R-HSA-5625740,0.0007306057964175578,481.0,7,$\widetilde{A}_{G_7}$,hybrid
R-HSA-68867,0.0007299043137766892,482.0,7,$\widetilde{A}_{G_7}$,hybrid
R-HSA-5668599,0.0007286553198685708,483.0,7,$\widetilde{A}_{G_7}$,hybrid
R-HSA-5607761,0.000728637535863164,484.0,7,$\widetilde{A}_{G_7}$,hybrid
R-HSA-69002,0.000725718458319151,485.0,7,$\widetilde{A}_{G_7}$,hybrid
R-HSA-5358565,0.0007250787955773434,486.0,7,$\widetilde{A}_{G_7}$,hybrid
R-HSA-351202,0.0007247246485608715,487.0,7,$\widetilde{A}_{G_7}$,hybrid
R-HSA-432720,0.0007240797626322491,488.0,7,$\widetilde{A}_{G_7}$,hybrid
R-HSA-9614399,0.0007234063783225112,489.0,7,$\widetilde{A}_{G_7}$,hybrid
R-HSA-5610783,0.0007230841237198215,490.0,7,$\widetilde{A}_{G_7}$,hybrid
R-HSA-3928662,0.000722108129601259,491.0,7,$\widetilde{A}_{G_7}$,hybrid
R-HSA-69231,0.0007218090627263008,492.5,7,$\widetilde{A}_{G_7}$,hybrid
R-HSA-69236,0.0007218090627263008,492.5,7,$\widetilde{A}_{G_7}$,hybrid
R-HSA-8863678,0.0007215195029833562,494.0,7,$\widetilde{A}_{G_7}$,hybrid
R-HSA-8862803,0.0007215195029833557,495.0,7,$\widetilde{A}_{G_7}$,hybrid
R-HSA-5358346,0.0007205283989955548,496.0,7,$\widetilde{A}_{G_7}$,hybrid
R-HSA-9687136,0.0007195961171855834,497.0,7,$\widetilde{A}_{G_7}$,hybrid
R-HSA-69473,0.0007191803516807196,498.0,7,$\widetilde{A}_{G_7}$,hybrid
R-HSA-69563,0.0007189449452035664,499.0,7,$\widetilde{A}_{G_7}$,hybrid
R-HSA-69580,0.0007189449452035662,500.0,7,$\widetilde{A}_{G_7}$,hybrid
R-HSA-156902,0.0007178230411760082,501.0,7,$\widetilde{A}_{G_7}$,hybrid
R-HSA-9013508,0.0007177629250398541,502.0,7,$\widetilde{A}_{G_7}$,hybrid
R-HSA-9617629,0.0007172643151776315,503.0,7,$\widetilde{A}_{G_7}$,hybrid
R-HSA-399955,0.0007172171181175638,504.0,7,$\widetilde{A}_{G_7}$,hybrid
R-HSA-389957,0.0007165141839659009,505.0,7,$\widetilde{A}_{G_7}$,hybrid
R-HSA-212300,0.0007162426479609637,506.0,7,$\widetilde{A}_{G_7}$,hybrid
R-HSA-2408557,0.0007158496400064406,507.0,7,$\widetilde{A}_{G_7}$,hybrid
R-HSA-176412,0.0007156993725929461,508.0,7,$\widetilde{A}_{G_7}$,hybrid
R-HSA-350562,0.000714885935140917,509.0,7,$\widetilde{A}_{G_7}$,hybrid
R-HSA-9707587,0.0007146852117518469,510.0,7,$\widetilde{A}_{G_7}$,hybrid
R-HSA-69190,0.0007140147001155844,511.0,7,$\widetilde{A}_{G_7}$,hybrid
R-HSA-112310,0.0007128286721706147,512.0,7,$\widetilde{A}_{G_7}$,hybrid
R-HSA-5610780,0.0007126238255789717,513.0,7,$\widetilde{A}_{G_7}$,hybrid
R-HSA-68962,0.0007121180408736789,514.0,7,$\widetilde{A}_{G_7}$,hybrid
R-HSA-5205647,0.0007116644639300519,515.0,7,$\widetilde{A}_{G_7}$,hybrid
R-HSA-9619483,0.0007114122672174459,516.0,7,$\widetilde{A}_{G_7}$,hybrid
R-HSA-192823,0.0007102290123851392,517.0,7,$\widetilde{A}_{G_7}$,hybrid
R-HSA-187577,0.0007099803173098253,518.0,7,$\widetilde{A}_{G_7}$,hybrid
R-HSA-389958,0.0007096983740894309,519.0,7,$\widetilde{A}_{G_7}$,hybrid
R-HSA-156842,0.0007091034667625187,520.0,7,$\widetilde{A}_{G_7}$,hybrid
R-HSA-190828,0.0007086753040759349,521.0,7,$\widetilde{A}_{G_7}$,hybrid
R-HSA-5358606,0.0007084883901852493,522.0,7,$\widetilde{A}_{G_7}$,hybrid
R-HSA-1474165,0.000708374055012584,523.0,7,$\widetilde{A}_{G_7}$,hybrid
R-HSA-1500620,0.0007083740550125829,524.0,7,$\widetilde{A}_{G_7}$,hybrid
R-HSA-5658442,0.0007083715299003824,525.0,7,$\widetilde{A}_{G_7}$,hybrid
R-HSA-8934903,0.0007055557825770239,526.0,7,$\widetilde{A}_{G_7}$,hybrid
R-HSA-6804758,0.0007041218312364205,527.0,7,$\widetilde{A}_{G_7}$,hybrid
R-HSA-73728,0.0007037759849899406,528.0,7,$\widetilde{A}_{G_7}$,hybrid
R-HSA-69615,0.0006999889114890888,529.0,7,$\widetilde{A}_{G_7}$,hybrid
R-HSA-141430,0.0006992057094851258,530.5,7,$\widetilde{A}_{G_7}$,hybrid
R-HSA-141405,0.0006992057094851258,530.5,7,$\widetilde{A}_{G_7}$,hybrid
R-HSA-983170,0.0006983132360059374,532.0,7,$\widetilde{A}_{G_7}$,hybrid
R-HSA-382556,0.0006982493998831822,533.0,7,$\widetilde{A}_{G_7}$,hybrid
R-HSA-5205685,0.0006978769315023631,534.0,7,$\widetilde{A}_{G_7}$,hybrid
R-HSA-450531,0.0006976360640366764,535.0,7,$\widetilde{A}_{G_7}$,hybrid
R-HSA-4641257,0.0006958611544866022,536.0,7,$\widetilde{A}_{G_7}$,hybrid
R-HSA-6794362,0.0006936647233096057,537.0,7,$\widetilde{A}_{G_7}$,hybrid
R-HSA-8950505,0.0006927060402289924,538.0,7,$\widetilde{A}_{G_7}$,hybrid
R-HSA-1169091,0.0006912207353507584,539.0,7,$\widetilde{A}_{G_7}$,hybrid
R-HSA-975956,0.0006903573602743048,540.0,7,$\widetilde{A}_{G_7}$,hybrid
R-HSA-5607764,0.0006876547436765466,541.0,7,$\widetilde{A}_{G_7}$,hybrid
R-HSA-2408522,0.000681825212238052,542.0,7,$\widetilde{A}_{G_7}$,hybrid
R-HSA-168273,0.0006818165991368506,543.0,7,$\widetilde{A}_{G_7}$,hybrid
R-HSA-179409,0.0006812097683317202,544.0,7,$\widetilde{A}_{G_7}$,hybrid
R-HSA-8851708,0.0006809426271532355,545.0,7,$\widetilde{A}_{G_7}$,hybrid
R-HSA-5689603,0.0006782000632747578,546.0,7,$\widetilde{A}_{G_7}$,hybrid
R-HSA-165159,0.0006778037511922251,547.0,7,$\widetilde{A}_{G_7}$,hybrid
R-HSA-2465910,0.0006776438446469102,548.0,7,$\widetilde{A}_{G_7}$,hybrid
R-HSA-5173105,0.0006773420926312624,549.0,7,$\widetilde{A}_{G_7}$,hybrid
R-HSA-72764,0.0006768276595836706,550.0,7,$\widetilde{A}_{G_7}$,hybrid
R-HSA-2565942,0.0006758568327650052,551.0,7,$\widetilde{A}_{G_7}$,hybrid
R-HSA-72689,0.0006757520320213073,552.0,7,$\widetilde{A}_{G_7}$,hybrid
R-HSA-936440,0.0006742818325868304,553.0,7,$\widetilde{A}_{G_7}$,hybrid
R-HSA-9013406,0.0006736105940930952,554.0,7,$\widetilde{A}_{G_7}$,hybrid
R-HSA-70263,0.0006735267215657,555.0,7,$\widetilde{A}_{G_7}$,hybrid
R-HSA-5625886,0.0006715536413087633,556.0,7,$\widetilde{A}_{G_7}$,hybrid
R-HSA-8964043,0.0006712897256003246,557.0,7,$\widetilde{A}_{G_7}$,hybrid
R-HSA-6804114,0.0006707633896934995,558.0,7,$\widetilde{A}_{G_7}$,hybrid
R-HSA-5674400,0.00066993383204416,559.0,7,$\widetilde{A}_{G_7}$,hybrid
R-HSA-163560,0.0006671223861211147,560.0,7,$\widetilde{A}_{G_7}$,hybrid
R-HSA-6804760,0.000666402010504522,561.0,7,$\widetilde{A}_{G_7}$,hybrid
R-HSA-5358508,0.0006654790927447418,562.0,7,$\widetilde{A}_{G_7}$,hybrid
R-HSA-156827,0.0006590947122247319,563.0,7,$\widetilde{A}_{G_7}$,hybrid
R-HSA-381340,0.0006585354850798897,564.0,7,$\widetilde{A}_{G_7}$,hybrid
R-HSA-4608870,0.0006578293306228303,565.0,7,$\widetilde{A}_{G_7}$,hybrid
R-HSA-9615017,0.0006535985797882207,566.0,7,$\widetilde{A}_{G_7}$,hybrid
R-HSA-8878159,0.0006532741037076552,567.0,7,$\widetilde{A}_{G_7}$,hybrid
R-HSA-8853884,0.0006519462514110479,568.0,7,$\widetilde{A}_{G_7}$,hybrid
R-HSA-72706,0.0006500191296745233,569.0,7,$\widetilde{A}_{G_7}$,hybrid
R-HSA-201722,0.0006475136942639052,570.0,7,$\widetilde{A}_{G_7}$,hybrid
R-HSA-110312,0.0006468585246898937,571.0,7,$\widetilde{A}_{G_7}$,hybrid
R-HSA-1980143,0.0006452904080961431,572.0,7,$\widetilde{A}_{G_7}$,hybrid
R-HSA-909733,0.0006441602469437244,573.0,7,$\widetilde{A}_{G_7}$,hybrid
R-HSA-69166,0.0006426443813475443,574.0,7,$\widetilde{A}_{G_7}$,hybrid
R-HSA-9013694,0.0006413894331211172,575.0,7,$\widetilde{A}_{G_7}$,hybrid
R-HSA-9633012,0.0006408514947252759,576.0,7,$\widetilde{A}_{G_7}$,hybrid
R-HSA-195253,0.000639742353862009,577.0,7,$\widetilde{A}_{G_7}$,hybrid
R-HSA-3270619,0.000638557905801439,578.0,7,$\widetilde{A}_{G_7}$,hybrid
R-HSA-174048,0.0006371324664794534,579.0,7,$\widetilde{A}_{G_7}$,hybrid
R-HSA-8948751,0.0006353362903355683,580.0,7,$\widetilde{A}_{G_7}$,hybrid
R-HSA-3232118,0.0006340043802974873,581.0,7,$\widetilde{A}_{G_7}$,hybrid
R-HSA-5250913,0.0006320821646596186,582.0,7,$\widetilde{A}_{G_7}$,hybrid
R-HSA-381119,0.00063051435663829,583.0,7,$\widetilde{A}_{G_7}$,hybrid
R-HSA-72649,0.0006301899771336525,584.0,7,$\widetilde{A}_{G_7}$,hybrid
R-HSA-1234176,0.0006297142252836874,585.0,7,$\widetilde{A}_{G_7}$,hybrid
R-HSA-73927,0.0006295678607179202,586.0,7,$\widetilde{A}_{G_7}$,hybrid
R-HSA-110331,0.0006295678607179199,587.0,7,$\widetilde{A}_{G_7}$,hybrid
R-HSA-110330,0.0006295678607179194,588.0,7,$\widetilde{A}_{G_7}$,hybrid
R-HSA-6811436,0.0006287764373949591,589.0,7,$\widetilde{A}_{G_7}$,hybrid
R-HSA-72695,0.0006284136308612864,590.0,7,$\widetilde{A}_{G_7}$,hybrid
R-HSA-1799339,0.0006275372753432676,591.0,7,$\widetilde{A}_{G_7}$,hybrid
R-HSA-4839743,0.0006256864630996657,592.5,7,$\widetilde{A}_{G_7}$,hybrid
R-HSA-5358747,0.0006256864630996657,592.5,7,$\widetilde{A}_{G_7}$,hybrid
R-HSA-5358752,0.0006256864630996649,595.5,7,$\widetilde{A}_{G_7}$,hybrid
R-HSA-5339716,0.0006256864630996649,595.5,7,$\widetilde{A}_{G_7}$,hybrid
R-HSA-5358749,0.0006256864630996649,595.5,7,$\widetilde{A}_{G_7}$,hybrid
R-HSA-5358751,0.0006256864630996649,595.5,7,$\widetilde{A}_{G_7}$,hybrid
R-HSA-166208,0.0006233825947429962,598.0,7,$\widetilde{A}_{G_7}$,hybrid
R-HSA-2468052,0.0006219643354060321,599.0,7,$\widetilde{A}_{G_7}$,hybrid
R-HSA-9634638,0.0006218652261263339,600.0,7,$\widetilde{A}_{G_7}$,hybrid
R-HSA-373755,0.0006207107118781303,601.0,7,$\widetilde{A}_{G_7}$,hybrid
R-HSA-373080,0.0006202275955779536,602.0,7,$\widetilde{A}_{G_7}$,hybrid
R-HSA-69183,0.000619708580597989,603.0,7,$\widetilde{A}_{G_7}$,hybrid
R-HSA-72662,0.000618969390673995,604.0,7,$\widetilde{A}_{G_7}$,hybrid
R-HSA-174084,0.0006186909289454842,605.0,7,$\widetilde{A}_{G_7}$,hybrid
R-HSA-9645723,0.0006183415353677061,606.0,7,$\widetilde{A}_{G_7}$,hybrid
R-HSA-453276,0.0006169339305135623,607.0,7,$\widetilde{A}_{G_7}$,hybrid
R-HSA-174143,0.0006169339305135622,608.0,7,$\widetilde{A}_{G_7}$,hybrid
R-HSA-72702,0.0006152462582773365,609.0,7,$\widetilde{A}_{G_7}$,hybrid
R-HSA-5655862,0.000614801088875388,610.0,7,$\widetilde{A}_{G_7}$,hybrid
R-HSA-1474228,0.000614487801241737,611.0,7,$\widetilde{A}_{G_7}$,hybrid
R-HSA-176408,0.0006142997768150999,612.0,7,$\widetilde{A}_{G_7}$,hybrid
R-HSA-69052,0.0006113677898467885,613.0,7,$\widetilde{A}_{G_7}$,hybrid
R-HSA-5339562,0.000611020418167576,614.0,7,$\widetilde{A}_{G_7}$,hybrid
R-HSA-1168372,0.0006104100340069107,615.0,7,$\widetilde{A}_{G_7}$,hybrid
R-HSA-179419,0.0006099556615937615,616.0,7,$\widetilde{A}_{G_7}$,hybrid
R-HSA-264870,0.0006096843886935949,617.0,7,$\widetilde{A}_{G_7}$,hybrid
R-HSA-2173788,0.0006095239622495509,618.0,7,$\widetilde{A}_{G_7}$,hybrid
R-HSA-9675151,0.0006080837810476275,620.0,7,$\widetilde{A}_{G_7}$,hybrid
R-HSA-9005895,0.0006080837810476275,620.0,7,$\widetilde{A}_{G_7}$,hybrid
R-HSA-9697154,0.0006080837810476275,620.0,7,$\widetilde{A}_{G_7}$,hybrid
R-HSA-9005891,0.0006080837810476272,622.0,7,$\widetilde{A}_{G_7}$,hybrid
R-HSA-174154,0.0006070926621353083,623.0,7,$\widetilde{A}_{G_7}$,hybrid
R-HSA-6804757,0.0006065813607531917,624.5,7,$\widetilde{A}_{G_7}$,hybrid
R-HSA-6806003,0.0006065813607531917,624.5,7,$\widetilde{A}_{G_7}$,hybrid
R-HSA-202131,0.0006048147786869025,626.0,7,$\widetilde{A}_{G_7}$,hybrid
R-HSA-350054,0.0006036942555366875,627.0,7,$\widetilde{A}_{G_7}$,hybrid
R-HSA-5693606,0.0006029623316009356,628.0,7,$\widetilde{A}_{G_7}$,hybrid
R-HSA-174178,0.0006026681089284525,629.0,7,$\widetilde{A}_{G_7}$,hybrid
R-HSA-2995383,0.0006020327797894421,630.0,7,$\widetilde{A}_{G_7}$,hybrid
R-HSA-5693565,0.000600493265956385,631.0,7,$\widetilde{A}_{G_7}$,hybrid
R-HSA-5627123,0.0005990649060432484,632.0,7,$\widetilde{A}_{G_7}$,hybrid
R-HSA-69017,0.0005985070884685421,633.0,7,$\widetilde{A}_{G_7}$,hybrid
R-HSA-2173796,0.0005977616474331545,634.0,7,$\widetilde{A}_{G_7}$,hybrid
R-HSA-1234174,0.0005974600225945846,635.0,7,$\widetilde{A}_{G_7}$,hybrid
R-HSA-176814,0.0005947968217517737,636.0,7,$\widetilde{A}_{G_7}$,hybrid
R-HSA-110320,0.0005946196700225847,637.0,7,$\widetilde{A}_{G_7}$,hybrid
R-HSA-176409,0.0005944049904040656,638.0,7,$\widetilde{A}_{G_7}$,hybrid
R-HSA-5693616,0.0005942209069192855,639.0,7,$\widetilde{A}_{G_7}$,hybrid
R-HSA-174184,0.0005941227790704341,640.0,7,$\widetilde{A}_{G_7}$,hybrid
R-HSA-114452,0.0005930024331726494,641.0,7,$\widetilde{A}_{G_7}$,hybrid
R-HSA-6804756,0.0005907812154308144,642.0,7,$\widetilde{A}_{G_7}$,hybrid
R-HSA-9609690,0.0005900237119315769,643.0,7,$\widetilde{A}_{G_7}$,hybrid
R-HSA-3371556,0.0005897911797109498,644.0,7,$\widetilde{A}_{G_7}$,hybrid
R-HSA-210744,0.0005877916902431785,645.0,7,$\widetilde{A}_{G_7}$,hybrid
R-HSA-4086400,0.0005864122972487564,646.0,7,$\widetilde{A}_{G_7}$,hybrid
R-HSA-73928,0.0005837146362321924,647.5,7,$\widetilde{A}_{G_7}$,hybrid
R-HSA-110329,0.0005837146362321924,647.5,7,$\widetilde{A}_{G_7}$,hybrid
R-HSA-110328,0.0005837146362321919,649.0,7,$\widetilde{A}_{G_7}$,hybrid
R-HSA-5656121,0.0005805310301285243,650.0,7,$\widetilde{A}_{G_7}$,hybrid
R-HSA-1912408,0.0005791905651866921,651.0,7,$\widetilde{A}_{G_7}$,hybrid
R-HSA-5632684,0.0005790419366001726,652.0,7,$\widetilde{A}_{G_7}$,hybrid
R-HSA-5687128,0.0005776937794301139,653.0,7,$\widetilde{A}_{G_7}$,hybrid
R-HSA-9679191,0.000577644605709889,654.0,7,$\widetilde{A}_{G_7}$,hybrid
R-HSA-9013106,0.0005718510811261071,655.0,7,$\widetilde{A}_{G_7}$,hybrid
R-HSA-9683701,0.0005708900097084532,656.0,7,$\widetilde{A}_{G_7}$,hybrid
R-HSA-196854,0.0005692391169546336,657.0,7,$\widetilde{A}_{G_7}$,hybrid
R-HSA-4755510,0.0005691917751298113,658.0,7,$\widetilde{A}_{G_7}$,hybrid
R-HSA-6811438,0.0005679868739973549,659.0,7,$\widetilde{A}_{G_7}$,hybrid
R-HSA-2559586,0.0005647841547209958,660.0,7,$\widetilde{A}_{G_7}$,hybrid
R-HSA-167238,0.0005644299848257742,661.0,7,$\widetilde{A}_{G_7}$,hybrid
R-HSA-167243,0.0005644299848257736,662.0,7,$\widetilde{A}_{G_7}$,hybrid
R-HSA-9614085,0.0005635795123207584,663.0,7,$\widetilde{A}_{G_7}$,hybrid
R-HSA-9617828,0.0005621347850335606,664.0,7,$\widetilde{A}_{G_7}$,hybrid
R-HSA-171306,0.0005610604239933777,665.0,7,$\widetilde{A}_{G_7}$,hybrid
R-HSA-379716,0.0005607279033218694,666.0,7,$\widetilde{A}_{G_7}$,hybrid
R-HSA-5693554,0.0005607246206440897,667.0,7,$\widetilde{A}_{G_7}$,hybrid
R-HSA-198323,0.0005592957702046761,668.0,7,$\widetilde{A}_{G_7}$,hybrid
R-HSA-427359,0.000558955203220027,669.0,7,$\widetilde{A}_{G_7}$,hybrid
R-HSA-69202,0.0005588617458172344,670.0,7,$\widetilde{A}_{G_7}$,hybrid
R-HSA-3371453,0.0005573611752560534,671.0,7,$\widetilde{A}_{G_7}$,hybrid
R-HSA-9635486,0.0005554506536161514,672.0,7,$\widetilde{A}_{G_7}$,hybrid
R-HSA-5628897,0.0005551747486214684,673.0,7,$\widetilde{A}_{G_7}$,hybrid
R-HSA-3214858,0.0005545384580131708,674.0,7,$\widetilde{A}_{G_7}$,hybrid
R-HSA-196299,0.0005542176909185905,675.0,7,$\widetilde{A}_{G_7}$,hybrid
R-HSA-4839744,0.0005516974453478667,678.0,7,$\widetilde{A}_{G_7}$,hybrid
R-HSA-5467337,0.0005516974453478667,678.0,7,$\widetilde{A}_{G_7}$,hybrid
R-HSA-5467340,0.0005516974453478667,678.0,7,$\widetilde{A}_{G_7}$,hybrid
R-HSA-5467348,0.0005516974453478667,678.0,7,$\widetilde{A}_{G_7}$,hybrid
R-HSA-4839748,0.0005516974453478667,678.0,7,$\widetilde{A}_{G_7}$,hybrid
R-HSA-4839735,0.0005516974453478665,681.0,7,$\widetilde{A}_{G_7}$,hybrid
R-HSA-9637690,0.0005504129736487774,682.0,7,$\widetilde{A}_{G_7}$,hybrid
R-HSA-73929,0.0005503596658478836,683.0,7,$\widetilde{A}_{G_7}$,hybrid
R-HSA-9615710,0.0005497766189338819,684.0,7,$\widetilde{A}_{G_7}$,hybrid
R-HSA-69656,0.0005492843440663025,685.0,7,$\widetilde{A}_{G_7}$,hybrid
R-HSA-9616222,0.0005482029377030876,686.0,7,$\widetilde{A}_{G_7}$,hybrid
R-HSA-6781823,0.0005481130184512467,687.0,7,$\widetilde{A}_{G_7}$,hybrid
R-HSA-5656169,0.0005477117939627005,688.0,7,$\widetilde{A}_{G_7}$,hybrid
R-HSA-2470946,0.0005471496381520591,689.0,7,$\widetilde{A}_{G_7}$,hybrid
R-HSA-111933,0.0005465283767250431,690.0,7,$\widetilde{A}_{G_7}$,hybrid
R-HSA-111997,0.000546528376725043,691.0,7,$\widetilde{A}_{G_7}$,hybrid
R-HSA-73893,0.000544509765587589,692.0,7,$\widetilde{A}_{G_7}$,hybrid
R-HSA-5693571,0.0005435939507885754,693.0,7,$\widetilde{A}_{G_7}$,hybrid
R-HSA-2299718,0.0005425222255892958,694.0,7,$\widetilde{A}_{G_7}$,hybrid
R-HSA-2173795,0.0005417606964190749,695.0,7,$\widetilde{A}_{G_7}$,hybrid
R-HSA-5693607,0.0005399811848523446,696.0,7,$\widetilde{A}_{G_7}$,hybrid
R-HSA-450341,0.0005390996666220182,697.0,7,$\widetilde{A}_{G_7}$,hybrid
R-HSA-6796648,0.000539014495146897,698.0,7,$\widetilde{A}_{G_7}$,hybrid
R-HSA-1834941,0.0005386361281666235,699.0,7,$\widetilde{A}_{G_7}$,hybrid
R-HSA-69273,0.0005385852218024917,700.0,7,$\widetilde{A}_{G_7}$,hybrid
R-HSA-8939236,0.0005364914507422183,701.0,7,$\widetilde{A}_{G_7}$,hybrid
R-HSA-8936459,0.0005356714704200229,702.0,7,$\widetilde{A}_{G_7}$,hybrid
R-HSA-167287,0.000535004478565514,703.5,7,$\widetilde{A}_{G_7}$,hybrid
R-HSA-167290,0.000535004478565514,703.5,7,$\widetilde{A}_{G_7}$,hybrid
R-HSA-6804759,0.0005346403575136834,705.0,7,$\widetilde{A}_{G_7}$,hybrid
R-HSA-379724,0.0005342333985544526,706.0,7,$\widetilde{A}_{G_7}$,hybrid
R-HSA-72165,0.0005318423314637801,707.0,7,$\widetilde{A}_{G_7}$,hybrid
R-HSA-1989781,0.0005315212139507349,708.0,7,$\widetilde{A}_{G_7}$,hybrid
R-HSA-69186,0.0005313328175831555,709.0,7,$\widetilde{A}_{G_7}$,hybrid
R-HSA-167242,0.0005312829574853753,710.0,7,$\widetilde{A}_{G_7}$,hybrid
R-HSA-170834,0.0005310563778874389,711.0,7,$\widetilde{A}_{G_7}$,hybrid
R-HSA-110314,0.000530714562800201,712.0,7,$\widetilde{A}_{G_7}$,hybrid
R-HSA-2173793,0.0005303354602410938,713.0,7,$\widetilde{A}_{G_7}$,hybrid
R-HSA-445355,0.0005296338808257457,714.0,7,$\widetilde{A}_{G_7}$,hybrid
R-HSA-171007,0.0005291247102852612,715.0,7,$\widetilde{A}_{G_7}$,hybrid
R-HSA-177243,0.0005288728322588121,716.0,7,$\widetilde{A}_{G_7}$,hybrid
R-HSA-174437,0.0005284012161081731,717.0,7,$\widetilde{A}_{G_7}$,hybrid
R-HSA-2559582,0.0005283732834663565,718.0,7,$\widetilde{A}_{G_7}$,hybrid
R-HSA-3214841,0.0005276377567968208,719.0,7,$\widetilde{A}_{G_7}$,hybrid
R-HSA-3899300,0.0005270656594053387,720.0,7,$\widetilde{A}_{G_7}$,hybrid
R-HSA-5610787,0.0005265826265312729,721.0,7,$\widetilde{A}_{G_7}$,hybrid
R-HSA-110313,0.0005264286020550826,722.0,7,$\widetilde{A}_{G_7}$,hybrid
R-HSA-5693579,0.0005253507235422203,723.0,7,$\widetilde{A}_{G_7}$,hybrid
R-HSA-202670,0.0005249250739307509,724.0,7,$\widetilde{A}_{G_7}$,hybrid
R-HSA-1362277,0.0005245807699550959,725.0,7,$\widetilde{A}_{G_7}$,hybrid
R-HSA-2979096,0.0005240640177916676,726.0,7,$\widetilde{A}_{G_7}$,hybrid
R-HSA-400206,0.0005211298720578465,727.0,7,$\widetilde{A}_{G_7}$,hybrid
R-HSA-159227,0.000520221739408601,728.0,7,$\widetilde{A}_{G_7}$,hybrid
R-HSA-1221632,0.0005165332867499439,729.0,7,$\widetilde{A}_{G_7}$,hybrid
R-HSA-5617472,0.0005154984418223359,730.0,7,$\widetilde{A}_{G_7}$,hybrid
R-HSA-5619507,0.0005154984418223356,731.0,7,$\widetilde{A}_{G_7}$,hybrid
R-HSA-111465,0.0005146559589427966,732.0,7,$\widetilde{A}_{G_7}$,hybrid
R-HSA-8941856,0.0005139725795880749,733.0,7,$\widetilde{A}_{G_7}$,hybrid
R-HSA-5250924,0.0005137529956964297,734.0,7,$\widetilde{A}_{G_7}$,hybrid
R-HSA-389977,0.0005123162176150474,735.0,7,$\widetilde{A}_{G_7}$,hybrid
R-HSA-168333,0.0005110147933155671,736.5,7,$\widetilde{A}_{G_7}$,hybrid
R-HSA-168274,0.0005110147933155671,736.5,7,$\widetilde{A}_{G_7}$,hybrid
R-HSA-9615933,0.0005098965322407461,738.0,7,$\widetilde{A}_{G_7}$,hybrid
R-HSA-159230,0.0005070025941746237,739.0,7,$\widetilde{A}_{G_7}$,hybrid
R-HSA-1980145,0.0005066702208387698,740.0,7,$\widetilde{A}_{G_7}$,hybrid
R-HSA-9022692,0.0005063625505734494,741.0,7,$\widetilde{A}_{G_7}$,hybrid
R-HSA-4791275,0.0005062260443036782,742.0,7,$\widetilde{A}_{G_7}$,hybrid
R-HSA-165054,0.000505695721663387,743.0,7,$\widetilde{A}_{G_7}$,hybrid
R-HSA-983231,0.0005055616699953483,744.0,7,$\widetilde{A}_{G_7}$,hybrid
R-HSA-111996,0.0005035603300419303,745.0,7,$\widetilde{A}_{G_7}$,hybrid
R-HSA-5627117,0.0005035562109425121,746.0,7,$\widetilde{A}_{G_7}$,hybrid
R-HSA-1912422,0.0005023268716675287,747.0,7,$\widetilde{A}_{G_7}$,hybrid
R-HSA-3769402,0.0005013669923413782,748.0,7,$\widetilde{A}_{G_7}$,hybrid
R-HSA-75153,0.0004986314724243699,749.0,7,$\widetilde{A}_{G_7}$,hybrid
R-HSA-397014,0.0004976155337194271,750.0,7,$\widetilde{A}_{G_7}$,hybrid
R-HSA-8953750,0.0004973886287050957,751.0,7,$\widetilde{A}_{G_7}$,hybrid
R-HSA-1169408,0.0004965154775147402,752.0,7,$\widetilde{A}_{G_7}$,hybrid
R-HSA-5675221,0.0004963408957181227,753.0,7,$\widetilde{A}_{G_7}$,hybrid
R-HSA-180746,0.0004956700088184642,754.0,7,$\widetilde{A}_{G_7}$,hybrid
R-HSA-174824,0.0004955851627189775,755.0,7,$\widetilde{A}_{G_7}$,hybrid
R-HSA-5651801,0.0004943547123894937,756.0,7,$\widetilde{A}_{G_7}$,hybrid
R-HSA-5685938,0.000493719365274995,757.0,7,$\widetilde{A}_{G_7}$,hybrid
R-HSA-8876725,0.0004933842092457642,758.0,7,$\widetilde{A}_{G_7}$,hybrid
R-HSA-174414,0.0004917664440068121,759.0,7,$\widetilde{A}_{G_7}$,hybrid
R-HSA-1483257,0.000491148751734658,760.0,7,$\widetilde{A}_{G_7}$,hybrid
R-HSA-2559580,0.0004905519051001854,761.0,7,$\widetilde{A}_{G_7}$,hybrid
R-HSA-1538133,0.0004904035976928526,762.0,7,$\widetilde{A}_{G_7}$,hybrid
R-HSA-159231,0.0004902955725645304,763.0,7,$\widetilde{A}_{G_7}$,hybrid
R-HSA-186712,0.0004883038121288437,764.0,7,$\widetilde{A}_{G_7}$,hybrid
R-HSA-432722,0.00048802053274052935,765.0,7,$\widetilde{A}_{G_7}$,hybrid
R-HSA-5696397,0.0004873734105534342,766.0,7,$\widetilde{A}_{G_7}$,hybrid
R-HSA-2187338,0.0004871159609368634,767.0,7,$\widetilde{A}_{G_7}$,hybrid
R-HSA-9678108,0.00048630683580220326,768.0,7,$\widetilde{A}_{G_7}$,hybrid
R-HSA-1169410,0.00048629808185976514,769.0,7,$\widetilde{A}_{G_7}$,hybrid
R-HSA-5578775,0.0004861733821065488,770.0,7,$\widetilde{A}_{G_7}$,hybrid
R-HSA-3232142,0.0004835001538782513,771.0,7,$\widetilde{A}_{G_7}$,hybrid
R-HSA-162658,0.00048281588099105094,772.0,7,$\widetilde{A}_{G_7}$,hybrid
R-HSA-8979227,0.0004810075045889298,773.0,7,$\widetilde{A}_{G_7}$,hybrid
R-HSA-159234,0.00048003058765303317,774.0,7,$\widetilde{A}_{G_7}$,hybrid
R-HSA-168271,0.00047659198984516374,775.0,7,$\widetilde{A}_{G_7}$,hybrid
R-HSA-113501,0.0004759607856099288,776.0,7,$\widetilde{A}_{G_7}$,hybrid
R-HSA-606279,0.00047565058793744904,777.0,7,$\widetilde{A}_{G_7}$,hybrid
R-HSA-774815,0.0004756505879374489,778.0,7,$\widetilde{A}_{G_7}$,hybrid
R-HSA-5620971,0.0004744675426090279,779.0,7,$\widetilde{A}_{G_7}$,hybrid
R-HSA-4615885,0.000472920967023855,780.0,7,$\widetilde{A}_{G_7}$,hybrid
R-HSA-983712,0.0004725388828662947,781.0,7,$\widetilde{A}_{G_7}$,hybrid
R-HSA-73854,0.0004719764166506527,782.0,7,$\widetilde{A}_{G_7}$,hybrid
R-HSA-176033,0.0004690549800927603,783.0,7,$\widetilde{A}_{G_7}$,hybrid
R-HSA-180910,0.00046905498009276,784.0,7,$\widetilde{A}_{G_7}$,hybrid
R-HSA-3000170,0.00046888434374773604,785.0,7,$\widetilde{A}_{G_7}$,hybrid
R-HSA-4085377,0.0004678634060778882,786.0,7,$\widetilde{A}_{G_7}$,hybrid
R-HSA-8986944,0.0004668108851887177,787.0,7,$\widetilde{A}_{G_7}$,hybrid
R-HSA-400253,0.00046668838572669244,788.0,7,$\widetilde{A}_{G_7}$,hybrid
R-HSA-1592389,0.00046628062168920843,789.0,7,$\widetilde{A}_{G_7}$,hybrid
R-HSA-73864,0.00046618223300450923,790.0,7,$\widetilde{A}_{G_7}$,hybrid
R-HSA-170822,0.00046587796062200725,791.0,7,$\widetilde{A}_{G_7}$,hybrid
R-HSA-5619107,0.00046587796062200714,792.0,7,$\widetilde{A}_{G_7}$,hybrid
R-HSA-168325,0.0004658779606220071,793.0,7,$\widetilde{A}_{G_7}$,hybrid
R-HSA-9687139,0.0004655973326695408,794.0,7,$\widetilde{A}_{G_7}$,hybrid
R-HSA-168276,0.0004655703494942459,795.0,7,$\widetilde{A}_{G_7}$,hybrid
R-HSA-9673324,0.0004650770865762456,796.5,7,$\widetilde{A}_{G_7}$,hybrid
R-HSA-9664420,0.0004650770865762456,796.5,7,$\widetilde{A}_{G_7}$,hybrid
R-HSA-9670095,0.00046487495118685047,798.0,7,$\widetilde{A}_{G_7}$,hybrid
R-HSA-4655427,0.00046408955538549854,799.0,7,$\widetilde{A}_{G_7}$,hybrid
R-HSA-977225,0.00046329153690539786,800.0,7,$\widetilde{A}_{G_7}$,hybrid
R-HSA-2559585,0.00046188686537897085,801.0,7,$\widetilde{A}_{G_7}$,hybrid
R-HSA-5368286,0.0004591375322182014,802.0,7,$\widetilde{A}_{G_7}$,hybrid
R-HSA-141444,0.0004586338514828212,803.0,7,$\widetilde{A}_{G_7}$,hybrid
R-HSA-141424,0.0004586338514828208,804.0,7,$\widetilde{A}_{G_7}$,hybrid
R-HSA-6784531,0.00045812670309003877,805.0,7,$\widetilde{A}_{G_7}$,hybrid
R-HSA-5693568,0.0004581231380313492,806.0,7,$\widetilde{A}_{G_7}$,hybrid
R-HSA-5419276,0.0004579452338396247,807.0,7,$\widetilde{A}_{G_7}$,hybrid
R-HSA-5694530,0.00045776689373617363,808.0,7,$\widetilde{A}_{G_7}$,hybrid
R-HSA-109606,0.00045699966848883843,809.0,7,$\widetilde{A}_{G_7}$,hybrid
R-HSA-2995410,0.00045670176511379963,810.0,7,$\widetilde{A}_{G_7}$,hybrid
R-HSA-114608,0.00045567126625229836,811.0,7,$\widetilde{A}_{G_7}$,hybrid
R-HSA-5389840,0.0004540475993779077,812.0,7,$\widetilde{A}_{G_7}$,hybrid
R-HSA-167200,0.00045388197972583263,813.0,7,$\widetilde{A}_{G_7}$,hybrid
R-HSA-167246,0.0004538819797258323,814.5,7,$\widetilde{A}_{G_7}$,hybrid
R-HSA-167169,0.0004538819797258323,814.5,7,$\widetilde{A}_{G_7}$,hybrid
R-HSA-110373,0.0004526344170066587,816.0,7,$\widetilde{A}_{G_7}$,hybrid
R-HSA-9614657,0.00045234535774152444,817.0,7,$\widetilde{A}_{G_7}$,hybrid
R-HSA-4419969,0.0004523022455600239,818.0,7,$\widetilde{A}_{G_7}$,hybrid
R-HSA-4551638,0.00045211612216239437,819.0,7,$\widetilde{A}_{G_7}$,hybrid
R-HSA-69109,0.0004507289943421522,820.0,7,$\widetilde{A}_{G_7}$,hybrid
R-HSA-69091,0.00045072899434215214,821.0,7,$\widetilde{A}_{G_7}$,hybrid
R-HSA-4570464,0.00044975383342975067,822.0,7,$\widetilde{A}_{G_7}$,hybrid
R-HSA-5689901,0.0004487223581193149,823.0,7,$\widetilde{A}_{G_7}$,hybrid
R-HSA-400685,0.00044805295324105326,824.0,7,$\widetilde{A}_{G_7}$,hybrid
R-HSA-112409,0.0004460189532595714,825.0,7,$\widetilde{A}_{G_7}$,hybrid
R-HSA-5696394,0.00044459546346022787,826.0,7,$\widetilde{A}_{G_7}$,hybrid
R-HSA-9675126,0.00044333695766199144,827.0,7,$\widetilde{A}_{G_7}$,hybrid
R-HSA-6783310,0.0004431129022254254,828.0,7,$\widetilde{A}_{G_7}$,hybrid
R-HSA-5578749,0.0004409546287729044,829.0,7,$\widetilde{A}_{G_7}$,hybrid
R-HSA-203927,0.0004403401522165472,830.0,7,$\widetilde{A}_{G_7}$,hybrid
R-HSA-9659787,0.0004401076429177576,831.0,7,$\widetilde{A}_{G_7}$,hybrid
R-HSA-9661069,0.00044010764291775725,832.0,7,$\widetilde{A}_{G_7}$,hybrid
R-HSA-2122948,0.00043996999152228226,833.0,7,$\widetilde{A}_{G_7}$,hybrid
R-HSA-167152,0.00043968525971907295,834.0,7,$\widetilde{A}_{G_7}$,hybrid
R-HSA-3301854,0.00043946392051901265,835.0,7,$\widetilde{A}_{G_7}$,hybrid
R-HSA-5693537,0.00043861811561911985,836.0,7,$\widetilde{A}_{G_7}$,hybrid
R-HSA-167160,0.000437652706912756,837.0,7,$\widetilde{A}_{G_7}$,hybrid
R-HSA-77075,0.0004376527069127559,838.0,7,$\widetilde{A}_{G_7}$,hybrid
R-HSA-73884,0.0004353983115086807,839.0,7,$\widetilde{A}_{G_7}$,hybrid
R-HSA-1368082,0.0004352789126288162,840.0,7,$\widetilde{A}_{G_7}$,hybrid
R-HSA-5576891,0.00043449997333201907,841.0,7,$\widetilde{A}_{G_7}$,hybrid
R-HSA-157579,0.0004341685037829537,842.0,7,$\widetilde{A}_{G_7}$,hybrid
R-HSA-4641265,0.00043402162901776944,843.0,7,$\widetilde{A}_{G_7}$,hybrid
R-HSA-9648025,0.0004339033953391823,844.0,7,$\widetilde{A}_{G_7}$,hybrid
R-HSA-5368287,0.00043379557552984037,845.0,7,$\widetilde{A}_{G_7}$,hybrid
R-HSA-416572,0.00043348289068059363,846.0,7,$\widetilde{A}_{G_7}$,hybrid
R-HSA-159236,0.0004332510407424951,847.0,7,$\widetilde{A}_{G_7}$,hybrid
R-HSA-9603798,0.00043245836933489875,848.0,7,$\widetilde{A}_{G_7}$,hybrid
R-HSA-72086,0.00043216110167203513,849.0,7,$\widetilde{A}_{G_7}$,hybrid
R-HSA-9033241,0.00043191628054173434,850.0,7,$\widetilde{A}_{G_7}$,hybrid
R-HSA-9694516,0.00042991172659700137,851.0,7,$\widetilde{A}_{G_7}$,hybrid
R-HSA-9609523,0.00042883601226013907,852.0,7,$\widetilde{A}_{G_7}$,hybrid
R-HSA-6782210,0.0004276415628857476,853.0,7,$\widetilde{A}_{G_7}$,hybrid
R-HSA-9694635,0.00042672746652658023,854.0,7,$\widetilde{A}_{G_7}$,hybrid
R-HSA-6803204,0.0004248903735724522,855.0,7,$\widetilde{A}_{G_7}$,hybrid
R-HSA-171319,0.00042442096341918195,856.0,7,$\widetilde{A}_{G_7}$,hybrid
R-HSA-75955,0.0004241647021201142,857.0,7,$\widetilde{A}_{G_7}$,hybrid
R-HSA-112382,0.000424164702120114,858.0,7,$\widetilde{A}_{G_7}$,hybrid
R-HSA-3108214,0.0004235115599847311,859.0,7,$\widetilde{A}_{G_7}$,hybrid
R-HSA-73772,0.00042251629385498863,860.0,7,$\widetilde{A}_{G_7}$,hybrid
R-HSA-211000,0.00042180277644037254,861.0,7,$\widetilde{A}_{G_7}$,hybrid
R-HSA-72202,0.00042091010232123865,862.0,7,$\widetilde{A}_{G_7}$,hybrid
R-HSA-113510,0.00042045466596073297,863.0,7,$\widetilde{A}_{G_7}$,hybrid
R-HSA-73762,0.00041855048291656954,864.0,7,$\widetilde{A}_{G_7}$,hybrid
R-HSA-5696400,0.00041847435237181603,865.0,7,$\widetilde{A}_{G_7}$,hybrid
R-HSA-9029569,0.0004156892062302034,866.0,7,$\widetilde{A}_{G_7}$,hybrid
R-HSA-5619102,0.0004155811438180014,867.0,7,$\widetilde{A}_{G_7}$,hybrid
R-HSA-2980766,0.00041448897467688615,868.0,7,$\widetilde{A}_{G_7}$,hybrid
R-HSA-6782135,0.000413531618331276,869.0,7,$\widetilde{A}_{G_7}$,hybrid
R-HSA-5685942,0.0004111261511077054,870.0,7,$\widetilde{A}_{G_7}$,hybrid
R-HSA-6790901,0.0004095828313195224,871.0,7,$\widetilde{A}_{G_7}$,hybrid
R-HSA-445095,0.00040954581056330515,872.0,7,$\widetilde{A}_{G_7}$,hybrid
R-HSA-674695,0.00040924095463681947,873.0,7,$\widetilde{A}_{G_7}$,hybrid
R-HSA-70326,0.00040736787364348547,874.0,7,$\widetilde{A}_{G_7}$,hybrid
R-HSA-163210,0.00040596124182143417,875.0,7,$\widetilde{A}_{G_7}$,hybrid
R-HSA-6781827,0.00040319008541378704,876.0,7,$\widetilde{A}_{G_7}$,hybrid
R-HSA-442720,0.00040275093981216706,877.0,7,$\widetilde{A}_{G_7}$,hybrid
R-HSA-194441,0.00040084317952835194,878.0,7,$\widetilde{A}_{G_7}$,hybrid
R-HSA-191859,0.0004008431795283519,879.0,7,$\widetilde{A}_{G_7}$,hybrid
R-HSA-5250941,0.0003995340815632284,880.0,7,$\widetilde{A}_{G_7}$,hybrid
R-HSA-8939243,0.0003994973080861617,881.0,7,$\widetilde{A}_{G_7}$,hybrid
R-HSA-167172,0.0003986691066335547,882.0,7,$\widetilde{A}_{G_7}$,hybrid
R-HSA-9707616,0.0003980075007810669,883.0,7,$\widetilde{A}_{G_7}$,hybrid
R-HSA-5696395,0.0003978020556578543,884.0,7,$\widetilde{A}_{G_7}$,hybrid
R-HSA-1362300,0.0003966094688463385,885.0,7,$\widetilde{A}_{G_7}$,hybrid
R-HSA-4641262,0.00039603331442535544,886.0,7,$\widetilde{A}_{G_7}$,hybrid
R-HSA-167158,0.0003949707346084906,887.5,7,$\widetilde{A}_{G_7}$,hybrid
R-HSA-113418,0.0003949707346084906,887.5,7,$\widetilde{A}_{G_7}$,hybrid
R-HSA-429958,0.00039396399882103185,889.0,7,$\widetilde{A}_{G_7}$,hybrid
R-HSA-70268,0.00039267849115482545,890.0,7,$\widetilde{A}_{G_7}$,hybrid
R-HSA-211945,0.0003923557687915576,891.5,7,$\widetilde{A}_{G_7}$,hybrid
R-HSA-211859,0.0003923557687915576,891.5,7,$\widetilde{A}_{G_7}$,hybrid
R-HSA-380994,0.0003923209403013661,893.0,7,$\widetilde{A}_{G_7}$,hybrid
R-HSA-427413,0.00039113721750146953,894.0,7,$\widetilde{A}_{G_7}$,hybrid
R-HSA-380284,0.0003904629450667269,895.0,7,$\widetilde{A}_{G_7}$,hybrid
R-HSA-380259,0.00039046294506672686,896.0,7,$\widetilde{A}_{G_7}$,hybrid
R-HSA-3215018,0.00038666923773987436,897.0,7,$\widetilde{A}_{G_7}$,hybrid
R-HSA-450604,0.00038564452231266104,898.0,7,$\widetilde{A}_{G_7}$,hybrid
R-HSA-8854518,0.0003854520639676745,899.0,7,$\widetilde{A}_{G_7}$,hybrid
R-HSA-2426168,0.0003853654232576956,900.0,7,$\widetilde{A}_{G_7}$,hybrid
R-HSA-174417,0.0003851679586525643,901.0,7,$\widetilde{A}_{G_7}$,hybrid
R-HSA-380320,0.00038456707974649087,902.0,7,$\widetilde{A}_{G_7}$,hybrid
R-HSA-72187,0.000383920827015964,903.0,7,$\widetilde{A}_{G_7}$,hybrid
R-HSA-180786,0.00038359913084582965,904.0,7,$\widetilde{A}_{G_7}$,hybrid
R-HSA-156711,0.0003826394377268707,905.0,7,$\widetilde{A}_{G_7}$,hybrid
R-HSA-5620924,0.0003819777748714842,906.0,7,$\widetilde{A}_{G_7}$,hybrid
R-HSA-69205,0.000379207504765037,907.0,7,$\widetilde{A}_{G_7}$,hybrid
R-HSA-429914,0.0003785886453269764,908.0,7,$\widetilde{A}_{G_7}$,hybrid
R-HSA-9668328,0.00037800384814303954,909.0,7,$\widetilde{A}_{G_7}$,hybrid
R-HSA-69618,0.00037781320108423494,910.0,7,$\widetilde{A}_{G_7}$,hybrid
R-HSA-198753,0.0003767347354650274,911.0,7,$\widetilde{A}_{G_7}$,hybrid
R-HSA-9024446,0.00037576840093773707,912.0,7,$\widetilde{A}_{G_7}$,hybrid
R-HSA-204005,0.00037546362056125785,913.0,7,$\widetilde{A}_{G_7}$,hybrid
R-HSA-77595,0.00037314591687825254,914.0,7,$\widetilde{A}_{G_7}$,hybrid
R-HSA-3772470,0.00036786035358778364,915.0,7,$\widetilde{A}_{G_7}$,hybrid
R-HSA-5696399,0.00036725781836855766,916.0,7,$\widetilde{A}_{G_7}$,hybrid
R-HSA-8949215,0.00036575720676537194,917.0,7,$\widetilde{A}_{G_7}$,hybrid
R-HSA-532668,0.00036563635167095583,918.0,7,$\widetilde{A}_{G_7}$,hybrid
R-HSA-9031628,0.0003654117161430924,919.0,7,$\widetilde{A}_{G_7}$,hybrid
R-HSA-73856,0.00036540090618555074,920.0,7,$\widetilde{A}_{G_7}$,hybrid
R-HSA-2173791,0.00036405912507007904,921.0,7,$\widetilde{A}_{G_7}$,hybrid
R-HSA-389661,0.00036315167335248903,922.0,7,$\widetilde{A}_{G_7}$,hybrid
R-HSA-1655829,0.00036123354951417627,923.0,7,$\widetilde{A}_{G_7}$,hybrid
R-HSA-216083,0.0003597314329133678,924.0,7,$\widetilde{A}_{G_7}$,hybrid
R-HSA-111931,0.0003581102723979808,925.0,7,$\widetilde{A}_{G_7}$,hybrid
R-HSA-8856688,0.0003580127061603086,926.0,7,$\widetilde{A}_{G_7}$,hybrid
R-HSA-72306,0.000357743834649202,927.0,7,$\widetilde{A}_{G_7}$,hybrid
R-HSA-73933,0.00035604174972349274,928.0,7,$\widetilde{A}_{G_7}$,hybrid
R-HSA-9694548,0.0003546595263145759,929.0,7,$\widetilde{A}_{G_7}$,hybrid
R-HSA-446353,0.00035358224359720053,930.0,7,$\widetilde{A}_{G_7}$,hybrid
R-HSA-5620920,0.00035322209204247476,931.0,7,$\widetilde{A}_{G_7}$,hybrid
R-HSA-3299685,0.0003527521363025176,932.0,7,$\widetilde{A}_{G_7}$,hybrid
R-HSA-2028269,0.00035181165337423557,933.0,7,$\widetilde{A}_{G_7}$,hybrid
R-HSA-111367,0.00035121617387162815,934.0,7,$\widetilde{A}_{G_7}$,hybrid
R-HSA-174411,0.000348796897179041,935.0,7,$\widetilde{A}_{G_7}$,hybrid
R-HSA-8949613,0.0003459476776912224,936.0,7,$\widetilde{A}_{G_7}$,hybrid
R-HSA-3238698,0.0003456584667100627,937.0,7,$\widetilde{A}_{G_7}$,hybrid
R-HSA-9610379,0.00034463771707789745,938.0,7,$\widetilde{A}_{G_7}$,hybrid
R-HSA-380270,0.00034445999087037314,939.5,7,$\widetilde{A}_{G_7}$,hybrid
R-HSA-380287,0.00034445999087037314,939.5,7,$\widetilde{A}_{G_7}$,hybrid
R-HSA-1483206,0.00034361337444341556,941.0,7,$\widetilde{A}_{G_7}$,hybrid
R-HSA-381042,0.00034346059725094984,942.0,7,$\widetilde{A}_{G_7}$,hybrid
R-HSA-8949664,0.0003421035173514066,943.0,7,$\widetilde{A}_{G_7}$,hybrid
R-HSA-1368108,0.00033821684926423805,944.0,7,$\widetilde{A}_{G_7}$,hybrid
R-HSA-2672351,0.0003367801179229346,945.0,7,$\widetilde{A}_{G_7}$,hybrid
R-HSA-6811440,0.0003361704605519024,946.0,7,$\widetilde{A}_{G_7}$,hybrid
R-HSA-2980736,0.0003360665413099836,947.0,7,$\widetilde{A}_{G_7}$,hybrid
R-HSA-167162,0.00033602902264416986,948.5,7,$\widetilde{A}_{G_7}$,hybrid
R-HSA-167161,0.00033602902264416986,948.5,7,$\widetilde{A}_{G_7}$,hybrid
R-HSA-75953,0.0003360290226441697,950.0,7,$\widetilde{A}_{G_7}$,hybrid
R-HSA-76042,0.00033602902264416964,951.0,7,$\widetilde{A}_{G_7}$,hybrid
R-HSA-73776,0.00033602902264416953,952.5,7,$\widetilde{A}_{G_7}$,hybrid
R-HSA-73779,0.00033602902264416953,952.5,7,$\widetilde{A}_{G_7}$,hybrid
R-HSA-73780,0.000333921929065649,954.0,7,$\widetilde{A}_{G_7}$,hybrid
R-HSA-73980,0.00033392192906564857,955.0,7,$\widetilde{A}_{G_7}$,hybrid
R-HSA-6811434,0.0003327220628990099,956.0,7,$\widetilde{A}_{G_7}$,hybrid
R-HSA-428157,0.00033266349223237657,957.0,7,$\widetilde{A}_{G_7}$,hybrid
R-HSA-3214847,0.0003305075325507276,958.0,7,$\widetilde{A}_{G_7}$,hybrid
R-HSA-77588,0.00032845280558122544,959.0,7,$\widetilde{A}_{G_7}$,hybrid
R-HSA-180024,0.00032426096167398257,960.0,7,$\widetilde{A}_{G_7}$,hybrid
R-HSA-70171,0.00032361096646804936,961.0,7,$\widetilde{A}_{G_7}$,hybrid
R-HSA-75067,0.0003217674328551128,962.0,7,$\widetilde{A}_{G_7}$,hybrid
R-HSA-525793,0.0003166331885259896,963.0,7,$\widetilde{A}_{G_7}$,hybrid
R-HSA-901042,0.0003160573769243858,964.0,7,$\widetilde{A}_{G_7}$,hybrid
R-HSA-198725,0.0003147299531357727,965.0,7,$\widetilde{A}_{G_7}$,hybrid
R-HSA-174490,0.0003141625263749189,967.0,7,$\widetilde{A}_{G_7}$,hybrid
R-HSA-174495,0.0003141625263749189,967.0,7,$\widetilde{A}_{G_7}$,hybrid
R-HSA-175474,0.0003141625263749189,967.0,7,$\widetilde{A}_{G_7}$,hybrid
R-HSA-5633008,0.0003116647169593647,969.0,7,$\widetilde{A}_{G_7}$,hybrid
R-HSA-5362517,0.0003099379018828697,970.0,7,$\widetilde{A}_{G_7}$,hybrid
R-HSA-450385,0.0003060435946745785,971.0,7,$\widetilde{A}_{G_7}$,hybrid
R-HSA-381033,0.00030585336365920336,972.0,7,$\widetilde{A}_{G_7}$,hybrid
R-HSA-111471,0.00030369719014630253,973.0,7,$\widetilde{A}_{G_7}$,hybrid
R-HSA-450282,0.00030182329398564415,974.0,7,$\widetilde{A}_{G_7}$,hybrid
R-HSA-264876,0.00029951930484565245,975.0,7,$\widetilde{A}_{G_7}$,hybrid
R-HSA-71403,0.0002988844669795374,976.0,7,$\widetilde{A}_{G_7}$,hybrid
R-HSA-5620912,0.0002980976218776206,977.0,7,$\widetilde{A}_{G_7}$,hybrid
R-HSA-111458,0.0002919716082743952,978.5,7,$\widetilde{A}_{G_7}$,hybrid
R-HSA-9627069,0.0002919716082743952,978.5,7,$\widetilde{A}_{G_7}$,hybrid
R-HSA-71406,0.00028360572663386493,980.0,7,$\widetilde{A}_{G_7}$,hybrid
R-HSA-76066,0.000280517516951511,981.0,7,$\widetilde{A}_{G_7}$,hybrid
R-HSA-430039,0.0002750080394289364,982.0,7,$\widetilde{A}_{G_7}$,hybrid
R-HSA-111461,0.0002722725423887826,983.0,7,$\widetilde{A}_{G_7}$,hybrid
R-HSA-76061,0.00027031857392683344,984.0,7,$\widetilde{A}_{G_7}$,hybrid
R-HSA-901032,0.0002661040559513083,985.0,7,$\widetilde{A}_{G_7}$,hybrid
R-HSA-6809371,0.00026421848112114914,986.5,7,$\widetilde{A}_{G_7}$,hybrid
R-HSA-6805567,0.00026421848112114914,986.5,7,$\widetilde{A}_{G_7}$,hybrid
R-HSA-450513,0.0002628382054362508,988.0,7,$\widetilde{A}_{G_7}$,hybrid
R-HSA-8873719,0.00025741506400555063,989.0,7,$\widetilde{A}_{G_7}$,hybrid
R-HSA-5607763,0.0002537072679733003,990.0,7,$\widetilde{A}_{G_7}$,hybrid
R-HSA-162588,0.0002512562250183722,991.0,7,$\widetilde{A}_{G_7}$,hybrid
R-HSA-73863,0.000248624473020389,992.0,7,$\widetilde{A}_{G_7}$,hybrid
R-HSA-5635838,0.00024801822031375424,993.0,7,$\widetilde{A}_{G_7}$,hybrid
R-HSA-70221,0.0002475516873304115,994.0,7,$\widetilde{A}_{G_7}$,hybrid
R-HSA-8866652,0.00024369023127083917,995.0,7,$\widetilde{A}_{G_7}$,hybrid
R-HSA-210991,0.00024195145418414758,996.0,7,$\widetilde{A}_{G_7}$,hybrid
R-HSA-425407,0.00023274095432395013,997.0,7,$\widetilde{A}_{G_7}$,hybrid
R-HSA-1630316,0.00023074506923813026,998.0,7,$\widetilde{A}_{G_7}$,hybrid
R-HSA-2151201,0.00023032309359950296,999.0,7,$\widetilde{A}_{G_7}$,hybrid
R-HSA-917729,0.00022442598043447435,1000.0,7,$\widetilde{A}_{G_7}$,hybrid
R-HSA-1362409,0.00022343192667958206,1001.0,7,$\widetilde{A}_{G_7}$,hybrid
R-HSA-500792,0.00022166187611064088,1002.0,7,$\widetilde{A}_{G_7}$,hybrid
R-HSA-8957322,0.00021049743884036753,1003.0,7,$\widetilde{A}_{G_7}$,hybrid
R-HSA-76071,0.00021033455807147123,1004.0,7,$\widetilde{A}_{G_7}$,hybrid
R-HSA-163841,0.0001949900182085784,1005.0,7,$\widetilde{A}_{G_7}$,hybrid
R-HSA-8866654,0.00019488601996601313,1006.0,7,$\widetilde{A}_{G_7}$,hybrid
R-HSA-8876198,0.00018895176190384741,1007.0,7,$\widetilde{A}_{G_7}$,hybrid
R-HSA-199992,0.0001862554513159545,1008.0,7,$\widetilde{A}_{G_7}$,hybrid
R-HSA-5668914,0.00018327311268646847,1009.0,7,$\widetilde{A}_{G_7}$,hybrid
R-HSA-1268020,0.00018065127013561038,1010.0,7,$\widetilde{A}_{G_7}$,hybrid
R-HSA-76046,0.0001682448964542008,1011.0,7,$\widetilde{A}_{G_7}$,hybrid
R-HSA-749476,0.00016824489645419973,1012.0,7,$\widetilde{A}_{G_7}$,hybrid
R-HSA-74158,0.000168244896454199,1013.0,7,$\widetilde{A}_{G_7}$,hybrid
R-HSA-8982491,0.00016706940267786948,1014.0,7,$\widetilde{A}_{G_7}$,hybrid
R-HSA-2022377,0.00016339309674670221,1015.0,7,$\widetilde{A}_{G_7}$,hybrid
R-HSA-8854214,0.00016177589029337157,1016.0,7,$\widetilde{A}_{G_7}$,hybrid
R-HSA-1592230,0.00015929724479033094,1017.0,7,$\widetilde{A}_{G_7}$,hybrid
R-HSA-5620916,0.0001588414744347926,1018.0,7,$\widetilde{A}_{G_7}$,hybrid
R-HSA-3781865,0.00013386150467079792,1019.0,7,$\widetilde{A}_{G_7}$,hybrid
R-HSA-8852135,0.00013130085704304454,1020.0,7,$\widetilde{A}_{G_7}$,hybrid
R-HSA-76005,0.00011781398865998792,1021.0,7,$\widetilde{A}_{G_7}$,hybrid
R-HSA-388844,0.00010538484045380996,1022.0,7,$\widetilde{A}_{G_7}$,hybrid
R-HSA-163125,7.223155387356274e-05,1023.0,7,$\widetilde{A}_{G_7}$,hybrid
R-HSA-6807505,5.219128586101523e-05,1024.0,7,$\widetilde{A}_{G_7}$,hybrid
