entity,score,rank,graphlet,graphlet_adj,score_method
R-HSA-389948,0.005561349860054799,1.0,6,$\widetilde{A}_{G_6}$,moving_distance
R-HSA-1660499,0.005312589967242828,2.0,6,$\widetilde{A}_{G_6}$,moving_distance
R-HSA-2173782,0.00499133376371442,3.0,6,$\widetilde{A}_{G_6}$,moving_distance
R-HSA-5625900,0.004769978493447592,4.0,6,$\widetilde{A}_{G_6}$,moving_distance
R-HSA-5686938,0.004624948344050475,5.0,6,$\widetilde{A}_{G_6}$,moving_distance
R-HSA-1251985,0.004158879786299323,6.0,6,$\widetilde{A}_{G_6}$,moving_distance
R-HSA-166658,0.004117326710352027,7.0,6,$\widetilde{A}_{G_6}$,moving_distance
R-HSA-2029481,0.0037339665944377456,8.0,6,$\widetilde{A}_{G_6}$,moving_distance
R-HSA-202427,0.003703129458684534,9.0,6,$\widetilde{A}_{G_6}$,moving_distance
R-HSA-5602498,0.003593760783526564,10.0,6,$\widetilde{A}_{G_6}$,moving_distance
R-HSA-4090294,0.0035593835260786834,11.0,6,$\widetilde{A}_{G_6}$,moving_distance
R-HSA-5603041,0.003174930390630357,12.0,6,$\widetilde{A}_{G_6}$,moving_distance
R-HSA-190236,0.0031677105560630582,13.0,6,$\widetilde{A}_{G_6}$,moving_distance
R-HSA-5654738,0.0031300062350747347,14.0,6,$\widetilde{A}_{G_6}$,moving_distance
R-HSA-1483255,0.0031251511868231573,15.0,6,$\widetilde{A}_{G_6}$,moving_distance
R-HSA-1266695,0.0031228737450153367,16.0,6,$\widetilde{A}_{G_6}$,moving_distance
R-HSA-5654727,0.003113493128541123,17.0,6,$\widetilde{A}_{G_6}$,moving_distance
R-HSA-198933,0.003067120206370841,18.0,6,$\widetilde{A}_{G_6}$,moving_distance
R-HSA-5654732,0.0030197693886086564,19.0,6,$\widetilde{A}_{G_6}$,moving_distance
R-HSA-5654726,0.0029977920463250436,20.0,6,$\widetilde{A}_{G_6}$,moving_distance
R-HSA-1295596,0.002986819581653739,21.0,6,$\widetilde{A}_{G_6}$,moving_distance
R-HSA-912631,0.002959805024728586,22.0,6,$\widetilde{A}_{G_6}$,moving_distance
R-HSA-512988,0.0029519522091120136,23.0,6,$\widetilde{A}_{G_6}$,moving_distance
R-HSA-977606,0.002877791180184385,24.0,6,$\widetilde{A}_{G_6}$,moving_distance
R-HSA-76009,0.0028286131210231353,25.5,6,$\widetilde{A}_{G_6}$,moving_distance
R-HSA-354192,0.0028286131210231353,25.5,6,$\widetilde{A}_{G_6}$,moving_distance
R-HSA-1236382,0.002816421548732562,27.0,6,$\widetilde{A}_{G_6}$,moving_distance
R-HSA-5637815,0.0028164215487325615,28.0,6,$\widetilde{A}_{G_6}$,moving_distance
R-HSA-8939902,0.002785867612916121,29.0,6,$\widetilde{A}_{G_6}$,moving_distance
R-HSA-5654733,0.0027626730679395886,30.0,6,$\widetilde{A}_{G_6}$,moving_distance
R-HSA-5654741,0.0027577342799197948,31.0,6,$\widetilde{A}_{G_6}$,moving_distance
R-HSA-9674555,0.002757048406205848,32.0,6,$\widetilde{A}_{G_6}$,moving_distance
R-HSA-9682385,0.002755078530017253,33.0,6,$\widetilde{A}_{G_6}$,moving_distance
R-HSA-5637812,0.0027305974451460793,34.5,6,$\widetilde{A}_{G_6}$,moving_distance
R-HSA-5637810,0.0027305974451460793,34.5,6,$\widetilde{A}_{G_6}$,moving_distance
R-HSA-373753,0.0027214022178060596,36.0,6,$\widetilde{A}_{G_6}$,moving_distance
R-HSA-8864260,0.0027144089247117696,37.0,6,$\widetilde{A}_{G_6}$,moving_distance
R-HSA-1236394,0.0027078997470863773,38.0,6,$\widetilde{A}_{G_6}$,moving_distance
R-HSA-202433,0.0026826607152680947,39.0,6,$\widetilde{A}_{G_6}$,moving_distance
R-HSA-5654743,0.002647773173810419,40.0,6,$\widetilde{A}_{G_6}$,moving_distance
R-HSA-5654736,0.0026463631862867387,41.0,6,$\widetilde{A}_{G_6}$,moving_distance
R-HSA-167044,0.0026258309107835606,42.0,6,$\widetilde{A}_{G_6}$,moving_distance
R-HSA-390522,0.002573063978894444,43.0,6,$\widetilde{A}_{G_6}$,moving_distance
R-HSA-844456,0.0025671852732571747,44.0,6,$\widetilde{A}_{G_6}$,moving_distance
R-HSA-9665348,0.0025330501320884255,45.0,6,$\widetilde{A}_{G_6}$,moving_distance
R-HSA-9020558,0.002528265191399943,46.0,6,$\widetilde{A}_{G_6}$,moving_distance
R-HSA-2730905,0.002507711144269037,47.0,6,$\widetilde{A}_{G_6}$,moving_distance
R-HSA-9607240,0.0025070608310014844,48.0,6,$\widetilde{A}_{G_6}$,moving_distance
R-HSA-1643713,0.0024897709352630845,49.0,6,$\widetilde{A}_{G_6}$,moving_distance
R-HSA-9634285,0.0024834888813729987,50.0,6,$\widetilde{A}_{G_6}$,moving_distance
R-HSA-389359,0.0024779005873674814,51.0,6,$\widetilde{A}_{G_6}$,moving_distance
R-HSA-391160,0.0024577594593796323,52.0,6,$\widetilde{A}_{G_6}$,moving_distance
R-HSA-2219530,0.00242959950993342,53.0,6,$\widetilde{A}_{G_6}$,moving_distance
R-HSA-354194,0.002417686788000016,54.0,6,$\widetilde{A}_{G_6}$,moving_distance
R-HSA-622312,0.002384407977895765,55.0,6,$\widetilde{A}_{G_6}$,moving_distance
R-HSA-1170546,0.0023592573457883233,56.0,6,$\widetilde{A}_{G_6}$,moving_distance
R-HSA-164952,0.0023585525002045946,57.0,6,$\widetilde{A}_{G_6}$,moving_distance
R-HSA-5654699,0.0023481201495743277,58.0,6,$\widetilde{A}_{G_6}$,moving_distance
R-HSA-1963642,0.0023446043077274773,59.0,6,$\widetilde{A}_{G_6}$,moving_distance
R-HSA-5655253,0.0023164017751484667,60.0,6,$\widetilde{A}_{G_6}$,moving_distance
R-HSA-8876384,0.002312456996361185,61.0,6,$\widetilde{A}_{G_6}$,moving_distance
R-HSA-5689896,0.002308912535028376,62.0,6,$\widetilde{A}_{G_6}$,moving_distance
R-HSA-8875360,0.0022947021567248003,63.0,6,$\widetilde{A}_{G_6}$,moving_distance
R-HSA-388841,0.0022764905149403585,64.0,6,$\widetilde{A}_{G_6}$,moving_distance
R-HSA-9664565,0.0022454711608780463,65.0,6,$\widetilde{A}_{G_6}$,moving_distance
R-HSA-6807004,0.0022436326983075886,66.0,6,$\widetilde{A}_{G_6}$,moving_distance
R-HSA-5654716,0.002213207090006218,67.0,6,$\widetilde{A}_{G_6}$,moving_distance
R-HSA-1963640,0.002207423945399155,68.0,6,$\widetilde{A}_{G_6}$,moving_distance
R-HSA-180336,0.0021962161375302575,69.0,6,$\widetilde{A}_{G_6}$,moving_distance
R-HSA-5654708,0.0021877595580649337,70.0,6,$\widetilde{A}_{G_6}$,moving_distance
R-HSA-392451,0.0021864348747420203,71.0,6,$\widetilde{A}_{G_6}$,moving_distance
R-HSA-1227990,0.0021718144613261277,72.0,6,$\widetilde{A}_{G_6}$,moving_distance
R-HSA-2424491,0.00214639130024746,73.0,6,$\widetilde{A}_{G_6}$,moving_distance
R-HSA-937072,0.0021365521607917015,74.0,6,$\widetilde{A}_{G_6}$,moving_distance
R-HSA-5602358,0.0021363131204559945,75.5,6,$\widetilde{A}_{G_6}$,moving_distance
R-HSA-5260271,0.0021363131204559945,75.5,6,$\widetilde{A}_{G_6}$,moving_distance
R-HSA-9703648,0.0021287947238936185,77.0,6,$\widetilde{A}_{G_6}$,moving_distance
R-HSA-8853334,0.0021142015133112095,78.0,6,$\widetilde{A}_{G_6}$,moving_distance
R-HSA-5655291,0.002113250980100836,79.0,6,$\widetilde{A}_{G_6}$,moving_distance
R-HSA-9660826,0.002110549114921662,80.0,6,$\widetilde{A}_{G_6}$,moving_distance
R-HSA-9664424,0.0021105491149216614,81.0,6,$\widetilde{A}_{G_6}$,moving_distance
R-HSA-8853338,0.002109356946547072,82.0,6,$\widetilde{A}_{G_6}$,moving_distance
R-HSA-5655332,0.0021093569465470714,83.0,6,$\widetilde{A}_{G_6}$,moving_distance
R-HSA-114604,0.002106428876939044,84.0,6,$\widetilde{A}_{G_6}$,moving_distance
R-HSA-9670439,0.002102608490956708,85.0,6,$\widetilde{A}_{G_6}$,moving_distance
R-HSA-9669938,0.0021026084909567073,86.0,6,$\widetilde{A}_{G_6}$,moving_distance
R-HSA-9665686,0.002094235357362873,87.0,6,$\widetilde{A}_{G_6}$,moving_distance
R-HSA-2029485,0.002089710258862754,88.0,6,$\widetilde{A}_{G_6}$,moving_distance
R-HSA-68884,0.0020794331933808264,89.0,6,$\widetilde{A}_{G_6}$,moving_distance
R-HSA-9034015,0.002076218776312006,90.0,6,$\widetilde{A}_{G_6}$,moving_distance
R-HSA-8851805,0.002074133006024042,91.0,6,$\widetilde{A}_{G_6}$,moving_distance
R-HSA-912526,0.0020655776047798276,92.0,6,$\widetilde{A}_{G_6}$,moving_distance
R-HSA-422356,0.0020591609240150056,93.0,6,$\widetilde{A}_{G_6}$,moving_distance
R-HSA-9673767,0.002057923441687218,94.0,6,$\widetilde{A}_{G_6}$,moving_distance
R-HSA-9673770,0.0020579234416872173,95.0,6,$\widetilde{A}_{G_6}$,moving_distance
R-HSA-445095,0.002057163385826438,96.0,6,$\widetilde{A}_{G_6}$,moving_distance
R-HSA-5654695,0.0020547648300979476,97.0,6,$\widetilde{A}_{G_6}$,moving_distance
R-HSA-5654687,0.002054531203731416,98.0,6,$\widetilde{A}_{G_6}$,moving_distance
R-HSA-9027276,0.0020486181449568103,99.0,6,$\widetilde{A}_{G_6}$,moving_distance
R-HSA-166663,0.0020424391932285938,100.0,6,$\widetilde{A}_{G_6}$,moving_distance
R-HSA-179812,0.0020247692916254413,101.0,6,$\widetilde{A}_{G_6}$,moving_distance
R-HSA-180292,0.002019515657687046,102.0,6,$\widetilde{A}_{G_6}$,moving_distance
R-HSA-975163,0.0020022032437953265,103.0,6,$\widetilde{A}_{G_6}$,moving_distance
R-HSA-389513,0.0019862665059849787,104.0,6,$\widetilde{A}_{G_6}$,moving_distance
R-HSA-210993,0.0019839205881637244,105.0,6,$\widetilde{A}_{G_6}$,moving_distance
R-HSA-9006335,0.0019781272653883863,106.0,6,$\widetilde{A}_{G_6}$,moving_distance
R-HSA-2871796,0.001977774964802641,107.0,6,$\widetilde{A}_{G_6}$,moving_distance
R-HSA-193648,0.0019709820198604137,108.0,6,$\widetilde{A}_{G_6}$,moving_distance
R-HSA-9703465,0.0019504989658806987,109.0,6,$\widetilde{A}_{G_6}$,moving_distance
R-HSA-1226099,0.001942581338539655,110.0,6,$\widetilde{A}_{G_6}$,moving_distance
R-HSA-9027284,0.001940059361830914,111.0,6,$\widetilde{A}_{G_6}$,moving_distance
R-HSA-5654696,0.0019355159779870536,112.0,6,$\widetilde{A}_{G_6}$,moving_distance
R-HSA-187687,0.00192511841262638,113.0,6,$\widetilde{A}_{G_6}$,moving_distance
R-HSA-1250347,0.0019076356566251292,114.0,6,$\widetilde{A}_{G_6}$,moving_distance
R-HSA-2172127,0.0019017650715475157,115.0,6,$\widetilde{A}_{G_6}$,moving_distance
R-HSA-397795,0.0018988664031073686,116.0,6,$\widetilde{A}_{G_6}$,moving_distance
R-HSA-9664407,0.0018913067089246444,117.0,6,$\widetilde{A}_{G_6}$,moving_distance
R-HSA-9664417,0.0018913067089246442,118.0,6,$\widetilde{A}_{G_6}$,moving_distance
R-HSA-9664422,0.001891306708924643,119.0,6,$\widetilde{A}_{G_6}$,moving_distance
R-HSA-383280,0.0018591782963085248,120.0,6,$\widetilde{A}_{G_6}$,moving_distance
R-HSA-6811558,0.001859120258265695,121.0,6,$\widetilde{A}_{G_6}$,moving_distance
R-HSA-983695,0.0018567146152718714,122.0,6,$\widetilde{A}_{G_6}$,moving_distance
R-HSA-9028731,0.0018551817647969023,123.0,6,$\widetilde{A}_{G_6}$,moving_distance
R-HSA-1500931,0.001855054719503184,124.0,6,$\widetilde{A}_{G_6}$,moving_distance
R-HSA-1227986,0.0018493797316651369,125.0,6,$\widetilde{A}_{G_6}$,moving_distance
R-HSA-2219528,0.001849127409446573,126.0,6,$\widetilde{A}_{G_6}$,moving_distance
R-HSA-2029480,0.0018488913307458626,127.0,6,$\widetilde{A}_{G_6}$,moving_distance
R-HSA-5676594,0.0018483362363304863,128.0,6,$\widetilde{A}_{G_6}$,moving_distance
R-HSA-9696264,0.001847783336203787,129.0,6,$\widetilde{A}_{G_6}$,moving_distance
R-HSA-9009391,0.0018381891565430024,130.0,6,$\widetilde{A}_{G_6}$,moving_distance
R-HSA-389357,0.0018357905937948225,131.0,6,$\widetilde{A}_{G_6}$,moving_distance
R-HSA-9664323,0.001825484066353958,132.0,6,$\widetilde{A}_{G_6}$,moving_distance
R-HSA-5654700,0.0018239284298226545,133.0,6,$\widetilde{A}_{G_6}$,moving_distance
R-HSA-1483257,0.0018226220141866595,134.0,6,$\widetilde{A}_{G_6}$,moving_distance
R-HSA-1250196,0.0017953475117231722,135.0,6,$\widetilde{A}_{G_6}$,moving_distance
R-HSA-9006115,0.001790788487162771,136.0,6,$\widetilde{A}_{G_6}$,moving_distance
R-HSA-937041,0.0017895460741536606,137.0,6,$\widetilde{A}_{G_6}$,moving_distance
R-HSA-9020956,0.0017697706231548133,138.0,6,$\widetilde{A}_{G_6}$,moving_distance
R-HSA-210990,0.0017672075590433808,139.0,6,$\widetilde{A}_{G_6}$,moving_distance
R-HSA-199418,0.001763522419087562,140.0,6,$\widetilde{A}_{G_6}$,moving_distance
R-HSA-451927,0.001755449924223551,141.0,6,$\widetilde{A}_{G_6}$,moving_distance
R-HSA-877312,0.001751124691528092,142.0,6,$\widetilde{A}_{G_6}$,moving_distance
R-HSA-9035034,0.0017491630916757306,143.0,6,$\widetilde{A}_{G_6}$,moving_distance
R-HSA-6806834,0.0017395471502606034,144.0,6,$\widetilde{A}_{G_6}$,moving_distance
R-HSA-5654693,0.0017194501353986233,145.0,6,$\widetilde{A}_{G_6}$,moving_distance
R-HSA-8934903,0.0017074768452181553,146.0,6,$\widetilde{A}_{G_6}$,moving_distance
R-HSA-9671555,0.001691154841260068,147.0,6,$\widetilde{A}_{G_6}$,moving_distance
R-HSA-375165,0.0016885970894219122,148.0,6,$\widetilde{A}_{G_6}$,moving_distance
R-HSA-3371511,0.0016869464296529193,149.0,6,$\widetilde{A}_{G_6}$,moving_distance
R-HSA-9662851,0.0016814322400846083,150.0,6,$\widetilde{A}_{G_6}$,moving_distance
R-HSA-9664433,0.0016814322400846079,151.0,6,$\widetilde{A}_{G_6}$,moving_distance
R-HSA-8940973,0.0016804985667850938,152.0,6,$\widetilde{A}_{G_6}$,moving_distance
R-HSA-372708,0.0016725400507825597,153.0,6,$\widetilde{A}_{G_6}$,moving_distance
R-HSA-1433559,0.0016551313655163947,154.0,6,$\widetilde{A}_{G_6}$,moving_distance
R-HSA-1433557,0.0016424112144620244,155.0,6,$\widetilde{A}_{G_6}$,moving_distance
R-HSA-8853659,0.0016311091509785146,156.0,6,$\widetilde{A}_{G_6}$,moving_distance
R-HSA-9705462,0.0016221586464985219,157.0,6,$\widetilde{A}_{G_6}$,moving_distance
R-HSA-381676,0.0016201138424829465,158.0,6,$\widetilde{A}_{G_6}$,moving_distance
R-HSA-2029482,0.0016155752644897792,159.0,6,$\widetilde{A}_{G_6}$,moving_distance
R-HSA-2586552,0.0016081712620364822,160.0,6,$\widetilde{A}_{G_6}$,moving_distance
R-HSA-74751,0.001600976389870267,161.5,6,$\widetilde{A}_{G_6}$,moving_distance
R-HSA-74752,0.001600976389870267,161.5,6,$\widetilde{A}_{G_6}$,moving_distance
R-HSA-9013026,0.001599544924627839,163.0,6,$\widetilde{A}_{G_6}$,moving_distance
R-HSA-9013408,0.0015951379469850927,164.0,6,$\widetilde{A}_{G_6}$,moving_distance
R-HSA-5663213,0.0015863373085574313,165.0,6,$\widetilde{A}_{G_6}$,moving_distance
R-HSA-202733,0.0015792542742495766,166.0,6,$\widetilde{A}_{G_6}$,moving_distance
R-HSA-177929,0.0015753167597970848,167.0,6,$\widetilde{A}_{G_6}$,moving_distance
R-HSA-186763,0.0015730334018383735,168.0,6,$\widetilde{A}_{G_6}$,moving_distance
R-HSA-8983432,0.001571534469083975,169.0,6,$\widetilde{A}_{G_6}$,moving_distance
R-HSA-389356,0.0015643101599698824,170.0,6,$\widetilde{A}_{G_6}$,moving_distance
R-HSA-2428924,0.0015546899732736335,171.0,6,$\widetilde{A}_{G_6}$,moving_distance
R-HSA-2404192,0.0015546899732736326,172.0,6,$\widetilde{A}_{G_6}$,moving_distance
R-HSA-8875555,0.0015517466483763436,173.0,6,$\widetilde{A}_{G_6}$,moving_distance
R-HSA-909733,0.001546209172402482,174.0,6,$\widetilde{A}_{G_6}$,moving_distance
R-HSA-8984722,0.0015442474744534558,175.0,6,$\widetilde{A}_{G_6}$,moving_distance
R-HSA-9013404,0.0015382207627972896,176.0,6,$\widetilde{A}_{G_6}$,moving_distance
R-HSA-5601884,0.001536433497273849,177.0,6,$\widetilde{A}_{G_6}$,moving_distance
R-HSA-1059683,0.0015306021307108027,178.0,6,$\widetilde{A}_{G_6}$,moving_distance
R-HSA-8964616,0.0015289071591721424,179.0,6,$\widetilde{A}_{G_6}$,moving_distance
R-HSA-176187,0.00152479799848973,180.0,6,$\widetilde{A}_{G_6}$,moving_distance
R-HSA-9013507,0.0015245243486213555,181.0,6,$\widetilde{A}_{G_6}$,moving_distance
R-HSA-881907,0.0015231448286749034,182.0,6,$\widetilde{A}_{G_6}$,moving_distance
R-HSA-390450,0.0015058776986881753,183.0,6,$\widetilde{A}_{G_6}$,moving_distance
R-HSA-983189,0.0015057853181973215,184.0,6,$\widetilde{A}_{G_6}$,moving_distance
R-HSA-8854691,0.001505019734364644,185.0,6,$\widetilde{A}_{G_6}$,moving_distance
R-HSA-9013106,0.0015017670805207572,186.0,6,$\widetilde{A}_{G_6}$,moving_distance
R-HSA-451326,0.0015005439030665606,187.0,6,$\widetilde{A}_{G_6}$,moving_distance
R-HSA-2428928,0.0014833603330554259,188.0,6,$\widetilde{A}_{G_6}$,moving_distance
R-HSA-112399,0.0014569121147866106,189.0,6,$\widetilde{A}_{G_6}$,moving_distance
R-HSA-9012852,0.0014553707089581965,190.0,6,$\widetilde{A}_{G_6}$,moving_distance
R-HSA-9013508,0.001451553721471324,191.0,6,$\widetilde{A}_{G_6}$,moving_distance
R-HSA-8875878,0.0014231174630087652,192.0,6,$\widetilde{A}_{G_6}$,moving_distance
R-HSA-447115,0.0014168947490879739,193.0,6,$\widetilde{A}_{G_6}$,moving_distance
R-HSA-9613829,0.001415141741072147,194.0,6,$\widetilde{A}_{G_6}$,moving_distance
R-HSA-982772,0.0014046838245338298,195.0,6,$\widetilde{A}_{G_6}$,moving_distance
R-HSA-5655302,0.001390293194722913,196.0,6,$\widetilde{A}_{G_6}$,moving_distance
R-HSA-68962,0.0013901582295274145,197.0,6,$\widetilde{A}_{G_6}$,moving_distance
R-HSA-456926,0.0013633090890528415,198.0,6,$\widetilde{A}_{G_6}$,moving_distance
R-HSA-419037,0.0013620597179154262,199.0,6,$\widetilde{A}_{G_6}$,moving_distance
R-HSA-2871809,0.0013604179901572193,200.0,6,$\widetilde{A}_{G_6}$,moving_distance
R-HSA-109704,0.001355560924216989,201.0,6,$\widetilde{A}_{G_6}$,moving_distance
R-HSA-4655427,0.0013532456306652614,202.0,6,$\widetilde{A}_{G_6}$,moving_distance
R-HSA-1839117,0.0013512901846158467,203.0,6,$\widetilde{A}_{G_6}$,moving_distance
R-HSA-500792,0.0013507215593044654,204.0,6,$\widetilde{A}_{G_6}$,moving_distance
R-HSA-418990,0.00135012853838972,205.0,6,$\widetilde{A}_{G_6}$,moving_distance
R-HSA-9660821,0.0013496394513433493,206.0,6,$\widetilde{A}_{G_6}$,moving_distance
R-HSA-186797,0.0013418827455587412,207.0,6,$\widetilde{A}_{G_6}$,moving_distance
R-HSA-202424,0.0013350604291528293,208.0,6,$\widetilde{A}_{G_6}$,moving_distance
R-HSA-9013695,0.0013335874707928917,209.0,6,$\widetilde{A}_{G_6}$,moving_distance
R-HSA-9662360,0.0013328175628795971,210.0,6,$\widetilde{A}_{G_6}$,moving_distance
R-HSA-9013407,0.0013274750372649553,211.0,6,$\widetilde{A}_{G_6}$,moving_distance
R-HSA-1810476,0.001322248583053645,212.0,6,$\widetilde{A}_{G_6}$,moving_distance
R-HSA-6814122,0.0013222133796150027,213.0,6,$\widetilde{A}_{G_6}$,moving_distance
R-HSA-8941326,0.0013132474989301936,214.0,6,$\widetilde{A}_{G_6}$,moving_distance
R-HSA-168927,0.0013020814526629948,215.0,6,$\widetilde{A}_{G_6}$,moving_distance
R-HSA-8863795,0.0012944647943684447,216.0,6,$\widetilde{A}_{G_6}$,moving_distance
R-HSA-70263,0.0012881693073804035,217.0,6,$\widetilde{A}_{G_6}$,moving_distance
R-HSA-432142,0.0012874422705538883,218.0,6,$\widetilde{A}_{G_6}$,moving_distance
R-HSA-9659379,0.0012795433233581518,219.0,6,$\widetilde{A}_{G_6}$,moving_distance
R-HSA-912694,0.001278180797595099,220.0,6,$\widetilde{A}_{G_6}$,moving_distance
R-HSA-4641263,0.001273254890634129,221.0,6,$\widetilde{A}_{G_6}$,moving_distance
R-HSA-416482,0.001266998502542321,222.0,6,$\widetilde{A}_{G_6}$,moving_distance
R-HSA-164938,0.0012669923225938431,223.0,6,$\widetilde{A}_{G_6}$,moving_distance
R-HSA-1839124,0.0012652754785376962,224.0,6,$\widetilde{A}_{G_6}$,moving_distance
R-HSA-392517,0.001258022612711746,225.0,6,$\widetilde{A}_{G_6}$,moving_distance
R-HSA-182971,0.0012482542440408369,226.0,6,$\widetilde{A}_{G_6}$,moving_distance
R-HSA-438066,0.0012348027351926935,227.0,6,$\widetilde{A}_{G_6}$,moving_distance
R-HSA-388844,0.00123476079047355,228.0,6,$\widetilde{A}_{G_6}$,moving_distance
R-HSA-373752,0.001233500358951379,229.0,6,$\widetilde{A}_{G_6}$,moving_distance
R-HSA-442982,0.0012317996411994867,230.0,6,$\widetilde{A}_{G_6}$,moving_distance
R-HSA-8863678,0.0012236896923831203,231.5,6,$\widetilde{A}_{G_6}$,moving_distance
R-HSA-8862803,0.0012236896923831203,231.5,6,$\widetilde{A}_{G_6}$,moving_distance
R-HSA-5625740,0.0012198745222627362,233.0,6,$\widetilde{A}_{G_6}$,moving_distance
R-HSA-3371568,0.0012193816143611276,234.0,6,$\widetilde{A}_{G_6}$,moving_distance
R-HSA-3928663,0.0012174066707968346,235.0,6,$\widetilde{A}_{G_6}$,moving_distance
R-HSA-9013418,0.0012153205027874178,236.0,6,$\widetilde{A}_{G_6}$,moving_distance
R-HSA-399956,0.0012153149521730363,237.0,6,$\widetilde{A}_{G_6}$,moving_distance
R-HSA-157858,0.0012136312535550218,238.0,6,$\widetilde{A}_{G_6}$,moving_distance
R-HSA-6794361,0.0012113769527722564,239.0,6,$\widetilde{A}_{G_6}$,moving_distance
R-HSA-5668599,0.0012083613075449674,240.0,6,$\widetilde{A}_{G_6}$,moving_distance
R-HSA-209560,0.0012067624079404554,241.0,6,$\widetilde{A}_{G_6}$,moving_distance
R-HSA-420092,0.0011993067035439334,242.0,6,$\widetilde{A}_{G_6}$,moving_distance
R-HSA-9013420,0.0011986412755970333,243.0,6,$\widetilde{A}_{G_6}$,moving_distance
R-HSA-442742,0.0011881144042796535,244.0,6,$\widetilde{A}_{G_6}$,moving_distance
R-HSA-4420097,0.001186779911322706,245.0,6,$\widetilde{A}_{G_6}$,moving_distance
R-HSA-399719,0.0011851074426186968,246.0,6,$\widetilde{A}_{G_6}$,moving_distance
R-HSA-399721,0.0011851074426186966,247.0,6,$\widetilde{A}_{G_6}$,moving_distance
R-HSA-5621575,0.0011790766782918095,248.0,6,$\widetilde{A}_{G_6}$,moving_distance
R-HSA-5668541,0.0011751823775681782,249.0,6,$\widetilde{A}_{G_6}$,moving_distance
R-HSA-1538133,0.0011727596532624851,250.0,6,$\widetilde{A}_{G_6}$,moving_distance
R-HSA-445989,0.0011714070928727518,251.0,6,$\widetilde{A}_{G_6}$,moving_distance
R-HSA-163359,0.0011661921923373922,252.0,6,$\widetilde{A}_{G_6}$,moving_distance
R-HSA-202040,0.0011575442914019405,253.0,6,$\widetilde{A}_{G_6}$,moving_distance
R-HSA-9013423,0.0011563212636435747,254.0,6,$\widetilde{A}_{G_6}$,moving_distance
R-HSA-8848021,0.0011561860238015942,255.0,6,$\widetilde{A}_{G_6}$,moving_distance
R-HSA-9006927,0.0011561860238015935,256.0,6,$\widetilde{A}_{G_6}$,moving_distance
R-HSA-75035,0.001148178988023745,257.0,6,$\widetilde{A}_{G_6}$,moving_distance
R-HSA-163685,0.0011445434505447593,258.0,6,$\widetilde{A}_{G_6}$,moving_distance
R-HSA-6794362,0.001138818416841936,259.0,6,$\widetilde{A}_{G_6}$,moving_distance
R-HSA-392518,0.0011368618714635646,260.0,6,$\widetilde{A}_{G_6}$,moving_distance
R-HSA-8874081,0.001135930857791817,261.0,6,$\widetilde{A}_{G_6}$,moving_distance
R-HSA-190828,0.0011270327955446137,262.0,6,$\widetilde{A}_{G_6}$,moving_distance
R-HSA-418885,0.0011199733908526044,263.0,6,$\widetilde{A}_{G_6}$,moving_distance
R-HSA-400042,0.0011198484936714122,264.0,6,$\widetilde{A}_{G_6}$,moving_distance
R-HSA-9022692,0.001116866191365384,265.0,6,$\widetilde{A}_{G_6}$,moving_distance
R-HSA-9013424,0.0011161113754070001,266.0,6,$\widetilde{A}_{G_6}$,moving_distance
R-HSA-2132295,0.001115319060682871,267.0,6,$\widetilde{A}_{G_6}$,moving_distance
R-HSA-1606322,0.0011151718909520004,268.0,6,$\widetilde{A}_{G_6}$,moving_distance
R-HSA-8849471,0.0011137825219807995,269.0,6,$\widetilde{A}_{G_6}$,moving_distance
R-HSA-416476,0.0011133051280095287,270.0,6,$\widetilde{A}_{G_6}$,moving_distance
R-HSA-445717,0.0011099777480989767,272.0,6,$\widetilde{A}_{G_6}$,moving_distance
R-HSA-392851,0.0011099777480989767,272.0,6,$\widetilde{A}_{G_6}$,moving_distance
R-HSA-432040,0.0011099777480989767,272.0,6,$\widetilde{A}_{G_6}$,moving_distance
R-HSA-3371571,0.0011065015137848566,274.0,6,$\widetilde{A}_{G_6}$,moving_distance
R-HSA-936964,0.001103592581551011,275.0,6,$\widetilde{A}_{G_6}$,moving_distance
R-HSA-168643,0.001103187550508631,276.0,6,$\widetilde{A}_{G_6}$,moving_distance
R-HSA-381038,0.001099742814698361,277.0,6,$\widetilde{A}_{G_6}$,moving_distance
R-HSA-2995383,0.001095213875829109,278.0,6,$\widetilde{A}_{G_6}$,moving_distance
R-HSA-6785631,0.0010923193134125678,279.0,6,$\widetilde{A}_{G_6}$,moving_distance
R-HSA-4419969,0.0010821147964988013,280.0,6,$\widetilde{A}_{G_6}$,moving_distance
R-HSA-418592,0.0010733651443044037,281.0,6,$\widetilde{A}_{G_6}$,moving_distance
R-HSA-428540,0.001065890717340902,282.0,6,$\widetilde{A}_{G_6}$,moving_distance
R-HSA-9620244,0.001065067932449946,283.0,6,$\widetilde{A}_{G_6}$,moving_distance
R-HSA-210744,0.0010645593388777484,284.0,6,$\widetilde{A}_{G_6}$,moving_distance
R-HSA-350054,0.0010632370774648773,285.0,6,$\widetilde{A}_{G_6}$,moving_distance
R-HSA-9656223,0.0010628790484236773,286.0,6,$\widetilde{A}_{G_6}$,moving_distance
R-HSA-392170,0.0010543454786722352,287.0,6,$\widetilde{A}_{G_6}$,moving_distance
R-HSA-5218921,0.0010499255963169378,288.0,6,$\widetilde{A}_{G_6}$,moving_distance
R-HSA-162658,0.0010435375132830805,289.0,6,$\widetilde{A}_{G_6}$,moving_distance
R-HSA-428930,0.0010402907901864895,290.0,6,$\widetilde{A}_{G_6}$,moving_distance
R-HSA-5213460,0.0010401230723879513,291.0,6,$\widetilde{A}_{G_6}$,moving_distance
R-HSA-5675482,0.0010401230723879502,292.0,6,$\widetilde{A}_{G_6}$,moving_distance
R-HSA-9020591,0.001037130376438523,293.0,6,$\widetilde{A}_{G_6}$,moving_distance
R-HSA-9013405,0.0010342228153237532,294.0,6,$\widetilde{A}_{G_6}$,moving_distance
R-HSA-442755,0.0010337765458706405,295.0,6,$\widetilde{A}_{G_6}$,moving_distance
R-HSA-6802948,0.0010330808141195697,296.0,6,$\widetilde{A}_{G_6}$,moving_distance
R-HSA-3000178,0.0010301032679562215,297.0,6,$\widetilde{A}_{G_6}$,moving_distance
R-HSA-418597,0.0010285841063986053,298.0,6,$\widetilde{A}_{G_6}$,moving_distance
R-HSA-209543,0.0010259060721726301,299.0,6,$\widetilde{A}_{G_6}$,moving_distance
R-HSA-977443,0.0010253991030226548,301.0,6,$\widetilde{A}_{G_6}$,moving_distance
R-HSA-977444,0.0010253991030226548,301.0,6,$\widetilde{A}_{G_6}$,moving_distance
R-HSA-991365,0.0010253991030226548,301.0,6,$\widetilde{A}_{G_6}$,moving_distance
R-HSA-500657,0.001024403869429064,303.0,6,$\widetilde{A}_{G_6}$,moving_distance
R-HSA-5576891,0.0010207381685477259,304.0,6,$\widetilde{A}_{G_6}$,moving_distance
R-HSA-6809371,0.0010206616156397167,305.0,6,$\widetilde{A}_{G_6}$,moving_distance
R-HSA-6805567,0.0010206616156397165,306.0,6,$\widetilde{A}_{G_6}$,moving_distance
R-HSA-427389,0.0010177365725984576,307.0,6,$\widetilde{A}_{G_6}$,moving_distance
R-HSA-140534,0.001015963046268111,308.0,6,$\widetilde{A}_{G_6}$,moving_distance
R-HSA-9706574,0.0010135359414445882,309.0,6,$\widetilde{A}_{G_6}$,moving_distance
R-HSA-438064,0.0010134409697125227,310.0,6,$\widetilde{A}_{G_6}$,moving_distance
R-HSA-111932,0.001013293299127076,311.0,6,$\widetilde{A}_{G_6}$,moving_distance
R-HSA-6785807,0.0010076315653556177,312.0,6,$\widetilde{A}_{G_6}$,moving_distance
R-HSA-418555,0.0010055625219356503,313.0,6,$\widetilde{A}_{G_6}$,moving_distance
R-HSA-1268020,0.0010023124947114628,314.0,6,$\widetilde{A}_{G_6}$,moving_distance
R-HSA-168179,0.001001138195974407,315.0,6,$\widetilde{A}_{G_6}$,moving_distance
R-HSA-181438,0.0010011381959744061,316.0,6,$\widetilde{A}_{G_6}$,moving_distance
R-HSA-8964315,0.001000260856606556,317.0,6,$\widetilde{A}_{G_6}$,moving_distance
R-HSA-5357769,0.0009981901544859901,318.0,6,$\widetilde{A}_{G_6}$,moving_distance
R-HSA-3928665,0.0009975421021625392,319.0,6,$\widetilde{A}_{G_6}$,moving_distance
R-HSA-2129379,0.0009927824541150641,320.0,6,$\widetilde{A}_{G_6}$,moving_distance
R-HSA-446107,0.000989075963202753,321.0,6,$\widetilde{A}_{G_6}$,moving_distance
R-HSA-6783589,0.0009832355547376608,322.0,6,$\widetilde{A}_{G_6}$,moving_distance
R-HSA-9013409,0.0009812886908297578,323.0,6,$\widetilde{A}_{G_6}$,moving_distance
R-HSA-418217,0.000977682964505315,324.0,6,$\widetilde{A}_{G_6}$,moving_distance
R-HSA-9645723,0.0009774168469096922,325.0,6,$\widetilde{A}_{G_6}$,moving_distance
R-HSA-5626467,0.0009773343163223742,326.0,6,$\widetilde{A}_{G_6}$,moving_distance
R-HSA-9013406,0.0009751618682211514,327.0,6,$\widetilde{A}_{G_6}$,moving_distance
R-HSA-9649948,0.0009675419464057608,328.0,6,$\widetilde{A}_{G_6}$,moving_distance
R-HSA-6802955,0.0009675419464057603,329.5,6,$\widetilde{A}_{G_6}$,moving_distance
R-HSA-6802949,0.0009675419464057603,329.5,6,$\widetilde{A}_{G_6}$,moving_distance
R-HSA-6802946,0.00096754194640576,331.0,6,$\widetilde{A}_{G_6}$,moving_distance
R-HSA-6811434,0.0009671650089907812,332.0,6,$\widetilde{A}_{G_6}$,moving_distance
R-HSA-5140745,0.0009669588496401057,333.0,6,$\widetilde{A}_{G_6}$,moving_distance
R-HSA-3299685,0.0009648918284463745,334.0,6,$\widetilde{A}_{G_6}$,moving_distance
R-HSA-8856825,0.0009576098419840958,335.0,6,$\widetilde{A}_{G_6}$,moving_distance
R-HSA-176974,0.0009453358946794706,336.0,6,$\widetilde{A}_{G_6}$,moving_distance
R-HSA-437239,0.0009441942841025503,337.0,6,$\widetilde{A}_{G_6}$,moving_distance
R-HSA-5674135,0.0009419096769421968,338.0,6,$\widetilde{A}_{G_6}$,moving_distance
R-HSA-193639,0.0009414577185084066,339.0,6,$\widetilde{A}_{G_6}$,moving_distance
R-HSA-9617324,0.0009411516318580193,340.0,6,$\widetilde{A}_{G_6}$,moving_distance
R-HSA-5218920,0.0009403725331823192,341.0,6,$\widetilde{A}_{G_6}$,moving_distance
R-HSA-3214858,0.0009388740256184555,342.0,6,$\widetilde{A}_{G_6}$,moving_distance
R-HSA-9646399,0.0009363148503575927,343.0,6,$\widetilde{A}_{G_6}$,moving_distance
R-HSA-5099900,0.000932007506933438,344.0,6,$\widetilde{A}_{G_6}$,moving_distance
R-HSA-3928662,0.0009305129183034044,345.0,6,$\widetilde{A}_{G_6}$,moving_distance
R-HSA-112040,0.0009304451426044894,346.0,6,$\widetilde{A}_{G_6}$,moving_distance
R-HSA-5625970,0.0009265250915258756,347.0,6,$\widetilde{A}_{G_6}$,moving_distance
R-HSA-389960,0.0009229324973070764,348.0,6,$\widetilde{A}_{G_6}$,moving_distance
R-HSA-5673000,0.0009228607108607294,349.0,6,$\widetilde{A}_{G_6}$,moving_distance
R-HSA-450513,0.0009217487154616701,350.0,6,$\widetilde{A}_{G_6}$,moving_distance
R-HSA-380994,0.0009209227452960267,351.0,6,$\widetilde{A}_{G_6}$,moving_distance
R-HSA-445144,0.000919700747751884,352.0,6,$\widetilde{A}_{G_6}$,moving_distance
R-HSA-450385,0.0009173952685029323,353.0,6,$\widetilde{A}_{G_6}$,moving_distance
R-HSA-381070,0.0009151581948304789,354.0,6,$\widetilde{A}_{G_6}$,moving_distance
R-HSA-1296041,0.0009137897479482681,355.0,6,$\widetilde{A}_{G_6}$,moving_distance
R-HSA-997272,0.0009137897479482679,356.5,6,$\widetilde{A}_{G_6}$,moving_distance
R-HSA-1296059,0.0009137897479482679,356.5,6,$\widetilde{A}_{G_6}$,moving_distance
R-HSA-8957275,0.0009137497130712003,358.0,6,$\widetilde{A}_{G_6}$,moving_distance
R-HSA-937039,0.0009136032780283262,359.0,6,$\widetilde{A}_{G_6}$,moving_distance
R-HSA-975144,0.000913603278028326,360.0,6,$\widetilde{A}_{G_6}$,moving_distance
R-HSA-6802952,0.0009110285649400156,361.0,6,$\widetilde{A}_{G_6}$,moving_distance
R-HSA-8964038,0.0009084972958441367,362.0,6,$\widetilde{A}_{G_6}$,moving_distance
R-HSA-171007,0.0009082069856737847,363.0,6,$\widetilde{A}_{G_6}$,moving_distance
R-HSA-373760,0.0009052491079337273,364.0,6,$\widetilde{A}_{G_6}$,moving_distance
R-HSA-9609736,0.0009036173508670619,365.0,6,$\widetilde{A}_{G_6}$,moving_distance
R-HSA-163560,0.0009014170767231322,366.0,6,$\widetilde{A}_{G_6}$,moving_distance
R-HSA-421270,0.0008972008294223328,367.0,6,$\widetilde{A}_{G_6}$,moving_distance
R-HSA-450321,0.0008948519631173912,368.0,6,$\widetilde{A}_{G_6}$,moving_distance
R-HSA-9610379,0.0008882342444437893,369.0,6,$\widetilde{A}_{G_6}$,moving_distance
R-HSA-373755,0.0008858258462078346,370.0,6,$\widetilde{A}_{G_6}$,moving_distance
R-HSA-9634638,0.0008820276045070955,371.0,6,$\widetilde{A}_{G_6}$,moving_distance
R-HSA-166058,0.0008796117334650733,372.0,6,$\widetilde{A}_{G_6}$,moving_distance
R-HSA-168188,0.0008796117334650727,373.0,6,$\widetilde{A}_{G_6}$,moving_distance
R-HSA-1221632,0.0008790867987190042,374.0,6,$\widetilde{A}_{G_6}$,moving_distance
R-HSA-2644603,0.0008754178989238576,375.0,6,$\widetilde{A}_{G_6}$,moving_distance
R-HSA-2644602,0.0008754178989238565,376.0,6,$\widetilde{A}_{G_6}$,moving_distance
R-HSA-2894858,0.0008754178989238561,377.0,6,$\widetilde{A}_{G_6}$,moving_distance
R-HSA-2894862,0.0008754178989238558,378.0,6,$\widetilde{A}_{G_6}$,moving_distance
R-HSA-2644606,0.0008754178989238556,379.0,6,$\widetilde{A}_{G_6}$,moving_distance
R-HSA-399955,0.0008747576866015087,380.0,6,$\widetilde{A}_{G_6}$,moving_distance
R-HSA-8941856,0.0008664275713383713,381.0,6,$\widetilde{A}_{G_6}$,moving_distance
R-HSA-9710421,0.0008660574618949527,382.0,6,$\widetilde{A}_{G_6}$,moving_distance
R-HSA-9664420,0.0008637545945753411,383.0,6,$\widetilde{A}_{G_6}$,moving_distance
R-HSA-9673324,0.0008637545945753406,384.0,6,$\widetilde{A}_{G_6}$,moving_distance
R-HSA-1980143,0.0008628152998410833,385.0,6,$\widetilde{A}_{G_6}$,moving_distance
R-HSA-9615017,0.0008616591554614925,386.0,6,$\widetilde{A}_{G_6}$,moving_distance
R-HSA-4615885,0.000859082271630391,387.0,6,$\widetilde{A}_{G_6}$,moving_distance
R-HSA-211000,0.0008531077526486233,388.0,6,$\widetilde{A}_{G_6}$,moving_distance
R-HSA-3371497,0.0008526439196998837,389.0,6,$\widetilde{A}_{G_6}$,moving_distance
R-HSA-937061,0.0008511357690592873,390.0,6,$\widetilde{A}_{G_6}$,moving_distance
R-HSA-166166,0.0008511357690592871,391.0,6,$\widetilde{A}_{G_6}$,moving_distance
R-HSA-202131,0.0008504459363695405,392.0,6,$\widetilde{A}_{G_6}$,moving_distance
R-HSA-1566948,0.000850435950230199,393.0,6,$\widetilde{A}_{G_6}$,moving_distance
R-HSA-1489509,0.0008494343069971747,394.0,6,$\widetilde{A}_{G_6}$,moving_distance
R-HSA-8856688,0.0008478246338497248,395.0,6,$\widetilde{A}_{G_6}$,moving_distance
R-HSA-429958,0.0008454888301787672,396.0,6,$\widetilde{A}_{G_6}$,moving_distance
R-HSA-193692,0.0008448898671359928,397.0,6,$\widetilde{A}_{G_6}$,moving_distance
R-HSA-2559582,0.000844361646034846,398.0,6,$\widetilde{A}_{G_6}$,moving_distance
R-HSA-9609690,0.0008422273111002392,399.0,6,$\widetilde{A}_{G_6}$,moving_distance
R-HSA-8986944,0.0008411960918049305,400.0,6,$\widetilde{A}_{G_6}$,moving_distance
R-HSA-69473,0.0008374128757328714,401.0,6,$\widetilde{A}_{G_6}$,moving_distance
R-HSA-6799198,0.0008318283542846132,402.0,6,$\widetilde{A}_{G_6}$,moving_distance
R-HSA-5578749,0.000830749072411411,403.0,6,$\widetilde{A}_{G_6}$,moving_distance
R-HSA-2682334,0.0008265655111269157,404.0,6,$\widetilde{A}_{G_6}$,moving_distance
R-HSA-1296065,0.0008247272430016701,405.5,6,$\widetilde{A}_{G_6}$,moving_distance
R-HSA-1296071,0.0008247272430016701,405.5,6,$\widetilde{A}_{G_6}$,moving_distance
R-HSA-5357956,0.0008228541215040703,407.0,6,$\widetilde{A}_{G_6}$,moving_distance
R-HSA-373080,0.0008195159479102849,408.0,6,$\widetilde{A}_{G_6}$,moving_distance
R-HSA-3928664,0.0008162097929932037,409.0,6,$\widetilde{A}_{G_6}$,moving_distance
R-HSA-399954,0.0008155680774593261,410.0,6,$\widetilde{A}_{G_6}$,moving_distance
R-HSA-168638,0.0008099938194373014,411.0,6,$\widetilde{A}_{G_6}$,moving_distance
R-HSA-9614399,0.0008099732625265428,412.0,6,$\widetilde{A}_{G_6}$,moving_distance
R-HSA-212300,0.0008087116637149043,413.0,6,$\widetilde{A}_{G_6}$,moving_distance
R-HSA-8950505,0.0008030373277763102,414.0,6,$\widetilde{A}_{G_6}$,moving_distance
R-HSA-68949,0.000802316471822498,415.0,6,$\widetilde{A}_{G_6}$,moving_distance
R-HSA-5357786,0.0008023011252267962,416.0,6,$\widetilde{A}_{G_6}$,moving_distance
R-HSA-9662361,0.000801204575493593,417.0,6,$\widetilde{A}_{G_6}$,moving_distance
R-HSA-933542,0.0008003180788369656,418.0,6,$\widetilde{A}_{G_6}$,moving_distance
R-HSA-450302,0.0007992228613248504,419.0,6,$\widetilde{A}_{G_6}$,moving_distance
R-HSA-6803529,0.0007989154272625846,420.0,6,$\widetilde{A}_{G_6}$,moving_distance
R-HSA-186712,0.000797424846978008,421.0,6,$\widetilde{A}_{G_6}$,moving_distance
R-HSA-75893,0.0007958864499557468,422.0,6,$\widetilde{A}_{G_6}$,moving_distance
R-HSA-5357905,0.000793392019860604,423.0,6,$\widetilde{A}_{G_6}$,moving_distance
R-HSA-113510,0.0007926614987548937,424.0,6,$\widetilde{A}_{G_6}$,moving_distance
R-HSA-5627123,0.0007924669942569902,425.0,6,$\widetilde{A}_{G_6}$,moving_distance
R-HSA-210991,0.0007922196052685161,426.0,6,$\widetilde{A}_{G_6}$,moving_distance
R-HSA-442720,0.0007901725094752733,427.0,6,$\widetilde{A}_{G_6}$,moving_distance
R-HSA-917937,0.0007886542534512287,428.0,6,$\widetilde{A}_{G_6}$,moving_distance
R-HSA-450341,0.0007881356930907837,429.0,6,$\widetilde{A}_{G_6}$,moving_distance
R-HSA-975138,0.0007866416312073893,430.0,6,$\widetilde{A}_{G_6}$,moving_distance
R-HSA-8936459,0.0007858448655121664,431.0,6,$\widetilde{A}_{G_6}$,moving_distance
R-HSA-975155,0.0007852502785233042,432.0,6,$\widetilde{A}_{G_6}$,moving_distance
R-HSA-168138,0.0007852502785233038,433.0,6,$\widetilde{A}_{G_6}$,moving_distance
R-HSA-168181,0.0007852502785233036,434.0,6,$\widetilde{A}_{G_6}$,moving_distance
R-HSA-5693554,0.0007851696511815636,435.0,6,$\widetilde{A}_{G_6}$,moving_distance
R-HSA-3232118,0.0007850431972130536,436.0,6,$\widetilde{A}_{G_6}$,moving_distance
R-HSA-1500620,0.0007839207497085772,437.0,6,$\widetilde{A}_{G_6}$,moving_distance
R-HSA-1474165,0.0007839207497085768,438.0,6,$\widetilde{A}_{G_6}$,moving_distance
R-HSA-3214815,0.0007828037298524174,439.0,6,$\widetilde{A}_{G_6}$,moving_distance
R-HSA-2559586,0.0007794893950901715,440.0,6,$\widetilde{A}_{G_6}$,moving_distance
R-HSA-2980766,0.0007760994785304329,441.0,6,$\widetilde{A}_{G_6}$,moving_distance
R-HSA-112043,0.0007760811771418399,442.0,6,$\widetilde{A}_{G_6}$,moving_distance
R-HSA-5218859,0.000775960368932933,443.0,6,$\widetilde{A}_{G_6}$,moving_distance
R-HSA-1912408,0.0007736228469107085,444.0,6,$\widetilde{A}_{G_6}$,moving_distance
R-HSA-190873,0.0007709124596847844,445.0,6,$\widetilde{A}_{G_6}$,moving_distance
R-HSA-2468052,0.0007700404139207291,446.0,6,$\widetilde{A}_{G_6}$,moving_distance
R-HSA-176412,0.0007690188208051836,447.0,6,$\widetilde{A}_{G_6}$,moving_distance
R-HSA-1650814,0.0007674258668383896,448.0,6,$\widetilde{A}_{G_6}$,moving_distance
R-HSA-168273,0.0007673263462626655,449.0,6,$\widetilde{A}_{G_6}$,moving_distance
R-HSA-389957,0.0007673031724799467,450.0,6,$\widetilde{A}_{G_6}$,moving_distance
R-HSA-389958,0.0007642298789835298,451.0,6,$\widetilde{A}_{G_6}$,moving_distance
R-HSA-196025,0.0007642032378956761,452.0,6,$\widetilde{A}_{G_6}$,moving_distance
R-HSA-6783783,0.0007632802548080026,453.0,6,$\widetilde{A}_{G_6}$,moving_distance
R-HSA-6804758,0.0007617428557167192,454.0,6,$\widetilde{A}_{G_6}$,moving_distance
R-HSA-380284,0.0007579312490521849,455.0,6,$\widetilde{A}_{G_6}$,moving_distance
R-HSA-380259,0.000757931249052184,456.0,6,$\widetilde{A}_{G_6}$,moving_distance
R-HSA-5339716,0.0007554949898571912,457.5,6,$\widetilde{A}_{G_6}$,moving_distance
R-HSA-5358749,0.0007554949898571912,457.5,6,$\widetilde{A}_{G_6}$,moving_distance
R-HSA-4839743,0.0007554949898571911,459.0,6,$\widetilde{A}_{G_6}$,moving_distance
R-HSA-5358752,0.000755494989857191,461.0,6,$\widetilde{A}_{G_6}$,moving_distance
R-HSA-5358747,0.000755494989857191,461.0,6,$\widetilde{A}_{G_6}$,moving_distance
R-HSA-5358751,0.000755494989857191,461.0,6,$\widetilde{A}_{G_6}$,moving_distance
R-HSA-179409,0.0007544282937338345,463.0,6,$\widetilde{A}_{G_6}$,moving_distance
R-HSA-111885,0.0007544076373691491,464.0,6,$\widetilde{A}_{G_6}$,moving_distance
R-HSA-5250924,0.0007535674346121778,465.0,6,$\widetilde{A}_{G_6}$,moving_distance
R-HSA-111447,0.0007533030824700134,466.0,6,$\widetilde{A}_{G_6}$,moving_distance
R-HSA-5250913,0.0007529376900096468,467.0,6,$\widetilde{A}_{G_6}$,moving_distance
R-HSA-390471,0.000752883353808726,468.0,6,$\widetilde{A}_{G_6}$,moving_distance
R-HSA-9615710,0.000747947843569541,469.0,6,$\widetilde{A}_{G_6}$,moving_distance
R-HSA-9709957,0.0007467979694984198,470.0,6,$\widetilde{A}_{G_6}$,moving_distance
R-HSA-2122947,0.0007461906052380447,471.0,6,$\widetilde{A}_{G_6}$,moving_distance
R-HSA-171319,0.0007460242328651146,472.0,6,$\widetilde{A}_{G_6}$,moving_distance
R-HSA-111465,0.0007456741018763301,473.0,6,$\widetilde{A}_{G_6}$,moving_distance
R-HSA-5578775,0.0007438067078353984,474.0,6,$\widetilde{A}_{G_6}$,moving_distance
R-HSA-6802957,0.0007434086523894059,475.0,6,$\widetilde{A}_{G_6}$,moving_distance
R-HSA-4755510,0.0007432392649887406,476.0,6,$\widetilde{A}_{G_6}$,moving_distance
R-HSA-5625886,0.0007426603185357556,477.0,6,$\widetilde{A}_{G_6}$,moving_distance
R-HSA-164940,0.0007405020595924606,478.0,6,$\widetilde{A}_{G_6}$,moving_distance
R-HSA-168164,0.0007383238761293924,479.0,6,$\widetilde{A}_{G_6}$,moving_distance
R-HSA-176407,0.0007368614701652621,480.0,6,$\widetilde{A}_{G_6}$,moving_distance
R-HSA-2871837,0.0007356425131095772,481.0,6,$\widetilde{A}_{G_6}$,moving_distance
R-HSA-389977,0.0007336712316795263,482.0,6,$\widetilde{A}_{G_6}$,moving_distance
R-HSA-450604,0.0007301334425936318,483.0,6,$\widetilde{A}_{G_6}$,moving_distance
R-HSA-3214841,0.0007299148726613269,484.0,6,$\widetilde{A}_{G_6}$,moving_distance
R-HSA-416572,0.000729255352427212,485.0,6,$\widetilde{A}_{G_6}$,moving_distance
R-HSA-400685,0.0007286400161709912,486.0,6,$\widetilde{A}_{G_6}$,moving_distance
R-HSA-4086398,0.0007283888575099613,487.0,6,$\widetilde{A}_{G_6}$,moving_distance
R-HSA-5619507,0.0007277566691248677,488.0,6,$\widetilde{A}_{G_6}$,moving_distance
R-HSA-5617472,0.0007277566691248675,489.0,6,$\widetilde{A}_{G_6}$,moving_distance
R-HSA-390466,0.0007270369448858774,490.0,6,$\widetilde{A}_{G_6}$,moving_distance
R-HSA-5693565,0.0007262530538030787,491.0,6,$\widetilde{A}_{G_6}$,moving_distance
R-HSA-114608,0.0007245366483620458,492.0,6,$\widetilde{A}_{G_6}$,moving_distance
R-HSA-5693606,0.0007234182712220873,493.0,6,$\widetilde{A}_{G_6}$,moving_distance
R-HSA-75153,0.000723201049469809,494.0,6,$\widetilde{A}_{G_6}$,moving_distance
R-HSA-8852276,0.0007202137678417992,495.0,6,$\widetilde{A}_{G_6}$,moving_distance
R-HSA-70268,0.000717890957604769,496.0,6,$\widetilde{A}_{G_6}$,moving_distance
R-HSA-2408522,0.0007176347756541068,497.0,6,$\widetilde{A}_{G_6}$,moving_distance
R-HSA-5635838,0.0007176145097903289,498.0,6,$\widetilde{A}_{G_6}$,moving_distance
R-HSA-418346,0.0007175944528958181,499.0,6,$\widetilde{A}_{G_6}$,moving_distance
R-HSA-264870,0.000716691888174669,500.0,6,$\widetilde{A}_{G_6}$,moving_distance
R-HSA-156711,0.0007159940094018311,501.0,6,$\widetilde{A}_{G_6}$,moving_distance
R-HSA-69273,0.0007145242485655581,502.0,6,$\widetilde{A}_{G_6}$,moving_distance
R-HSA-1912422,0.000713140521156449,503.0,6,$\widetilde{A}_{G_6}$,moving_distance
R-HSA-983231,0.0007130681942355976,504.0,6,$\widetilde{A}_{G_6}$,moving_distance
R-HSA-111997,0.0007125976700198545,505.0,6,$\widetilde{A}_{G_6}$,moving_distance
R-HSA-111933,0.0007125976700198543,506.0,6,$\widetilde{A}_{G_6}$,moving_distance
R-HSA-8854518,0.000710294157140783,507.0,6,$\widetilde{A}_{G_6}$,moving_distance
R-HSA-5678895,0.0007101177512811788,508.0,6,$\widetilde{A}_{G_6}$,moving_distance
R-HSA-3371556,0.0007100310556337694,509.0,6,$\widetilde{A}_{G_6}$,moving_distance
R-HSA-141405,0.000709103461207945,510.0,6,$\widetilde{A}_{G_6}$,moving_distance
R-HSA-141430,0.0007091034612079444,511.0,6,$\widetilde{A}_{G_6}$,moving_distance
R-HSA-156902,0.0007072316904401778,512.0,6,$\widetilde{A}_{G_6}$,moving_distance
R-HSA-445355,0.0007070280027034057,513.0,6,$\widetilde{A}_{G_6}$,moving_distance
R-HSA-2465910,0.0007065701398550027,514.0,6,$\widetilde{A}_{G_6}$,moving_distance
R-HSA-5358565,0.0007064784252506545,515.0,6,$\widetilde{A}_{G_6}$,moving_distance
R-HSA-2470946,0.0007060823322944636,516.0,6,$\widetilde{A}_{G_6}$,moving_distance
R-HSA-111931,0.0007053895183098749,517.0,6,$\widetilde{A}_{G_6}$,moving_distance
R-HSA-2408557,0.0007052535550470234,518.0,6,$\widetilde{A}_{G_6}$,moving_distance
R-HSA-211859,0.0007045898686059447,519.0,6,$\widetilde{A}_{G_6}$,moving_distance
R-HSA-211945,0.0007045898686059446,520.0,6,$\widetilde{A}_{G_6}$,moving_distance
R-HSA-69002,0.0007040618484654627,521.0,6,$\widetilde{A}_{G_6}$,moving_distance
R-HSA-72649,0.0007039795096950463,522.0,6,$\widetilde{A}_{G_6}$,moving_distance
R-HSA-9617828,0.0007033438857142946,523.0,6,$\widetilde{A}_{G_6}$,moving_distance
R-HSA-72695,0.00070330812742243,524.0,6,$\widetilde{A}_{G_6}$,moving_distance
R-HSA-192823,0.0007024217460405479,525.0,6,$\widetilde{A}_{G_6}$,moving_distance
R-HSA-3000171,0.0007017266944907402,526.0,6,$\widetilde{A}_{G_6}$,moving_distance
R-HSA-2122948,0.0007015652039365358,527.0,6,$\widetilde{A}_{G_6}$,moving_distance
R-HSA-912446,0.0007010303367264494,528.0,6,$\widetilde{A}_{G_6}$,moving_distance
R-HSA-156842,0.0006993457136788812,529.0,6,$\widetilde{A}_{G_6}$,moving_distance
R-HSA-3214842,0.0006993104489667868,530.0,6,$\widetilde{A}_{G_6}$,moving_distance
R-HSA-5693607,0.0006990304480725807,531.0,6,$\widetilde{A}_{G_6}$,moving_distance
R-HSA-69052,0.0006988925098569528,532.0,6,$\widetilde{A}_{G_6}$,moving_distance
R-HSA-5627117,0.0006986807381384127,533.0,6,$\widetilde{A}_{G_6}$,moving_distance
R-HSA-6804115,0.000695365841531713,534.0,6,$\widetilde{A}_{G_6}$,moving_distance
R-HSA-72689,0.0006953620808480398,535.0,6,$\widetilde{A}_{G_6}$,moving_distance
R-HSA-72662,0.0006930380743087732,536.0,6,$\widetilde{A}_{G_6}$,moving_distance
R-HSA-975956,0.0006919635956216019,537.0,6,$\widetilde{A}_{G_6}$,moving_distance
R-HSA-72702,0.0006918027516976344,538.0,6,$\widetilde{A}_{G_6}$,moving_distance
R-HSA-202670,0.0006913890274469012,539.0,6,$\widetilde{A}_{G_6}$,moving_distance
R-HSA-611105,0.0006911342326688498,540.0,6,$\widetilde{A}_{G_6}$,moving_distance
R-HSA-156827,0.0006909923411563137,541.0,6,$\widetilde{A}_{G_6}$,moving_distance
R-HSA-9663891,0.0006870678293554248,542.0,6,$\widetilde{A}_{G_6}$,moving_distance
R-HSA-73854,0.0006850266903105302,543.0,6,$\widetilde{A}_{G_6}$,moving_distance
R-HSA-5693616,0.0006838162473728418,544.0,6,$\widetilde{A}_{G_6}$,moving_distance
R-HSA-72706,0.000682903895115962,545.0,6,$\widetilde{A}_{G_6}$,moving_distance
R-HSA-380270,0.0006821666776423035,546.0,6,$\widetilde{A}_{G_6}$,moving_distance
R-HSA-380287,0.0006821666776423034,547.0,6,$\widetilde{A}_{G_6}$,moving_distance
R-HSA-69236,0.0006813242490788299,548.0,6,$\widetilde{A}_{G_6}$,moving_distance
R-HSA-69231,0.0006813242490788296,549.0,6,$\widetilde{A}_{G_6}$,moving_distance
R-HSA-5339562,0.0006795298022469447,550.0,6,$\widetilde{A}_{G_6}$,moving_distance
R-HSA-196299,0.0006793135530764786,551.0,6,$\widetilde{A}_{G_6}$,moving_distance
R-HSA-204998,0.0006790768576253639,552.0,6,$\widetilde{A}_{G_6}$,moving_distance
R-HSA-193704,0.00067878092132005,553.0,6,$\widetilde{A}_{G_6}$,moving_distance
R-HSA-4551638,0.0006782019867780232,554.0,6,$\widetilde{A}_{G_6}$,moving_distance
R-HSA-73864,0.0006775306333964539,555.0,6,$\widetilde{A}_{G_6}$,moving_distance
R-HSA-5358606,0.0006748777169139677,556.0,6,$\widetilde{A}_{G_6}$,moving_distance
R-HSA-8979227,0.0006743696319974878,557.0,6,$\widetilde{A}_{G_6}$,moving_distance
R-HSA-5619084,0.0006741389037216702,558.0,6,$\widetilde{A}_{G_6}$,moving_distance
R-HSA-9614085,0.0006729185596229089,559.0,6,$\widetilde{A}_{G_6}$,moving_distance
R-HSA-72764,0.0006719850389399206,560.0,6,$\widetilde{A}_{G_6}$,moving_distance
R-HSA-76005,0.0006707853102972673,561.0,6,$\widetilde{A}_{G_6}$,moving_distance
R-HSA-2980736,0.0006691921223486403,562.0,6,$\widetilde{A}_{G_6}$,moving_distance
R-HSA-9619483,0.0006674554976689211,563.0,6,$\widetilde{A}_{G_6}$,moving_distance
R-HSA-5467337,0.0006669192608375616,564.0,6,$\widetilde{A}_{G_6}$,moving_distance
R-HSA-4839748,0.0006669192608375614,565.0,6,$\widetilde{A}_{G_6}$,moving_distance
R-HSA-4839744,0.0006669192608375613,566.0,6,$\widetilde{A}_{G_6}$,moving_distance
R-HSA-5467348,0.0006669192608375609,567.0,6,$\widetilde{A}_{G_6}$,moving_distance
R-HSA-5467340,0.0006669192608375608,568.5,6,$\widetilde{A}_{G_6}$,moving_distance
R-HSA-4839735,0.0006669192608375608,568.5,6,$\widetilde{A}_{G_6}$,moving_distance
R-HSA-391251,0.0006661953328386698,570.0,6,$\widetilde{A}_{G_6}$,moving_distance
R-HSA-8982491,0.0006654362341270149,571.0,6,$\widetilde{A}_{G_6}$,moving_distance
R-HSA-975871,0.0006653672096582045,572.0,6,$\widetilde{A}_{G_6}$,moving_distance
R-HSA-168142,0.0006653672096582039,573.0,6,$\widetilde{A}_{G_6}$,moving_distance
R-HSA-168176,0.0006653672096582038,574.0,6,$\widetilde{A}_{G_6}$,moving_distance
R-HSA-8943724,0.0006639773547737782,575.0,6,$\widetilde{A}_{G_6}$,moving_distance
R-HSA-4570464,0.0006579189124936534,576.0,6,$\widetilde{A}_{G_6}$,moving_distance
R-HSA-68867,0.000656677038701643,577.0,6,$\widetilde{A}_{G_6}$,moving_distance
R-HSA-8851708,0.0006561547975955152,578.0,6,$\widetilde{A}_{G_6}$,moving_distance
R-HSA-1839126,0.000656154797595515,579.0,6,$\widetilde{A}_{G_6}$,moving_distance
R-HSA-5250941,0.0006560577667080155,580.0,6,$\widetilde{A}_{G_6}$,moving_distance
R-HSA-5693571,0.0006551221159505765,581.0,6,$\widetilde{A}_{G_6}$,moving_distance
R-HSA-4641258,0.0006537432899340309,582.0,6,$\widetilde{A}_{G_6}$,moving_distance
R-HSA-2559580,0.0006536113230940179,583.0,6,$\widetilde{A}_{G_6}$,moving_distance
R-HSA-9616222,0.0006527839154563223,584.0,6,$\widetilde{A}_{G_6}$,moving_distance
R-HSA-9679191,0.0006524902765354877,585.0,6,$\widetilde{A}_{G_6}$,moving_distance
R-HSA-9013694,0.0006517710488062886,586.0,6,$\widetilde{A}_{G_6}$,moving_distance
R-HSA-111996,0.0006516206086460264,587.0,6,$\widetilde{A}_{G_6}$,moving_distance
R-HSA-977225,0.0006508170750441784,588.0,6,$\widetilde{A}_{G_6}$,moving_distance
R-HSA-3371453,0.0006498471265334746,589.0,6,$\widetilde{A}_{G_6}$,moving_distance
R-HSA-9633012,0.0006492522249969874,590.0,6,$\widetilde{A}_{G_6}$,moving_distance
R-HSA-5358508,0.0006485351881987094,591.0,6,$\widetilde{A}_{G_6}$,moving_distance
R-HSA-174048,0.0006481983205889137,592.0,6,$\widetilde{A}_{G_6}$,moving_distance
R-HSA-8878159,0.0006458381662043859,593.0,6,$\widetilde{A}_{G_6}$,moving_distance
R-HSA-427413,0.0006457833520358093,594.0,6,$\widetilde{A}_{G_6}$,moving_distance
R-HSA-380320,0.0006453870625254406,595.0,6,$\widetilde{A}_{G_6}$,moving_distance
R-HSA-9020702,0.0006449120035342379,596.0,6,$\widetilde{A}_{G_6}$,moving_distance
R-HSA-1236975,0.000643877185287673,597.0,6,$\widetilde{A}_{G_6}$,moving_distance
R-HSA-3270619,0.0006427929493459708,598.0,6,$\widetilde{A}_{G_6}$,moving_distance
R-HSA-9005891,0.0006424021533182752,599.0,6,$\widetilde{A}_{G_6}$,moving_distance
R-HSA-9697154,0.000642402153318275,601.0,6,$\widetilde{A}_{G_6}$,moving_distance
R-HSA-9675151,0.000642402153318275,601.0,6,$\widetilde{A}_{G_6}$,moving_distance
R-HSA-9005895,0.000642402153318275,601.0,6,$\widetilde{A}_{G_6}$,moving_distance
R-HSA-9670095,0.0006417124037773925,603.0,6,$\widetilde{A}_{G_6}$,moving_distance
R-HSA-198323,0.0006416552418117355,604.0,6,$\widetilde{A}_{G_6}$,moving_distance
R-HSA-9013422,0.0006415616359415694,605.0,6,$\widetilde{A}_{G_6}$,moving_distance
R-HSA-3238698,0.0006412302758950013,606.0,6,$\widetilde{A}_{G_6}$,moving_distance
R-HSA-216083,0.0006404390278169839,607.0,6,$\widetilde{A}_{G_6}$,moving_distance
R-HSA-2173795,0.0006396205884616913,608.0,6,$\widetilde{A}_{G_6}$,moving_distance
R-HSA-3899300,0.0006377290827132802,609.0,6,$\widetilde{A}_{G_6}$,moving_distance
R-HSA-5684264,0.0006377243852909082,610.0,6,$\widetilde{A}_{G_6}$,moving_distance
R-HSA-2672351,0.0006371880300667252,611.0,6,$\widetilde{A}_{G_6}$,moving_distance
R-HSA-1799339,0.0006359067884151656,612.0,6,$\widetilde{A}_{G_6}$,moving_distance
R-HSA-9013700,0.0006348740759662239,613.0,6,$\widetilde{A}_{G_6}$,moving_distance
R-HSA-8964043,0.0006343790707619843,614.0,6,$\widetilde{A}_{G_6}$,moving_distance
R-HSA-6804760,0.0006334993739630334,615.0,6,$\widetilde{A}_{G_6}$,moving_distance
R-HSA-9668328,0.000633173992635198,616.0,6,$\widetilde{A}_{G_6}$,moving_distance
R-HSA-9659787,0.000631914592199057,617.0,6,$\widetilde{A}_{G_6}$,moving_distance
R-HSA-9661069,0.0006319145921990561,618.0,6,$\widetilde{A}_{G_6}$,moving_distance
R-HSA-77595,0.0006315388821913252,619.0,6,$\widetilde{A}_{G_6}$,moving_distance
R-HSA-69615,0.0006297076353389842,620.0,6,$\widetilde{A}_{G_6}$,moving_distance
R-HSA-4641265,0.0006285830085792497,621.0,6,$\widetilde{A}_{G_6}$,moving_distance
R-HSA-9687136,0.0006259027656152721,622.0,6,$\widetilde{A}_{G_6}$,moving_distance
R-HSA-6788467,0.0006250853052489777,623.0,6,$\widetilde{A}_{G_6}$,moving_distance
R-HSA-381119,0.0006246538178516242,624.0,6,$\widetilde{A}_{G_6}$,moving_distance
R-HSA-382556,0.0006242296102828638,625.0,6,$\widetilde{A}_{G_6}$,moving_distance
R-HSA-201722,0.0006234301249988381,626.0,6,$\widetilde{A}_{G_6}$,moving_distance
R-HSA-73728,0.0006233366370448851,627.0,6,$\widetilde{A}_{G_6}$,moving_distance
R-HSA-774815,0.0006232431663768512,628.0,6,$\widetilde{A}_{G_6}$,moving_distance
R-HSA-606279,0.000623243166376851,629.0,6,$\widetilde{A}_{G_6}$,moving_distance
R-HSA-1445148,0.00062220517376647,630.0,6,$\widetilde{A}_{G_6}$,moving_distance
R-HSA-5334118,0.0006219098620650974,631.0,6,$\widetilde{A}_{G_6}$,moving_distance
R-HSA-6806003,0.0006216304054007856,632.0,6,$\widetilde{A}_{G_6}$,moving_distance
R-HSA-6804757,0.0006216304054007849,633.0,6,$\widetilde{A}_{G_6}$,moving_distance
R-HSA-112310,0.0006208901237936094,634.0,6,$\widetilde{A}_{G_6}$,moving_distance
R-HSA-2995410,0.0006202053473430112,635.0,6,$\widetilde{A}_{G_6}$,moving_distance
R-HSA-5607764,0.0006194143583526144,636.0,6,$\widetilde{A}_{G_6}$,moving_distance
R-HSA-379716,0.0006179559661518483,637.0,6,$\widetilde{A}_{G_6}$,moving_distance
R-HSA-9617629,0.0006175379421282447,638.0,6,$\widetilde{A}_{G_6}$,moving_distance
R-HSA-381042,0.0006157021348330028,639.0,6,$\widetilde{A}_{G_6}$,moving_distance
R-HSA-110320,0.0006156757369702755,640.0,6,$\widetilde{A}_{G_6}$,moving_distance
R-HSA-9604323,0.0006136897657773863,641.0,6,$\widetilde{A}_{G_6}$,moving_distance
R-HSA-68827,0.0006131003518156504,642.0,6,$\widetilde{A}_{G_6}$,moving_distance
R-HSA-5656169,0.0006126933242872946,643.0,6,$\widetilde{A}_{G_6}$,moving_distance
R-HSA-6804114,0.0006119107560212803,644.0,6,$\widetilde{A}_{G_6}$,moving_distance
R-HSA-5693579,0.0006114653151593543,645.0,6,$\widetilde{A}_{G_6}$,moving_distance
R-HSA-2500257,0.0006108288954353835,646.0,6,$\widetilde{A}_{G_6}$,moving_distance
R-HSA-1168372,0.0006101404084540901,647.0,6,$\widetilde{A}_{G_6}$,moving_distance
R-HSA-69190,0.0006089189172977723,648.0,6,$\widetilde{A}_{G_6}$,moving_distance
R-HSA-70221,0.0006087226251118913,649.0,6,$\widetilde{A}_{G_6}$,moving_distance
R-HSA-3232142,0.0006057971709616353,650.0,6,$\widetilde{A}_{G_6}$,moving_distance
R-HSA-5689901,0.0006053921356253018,651.0,6,$\widetilde{A}_{G_6}$,moving_distance
R-HSA-1234174,0.0006039203457543927,652.0,6,$\widetilde{A}_{G_6}$,moving_distance
R-HSA-1368082,0.0006029194799504266,653.0,6,$\widetilde{A}_{G_6}$,moving_distance
R-HSA-427359,0.0006025563876393116,654.0,6,$\widetilde{A}_{G_6}$,moving_distance
R-HSA-9675126,0.0006017555660392958,655.0,6,$\widetilde{A}_{G_6}$,moving_distance
R-HSA-450408,0.0006015094417370983,656.0,6,$\widetilde{A}_{G_6}$,moving_distance
R-HSA-4641262,0.0006011487555474568,657.0,6,$\widetilde{A}_{G_6}$,moving_distance
R-HSA-3214847,0.0006010924862732346,658.0,6,$\widetilde{A}_{G_6}$,moving_distance
R-HSA-2565942,0.0005988362580497531,659.0,6,$\widetilde{A}_{G_6}$,moving_distance
R-HSA-8953750,0.0005982873718774869,660.0,6,$\widetilde{A}_{G_6}$,moving_distance
R-HSA-1236974,0.0005962043062423465,661.0,6,$\widetilde{A}_{G_6}$,moving_distance
R-HSA-187577,0.0005960627607421402,662.0,6,$\widetilde{A}_{G_6}$,moving_distance
R-HSA-8939243,0.0005959871108933636,663.0,6,$\widetilde{A}_{G_6}$,moving_distance
R-HSA-379724,0.0005951372662017783,664.0,6,$\widetilde{A}_{G_6}$,moving_distance
R-HSA-2979096,0.0005945402699094179,665.0,6,$\widetilde{A}_{G_6}$,moving_distance
R-HSA-6804756,0.0005928644440439841,666.0,6,$\widetilde{A}_{G_6}$,moving_distance
R-HSA-448424,0.0005924051102654812,667.0,6,$\widetilde{A}_{G_6}$,moving_distance
R-HSA-9029569,0.000591804352338695,668.0,6,$\widetilde{A}_{G_6}$,moving_distance
R-HSA-174178,0.0005916348768238494,669.0,6,$\widetilde{A}_{G_6}$,moving_distance
R-HSA-5620912,0.0005916016815168355,670.0,6,$\widetilde{A}_{G_6}$,moving_distance
R-HSA-1834949,0.0005915199727399091,671.0,6,$\widetilde{A}_{G_6}$,moving_distance
R-HSA-9687139,0.0005901134588061275,672.0,6,$\widetilde{A}_{G_6}$,moving_distance
R-HSA-69563,0.0005888699649547067,673.0,6,$\widetilde{A}_{G_6}$,moving_distance
R-HSA-69580,0.0005888699649547064,674.0,6,$\widetilde{A}_{G_6}$,moving_distance
R-HSA-113501,0.0005868064312349178,675.0,6,$\widetilde{A}_{G_6}$,moving_distance
R-HSA-110314,0.0005860030145171339,676.0,6,$\widetilde{A}_{G_6}$,moving_distance
R-HSA-381426,0.0005852510011705199,677.0,6,$\widetilde{A}_{G_6}$,moving_distance
R-HSA-8948216,0.0005852233932490171,678.0,6,$\widetilde{A}_{G_6}$,moving_distance
R-HSA-2299718,0.000584726602166962,679.0,6,$\widetilde{A}_{G_6}$,moving_distance
R-HSA-450294,0.0005841633371509748,680.0,6,$\widetilde{A}_{G_6}$,moving_distance
R-HSA-110329,0.0005830707458307278,681.0,6,$\widetilde{A}_{G_6}$,moving_distance
R-HSA-73928,0.0005830707458307277,682.5,6,$\widetilde{A}_{G_6}$,moving_distance
R-HSA-110328,0.0005830707458307277,682.5,6,$\widetilde{A}_{G_6}$,moving_distance
R-HSA-9031628,0.0005830705409620847,684.0,6,$\widetilde{A}_{G_6}$,moving_distance
R-HSA-1980145,0.0005823096460170228,685.0,6,$\widetilde{A}_{G_6}$,moving_distance
R-HSA-5674400,0.0005817627876116895,686.0,6,$\widetilde{A}_{G_6}$,moving_distance
R-HSA-5682910,0.0005808173918772143,687.0,6,$\widetilde{A}_{G_6}$,moving_distance
R-HSA-1169091,0.0005797420106840642,688.0,6,$\widetilde{A}_{G_6}$,moving_distance
R-HSA-9615933,0.0005796069044339165,689.0,6,$\widetilde{A}_{G_6}$,moving_distance
R-HSA-4791275,0.0005785940988519148,690.0,6,$\widetilde{A}_{G_6}$,moving_distance
R-HSA-72086,0.0005777543208989971,691.0,6,$\widetilde{A}_{G_6}$,moving_distance
R-HSA-6811436,0.0005772466065796372,692.0,6,$\widetilde{A}_{G_6}$,moving_distance
R-HSA-349425,0.0005768920254549309,693.0,6,$\widetilde{A}_{G_6}$,moving_distance
R-HSA-3108214,0.0005767228966822959,694.0,6,$\widetilde{A}_{G_6}$,moving_distance
R-HSA-6803204,0.0005759327505220165,695.0,6,$\widetilde{A}_{G_6}$,moving_distance
R-HSA-114452,0.0005757534215021192,696.0,6,$\widetilde{A}_{G_6}$,moving_distance
R-HSA-174143,0.000574925673019256,697.0,6,$\widetilde{A}_{G_6}$,moving_distance
R-HSA-453276,0.0005749256730192551,698.0,6,$\widetilde{A}_{G_6}$,moving_distance
R-HSA-73927,0.0005730813275495781,699.0,6,$\widetilde{A}_{G_6}$,moving_distance
R-HSA-110330,0.0005730813275495775,700.5,6,$\widetilde{A}_{G_6}$,moving_distance
R-HSA-110331,0.0005730813275495775,700.5,6,$\widetilde{A}_{G_6}$,moving_distance
R-HSA-73929,0.0005730813275495771,702.0,6,$\widetilde{A}_{G_6}$,moving_distance
R-HSA-5620971,0.0005730116343371899,703.0,6,$\widetilde{A}_{G_6}$,moving_distance
R-HSA-167242,0.0005726294446535984,704.0,6,$\widetilde{A}_{G_6}$,moving_distance
R-HSA-1834941,0.0005726169763178037,705.0,6,$\widetilde{A}_{G_6}$,moving_distance
R-HSA-70326,0.0005707716627658461,706.0,6,$\widetilde{A}_{G_6}$,moving_distance
R-HSA-195253,0.0005696007370849252,707.0,6,$\widetilde{A}_{G_6}$,moving_distance
R-HSA-210500,0.0005688769429282135,708.0,6,$\widetilde{A}_{G_6}$,moving_distance
R-HSA-212676,0.0005688769429282134,709.5,6,$\widetilde{A}_{G_6}$,moving_distance
R-HSA-181429,0.0005688769429282134,709.5,6,$\widetilde{A}_{G_6}$,moving_distance
R-HSA-264642,0.0005688769429282131,711.5,6,$\widetilde{A}_{G_6}$,moving_distance
R-HSA-181430,0.0005688769429282131,711.5,6,$\widetilde{A}_{G_6}$,moving_distance
R-HSA-77075,0.0005686347376586887,713.0,6,$\widetilde{A}_{G_6}$,moving_distance
R-HSA-167160,0.0005686347376586885,714.0,6,$\widetilde{A}_{G_6}$,moving_distance
R-HSA-4086400,0.0005685932087349098,715.0,6,$\widetilde{A}_{G_6}$,moving_distance
R-HSA-2173789,0.0005678164891405525,716.0,6,$\widetilde{A}_{G_6}$,moving_distance
R-HSA-400253,0.0005665057467724344,717.0,6,$\widetilde{A}_{G_6}$,moving_distance
R-HSA-110312,0.0005637686444876734,718.0,6,$\widetilde{A}_{G_6}$,moving_distance
R-HSA-8948751,0.0005607424843213799,719.0,6,$\widetilde{A}_{G_6}$,moving_distance
R-HSA-69541,0.0005603588660061271,720.0,6,$\widetilde{A}_{G_6}$,moving_distance
R-HSA-8853884,0.0005587611831106404,721.0,6,$\widetilde{A}_{G_6}$,moving_distance
R-HSA-179419,0.0005587032510214045,722.0,6,$\widetilde{A}_{G_6}$,moving_distance
R-HSA-167238,0.0005581828136101213,723.0,6,$\widetilde{A}_{G_6}$,moving_distance
R-HSA-167243,0.0005581828136101212,724.0,6,$\widetilde{A}_{G_6}$,moving_distance
R-HSA-2151209,0.0005579011031396047,725.0,6,$\widetilde{A}_{G_6}$,moving_distance
R-HSA-430039,0.000557495103098009,726.0,6,$\widetilde{A}_{G_6}$,moving_distance
R-HSA-165054,0.0005568825454043484,727.0,6,$\widetilde{A}_{G_6}$,moving_distance
R-HSA-110313,0.0005561257643901952,728.0,6,$\widetilde{A}_{G_6}$,moving_distance
R-HSA-4085377,0.000556007507972457,729.0,6,$\widetilde{A}_{G_6}$,moving_distance
R-HSA-5387390,0.0005554254560096104,730.0,6,$\widetilde{A}_{G_6}$,moving_distance
R-HSA-168333,0.0005549900244827033,731.0,6,$\widetilde{A}_{G_6}$,moving_distance
R-HSA-168274,0.0005549900244827026,732.0,6,$\widetilde{A}_{G_6}$,moving_distance
R-HSA-5687128,0.000553353963578436,733.0,6,$\widetilde{A}_{G_6}$,moving_distance
R-HSA-169893,0.0005530680653578324,734.0,6,$\widetilde{A}_{G_6}$,moving_distance
R-HSA-180534,0.0005529876349568899,735.0,6,$\widetilde{A}_{G_6}$,moving_distance
R-HSA-429914,0.0005521551779520469,736.0,6,$\widetilde{A}_{G_6}$,moving_distance
R-HSA-8941858,0.0005519756653389837,737.0,6,$\widetilde{A}_{G_6}$,moving_distance
R-HSA-3215018,0.00055058345199779,738.0,6,$\widetilde{A}_{G_6}$,moving_distance
R-HSA-1234176,0.0005479240014829023,739.0,6,$\widetilde{A}_{G_6}$,moving_distance
R-HSA-205043,0.0005468088710759326,740.0,6,$\widetilde{A}_{G_6}$,moving_distance
R-HSA-8939236,0.0005459260339561572,741.0,6,$\widetilde{A}_{G_6}$,moving_distance
R-HSA-176409,0.0005439101958840702,742.0,6,$\widetilde{A}_{G_6}$,moving_distance
R-HSA-9648025,0.0005433386128166916,743.0,6,$\widetilde{A}_{G_6}$,moving_distance
R-HSA-8854050,0.0005431039297146924,744.0,6,$\widetilde{A}_{G_6}$,moving_distance
R-HSA-3769402,0.0005428705615244061,745.0,6,$\widetilde{A}_{G_6}$,moving_distance
R-HSA-198753,0.0005422859636966121,746.0,6,$\widetilde{A}_{G_6}$,moving_distance
R-HSA-167290,0.0005410894748889479,747.0,6,$\widetilde{A}_{G_6}$,moving_distance
R-HSA-167287,0.0005410894748889469,748.0,6,$\widetilde{A}_{G_6}$,moving_distance
R-HSA-3000170,0.0005410831164219728,749.0,6,$\widetilde{A}_{G_6}$,moving_distance
R-HSA-450531,0.0005404315873362243,750.0,6,$\widetilde{A}_{G_6}$,moving_distance
R-HSA-8949613,0.0005395331357065423,751.0,6,$\widetilde{A}_{G_6}$,moving_distance
R-HSA-5655862,0.0005391996235723309,752.0,6,$\widetilde{A}_{G_6}$,moving_distance
R-HSA-5607761,0.0005373867756600265,753.0,6,$\widetilde{A}_{G_6}$,moving_distance
R-HSA-157579,0.000537047420562041,754.0,6,$\widetilde{A}_{G_6}$,moving_distance
R-HSA-5358346,0.0005365917507013072,755.0,6,$\widetilde{A}_{G_6}$,moving_distance
R-HSA-174113,0.0005354468306259306,756.0,6,$\widetilde{A}_{G_6}$,moving_distance
R-HSA-9024446,0.0005354337265186944,757.0,6,$\widetilde{A}_{G_6}$,moving_distance
R-HSA-176408,0.000534595311493585,758.0,6,$\widetilde{A}_{G_6}$,moving_distance
R-HSA-5676590,0.0005344059560205425,759.0,6,$\widetilde{A}_{G_6}$,moving_distance
R-HSA-264876,0.0005335974966967082,760.0,6,$\widetilde{A}_{G_6}$,moving_distance
R-HSA-180746,0.0005330523896593863,761.0,6,$\widetilde{A}_{G_6}$,moving_distance
R-HSA-6790901,0.0005311928884121123,762.0,6,$\widetilde{A}_{G_6}$,moving_distance
R-HSA-9707587,0.0005311858757278944,763.0,6,$\widetilde{A}_{G_6}$,moving_distance
R-HSA-73762,0.000530761765832555,764.0,6,$\widetilde{A}_{G_6}$,moving_distance
R-HSA-5205647,0.0005304242614429164,765.0,6,$\widetilde{A}_{G_6}$,moving_distance
R-HSA-8932339,0.000529030350311276,766.0,6,$\widetilde{A}_{G_6}$,moving_distance
R-HSA-381340,0.0005285709077282587,767.0,6,$\widetilde{A}_{G_6}$,moving_distance
R-HSA-194441,0.0005284740441743537,768.0,6,$\widetilde{A}_{G_6}$,moving_distance
R-HSA-191859,0.0005284740441743533,769.0,6,$\widetilde{A}_{G_6}$,moving_distance
R-HSA-159227,0.0005276042210598468,770.0,6,$\widetilde{A}_{G_6}$,moving_distance
R-HSA-5685938,0.000526601789474876,771.0,6,$\widetilde{A}_{G_6}$,moving_distance
R-HSA-5610785,0.0005261764368486097,772.0,6,$\widetilde{A}_{G_6}$,moving_distance
R-HSA-5610783,0.0005260468117308305,773.0,6,$\widetilde{A}_{G_6}$,moving_distance
R-HSA-171306,0.000524995772919171,774.0,6,$\widetilde{A}_{G_6}$,moving_distance
R-HSA-2173796,0.000524590172436335,775.0,6,$\widetilde{A}_{G_6}$,moving_distance
R-HSA-1236978,0.0005245267819846784,776.0,6,$\widetilde{A}_{G_6}$,moving_distance
R-HSA-174184,0.0005233236282246351,777.0,6,$\widetilde{A}_{G_6}$,moving_distance
R-HSA-5693567,0.000522979661136881,778.0,6,$\widetilde{A}_{G_6}$,moving_distance
R-HSA-168928,0.0005221188193828969,779.0,6,$\widetilde{A}_{G_6}$,moving_distance
R-HSA-73772,0.0005215348100001663,780.0,6,$\widetilde{A}_{G_6}$,moving_distance
R-HSA-113418,0.0005210739545781956,781.5,6,$\widetilde{A}_{G_6}$,moving_distance
R-HSA-167158,0.0005210739545781956,781.5,6,$\widetilde{A}_{G_6}$,moving_distance
R-HSA-933541,0.0005206297491537305,783.0,6,$\widetilde{A}_{G_6}$,moving_distance
R-HSA-428157,0.0005203775915790987,784.0,6,$\widetilde{A}_{G_6}$,moving_distance
R-HSA-6791312,0.0005202802130587633,785.0,6,$\widetilde{A}_{G_6}$,moving_distance
R-HSA-3371378,0.0005195380214253032,786.5,6,$\widetilde{A}_{G_6}$,moving_distance
R-HSA-5218900,0.0005195380214253032,786.5,6,$\widetilde{A}_{G_6}$,moving_distance
R-HSA-69416,0.0005195380214253031,788.0,6,$\widetilde{A}_{G_6}$,moving_distance
R-HSA-176814,0.0005193567791008684,789.0,6,$\widetilde{A}_{G_6}$,moving_distance
R-HSA-5619102,0.0005175222212060981,790.0,6,$\widetilde{A}_{G_6}$,moving_distance
R-HSA-5675221,0.0005174721058219676,791.0,6,$\widetilde{A}_{G_6}$,moving_distance
R-HSA-4641257,0.0005170318930832528,792.0,6,$\widetilde{A}_{G_6}$,moving_distance
R-HSA-159230,0.0005165957191385461,793.0,6,$\widetilde{A}_{G_6}$,moving_distance
R-HSA-5656121,0.0005165825195739307,794.0,6,$\widetilde{A}_{G_6}$,moving_distance
R-HSA-177243,0.0005162657182699208,795.0,6,$\widetilde{A}_{G_6}$,moving_distance
R-HSA-9614657,0.000514495624982109,796.0,6,$\widetilde{A}_{G_6}$,moving_distance
R-HSA-159231,0.0005129426727996608,797.0,6,$\widetilde{A}_{G_6}$,moving_distance
R-HSA-9678108,0.0005124184501876091,798.0,6,$\widetilde{A}_{G_6}$,moving_distance
R-HSA-167169,0.0005124027225367887,799.0,6,$\widetilde{A}_{G_6}$,moving_distance
R-HSA-167246,0.0005124027225367882,800.0,6,$\widetilde{A}_{G_6}$,moving_distance
R-HSA-167200,0.000512402722536788,801.0,6,$\widetilde{A}_{G_6}$,moving_distance
R-HSA-5696394,0.0005120590997868583,802.0,6,$\widetilde{A}_{G_6}$,moving_distance
R-HSA-6781823,0.0005115957465753769,803.0,6,$\widetilde{A}_{G_6}$,moving_distance
R-HSA-163210,0.0005115452397761208,804.0,6,$\widetilde{A}_{G_6}$,moving_distance
R-HSA-75815,0.0005110187792812463,805.0,6,$\widetilde{A}_{G_6}$,moving_distance
R-HSA-5610780,0.0005106564404757841,806.0,6,$\widetilde{A}_{G_6}$,moving_distance
R-HSA-983170,0.0005103713551838352,807.0,6,$\widetilde{A}_{G_6}$,moving_distance
R-HSA-69601,0.0005088559214566952,808.0,6,$\widetilde{A}_{G_6}$,moving_distance
R-HSA-69613,0.0005088559214566947,809.0,6,$\widetilde{A}_{G_6}$,moving_distance
R-HSA-69610,0.0005088559214566946,810.0,6,$\widetilde{A}_{G_6}$,moving_distance
R-HSA-9619665,0.0005081377160813941,811.0,6,$\widetilde{A}_{G_6}$,moving_distance
R-HSA-6796648,0.0005080945758387586,812.0,6,$\widetilde{A}_{G_6}$,moving_distance
R-HSA-176033,0.0005080059526937953,813.0,6,$\widetilde{A}_{G_6}$,moving_distance
R-HSA-180910,0.0005080059526937952,814.0,6,$\widetilde{A}_{G_6}$,moving_distance
R-HSA-2173788,0.0005070790520167139,815.0,6,$\widetilde{A}_{G_6}$,moving_distance
R-HSA-69166,0.0005059532371386529,816.0,6,$\widetilde{A}_{G_6}$,moving_distance
R-HSA-168276,0.0005058912260461303,817.0,6,$\widetilde{A}_{G_6}$,moving_distance
R-HSA-112382,0.0005057814670152421,818.0,6,$\widetilde{A}_{G_6}$,moving_distance
R-HSA-75955,0.0005057814670152418,819.0,6,$\widetilde{A}_{G_6}$,moving_distance
R-HSA-169911,0.0005048890814726653,820.0,6,$\widetilde{A}_{G_6}$,moving_distance
R-HSA-211733,0.0005048890814726645,821.0,6,$\widetilde{A}_{G_6}$,moving_distance
R-HSA-70171,0.0005042499367351003,822.0,6,$\widetilde{A}_{G_6}$,moving_distance
R-HSA-159234,0.0005036479046617901,823.0,6,$\widetilde{A}_{G_6}$,moving_distance
R-HSA-75067,0.0005035891215333254,824.0,6,$\widetilde{A}_{G_6}$,moving_distance
R-HSA-72187,0.0005031460464167772,825.0,6,$\widetilde{A}_{G_6}$,moving_distance
R-HSA-167152,0.0005029407528427613,826.0,6,$\widetilde{A}_{G_6}$,moving_distance
R-HSA-400206,0.0005025986503647819,827.0,6,$\widetilde{A}_{G_6}$,moving_distance
R-HSA-5658442,0.0005025080983650314,828.0,6,$\widetilde{A}_{G_6}$,moving_distance
R-HSA-5362768,0.0005020728333315888,829.0,6,$\widetilde{A}_{G_6}$,moving_distance
R-HSA-446728,0.000501890072512173,830.0,6,$\widetilde{A}_{G_6}$,moving_distance
R-HSA-3301854,0.0004997887903061644,831.0,6,$\widetilde{A}_{G_6}$,moving_distance
R-HSA-170968,0.000499652013493092,832.0,6,$\widetilde{A}_{G_6}$,moving_distance
R-HSA-5696395,0.0004989660894642579,833.0,6,$\widetilde{A}_{G_6}$,moving_distance
R-HSA-446353,0.0004983526667800808,834.0,6,$\widetilde{A}_{G_6}$,moving_distance
R-HSA-2426168,0.0004982090179437618,835.0,6,$\widetilde{A}_{G_6}$,moving_distance
R-HSA-170834,0.0004977719421490483,836.0,6,$\widetilde{A}_{G_6}$,moving_distance
R-HSA-1989781,0.0004976427457923183,837.0,6,$\widetilde{A}_{G_6}$,moving_distance
R-HSA-168271,0.0004973470483250654,838.0,6,$\widetilde{A}_{G_6}$,moving_distance
R-HSA-109606,0.0004971897797741635,839.0,6,$\widetilde{A}_{G_6}$,moving_distance
R-HSA-198725,0.0004968738055291144,840.0,6,$\widetilde{A}_{G_6}$,moving_distance
R-HSA-180585,0.0004966160577350522,841.0,6,$\widetilde{A}_{G_6}$,moving_distance
R-HSA-6782210,0.0004965790875197903,842.0,6,$\widetilde{A}_{G_6}$,moving_distance
R-HSA-351202,0.0004963251586514004,843.0,6,$\widetilde{A}_{G_6}$,moving_distance
R-HSA-73893,0.0004960456082441084,844.0,6,$\widetilde{A}_{G_6}$,moving_distance
R-HSA-165159,0.0004958167462646571,845.0,6,$\widetilde{A}_{G_6}$,moving_distance
R-HSA-166208,0.0004956237768549781,846.0,6,$\widetilde{A}_{G_6}$,moving_distance
R-HSA-72165,0.0004950309681418507,847.0,6,$\widetilde{A}_{G_6}$,moving_distance
R-HSA-432720,0.0004946271938877608,848.0,6,$\widetilde{A}_{G_6}$,moving_distance
R-HSA-6804759,0.000493742020334552,849.0,6,$\widetilde{A}_{G_6}$,moving_distance
R-HSA-450282,0.000493598996422117,850.0,6,$\widetilde{A}_{G_6}$,moving_distance
R-HSA-203927,0.0004928669499313668,851.0,6,$\widetilde{A}_{G_6}$,moving_distance
R-HSA-5619107,0.0004926950928257127,852.0,6,$\widetilde{A}_{G_6}$,moving_distance
R-HSA-168325,0.0004926950928257121,853.5,6,$\widetilde{A}_{G_6}$,moving_distance
R-HSA-170822,0.0004926950928257121,853.5,6,$\widetilde{A}_{G_6}$,moving_distance
R-HSA-180786,0.0004923870671130401,855.0,6,$\widetilde{A}_{G_6}$,moving_distance
R-HSA-9706369,0.0004918484370191346,856.0,6,$\widetilde{A}_{G_6}$,moving_distance
R-HSA-159236,0.000490706355775019,857.0,6,$\widetilde{A}_{G_6}$,moving_distance
R-HSA-8949664,0.0004901398838382239,858.0,6,$\widetilde{A}_{G_6}$,moving_distance
R-HSA-5693568,0.0004900916312341527,859.0,6,$\widetilde{A}_{G_6}$,moving_distance
R-HSA-174824,0.0004894357837198228,860.0,6,$\widetilde{A}_{G_6}$,moving_distance
R-HSA-429947,0.0004890711183577355,861.0,6,$\widetilde{A}_{G_6}$,moving_distance
R-HSA-180024,0.000489036030534095,862.0,6,$\widetilde{A}_{G_6}$,moving_distance
R-HSA-69017,0.0004887608876805874,863.0,6,$\widetilde{A}_{G_6}$,moving_distance
R-HSA-69183,0.0004887557542464453,864.0,6,$\widetilde{A}_{G_6}$,moving_distance
R-HSA-8876725,0.0004883820343002471,865.0,6,$\widetilde{A}_{G_6}$,moving_distance
R-HSA-6784531,0.00048753825092451183,866.0,6,$\widetilde{A}_{G_6}$,moving_distance
R-HSA-5632684,0.00048751377305770077,867.0,6,$\widetilde{A}_{G_6}$,moving_distance
R-HSA-72202,0.0004864620844375514,868.0,6,$\widetilde{A}_{G_6}$,moving_distance
R-HSA-380972,0.0004855966888270554,869.0,6,$\widetilde{A}_{G_6}$,moving_distance
R-HSA-73856,0.0004837780276628348,870.0,6,$\widetilde{A}_{G_6}$,moving_distance
R-HSA-112409,0.0004816000939918714,871.0,6,$\widetilde{A}_{G_6}$,moving_distance
R-HSA-674695,0.0004805547172145632,872.0,6,$\widetilde{A}_{G_6}$,moving_distance
R-HSA-5389840,0.00047999201676468734,873.0,6,$\widetilde{A}_{G_6}$,moving_distance
R-HSA-6807505,0.0004783858358523756,874.0,6,$\widetilde{A}_{G_6}$,moving_distance
R-HSA-525793,0.00047734086163659246,875.0,6,$\widetilde{A}_{G_6}$,moving_distance
R-HSA-6782135,0.00047702406728132227,876.0,6,$\widetilde{A}_{G_6}$,moving_distance
R-HSA-204005,0.0004766523980527444,877.0,6,$\widetilde{A}_{G_6}$,moving_distance
R-HSA-141424,0.000475826078901786,878.0,6,$\widetilde{A}_{G_6}$,moving_distance
R-HSA-141444,0.0004758260789017858,879.0,6,$\widetilde{A}_{G_6}$,moving_distance
R-HSA-167162,0.00047523376672345706,880.5,6,$\widetilde{A}_{G_6}$,moving_distance
R-HSA-76042,0.00047523376672345706,880.5,6,$\widetilde{A}_{G_6}$,moving_distance
R-HSA-75953,0.000475233766723457,882.0,6,$\widetilde{A}_{G_6}$,moving_distance
R-HSA-167161,0.0004752337667234569,884.0,6,$\widetilde{A}_{G_6}$,moving_distance
R-HSA-73776,0.0004752337667234569,884.0,6,$\widetilde{A}_{G_6}$,moving_distance
R-HSA-73779,0.0004752337667234569,884.0,6,$\widetilde{A}_{G_6}$,moving_distance
R-HSA-177504,0.00047492241556295825,886.0,6,$\widetilde{A}_{G_6}$,moving_distance
R-HSA-9683701,0.00047297951450386676,887.0,6,$\widetilde{A}_{G_6}$,moving_distance
R-HSA-918233,0.0004727276414977439,888.0,6,$\widetilde{A}_{G_6}$,moving_distance
R-HSA-6781827,0.0004719606070386022,889.0,6,$\widetilde{A}_{G_6}$,moving_distance
R-HSA-167172,0.0004715598569440302,890.0,6,$\widetilde{A}_{G_6}$,moving_distance
R-HSA-5419276,0.00047138685214009266,891.0,6,$\widetilde{A}_{G_6}$,moving_distance
R-HSA-69205,0.000471081024104778,892.0,6,$\widetilde{A}_{G_6}$,moving_distance
R-HSA-5693537,0.0004705868878974615,893.0,6,$\widetilde{A}_{G_6}$,moving_distance
R-HSA-5368286,0.0004695864937826454,894.0,6,$\widetilde{A}_{G_6}$,moving_distance
R-HSA-6807878,0.00046827748209027364,895.0,6,$\widetilde{A}_{G_6}$,moving_distance
R-HSA-69202,0.00046753347138759645,896.0,6,$\widetilde{A}_{G_6}$,moving_distance
R-HSA-1474290,0.0004657710273935134,897.0,6,$\widetilde{A}_{G_6}$,moving_distance
R-HSA-350562,0.00046554537281894254,898.0,6,$\widetilde{A}_{G_6}$,moving_distance
R-HSA-5610787,0.00046546779016318765,899.0,6,$\widetilde{A}_{G_6}$,moving_distance
R-HSA-4608870,0.0004641053910484484,900.0,6,$\widetilde{A}_{G_6}$,moving_distance
R-HSA-5368287,0.0004635280481833622,901.0,6,$\widetilde{A}_{G_6}$,moving_distance
R-HSA-174437,0.0004629132886068013,902.0,6,$\widetilde{A}_{G_6}$,moving_distance
R-HSA-9707616,0.00046084071935678634,903.0,6,$\widetilde{A}_{G_6}$,moving_distance
R-HSA-5696399,0.00046076692407976864,904.0,6,$\widetilde{A}_{G_6}$,moving_distance
R-HSA-6811438,0.00046028116188002945,905.0,6,$\widetilde{A}_{G_6}$,moving_distance
R-HSA-69656,0.00045872083178377556,906.0,6,$\widetilde{A}_{G_6}$,moving_distance
R-HSA-2173793,0.000457895346134558,907.0,6,$\widetilde{A}_{G_6}$,moving_distance
R-HSA-5620916,0.00045680085917912676,908.0,6,$\widetilde{A}_{G_6}$,moving_distance
R-HSA-877300,0.00045534501689929816,909.0,6,$\widetilde{A}_{G_6}$,moving_distance
R-HSA-69618,0.0004551479650027561,910.0,6,$\widetilde{A}_{G_6}$,moving_distance
R-HSA-9006936,0.0004546135863468858,911.0,6,$\widetilde{A}_{G_6}$,moving_distance
R-HSA-1474228,0.0004545822860776402,912.0,6,$\widetilde{A}_{G_6}$,moving_distance
R-HSA-9694516,0.00045436754228333966,913.0,6,$\widetilde{A}_{G_6}$,moving_distance
R-HSA-174414,0.00045388312229847184,914.0,6,$\widetilde{A}_{G_6}$,moving_distance
R-HSA-2559585,0.0004528274880723241,915.0,6,$\widetilde{A}_{G_6}$,moving_distance
R-HSA-1502540,0.0004510757959305413,916.0,6,$\widetilde{A}_{G_6}$,moving_distance
R-HSA-1655829,0.0004501233754540278,917.0,6,$\widetilde{A}_{G_6}$,moving_distance
R-HSA-8957322,0.0004485906651585414,918.0,6,$\widetilde{A}_{G_6}$,moving_distance
R-HSA-111367,0.00044676237405961154,919.0,6,$\widetilde{A}_{G_6}$,moving_distance
R-HSA-1358803,0.0004466115386492893,920.0,6,$\widetilde{A}_{G_6}$,moving_distance
R-HSA-69186,0.00044583501528100227,921.0,6,$\widetilde{A}_{G_6}$,moving_distance
R-HSA-71406,0.0004454309782996787,922.0,6,$\widetilde{A}_{G_6}$,moving_distance
R-HSA-1362300,0.00044281684323668204,923.0,6,$\widetilde{A}_{G_6}$,moving_distance
R-HSA-5696400,0.0004379272824988781,924.0,6,$\widetilde{A}_{G_6}$,moving_distance
R-HSA-174154,0.00043784313017332,925.0,6,$\widetilde{A}_{G_6}$,moving_distance
R-HSA-5628897,0.0004374762941602665,926.0,6,$\widetilde{A}_{G_6}$,moving_distance
R-HSA-381033,0.00043697201696458907,927.0,6,$\widetilde{A}_{G_6}$,moving_distance
R-HSA-77387,0.00043683939209654947,928.0,6,$\widetilde{A}_{G_6}$,moving_distance
R-HSA-73863,0.0004367580866266872,929.0,6,$\widetilde{A}_{G_6}$,moving_distance
R-HSA-73884,0.00043517464808394635,930.0,6,$\widetilde{A}_{G_6}$,moving_distance
R-HSA-5651801,0.0004326241620306838,931.0,6,$\widetilde{A}_{G_6}$,moving_distance
R-HSA-8873719,0.0004319913575253308,932.0,6,$\widetilde{A}_{G_6}$,moving_distance
R-HSA-5694530,0.00043150159083708703,933.0,6,$\widetilde{A}_{G_6}$,moving_distance
R-HSA-5362517,0.00043112388178339494,934.0,6,$\widetilde{A}_{G_6}$,moving_distance
R-HSA-72306,0.000430353660553376,935.0,6,$\widetilde{A}_{G_6}$,moving_distance
R-HSA-2028269,0.00042843617466041203,936.0,6,$\widetilde{A}_{G_6}$,moving_distance
R-HSA-174084,0.0004275224263394246,937.0,6,$\widetilde{A}_{G_6}$,moving_distance
R-HSA-69109,0.00042692264789792237,938.0,6,$\widetilde{A}_{G_6}$,moving_distance
R-HSA-69091,0.0004269226478979221,939.0,6,$\widetilde{A}_{G_6}$,moving_distance
R-HSA-77588,0.0004240234148570786,940.0,6,$\widetilde{A}_{G_6}$,moving_distance
R-HSA-917977,0.0004235521319548258,941.0,6,$\widetilde{A}_{G_6}$,moving_distance
R-HSA-432722,0.0004229617629197818,942.0,6,$\widetilde{A}_{G_6}$,moving_distance
R-HSA-5696397,0.0004229120067014081,943.0,6,$\widetilde{A}_{G_6}$,moving_distance
R-HSA-9637690,0.00042288941139250255,944.0,6,$\widetilde{A}_{G_6}$,moving_distance
R-HSA-1222556,0.0004226938490809939,945.0,6,$\widetilde{A}_{G_6}$,moving_distance
R-HSA-1592230,0.00042240760974494005,946.0,6,$\widetilde{A}_{G_6}$,moving_distance
R-HSA-933543,0.00042190412497043907,947.0,6,$\widetilde{A}_{G_6}$,moving_distance
R-HSA-110373,0.00042018858229818514,948.0,6,$\widetilde{A}_{G_6}$,moving_distance
R-HSA-9609523,0.0004191430609255173,949.0,6,$\widetilde{A}_{G_6}$,moving_distance
R-HSA-8854214,0.00041848225962540686,950.0,6,$\widetilde{A}_{G_6}$,moving_distance
R-HSA-5689603,0.00041685534952802154,951.0,6,$\widetilde{A}_{G_6}$,moving_distance
R-HSA-5607763,0.00041511115947498553,952.0,6,$\widetilde{A}_{G_6}$,moving_distance
R-HSA-1362277,0.0004111613384981637,953.0,6,$\widetilde{A}_{G_6}$,moving_distance
R-HSA-9694548,0.00040801477090087943,954.0,6,$\widetilde{A}_{G_6}$,moving_distance
R-HSA-9635486,0.00040528591941728283,955.0,6,$\widetilde{A}_{G_6}$,moving_distance
R-HSA-2151201,0.00040344155214838115,956.0,6,$\widetilde{A}_{G_6}$,moving_distance
R-HSA-71403,0.0004016190224832376,957.0,6,$\widetilde{A}_{G_6}$,moving_distance
R-HSA-5685942,0.0003970727075590054,958.0,6,$\widetilde{A}_{G_6}$,moving_distance
R-HSA-9648002,0.0003963661765336364,959.0,6,$\widetilde{A}_{G_6}$,moving_distance
R-HSA-9639288,0.0003949308616142002,960.0,6,$\widetilde{A}_{G_6}$,moving_distance
R-HSA-1368108,0.0003901272741014784,961.0,6,$\widetilde{A}_{G_6}$,moving_distance
R-HSA-1483206,0.00038933640605687053,962.0,6,$\widetilde{A}_{G_6}$,moving_distance
R-HSA-174411,0.00038757964583418657,963.0,6,$\widetilde{A}_{G_6}$,moving_distance
R-HSA-1592389,0.00038694077779266253,964.0,6,$\widetilde{A}_{G_6}$,moving_distance
R-HSA-196854,0.0003804835349977699,965.0,6,$\widetilde{A}_{G_6}$,moving_distance
R-HSA-5620924,0.0003795210160564655,966.0,6,$\widetilde{A}_{G_6}$,moving_distance
R-HSA-199992,0.0003793290668533297,967.0,6,$\widetilde{A}_{G_6}$,moving_distance
R-HSA-174417,0.0003773688327140115,968.0,6,$\widetilde{A}_{G_6}$,moving_distance
R-HSA-111471,0.0003765036692420345,969.0,6,$\widetilde{A}_{G_6}$,moving_distance
R-HSA-111458,0.0003734311559296484,970.0,6,$\widetilde{A}_{G_6}$,moving_distance
R-HSA-9627069,0.0003734311559296483,971.0,6,$\widetilde{A}_{G_6}$,moving_distance
R-HSA-8949215,0.00037300739637395554,972.0,6,$\widetilde{A}_{G_6}$,moving_distance
R-HSA-9694635,0.00037296946276166933,973.0,6,$\widetilde{A}_{G_6}$,moving_distance
R-HSA-5633008,0.00036347741548548214,974.0,6,$\widetilde{A}_{G_6}$,moving_distance
R-HSA-111461,0.0003624942834684725,975.0,6,$\widetilde{A}_{G_6}$,moving_distance
R-HSA-8866654,0.00036140965271539886,976.0,6,$\widetilde{A}_{G_6}$,moving_distance
R-HSA-6811440,0.0003550149261935504,977.0,6,$\widetilde{A}_{G_6}$,moving_distance
R-HSA-389661,0.00035433827667976747,978.0,6,$\widetilde{A}_{G_6}$,moving_distance
R-HSA-73933,0.0003502088423965713,979.0,6,$\widetilde{A}_{G_6}$,moving_distance
R-HSA-2022090,0.0003435194147923852,980.0,6,$\widetilde{A}_{G_6}$,moving_distance
R-HSA-5668914,0.0003393713556407434,981.0,6,$\widetilde{A}_{G_6}$,moving_distance
R-HSA-76066,0.00033925040045514456,982.0,6,$\widetilde{A}_{G_6}$,moving_distance
R-HSA-73780,0.0003366385509447125,983.0,6,$\widetilde{A}_{G_6}$,moving_distance
R-HSA-73980,0.00033663855094471243,984.0,6,$\widetilde{A}_{G_6}$,moving_distance
R-HSA-5205685,0.0003350473610029186,985.0,6,$\widetilde{A}_{G_6}$,moving_distance
R-HSA-3772470,0.00033396184489532804,986.0,6,$\widetilde{A}_{G_6}$,moving_distance
R-HSA-532668,0.0003326575192393592,987.0,6,$\widetilde{A}_{G_6}$,moving_distance
R-HSA-983712,0.00033117121765244766,988.0,6,$\widetilde{A}_{G_6}$,moving_distance
R-HSA-8852135,0.0003299548428618324,989.0,6,$\widetilde{A}_{G_6}$,moving_distance
R-HSA-76061,0.0003275771804963726,990.0,6,$\widetilde{A}_{G_6}$,moving_distance
R-HSA-201451,0.0003228359469682741,991.0,6,$\widetilde{A}_{G_6}$,moving_distance
R-HSA-373076,0.00031739267562618103,992.0,6,$\widetilde{A}_{G_6}$,moving_distance
R-HSA-936440,0.0003153867603799557,993.0,6,$\widetilde{A}_{G_6}$,moving_distance
R-HSA-163125,0.000311246500927836,994.0,6,$\widetilde{A}_{G_6}$,moving_distance
R-HSA-2173791,0.000309678353594638,995.0,6,$\widetilde{A}_{G_6}$,moving_distance
R-HSA-5620920,0.0002959229503098391,996.0,6,$\widetilde{A}_{G_6}$,moving_distance
R-HSA-3000157,0.0002914803680087865,997.0,6,$\widetilde{A}_{G_6}$,moving_distance
R-HSA-1169410,0.0002900183720839754,998.0,6,$\widetilde{A}_{G_6}$,moving_distance
R-HSA-6783310,0.00028733441201757846,999.0,6,$\widetilde{A}_{G_6}$,moving_distance
R-HSA-5173105,0.0002809003306301464,1000.0,6,$\widetilde{A}_{G_6}$,moving_distance
R-HSA-9603798,0.00027939525029360555,1001.0,6,$\widetilde{A}_{G_6}$,moving_distance
R-HSA-1169408,0.0002790905484448652,1002.0,6,$\widetilde{A}_{G_6}$,moving_distance
R-HSA-74158,0.0002765455008761082,1003.0,6,$\widetilde{A}_{G_6}$,moving_distance
R-HSA-76046,0.0002765455008761081,1004.5,6,$\widetilde{A}_{G_6}$,moving_distance
R-HSA-749476,0.0002765455008761081,1004.5,6,$\widetilde{A}_{G_6}$,moving_distance
R-HSA-76071,0.0002751979956537516,1006.0,6,$\widetilde{A}_{G_6}$,moving_distance
R-HSA-8876198,0.0002663427014407422,1007.0,6,$\widetilde{A}_{G_6}$,moving_distance
R-HSA-3781865,0.00024756853837238333,1008.0,6,$\widetilde{A}_{G_6}$,moving_distance
R-HSA-162588,0.00023765765577882494,1009.0,6,$\widetilde{A}_{G_6}$,moving_distance
R-HSA-425407,0.00023367810728276776,1010.0,6,$\widetilde{A}_{G_6}$,moving_distance
R-HSA-1442490,0.00023088307270432648,1011.0,6,$\widetilde{A}_{G_6}$,moving_distance
R-HSA-8866652,0.00022894646805806995,1012.0,6,$\widetilde{A}_{G_6}$,moving_distance
R-HSA-901042,0.0002279853167592139,1013.0,6,$\widetilde{A}_{G_6}$,moving_distance
R-HSA-901032,0.00021742981002144686,1014.0,6,$\widetilde{A}_{G_6}$,moving_distance
R-HSA-917729,0.0002082114670733289,1015.0,6,$\widetilde{A}_{G_6}$,moving_distance
R-HSA-1630316,0.00020008198285276764,1016.0,6,$\widetilde{A}_{G_6}$,moving_distance
R-HSA-175474,0.00019406399849849302,1018.0,6,$\widetilde{A}_{G_6}$,moving_distance
R-HSA-174490,0.00019406399849849302,1018.0,6,$\widetilde{A}_{G_6}$,moving_distance
R-HSA-174495,0.00019406399849849302,1018.0,6,$\widetilde{A}_{G_6}$,moving_distance
R-HSA-1362409,0.00019245095790668208,1020.0,6,$\widetilde{A}_{G_6}$,moving_distance
R-HSA-163841,0.00013809194784695825,1021.0,6,$\widetilde{A}_{G_6}$,moving_distance
R-HSA-9033241,0.00013273536362272956,1022.0,6,$\widetilde{A}_{G_6}$,moving_distance
R-HSA-5620922,6.476258050524952e-05,1023.0,6,$\widetilde{A}_{G_6}$,moving_distance
