entity,score,rank,graphlet,graphlet_adj,score_method
R-HSA-5637812,0.002852796862399726,1.5,1,$\widetilde{A}_{G_1}$,centrality
R-HSA-5637810,0.002852796862399726,1.5,1,$\widetilde{A}_{G_1}$,centrality
R-HSA-9665348,0.0026546488035366416,3.0,1,$\widetilde{A}_{G_1}$,centrality
R-HSA-1236382,0.002519262746490139,4.5,1,$\widetilde{A}_{G_1}$,centrality
R-HSA-5637815,0.002519262746490139,4.5,1,$\widetilde{A}_{G_1}$,centrality
R-HSA-180336,0.002480502160547616,6.0,1,$\widetilde{A}_{G_1}$,centrality
R-HSA-9634285,0.0024336984341647027,7.0,1,$\widetilde{A}_{G_1}$,centrality
R-HSA-1963642,0.0023842218945957527,8.0,1,$\widetilde{A}_{G_1}$,centrality
R-HSA-8853334,0.0023643617006034695,9.0,1,$\widetilde{A}_{G_1}$,centrality
R-HSA-180292,0.0023450724115367336,10.0,1,$\widetilde{A}_{G_1}$,centrality
R-HSA-5655291,0.002316264767841718,11.0,1,$\widetilde{A}_{G_1}$,centrality
R-HSA-5654716,0.002280622266476785,12.0,1,$\widetilde{A}_{G_1}$,centrality
R-HSA-1963640,0.00225471719155142,13.0,1,$\widetilde{A}_{G_1}$,centrality
R-HSA-9673770,0.002253374102374463,14.5,1,$\widetilde{A}_{G_1}$,centrality
R-HSA-9673767,0.002253374102374463,14.5,1,$\widetilde{A}_{G_1}$,centrality
R-HSA-5654689,0.002227791961478431,16.0,1,$\widetilde{A}_{G_1}$,centrality
R-HSA-1643713,0.002222121328981695,17.0,1,$\widetilde{A}_{G_1}$,centrality
R-HSA-9703648,0.002220247900191232,18.0,1,$\widetilde{A}_{G_1}$,centrality
R-HSA-2730905,0.002217381474608958,19.0,1,$\widetilde{A}_{G_1}$,centrality
R-HSA-9664565,0.0022089429197389423,20.0,1,$\widetilde{A}_{G_1}$,centrality
R-HSA-9665686,0.002198648562501592,21.0,1,$\widetilde{A}_{G_1}$,centrality
R-HSA-1227990,0.0021402510883921345,22.0,1,$\widetilde{A}_{G_1}$,centrality
R-HSA-5654712,0.002128629544942474,23.0,1,$\widetilde{A}_{G_1}$,centrality
R-HSA-9034015,0.0021053752347397208,24.0,1,$\widetilde{A}_{G_1}$,centrality
R-HSA-5654708,0.0021039868490511184,25.0,1,$\widetilde{A}_{G_1}$,centrality
R-HSA-210993,0.0020385352809552423,26.0,1,$\widetilde{A}_{G_1}$,centrality
R-HSA-9670439,0.002021029612693218,27.5,1,$\widetilde{A}_{G_1}$,centrality
R-HSA-9669938,0.002021029612693218,27.5,1,$\widetilde{A}_{G_1}$,centrality
R-HSA-1250347,0.0020170333075399446,29.0,1,$\widetilde{A}_{G_1}$,centrality
R-HSA-5655332,0.0019829636506462633,30.0,1,$\widetilde{A}_{G_1}$,centrality
R-HSA-8853338,0.001982963650646263,31.0,1,$\widetilde{A}_{G_1}$,centrality
R-HSA-9028731,0.0019677918263891017,32.0,1,$\widetilde{A}_{G_1}$,centrality
R-HSA-5654688,0.001967417259559143,33.0,1,$\widetilde{A}_{G_1}$,centrality
R-HSA-210990,0.001963320052531396,34.0,1,$\widetilde{A}_{G_1}$,centrality
R-HSA-3371511,0.0019621170336708736,35.0,1,$\widetilde{A}_{G_1}$,centrality
R-HSA-9006115,0.001892024800230957,36.0,1,$\widetilde{A}_{G_1}$,centrality
R-HSA-5654706,0.00189048078109961,37.0,1,$\widetilde{A}_{G_1}$,centrality
R-HSA-9027284,0.0018871727839211943,38.0,1,$\widetilde{A}_{G_1}$,centrality
R-HSA-5654687,0.0018520155152950586,39.0,1,$\widetilde{A}_{G_1}$,centrality
R-HSA-5654693,0.001820878688857568,40.0,1,$\widetilde{A}_{G_1}$,centrality
R-HSA-5684264,0.0018187139197604527,41.0,1,$\widetilde{A}_{G_1}$,centrality
R-HSA-1250196,0.001816555398719185,42.0,1,$\widetilde{A}_{G_1}$,centrality
R-HSA-5654695,0.0018131662065058005,43.0,1,$\widetilde{A}_{G_1}$,centrality
R-HSA-933543,0.001806026567768207,44.0,1,$\widetilde{A}_{G_1}$,centrality
R-HSA-9671555,0.0018018279251177795,45.0,1,$\widetilde{A}_{G_1}$,centrality
R-HSA-5654696,0.0018010238188635316,46.0,1,$\widetilde{A}_{G_1}$,centrality
R-HSA-8851805,0.0018002067838492413,47.0,1,$\widetilde{A}_{G_1}$,centrality
R-HSA-1433559,0.0017866838867443926,48.0,1,$\widetilde{A}_{G_1}$,centrality
R-HSA-918233,0.0017607325804302116,49.0,1,$\widetilde{A}_{G_1}$,centrality
R-HSA-912631,0.0017598167422677032,50.0,1,$\widetilde{A}_{G_1}$,centrality
R-HSA-881907,0.0017316404170698908,51.0,1,$\widetilde{A}_{G_1}$,centrality
R-HSA-933541,0.0017198815480537492,52.0,1,$\widetilde{A}_{G_1}$,centrality
R-HSA-186763,0.001713846915516855,53.0,1,$\widetilde{A}_{G_1}$,centrality
R-HSA-9006335,0.0017019589624851354,54.0,1,$\widetilde{A}_{G_1}$,centrality
R-HSA-5654743,0.0016828217319826962,55.0,1,$\widetilde{A}_{G_1}$,centrality
R-HSA-8853659,0.0016632270606835246,56.0,1,$\widetilde{A}_{G_1}$,centrality
R-HSA-75035,0.001662864388606312,57.0,1,$\widetilde{A}_{G_1}$,centrality
R-HSA-9027276,0.0016560927383536947,58.0,1,$\widetilde{A}_{G_1}$,centrality
R-HSA-1059683,0.0016516564453717194,59.0,1,$\widetilde{A}_{G_1}$,centrality
R-HSA-110312,0.0016486311646944742,60.0,1,$\widetilde{A}_{G_1}$,centrality
R-HSA-2424491,0.0016479058698177912,61.0,1,$\widetilde{A}_{G_1}$,centrality
R-HSA-3371568,0.0016436062492932136,62.0,1,$\widetilde{A}_{G_1}$,centrality
R-HSA-6785631,0.0016359747819747368,63.0,1,$\widetilde{A}_{G_1}$,centrality
R-HSA-389359,0.0016223620806417006,64.0,1,$\widetilde{A}_{G_1}$,centrality
R-HSA-1295596,0.0016151380542145765,65.0,1,$\widetilde{A}_{G_1}$,centrality
R-HSA-5654741,0.001609564938693206,66.0,1,$\widetilde{A}_{G_1}$,centrality
R-HSA-912526,0.0015964388937756207,67.0,1,$\widetilde{A}_{G_1}$,centrality
R-HSA-1170546,0.001596416940921919,68.0,1,$\widetilde{A}_{G_1}$,centrality
R-HSA-5654699,0.0015918643192158594,69.0,1,$\widetilde{A}_{G_1}$,centrality
R-HSA-5655862,0.0015651208856727855,70.0,1,$\widetilde{A}_{G_1}$,centrality
R-HSA-983695,0.0015570367337910207,71.0,1,$\widetilde{A}_{G_1}$,centrality
R-HSA-9703465,0.0015556964556179165,72.0,1,$\widetilde{A}_{G_1}$,centrality
R-HSA-8864260,0.0015547789578521222,73.0,1,$\widetilde{A}_{G_1}$,centrality
R-HSA-354194,0.0015476937324449744,74.0,1,$\widetilde{A}_{G_1}$,centrality
R-HSA-391160,0.0015412405848670208,75.0,1,$\widetilde{A}_{G_1}$,centrality
R-HSA-2029481,0.001532614940927786,76.0,1,$\widetilde{A}_{G_1}$,centrality
R-HSA-5656121,0.0015234100837139017,77.0,1,$\widetilde{A}_{G_1}$,centrality
R-HSA-9613829,0.0015207165565777649,78.0,1,$\widetilde{A}_{G_1}$,centrality
R-HSA-5654700,0.001520658623221339,79.0,1,$\widetilde{A}_{G_1}$,centrality
R-HSA-209560,0.001508751743053743,80.0,1,$\widetilde{A}_{G_1}$,centrality
R-HSA-390450,0.0015079273429387551,81.0,1,$\widetilde{A}_{G_1}$,centrality
R-HSA-512988,0.00148790501817545,82.0,1,$\widetilde{A}_{G_1}$,centrality
R-HSA-1227986,0.001479151555581783,83.0,1,$\widetilde{A}_{G_1}$,centrality
R-HSA-5654733,0.0014756379180519133,84.0,1,$\widetilde{A}_{G_1}$,centrality
R-HSA-9682385,0.0014751603651579003,85.0,1,$\widetilde{A}_{G_1}$,centrality
R-HSA-110320,0.0014702539507002147,86.0,1,$\widetilde{A}_{G_1}$,centrality
R-HSA-8875555,0.00146653564843589,87.0,1,$\widetilde{A}_{G_1}$,centrality
R-HSA-1433557,0.0014619408691261568,88.0,1,$\widetilde{A}_{G_1}$,centrality
R-HSA-9614399,0.0014499099038091236,89.0,1,$\widetilde{A}_{G_1}$,centrality
R-HSA-5358565,0.001445334568663923,90.0,1,$\widetilde{A}_{G_1}$,centrality
R-HSA-8983432,0.0014423124323838926,91.0,1,$\widetilde{A}_{G_1}$,centrality
R-HSA-2586552,0.0014391754401301537,92.0,1,$\widetilde{A}_{G_1}$,centrality
R-HSA-209543,0.001436341496280688,93.0,1,$\widetilde{A}_{G_1}$,centrality
R-HSA-5358606,0.001429661261280048,94.0,1,$\widetilde{A}_{G_1}$,centrality
R-HSA-2029485,0.0014264764155132513,95.0,1,$\widetilde{A}_{G_1}$,centrality
R-HSA-389960,0.001425409926204297,96.0,1,$\widetilde{A}_{G_1}$,centrality
R-HSA-111447,0.0014180599091200119,97.0,1,$\widetilde{A}_{G_1}$,centrality
R-HSA-1839117,0.0014137519937945625,98.0,1,$\widetilde{A}_{G_1}$,centrality
R-HSA-372708,0.0014119615263963033,99.0,1,$\widetilde{A}_{G_1}$,centrality
R-HSA-167044,0.001402741927170105,100.0,1,$\widetilde{A}_{G_1}$,centrality
R-HSA-975144,0.0013947059131176295,101.5,1,$\widetilde{A}_{G_1}$,centrality
R-HSA-937039,0.0013947059131176295,101.5,1,$\widetilde{A}_{G_1}$,centrality
R-HSA-912694,0.0013843890542224722,103.0,1,$\widetilde{A}_{G_1}$,centrality
R-HSA-5654732,0.0013808351950140025,104.0,1,$\widetilde{A}_{G_1}$,centrality
R-HSA-5358508,0.0013748022677837282,105.0,1,$\widetilde{A}_{G_1}$,centrality
R-HSA-9683701,0.001369471319061921,106.0,1,$\widetilde{A}_{G_1}$,centrality
R-HSA-5654736,0.0013693549390205277,107.0,1,$\widetilde{A}_{G_1}$,centrality
R-HSA-1236394,0.0013678903852073635,108.0,1,$\widetilde{A}_{G_1}$,centrality
R-HSA-9607240,0.001359544426676491,109.0,1,$\widetilde{A}_{G_1}$,centrality
R-HSA-69166,0.0013579229459841928,110.0,1,$\widetilde{A}_{G_1}$,centrality
R-HSA-168927,0.001357434187873817,111.0,1,$\widetilde{A}_{G_1}$,centrality
R-HSA-8863795,0.0013550599945107234,112.0,1,$\widetilde{A}_{G_1}$,centrality
R-HSA-156902,0.0013468134454600092,113.0,1,$\widetilde{A}_{G_1}$,centrality
R-HSA-2408557,0.0013450042703335636,114.0,1,$\widetilde{A}_{G_1}$,centrality
R-HSA-193639,0.001341793839158122,115.0,1,$\widetilde{A}_{G_1}$,centrality
R-HSA-210744,0.0013395845110209359,116.0,1,$\widetilde{A}_{G_1}$,centrality
R-HSA-192823,0.0013374983395192817,117.0,1,$\widetilde{A}_{G_1}$,centrality
R-HSA-5357956,0.0013368227746601092,118.0,1,$\widetilde{A}_{G_1}$,centrality
R-HSA-156842,0.0013347611803477732,119.0,1,$\widetilde{A}_{G_1}$,centrality
R-HSA-186797,0.0013332782724940842,120.0,1,$\widetilde{A}_{G_1}$,centrality
R-HSA-2172127,0.001333049425194891,121.0,1,$\widetilde{A}_{G_1}$,centrality
R-HSA-177929,0.0013267440796157466,122.0,1,$\widetilde{A}_{G_1}$,centrality
R-HSA-877312,0.0013261998764907532,123.0,1,$\widetilde{A}_{G_1}$,centrality
R-HSA-9020956,0.001325492566726474,124.0,1,$\widetilde{A}_{G_1}$,centrality
R-HSA-5621575,0.0013223586504153345,125.0,1,$\widetilde{A}_{G_1}$,centrality
R-HSA-354192,0.0013223001525186028,126.0,1,$\widetilde{A}_{G_1}$,centrality
R-HSA-5654726,0.0013124502469441927,127.0,1,$\widetilde{A}_{G_1}$,centrality
R-HSA-975163,0.0013104549476946597,128.0,1,$\widetilde{A}_{G_1}$,centrality
R-HSA-5689896,0.0013091808097795794,129.0,1,$\widetilde{A}_{G_1}$,centrality
R-HSA-74752,0.00130222867430721,130.0,1,$\widetilde{A}_{G_1}$,centrality
R-HSA-74751,0.0013022286743072098,131.0,1,$\widetilde{A}_{G_1}$,centrality
R-HSA-69183,0.0012989008413367325,132.0,1,$\widetilde{A}_{G_1}$,centrality
R-HSA-975956,0.0012961845763193756,133.0,1,$\widetilde{A}_{G_1}$,centrality
R-HSA-8875360,0.0012955222708127035,134.0,1,$\widetilde{A}_{G_1}$,centrality
R-HSA-6804116,0.0012850122308571811,135.0,1,$\widetilde{A}_{G_1}$,centrality
R-HSA-72764,0.00128411941735487,136.0,1,$\widetilde{A}_{G_1}$,centrality
R-HSA-5655302,0.0012834068021206533,137.0,1,$\widetilde{A}_{G_1}$,centrality
R-HSA-9617629,0.0012809792686715906,138.0,1,$\widetilde{A}_{G_1}$,centrality
R-HSA-163359,0.0012799140167373336,139.0,1,$\widetilde{A}_{G_1}$,centrality
R-HSA-112399,0.0012781296082797447,140.0,1,$\widetilde{A}_{G_1}$,centrality
R-HSA-2408522,0.0012746891399932933,141.0,1,$\widetilde{A}_{G_1}$,centrality
R-HSA-114604,0.0012745027704797113,142.0,1,$\widetilde{A}_{G_1}$,centrality
R-HSA-9634638,0.0012733338124142778,143.0,1,$\widetilde{A}_{G_1}$,centrality
R-HSA-72689,0.0012688844502361492,144.0,1,$\widetilde{A}_{G_1}$,centrality
R-HSA-933542,0.0012664585823304968,145.0,1,$\widetilde{A}_{G_1}$,centrality
R-HSA-389356,0.0012645540215474272,146.0,1,$\widetilde{A}_{G_1}$,centrality
R-HSA-937041,0.0012642729848961955,147.0,1,$\widetilde{A}_{G_1}$,centrality
R-HSA-8984722,0.001263601191822829,148.0,1,$\widetilde{A}_{G_1}$,centrality
R-HSA-3371571,0.0012601522405081753,149.0,1,$\widetilde{A}_{G_1}$,centrality
R-HSA-451927,0.0012583655657787407,150.0,1,$\widetilde{A}_{G_1}$,centrality
R-HSA-2428924,0.0012571344369811989,151.5,1,$\widetilde{A}_{G_1}$,centrality
R-HSA-2404192,0.0012571344369811989,151.5,1,$\widetilde{A}_{G_1}$,centrality
R-HSA-174437,0.001255495498997312,153.0,1,$\widetilde{A}_{G_1}$,centrality
R-HSA-8876384,0.0012485506071972284,154.0,1,$\widetilde{A}_{G_1}$,centrality
R-HSA-5676594,0.0012477637561655029,155.0,1,$\widetilde{A}_{G_1}$,centrality
R-HSA-76009,0.0012475127553595417,156.0,1,$\widetilde{A}_{G_1}$,centrality
R-HSA-373753,0.0012466153763667175,157.0,1,$\widetilde{A}_{G_1}$,centrality
R-HSA-9674555,0.0012459253632703875,158.0,1,$\widetilde{A}_{G_1}$,centrality
R-HSA-8849471,0.0012457738862524062,159.0,1,$\widetilde{A}_{G_1}$,centrality
R-HSA-937072,0.0012425518134777781,160.0,1,$\widetilde{A}_{G_1}$,centrality
R-HSA-9604323,0.0012423602888784536,161.0,1,$\widetilde{A}_{G_1}$,centrality
R-HSA-450408,0.0012422797074254338,162.0,1,$\widetilde{A}_{G_1}$,centrality
R-HSA-418885,0.0012364332101400305,163.0,1,$\widetilde{A}_{G_1}$,centrality
R-HSA-8854050,0.0012356339842965903,164.0,1,$\widetilde{A}_{G_1}$,centrality
R-HSA-418592,0.0012324532658140389,165.0,1,$\widetilde{A}_{G_1}$,centrality
R-HSA-156827,0.0012322838916237608,166.0,1,$\widetilde{A}_{G_1}$,centrality
R-HSA-2219530,0.0012303430106016325,167.0,1,$\widetilde{A}_{G_1}$,centrality
R-HSA-169911,0.0012302154284554365,168.0,1,$\widetilde{A}_{G_1}$,centrality
R-HSA-211733,0.0012302154284554363,169.0,1,$\widetilde{A}_{G_1}$,centrality
R-HSA-110314,0.0012264270592191274,170.0,1,$\widetilde{A}_{G_1}$,centrality
R-HSA-1236978,0.0012260796003022115,171.0,1,$\widetilde{A}_{G_1}$,centrality
R-HSA-168273,0.0012255338992679522,172.0,1,$\widetilde{A}_{G_1}$,centrality
R-HSA-75815,0.0012246451967117722,173.0,1,$\widetilde{A}_{G_1}$,centrality
R-HSA-9633012,0.001224316676259602,174.0,1,$\widetilde{A}_{G_1}$,centrality
R-HSA-5654727,0.0012241950362690771,175.0,1,$\widetilde{A}_{G_1}$,centrality
R-HSA-72706,0.0012216525145801287,176.0,1,$\widetilde{A}_{G_1}$,centrality
R-HSA-5357905,0.001221119826607836,177.0,1,$\widetilde{A}_{G_1}$,centrality
R-HSA-180534,0.001220712783994446,178.0,1,$\widetilde{A}_{G_1}$,centrality
R-HSA-174113,0.0012195573857756168,179.0,1,$\widetilde{A}_{G_1}$,centrality
R-HSA-6804760,0.0012194241128668372,180.0,1,$\widetilde{A}_{G_1}$,centrality
R-HSA-202131,0.001214197555775361,181.0,1,$\widetilde{A}_{G_1}$,centrality
R-HSA-6804758,0.0012140520392040389,182.0,1,$\widetilde{A}_{G_1}$,centrality
R-HSA-174414,0.0012124864479990108,183.0,1,$\widetilde{A}_{G_1}$,centrality
R-HSA-202040,0.0012109854313760288,184.0,1,$\widetilde{A}_{G_1}$,centrality
R-HSA-2122947,0.001210624718777849,185.0,1,$\widetilde{A}_{G_1}$,centrality
R-HSA-1799339,0.0012085072613103667,186.0,1,$\widetilde{A}_{G_1}$,centrality
R-HSA-8932339,0.0012076925589712198,187.0,1,$\widetilde{A}_{G_1}$,centrality
R-HSA-389958,0.0012069582022955154,188.0,1,$\widetilde{A}_{G_1}$,centrality
R-HSA-5610785,0.0012057176189426992,189.0,1,$\widetilde{A}_{G_1}$,centrality
R-HSA-8854691,0.0012055322762200393,190.0,1,$\widetilde{A}_{G_1}$,centrality
R-HSA-5610783,0.0012050121715746623,191.0,1,$\widetilde{A}_{G_1}$,centrality
R-HSA-8941858,0.001204688806662819,192.0,1,$\widetilde{A}_{G_1}$,centrality
R-HSA-389957,0.0012045699466157512,193.0,1,$\widetilde{A}_{G_1}$,centrality
R-HSA-5676590,0.0012042804348073254,194.0,1,$\widetilde{A}_{G_1}$,centrality
R-HSA-1839124,0.0012040118832711507,195.0,1,$\widetilde{A}_{G_1}$,centrality
R-HSA-5607761,0.0012030003001447709,196.0,1,$\widetilde{A}_{G_1}$,centrality
R-HSA-109704,0.0012020895410771964,197.0,1,$\widetilde{A}_{G_1}$,centrality
R-HSA-69613,0.0012018398273663056,198.0,1,$\widetilde{A}_{G_1}$,centrality
R-HSA-69610,0.0012018398273663054,199.5,1,$\widetilde{A}_{G_1}$,centrality
R-HSA-69601,0.0012018398273663054,199.5,1,$\widetilde{A}_{G_1}$,centrality
R-HSA-2428928,0.001199737284895169,201.0,1,$\widetilde{A}_{G_1}$,centrality
R-HSA-912446,0.0011974838539936335,202.0,1,$\widetilde{A}_{G_1}$,centrality
R-HSA-5357786,0.0011965055176632715,203.0,1,$\widetilde{A}_{G_1}$,centrality
R-HSA-170968,0.0011959820655265026,204.0,1,$\widetilde{A}_{G_1}$,centrality
R-HSA-180585,0.0011944884663857662,205.0,1,$\widetilde{A}_{G_1}$,centrality
R-HSA-2871796,0.0011936035490738926,206.0,1,$\widetilde{A}_{G_1}$,centrality
R-HSA-9020558,0.0011922712072591885,207.0,1,$\widetilde{A}_{G_1}$,centrality
R-HSA-349425,0.0011916625111195005,208.0,1,$\widetilde{A}_{G_1}$,centrality
R-HSA-182971,0.0011913041356050357,209.0,1,$\widetilde{A}_{G_1}$,centrality
R-HSA-4641258,0.0011903660528605829,210.0,1,$\widetilde{A}_{G_1}$,centrality
R-HSA-427389,0.0011880389072139112,211.0,1,$\widetilde{A}_{G_1}$,centrality
R-HSA-8964315,0.0011879838007775444,212.0,1,$\widetilde{A}_{G_1}$,centrality
R-HSA-6802948,0.0011847641444226297,213.0,1,$\widetilde{A}_{G_1}$,centrality
R-HSA-5610780,0.0011811726840294694,214.0,1,$\widetilde{A}_{G_1}$,centrality
R-HSA-5626467,0.0011780464273970224,215.0,1,$\widetilde{A}_{G_1}$,centrality
R-HSA-9637690,0.001176300520483946,216.0,1,$\widetilde{A}_{G_1}$,centrality
R-HSA-399954,0.001175737046800366,217.0,1,$\widetilde{A}_{G_1}$,centrality
R-HSA-8941856,0.0011739658663972438,218.0,1,$\widetilde{A}_{G_1}$,centrality
R-HSA-187577,0.0011714128633464782,219.0,1,$\widetilde{A}_{G_1}$,centrality
R-HSA-9013418,0.0011710396647668043,220.0,1,$\widetilde{A}_{G_1}$,centrality
R-HSA-5696397,0.0011674620513376752,221.0,1,$\widetilde{A}_{G_1}$,centrality
R-HSA-381038,0.001166015995695077,222.0,1,$\widetilde{A}_{G_1}$,centrality
R-HSA-169893,0.001162722313867442,223.0,1,$\widetilde{A}_{G_1}$,centrality
R-HSA-8866427,0.001162588826409998,224.0,1,$\widetilde{A}_{G_1}$,centrality
R-HSA-5362768,0.0011619725494370105,225.0,1,$\widetilde{A}_{G_1}$,centrality
R-HSA-9707587,0.0011616583532523016,226.0,1,$\widetilde{A}_{G_1}$,centrality
R-HSA-72695,0.0011611073742512762,227.0,1,$\widetilde{A}_{G_1}$,centrality
R-HSA-450341,0.001158109354277747,228.0,1,$\widetilde{A}_{G_1}$,centrality
R-HSA-5625900,0.0011578343543705845,229.0,1,$\widetilde{A}_{G_1}$,centrality
R-HSA-5678895,0.001156485851605755,230.0,1,$\widetilde{A}_{G_1}$,centrality
R-HSA-5213460,0.0011562346899024573,231.0,1,$\widetilde{A}_{G_1}$,centrality
R-HSA-5675482,0.0011562346899024571,232.0,1,$\widetilde{A}_{G_1}$,centrality
R-HSA-72649,0.0011554766997663721,233.0,1,$\widetilde{A}_{G_1}$,centrality
R-HSA-5658442,0.0011539832774719206,234.0,1,$\widetilde{A}_{G_1}$,centrality
R-HSA-6804114,0.0011528812003556185,235.0,1,$\widetilde{A}_{G_1}$,centrality
R-HSA-69541,0.0011506272600269709,236.0,1,$\widetilde{A}_{G_1}$,centrality
R-HSA-392851,0.0011490552768252218,237.0,1,$\widetilde{A}_{G_1}$,centrality
R-HSA-1169091,0.0011473889510520401,238.0,1,$\widetilde{A}_{G_1}$,centrality
R-HSA-9656223,0.001145785026811495,239.0,1,$\widetilde{A}_{G_1}$,centrality
R-HSA-69186,0.0011449612081373462,240.0,1,$\widetilde{A}_{G_1}$,centrality
R-HSA-68949,0.0011443372726726853,241.0,1,$\widetilde{A}_{G_1}$,centrality
R-HSA-6802946,0.0011433801479493212,242.0,1,$\widetilde{A}_{G_1}$,centrality
R-HSA-9649948,0.001143380147949321,244.0,1,$\widetilde{A}_{G_1}$,centrality
R-HSA-6802955,0.001143380147949321,244.0,1,$\widetilde{A}_{G_1}$,centrality
R-HSA-6802949,0.001143380147949321,244.0,1,$\widetilde{A}_{G_1}$,centrality
R-HSA-5387390,0.0011424367019535469,246.0,1,$\widetilde{A}_{G_1}$,centrality
R-HSA-190828,0.001141800484464465,247.0,1,$\widetilde{A}_{G_1}$,centrality
R-HSA-5619084,0.0011416624275003137,248.0,1,$\widetilde{A}_{G_1}$,centrality
R-HSA-5334118,0.0011390639552144627,249.0,1,$\widetilde{A}_{G_1}$,centrality
R-HSA-72662,0.0011381296426017842,250.0,1,$\widetilde{A}_{G_1}$,centrality
R-HSA-9615017,0.0011380853105646058,251.0,1,$\widetilde{A}_{G_1}$,centrality
R-HSA-73728,0.0011377765795106479,252.0,1,$\widetilde{A}_{G_1}$,centrality
R-HSA-389513,0.0011374912981009532,253.0,1,$\widetilde{A}_{G_1}$,centrality
R-HSA-72702,0.0011362581688212597,254.0,1,$\widetilde{A}_{G_1}$,centrality
R-HSA-4641257,0.0011358032517187389,255.0,1,$\widetilde{A}_{G_1}$,centrality
R-HSA-3371378,0.0011338256759434527,257.0,1,$\widetilde{A}_{G_1}$,centrality
R-HSA-69416,0.0011338256759434527,257.0,1,$\widetilde{A}_{G_1}$,centrality
R-HSA-5218900,0.0011338256759434527,257.0,1,$\widetilde{A}_{G_1}$,centrality
R-HSA-9678108,0.0011306030454879708,259.0,1,$\widetilde{A}_{G_1}$,centrality
R-HSA-3270619,0.0011278017143300143,260.0,1,$\widetilde{A}_{G_1}$,centrality
R-HSA-428930,0.0011270229170740093,261.0,1,$\widetilde{A}_{G_1}$,centrality
R-HSA-171306,0.001125527874821021,262.0,1,$\widetilde{A}_{G_1}$,centrality
R-HSA-1234176,0.001125015825661364,263.0,1,$\widetilde{A}_{G_1}$,centrality
R-HSA-5099900,0.0011242056357884365,264.0,1,$\widetilde{A}_{G_1}$,centrality
R-HSA-8852276,0.0011221987831487523,265.0,1,$\widetilde{A}_{G_1}$,centrality
R-HSA-9710421,0.0011214683956179024,266.0,1,$\widetilde{A}_{G_1}$,centrality
R-HSA-445717,0.001118535386069751,267.5,1,$\widetilde{A}_{G_1}$,centrality
R-HSA-432040,0.001118535386069751,267.5,1,$\widetilde{A}_{G_1}$,centrality
R-HSA-196025,0.001118176929897686,269.0,1,$\widetilde{A}_{G_1}$,centrality
R-HSA-5654738,0.001115625519404156,270.0,1,$\widetilde{A}_{G_1}$,centrality
R-HSA-9635486,0.0011141417497463504,271.0,1,$\widetilde{A}_{G_1}$,centrality
R-HSA-6804759,0.0011133642788907004,272.0,1,$\widetilde{A}_{G_1}$,centrality
R-HSA-9646399,0.001112169245270968,273.0,1,$\widetilde{A}_{G_1}$,centrality
R-HSA-5689901,0.0011118151242055596,274.0,1,$\widetilde{A}_{G_1}$,centrality
R-HSA-392170,0.0011114228167229264,275.0,1,$\widetilde{A}_{G_1}$,centrality
R-HSA-1234174,0.001111276222868429,276.0,1,$\widetilde{A}_{G_1}$,centrality
R-HSA-456926,0.0011103395954336656,277.0,1,$\widetilde{A}_{G_1}$,centrality
R-HSA-9614657,0.0011092130559483067,278.0,1,$\widetilde{A}_{G_1}$,centrality
R-HSA-442982,0.0011091392412808953,279.0,1,$\widetilde{A}_{G_1}$,centrality
R-HSA-5625886,0.0011081413954071686,280.0,1,$\widetilde{A}_{G_1}$,centrality
R-HSA-9009391,0.0011044092200712427,281.0,1,$\widetilde{A}_{G_1}$,centrality
R-HSA-69473,0.0011029568083698535,282.0,1,$\widetilde{A}_{G_1}$,centrality
R-HSA-68827,0.0011022157631056088,283.0,1,$\widetilde{A}_{G_1}$,centrality
R-HSA-177504,0.0011021056357859752,284.0,1,$\widetilde{A}_{G_1}$,centrality
R-HSA-187687,0.0011015264753582038,285.0,1,$\widetilde{A}_{G_1}$,centrality
R-HSA-350562,0.001101271336272783,286.0,1,$\widetilde{A}_{G_1}$,centrality
R-HSA-451326,0.001100824299094953,288.0,1,$\widetilde{A}_{G_1}$,centrality
R-HSA-418217,0.001100824299094953,288.0,1,$\widetilde{A}_{G_1}$,centrality
R-HSA-500657,0.001100824299094953,288.0,1,$\widetilde{A}_{G_1}$,centrality
R-HSA-186712,0.0011005100033331112,290.0,1,$\widetilde{A}_{G_1}$,centrality
R-HSA-5674135,0.001099178742835718,291.0,1,$\widetilde{A}_{G_1}$,centrality
R-HSA-212300,0.00109709544905295,292.0,1,$\widetilde{A}_{G_1}$,centrality
R-HSA-190873,0.0010970161512404428,293.0,1,$\widetilde{A}_{G_1}$,centrality
R-HSA-2871837,0.0010966186339561263,294.0,1,$\widetilde{A}_{G_1}$,centrality
R-HSA-157858,0.0010957317830791354,295.0,1,$\widetilde{A}_{G_1}$,centrality
R-HSA-450321,0.0010956816479302009,296.0,1,$\widetilde{A}_{G_1}$,centrality
R-HSA-445989,0.0010954140458650297,297.0,1,$\widetilde{A}_{G_1}$,centrality
R-HSA-110330,0.0010952806536909257,298.5,1,$\widetilde{A}_{G_1}$,centrality
R-HSA-110331,0.0010952806536909257,298.5,1,$\widetilde{A}_{G_1}$,centrality
R-HSA-73927,0.001095280653690925,300.0,1,$\widetilde{A}_{G_1}$,centrality
R-HSA-400042,0.0010952596813004081,301.0,1,$\widetilde{A}_{G_1}$,centrality
R-HSA-5693565,0.0010948585324745505,302.0,1,$\widetilde{A}_{G_1}$,centrality
R-HSA-5693606,0.001094255231759726,303.0,1,$\widetilde{A}_{G_1}$,centrality
R-HSA-392518,0.0010937182336467053,304.0,1,$\widetilde{A}_{G_1}$,centrality
R-HSA-1296065,0.001093494458820766,307.0,1,$\widetilde{A}_{G_1}$,centrality
R-HSA-1296071,0.001093494458820766,307.0,1,$\widetilde{A}_{G_1}$,centrality
R-HSA-1296059,0.001093494458820766,307.0,1,$\widetilde{A}_{G_1}$,centrality
R-HSA-1296041,0.001093494458820766,307.0,1,$\widetilde{A}_{G_1}$,centrality
R-HSA-997272,0.001093494458820766,307.0,1,$\widetilde{A}_{G_1}$,centrality
R-HSA-68867,0.0010910891348229822,310.0,1,$\widetilde{A}_{G_1}$,centrality
R-HSA-75893,0.001090926690043259,311.0,1,$\widetilde{A}_{G_1}$,centrality
R-HSA-982772,0.001090398011585096,312.0,1,$\widetilde{A}_{G_1}$,centrality
R-HSA-69580,0.0010888997120796502,313.5,1,$\widetilde{A}_{G_1}$,centrality
R-HSA-69563,0.0010888997120796502,313.5,1,$\widetilde{A}_{G_1}$,centrality
R-HSA-69615,0.0010815367514153008,315.0,1,$\widetilde{A}_{G_1}$,centrality
R-HSA-5218921,0.001081528320586266,316.0,1,$\widetilde{A}_{G_1}$,centrality
R-HSA-8950505,0.0010814484405484621,317.0,1,$\widetilde{A}_{G_1}$,centrality
R-HSA-168638,0.0010814242158969697,318.0,1,$\widetilde{A}_{G_1}$,centrality
R-HSA-68884,0.0010792749814846987,319.0,1,$\widetilde{A}_{G_1}$,centrality
R-HSA-8964616,0.0010780867234830933,320.0,1,$\widetilde{A}_{G_1}$,centrality
R-HSA-8948751,0.001076215938928529,321.0,1,$\widetilde{A}_{G_1}$,centrality
R-HSA-5358346,0.001071026611632978,322.0,1,$\widetilde{A}_{G_1}$,centrality
R-HSA-9013422,0.0010700554774900162,323.0,1,$\widetilde{A}_{G_1}$,centrality
R-HSA-6783589,0.001068320602599782,324.0,1,$\widetilde{A}_{G_1}$,centrality
R-HSA-8878159,0.0010682227208510338,325.0,1,$\widetilde{A}_{G_1}$,centrality
R-HSA-351202,0.0010680356759505479,326.0,1,$\widetilde{A}_{G_1}$,centrality
R-HSA-9614085,0.0010673148575869578,327.0,1,$\widetilde{A}_{G_1}$,centrality
R-HSA-450302,0.0010662310274871835,328.0,1,$\widetilde{A}_{G_1}$,centrality
R-HSA-201722,0.0010640900269735395,329.0,1,$\widetilde{A}_{G_1}$,centrality
R-HSA-73928,0.0010604352700592655,331.0,1,$\widetilde{A}_{G_1}$,centrality
R-HSA-110328,0.0010604352700592655,331.0,1,$\widetilde{A}_{G_1}$,centrality
R-HSA-110329,0.0010604352700592655,331.0,1,$\widetilde{A}_{G_1}$,centrality
R-HSA-5673000,0.0010603305077751329,333.0,1,$\widetilde{A}_{G_1}$,centrality
R-HSA-5685938,0.0010572260622393336,334.0,1,$\widetilde{A}_{G_1}$,centrality
R-HSA-5601884,0.0010572024648879215,335.0,1,$\widetilde{A}_{G_1}$,centrality
R-HSA-9675151,0.0010567474367685536,337.0,1,$\widetilde{A}_{G_1}$,centrality
R-HSA-9005891,0.0010567474367685536,337.0,1,$\widetilde{A}_{G_1}$,centrality
R-HSA-9005895,0.0010567474367685536,337.0,1,$\widetilde{A}_{G_1}$,centrality
R-HSA-9697154,0.0010567474367685534,339.0,1,$\widetilde{A}_{G_1}$,centrality
R-HSA-375165,0.001056065109390267,340.0,1,$\widetilde{A}_{G_1}$,centrality
R-HSA-69190,0.001055064530035735,341.0,1,$\widetilde{A}_{G_1}$,centrality
R-HSA-1834941,0.001054533153487577,342.0,1,$\widetilde{A}_{G_1}$,centrality
R-HSA-5693607,0.0010544723080943032,343.0,1,$\widetilde{A}_{G_1}$,centrality
R-HSA-195253,0.0010542545513112127,344.0,1,$\widetilde{A}_{G_1}$,centrality
R-HSA-4755510,0.0010519570869974317,345.0,1,$\widetilde{A}_{G_1}$,centrality
R-HSA-1168372,0.0010519160782823255,346.0,1,$\widetilde{A}_{G_1}$,centrality
R-HSA-9616222,0.001049867310703579,347.0,1,$\widetilde{A}_{G_1}$,centrality
R-HSA-2644606,0.0010485082407987803,348.5,1,$\widetilde{A}_{G_1}$,centrality
R-HSA-2644603,0.0010485082407987803,348.5,1,$\widetilde{A}_{G_1}$,centrality
R-HSA-2644602,0.00104850824079878,351.0,1,$\widetilde{A}_{G_1}$,centrality
R-HSA-2894862,0.00104850824079878,351.0,1,$\widetilde{A}_{G_1}$,centrality
R-HSA-2894858,0.00104850824079878,351.0,1,$\widetilde{A}_{G_1}$,centrality
R-HSA-69002,0.0010483337562997425,353.0,1,$\widetilde{A}_{G_1}$,centrality
R-HSA-176187,0.0010478986244596008,354.0,1,$\widetilde{A}_{G_1}$,centrality
R-HSA-1358803,0.0010460205542010706,355.0,1,$\widetilde{A}_{G_1}$,centrality
R-HSA-1912408,0.0010452136607451421,356.0,1,$\widetilde{A}_{G_1}$,centrality
R-HSA-8851708,0.0010444457608225536,357.0,1,$\widetilde{A}_{G_1}$,centrality
R-HSA-5339562,0.0010436209817086385,358.0,1,$\widetilde{A}_{G_1}$,centrality
R-HSA-9013694,0.001042185123791573,359.0,1,$\widetilde{A}_{G_1}$,centrality
R-HSA-176408,0.0010420418215967555,360.0,1,$\widetilde{A}_{G_1}$,centrality
R-HSA-4608870,0.0010413070885878992,361.0,1,$\widetilde{A}_{G_1}$,centrality
R-HSA-1474165,0.001040642897978637,362.0,1,$\widetilde{A}_{G_1}$,centrality
R-HSA-1500620,0.0010406428979786366,363.0,1,$\widetilde{A}_{G_1}$,centrality
R-HSA-389948,0.0010405161743014442,364.0,1,$\widetilde{A}_{G_1}$,centrality
R-HSA-5140745,0.0010392455837758157,365.0,1,$\widetilde{A}_{G_1}$,centrality
R-HSA-3232118,0.0010385968621113991,366.0,1,$\widetilde{A}_{G_1}$,centrality
R-HSA-2219528,0.0010382763056529089,367.0,1,$\widetilde{A}_{G_1}$,centrality
R-HSA-9013508,0.001037934834782066,368.0,1,$\widetilde{A}_{G_1}$,centrality
R-HSA-3214842,0.0010362183893823235,369.0,1,$\widetilde{A}_{G_1}$,centrality
R-HSA-5693616,0.0010359063088939456,370.0,1,$\widetilde{A}_{G_1}$,centrality
R-HSA-73929,0.0010351317775502888,371.0,1,$\widetilde{A}_{G_1}$,centrality
R-HSA-6807004,0.0010333770373639004,372.0,1,$\widetilde{A}_{G_1}$,centrality
R-HSA-3928664,0.0010328978460103925,373.0,1,$\widetilde{A}_{G_1}$,centrality
R-HSA-5621480,0.001032507770245706,374.0,1,$\widetilde{A}_{G_1}$,centrality
R-HSA-174143,0.00103233425879261,375.5,1,$\widetilde{A}_{G_1}$,centrality
R-HSA-453276,0.00103233425879261,375.5,1,$\widetilde{A}_{G_1}$,centrality
R-HSA-8939902,0.0010316367167142778,377.0,1,$\widetilde{A}_{G_1}$,centrality
R-HSA-171007,0.0010314606115162297,378.0,1,$\widetilde{A}_{G_1}$,centrality
R-HSA-174084,0.0010310040404817654,379.0,1,$\widetilde{A}_{G_1}$,centrality
R-HSA-6811558,0.0010291330284941552,380.0,1,$\widetilde{A}_{G_1}$,centrality
R-HSA-1362277,0.0010291096216348751,381.0,1,$\widetilde{A}_{G_1}$,centrality
R-HSA-350054,0.0010267281700955333,382.0,1,$\widetilde{A}_{G_1}$,centrality
R-HSA-69202,0.0010254511839006505,383.0,1,$\widetilde{A}_{G_1}$,centrality
R-HSA-420092,0.0010229983375975075,384.0,1,$\widetilde{A}_{G_1}$,centrality
R-HSA-389357,0.001022953188306916,385.0,1,$\widetilde{A}_{G_1}$,centrality
R-HSA-432142,0.0010227659417030405,386.0,1,$\widetilde{A}_{G_1}$,centrality
R-HSA-977443,0.0010221783513331664,388.0,1,$\widetilde{A}_{G_1}$,centrality
R-HSA-991365,0.0010221783513331664,388.0,1,$\widetilde{A}_{G_1}$,centrality
R-HSA-977444,0.0010221783513331664,388.0,1,$\widetilde{A}_{G_1}$,centrality
R-HSA-114452,0.0010184796607283538,390.0,1,$\widetilde{A}_{G_1}$,centrality
R-HSA-174178,0.001016194993020334,391.0,1,$\widetilde{A}_{G_1}$,centrality
R-HSA-69656,0.0010161640045746744,392.0,1,$\widetilde{A}_{G_1}$,centrality
R-HSA-427359,0.00101607449699278,393.0,1,$\widetilde{A}_{G_1}$,centrality
R-HSA-174154,0.0010157254240383679,394.0,1,$\widetilde{A}_{G_1}$,centrality
R-HSA-382556,0.0010151934303384285,395.0,1,$\widetilde{A}_{G_1}$,centrality
R-HSA-9619483,0.001014899288902896,396.0,1,$\widetilde{A}_{G_1}$,centrality
R-HSA-190236,0.0010148700533345832,397.0,1,$\widetilde{A}_{G_1}$,centrality
R-HSA-202424,0.0010127359047999145,398.0,1,$\widetilde{A}_{G_1}$,centrality
R-HSA-1221632,0.0010122050103676743,399.0,1,$\widetilde{A}_{G_1}$,centrality
R-HSA-9013695,0.0010115777082986292,400.0,1,$\widetilde{A}_{G_1}$,centrality
R-HSA-68962,0.0010113870353969966,401.0,1,$\widetilde{A}_{G_1}$,centrality
R-HSA-5358749,0.0010109064539088495,402.0,1,$\widetilde{A}_{G_1}$,centrality
R-HSA-5358752,0.001010906453908849,403.5,1,$\widetilde{A}_{G_1}$,centrality
R-HSA-4839743,0.001010906453908849,403.5,1,$\widetilde{A}_{G_1}$,centrality
R-HSA-5339716,0.0010109064539088489,406.0,1,$\widetilde{A}_{G_1}$,centrality
R-HSA-5358747,0.0010109064539088489,406.0,1,$\widetilde{A}_{G_1}$,centrality
R-HSA-5358751,0.0010109064539088489,406.0,1,$\widetilde{A}_{G_1}$,centrality
R-HSA-8953750,0.0010100802460530562,408.0,1,$\widetilde{A}_{G_1}$,centrality
R-HSA-202670,0.0010094099522112172,409.0,1,$\widetilde{A}_{G_1}$,centrality
R-HSA-9020702,0.0010090821487694337,410.0,1,$\widetilde{A}_{G_1}$,centrality
R-HSA-174184,0.001008451340648103,411.0,1,$\widetilde{A}_{G_1}$,centrality
R-HSA-179419,0.0010084513406481029,412.0,1,$\widetilde{A}_{G_1}$,centrality
R-HSA-442742,0.0010083098786671507,413.0,1,$\widetilde{A}_{G_1}$,centrality
R-HSA-1538133,0.001008279913301961,414.0,1,$\widetilde{A}_{G_1}$,centrality
R-HSA-2559586,0.0010080112480155348,415.0,1,$\widetilde{A}_{G_1}$,centrality
R-HSA-5693571,0.0010065795658402916,416.0,1,$\widetilde{A}_{G_1}$,centrality
R-HSA-2173788,0.0010049958246957599,417.0,1,$\widetilde{A}_{G_1}$,centrality
R-HSA-6806834,0.0010041579597666328,418.0,1,$\widetilde{A}_{G_1}$,centrality
R-HSA-9705462,0.0010035813463423618,419.0,1,$\widetilde{A}_{G_1}$,centrality
R-HSA-176974,0.0010013892895259888,420.0,1,$\widetilde{A}_{G_1}$,centrality
R-HSA-8964038,0.0010011128581853624,421.0,1,$\widetilde{A}_{G_1}$,centrality
R-HSA-69052,0.001000095933567261,422.0,1,$\widetilde{A}_{G_1}$,centrality
R-HSA-2173795,0.000999418419027626,423.0,1,$\widetilde{A}_{G_1}$,centrality
R-HSA-5607764,0.0009991355805549457,424.0,1,$\widetilde{A}_{G_1}$,centrality
R-HSA-176814,0.0009989296039488388,425.0,1,$\widetilde{A}_{G_1}$,centrality
R-HSA-69017,0.0009977610641826922,426.0,1,$\widetilde{A}_{G_1}$,centrality
R-HSA-379716,0.0009975275829807485,427.0,1,$\widetilde{A}_{G_1}$,centrality
R-HSA-176409,0.0009952268200182997,428.0,1,$\widetilde{A}_{G_1}$,centrality
R-HSA-8936459,0.0009949951009575917,429.0,1,$\widetilde{A}_{G_1}$,centrality
R-HSA-3214815,0.0009943876675999207,430.0,1,$\widetilde{A}_{G_1}$,centrality
R-HSA-8943724,0.0009940277327093,431.0,1,$\widetilde{A}_{G_1}$,centrality
R-HSA-5627123,0.0009915801301096313,432.0,1,$\widetilde{A}_{G_1}$,centrality
R-HSA-9706574,0.0009909905062531323,433.0,1,$\widetilde{A}_{G_1}$,centrality
R-HSA-5620971,0.000990067904904093,434.0,1,$\widetilde{A}_{G_1}$,centrality
R-HSA-205043,0.0009886418759687033,435.0,1,$\widetilde{A}_{G_1}$,centrality
R-HSA-5693579,0.0009884242217530741,436.0,1,$\widetilde{A}_{G_1}$,centrality
R-HSA-5610787,0.00098651088726888,437.0,1,$\widetilde{A}_{G_1}$,centrality
R-HSA-3371556,0.000986420547555473,438.0,1,$\widetilde{A}_{G_1}$,centrality
R-HSA-6806003,0.000985497677611413,439.0,1,$\widetilde{A}_{G_1}$,centrality
R-HSA-6804757,0.0009854976776114128,440.0,1,$\widetilde{A}_{G_1}$,centrality
R-HSA-5250913,0.0009854077980706781,441.0,1,$\widetilde{A}_{G_1}$,centrality
R-HSA-9694516,0.0009853554981345029,442.0,1,$\widetilde{A}_{G_1}$,centrality
R-HSA-450294,0.0009833105578219083,443.0,1,$\widetilde{A}_{G_1}$,centrality
R-HSA-390471,0.0009824062336502744,444.0,1,$\widetilde{A}_{G_1}$,centrality
R-HSA-5696400,0.0009822543931383664,445.0,1,$\widetilde{A}_{G_1}$,centrality
R-HSA-9659787,0.0009818223545006207,446.0,1,$\widetilde{A}_{G_1}$,centrality
R-HSA-9661069,0.0009818223545006205,447.0,1,$\widetilde{A}_{G_1}$,centrality
R-HSA-199418,0.000981589298766821,448.0,1,$\widetilde{A}_{G_1}$,centrality
R-HSA-5602358,0.0009809367516343066,449.5,1,$\widetilde{A}_{G_1}$,centrality
R-HSA-5260271,0.0009809367516343066,449.5,1,$\widetilde{A}_{G_1}$,centrality
R-HSA-2029480,0.000980668814076918,451.0,1,$\widetilde{A}_{G_1}$,centrality
R-HSA-5696394,0.000980268119013507,452.0,1,$\widetilde{A}_{G_1}$,centrality
R-HSA-3371453,0.0009752353145052342,453.0,1,$\widetilde{A}_{G_1}$,centrality
R-HSA-1251985,0.0009723841646416011,454.0,1,$\widetilde{A}_{G_1}$,centrality
R-HSA-437239,0.0009719468280788825,455.0,1,$\widetilde{A}_{G_1}$,centrality
R-HSA-389977,0.0009712046512249708,456.0,1,$\widetilde{A}_{G_1}$,centrality
R-HSA-5655253,0.0009698472087349314,457.0,1,$\widetilde{A}_{G_1}$,centrality
R-HSA-388841,0.0009696054944825469,458.0,1,$\widetilde{A}_{G_1}$,centrality
R-HSA-9663891,0.0009669342109708342,459.0,1,$\widetilde{A}_{G_1}$,centrality
R-HSA-5218859,0.0009664034677681375,460.0,1,$\widetilde{A}_{G_1}$,centrality
R-HSA-9617828,0.0009655778234159255,461.0,1,$\widetilde{A}_{G_1}$,centrality
R-HSA-9645723,0.0009649377934159649,462.0,1,$\widetilde{A}_{G_1}$,centrality
R-HSA-379724,0.0009642503026082461,463.0,1,$\widetilde{A}_{G_1}$,centrality
R-HSA-5603041,0.000962737860391888,464.0,1,$\widetilde{A}_{G_1}$,centrality
R-HSA-2299718,0.0009625242751249972,465.0,1,$\widetilde{A}_{G_1}$,centrality
R-HSA-2871809,0.0009622218895293951,466.0,1,$\widetilde{A}_{G_1}$,centrality
R-HSA-5205647,0.0009620338832904171,467.0,1,$\widetilde{A}_{G_1}$,centrality
R-HSA-2173793,0.000961834294915005,468.0,1,$\widetilde{A}_{G_1}$,centrality
R-HSA-2173789,0.0009616132433851961,469.0,1,$\widetilde{A}_{G_1}$,centrality
R-HSA-5656169,0.0009600555270935744,470.0,1,$\widetilde{A}_{G_1}$,centrality
R-HSA-5696395,0.0009591322980753433,471.0,1,$\widetilde{A}_{G_1}$,centrality
R-HSA-69231,0.0009585949026621472,472.5,1,$\widetilde{A}_{G_1}$,centrality
R-HSA-69236,0.0009585949026621472,472.5,1,$\widetilde{A}_{G_1}$,centrality
R-HSA-445144,0.0009585779623343766,474.0,1,$\widetilde{A}_{G_1}$,centrality
R-HSA-202430,0.0009570922236476049,475.0,1,$\widetilde{A}_{G_1}$,centrality
R-HSA-5632684,0.0009570226680349372,476.0,1,$\widetilde{A}_{G_1}$,centrality
R-HSA-5651801,0.000956854833138775,477.0,1,$\widetilde{A}_{G_1}$,centrality
R-HSA-166166,0.0009567705864865033,478.5,1,$\widetilde{A}_{G_1}$,centrality
R-HSA-937061,0.0009567705864865033,478.5,1,$\widetilde{A}_{G_1}$,centrality
R-HSA-168643,0.0009558785844271607,480.0,1,$\widetilde{A}_{G_1}$,centrality
R-HSA-8940973,0.0009555832334483739,481.0,1,$\widetilde{A}_{G_1}$,centrality
R-HSA-2173796,0.000954932258810438,482.0,1,$\widetilde{A}_{G_1}$,centrality
R-HSA-140534,0.0009543956380674378,483.0,1,$\widetilde{A}_{G_1}$,centrality
R-HSA-1912422,0.0009541999088414729,484.0,1,$\widetilde{A}_{G_1}$,centrality
R-HSA-5689603,0.0009518742678520631,485.0,1,$\widetilde{A}_{G_1}$,centrality
R-HSA-168164,0.000951437853315883,486.0,1,$\widetilde{A}_{G_1}$,centrality
R-HSA-6814122,0.000949676978664845,487.0,1,$\widetilde{A}_{G_1}$,centrality
R-HSA-8848021,0.0009492357734400819,488.5,1,$\widetilde{A}_{G_1}$,centrality
R-HSA-9006927,0.0009492357734400819,488.5,1,$\widetilde{A}_{G_1}$,centrality
R-HSA-3899300,0.0009490306916473655,490.0,1,$\widetilde{A}_{G_1}$,centrality
R-HSA-983189,0.0009467091197034387,491.0,1,$\widetilde{A}_{G_1}$,centrality
R-HSA-1810476,0.0009466685483624087,492.0,1,$\widetilde{A}_{G_1}$,centrality
R-HSA-1980143,0.0009458759065351225,493.0,1,$\widetilde{A}_{G_1}$,centrality
R-HSA-2173791,0.0009439674652034103,494.0,1,$\widetilde{A}_{G_1}$,centrality
R-HSA-428540,0.0009436809818816279,495.0,1,$\widetilde{A}_{G_1}$,centrality
R-HSA-1266695,0.0009434562599079808,496.0,1,$\widetilde{A}_{G_1}$,centrality
R-HSA-198323,0.0009418232514335497,497.0,1,$\widetilde{A}_{G_1}$,centrality
R-HSA-5668541,0.0009399292073563618,498.0,1,$\widetilde{A}_{G_1}$,centrality
R-HSA-9694635,0.0009385232195191506,499.0,1,$\widetilde{A}_{G_1}$,centrality
R-HSA-2470946,0.0009377687854209879,500.0,1,$\widetilde{A}_{G_1}$,centrality
R-HSA-5602498,0.0009373832724533499,501.0,1,$\widetilde{A}_{G_1}$,centrality
R-HSA-448424,0.0009372091000855594,502.0,1,$\widetilde{A}_{G_1}$,centrality
R-HSA-8876725,0.0009359804152865366,503.0,1,$\widetilde{A}_{G_1}$,centrality
R-HSA-1368082,0.0009337090058146904,504.0,1,$\widetilde{A}_{G_1}$,centrality
R-HSA-438066,0.0009324159713933611,505.0,1,$\widetilde{A}_{G_1}$,centrality
R-HSA-392451,0.0009321959464515194,506.0,1,$\widetilde{A}_{G_1}$,centrality
R-HSA-5205685,0.0009281732955209841,507.0,1,$\widetilde{A}_{G_1}$,centrality
R-HSA-1362409,0.0009256868192002697,508.0,1,$\widetilde{A}_{G_1}$,centrality
R-HSA-72165,0.000925603872794401,509.0,1,$\widetilde{A}_{G_1}$,centrality
R-HSA-9615933,0.0009254159891833432,510.0,1,$\widetilde{A}_{G_1}$,centrality
R-HSA-5687128,0.0009247969034780086,511.0,1,$\widetilde{A}_{G_1}$,centrality
R-HSA-3214858,0.0009247508311557738,512.0,1,$\widetilde{A}_{G_1}$,centrality
R-HSA-2559580,0.0009234956552268382,513.0,1,$\widetilde{A}_{G_1}$,centrality
R-HSA-196299,0.0009224905806512886,514.0,1,$\widetilde{A}_{G_1}$,centrality
R-HSA-163560,0.0009218375293073779,515.0,1,$\widetilde{A}_{G_1}$,centrality
R-HSA-167242,0.000921646201249304,516.0,1,$\widetilde{A}_{G_1}$,centrality
R-HSA-936440,0.0009183791443772362,517.0,1,$\widetilde{A}_{G_1}$,centrality
R-HSA-167238,0.0009182120999164538,518.5,1,$\widetilde{A}_{G_1}$,centrality
R-HSA-167243,0.0009182120999164538,518.5,1,$\widetilde{A}_{G_1}$,centrality
R-HSA-1606322,0.0009168467821586336,520.0,1,$\widetilde{A}_{G_1}$,centrality
R-HSA-162658,0.0009132490773996467,521.0,1,$\widetilde{A}_{G_1}$,centrality
R-HSA-9664323,0.0009111567642578908,522.0,1,$\widetilde{A}_{G_1}$,centrality
R-HSA-4086400,0.0009106295525460064,523.0,1,$\widetilde{A}_{G_1}$,centrality
R-HSA-8941326,0.0009104888107950179,524.0,1,$\widetilde{A}_{G_1}$,centrality
R-HSA-170834,0.0009095848022760068,525.0,1,$\widetilde{A}_{G_1}$,centrality
R-HSA-6782210,0.0009069042550175255,526.0,1,$\widetilde{A}_{G_1}$,centrality
R-HSA-447115,0.0009061812706969134,527.0,1,$\widetilde{A}_{G_1}$,centrality
R-HSA-9670095,0.0009051399665524711,528.0,1,$\widetilde{A}_{G_1}$,centrality
R-HSA-5625740,0.0009041724705546302,529.0,1,$\widetilde{A}_{G_1}$,centrality
R-HSA-5617472,0.0009032918964040909,530.0,1,$\widetilde{A}_{G_1}$,centrality
R-HSA-5619507,0.0009032918964040907,531.0,1,$\widetilde{A}_{G_1}$,centrality
R-HSA-180746,0.0009029668333000066,532.0,1,$\widetilde{A}_{G_1}$,centrality
R-HSA-3371497,0.0009018817290047967,533.0,1,$\widetilde{A}_{G_1}$,centrality
R-HSA-168142,0.0009012727534421922,535.0,1,$\widetilde{A}_{G_1}$,centrality
R-HSA-975871,0.0009012727534421922,535.0,1,$\widetilde{A}_{G_1}$,centrality
R-HSA-168176,0.0009012727534421922,535.0,1,$\widetilde{A}_{G_1}$,centrality
R-HSA-975138,0.000900939985405492,537.0,1,$\widetilde{A}_{G_1}$,centrality
R-HSA-936964,0.0009009240194155626,538.0,1,$\widetilde{A}_{G_1}$,centrality
R-HSA-110313,0.0008999998226424897,539.0,1,$\widetilde{A}_{G_1}$,centrality
R-HSA-168138,0.0008997801854836813,540.5,1,$\widetilde{A}_{G_1}$,centrality
R-HSA-168181,0.0008997801854836813,540.5,1,$\widetilde{A}_{G_1}$,centrality
R-HSA-975155,0.0008997801854836812,542.0,1,$\widetilde{A}_{G_1}$,centrality
R-HSA-4839748,0.000898732469348467,545.5,1,$\widetilde{A}_{G_1}$,centrality
R-HSA-5467340,0.000898732469348467,545.5,1,$\widetilde{A}_{G_1}$,centrality
R-HSA-5467337,0.000898732469348467,545.5,1,$\widetilde{A}_{G_1}$,centrality
R-HSA-4839744,0.000898732469348467,545.5,1,$\widetilde{A}_{G_1}$,centrality
R-HSA-5467348,0.000898732469348467,545.5,1,$\widetilde{A}_{G_1}$,centrality
R-HSA-4839735,0.000898732469348467,545.5,1,$\widetilde{A}_{G_1}$,centrality
R-HSA-3232142,0.0008984147089792921,549.0,1,$\widetilde{A}_{G_1}$,centrality
R-HSA-6781823,0.000897472716503255,550.0,1,$\widetilde{A}_{G_1}$,centrality
R-HSA-6803204,0.0008973329705879776,551.0,1,$\widetilde{A}_{G_1}$,centrality
R-HSA-8863678,0.0008962103735417793,552.5,1,$\widetilde{A}_{G_1}$,centrality
R-HSA-8862803,0.0008962103735417793,552.5,1,$\widetilde{A}_{G_1}$,centrality
R-HSA-5675221,0.0008960166111666462,554.0,1,$\widetilde{A}_{G_1}$,centrality
R-HSA-6804756,0.000894812402954234,555.0,1,$\widetilde{A}_{G_1}$,centrality
R-HSA-70263,0.0008939495796921159,556.0,1,$\widetilde{A}_{G_1}$,centrality
R-HSA-8875878,0.0008935923104306803,557.0,1,$\widetilde{A}_{G_1}$,centrality
R-HSA-9609690,0.0008925129881592296,558.0,1,$\widetilde{A}_{G_1}$,centrality
R-HSA-167287,0.000892278931542317,559.0,1,$\widetilde{A}_{G_1}$,centrality
R-HSA-167290,0.0008922789315423168,560.0,1,$\widetilde{A}_{G_1}$,centrality
R-HSA-6781827,0.0008915771098680139,561.0,1,$\widetilde{A}_{G_1}$,centrality
R-HSA-202427,0.0008905970272560294,562.0,1,$\widetilde{A}_{G_1}$,centrality
R-HSA-6782135,0.0008899163013588627,563.0,1,$\widetilde{A}_{G_1}$,centrality
R-HSA-202433,0.0008891577134060921,564.0,1,$\widetilde{A}_{G_1}$,centrality
R-HSA-9020591,0.0008886556641540105,565.0,1,$\widetilde{A}_{G_1}$,centrality
R-HSA-9615710,0.0008871407000017931,566.0,1,$\widetilde{A}_{G_1}$,centrality
R-HSA-3214841,0.0008868907464776827,567.0,1,$\widetilde{A}_{G_1}$,centrality
R-HSA-69273,0.0008861326212213894,568.0,1,$\widetilde{A}_{G_1}$,centrality
R-HSA-9664417,0.000885874270398503,569.5,1,$\widetilde{A}_{G_1}$,centrality
R-HSA-9664407,0.000885874270398503,569.5,1,$\widetilde{A}_{G_1}$,centrality
R-HSA-9664422,0.0008858742703985029,571.0,1,$\widetilde{A}_{G_1}$,centrality
R-HSA-164952,0.0008857275269389915,572.0,1,$\widetilde{A}_{G_1}$,centrality
R-HSA-193692,0.0008857033659416189,573.0,1,$\widetilde{A}_{G_1}$,centrality
R-HSA-9035034,0.0008853447380299525,574.0,1,$\widetilde{A}_{G_1}$,centrality
R-HSA-4420097,0.0008827442862757245,575.0,1,$\widetilde{A}_{G_1}$,centrality
R-HSA-164938,0.0008827377444608398,576.0,1,$\widetilde{A}_{G_1}$,centrality
R-HSA-174417,0.0008821805226320009,577.0,1,$\widetilde{A}_{G_1}$,centrality
R-HSA-5250924,0.0008815370209233632,578.0,1,$\widetilde{A}_{G_1}$,centrality
R-HSA-4615885,0.0008814044161572955,579.0,1,$\widetilde{A}_{G_1}$,centrality
R-HSA-5693554,0.0008804476101272084,580.0,1,$\widetilde{A}_{G_1}$,centrality
R-HSA-3928663,0.000880399892357346,581.0,1,$\widetilde{A}_{G_1}$,centrality
R-HSA-2468052,0.0008797985603123133,582.0,1,$\widetilde{A}_{G_1}$,centrality
R-HSA-1236974,0.000879774129248011,583.0,1,$\widetilde{A}_{G_1}$,centrality
R-HSA-4551638,0.0008774684328653425,584.0,1,$\widetilde{A}_{G_1}$,centrality
R-HSA-2559585,0.0008751008781801041,585.0,1,$\widetilde{A}_{G_1}$,centrality
R-HSA-168188,0.000872683228429043,586.5,1,$\widetilde{A}_{G_1}$,centrality
R-HSA-166058,0.000872683228429043,586.5,1,$\widetilde{A}_{G_1}$,centrality
R-HSA-8934903,0.0008715405183085161,588.0,1,$\widetilde{A}_{G_1}$,centrality
R-HSA-6803529,0.0008711472821926693,589.0,1,$\widetilde{A}_{G_1}$,centrality
R-HSA-4090294,0.0008705835755621048,590.0,1,$\widetilde{A}_{G_1}$,centrality
R-HSA-9668328,0.0008689575769269651,591.0,1,$\widetilde{A}_{G_1}$,centrality
R-HSA-4655427,0.0008664248362645598,592.0,1,$\widetilde{A}_{G_1}$,centrality
R-HSA-1445148,0.0008662726883489103,593.0,1,$\widetilde{A}_{G_1}$,centrality
R-HSA-73893,0.0008659310417190598,594.0,1,$\widetilde{A}_{G_1}$,centrality
R-HSA-168271,0.0008658195593665084,595.0,1,$\widetilde{A}_{G_1}$,centrality
R-HSA-9013420,0.0008651162445521485,596.0,1,$\widetilde{A}_{G_1}$,centrality
R-HSA-8939236,0.0008643148258823226,597.0,1,$\widetilde{A}_{G_1}$,centrality
R-HSA-171319,0.0008635361012988926,598.0,1,$\widetilde{A}_{G_1}$,centrality
R-HSA-4085377,0.0008627216976873758,599.0,1,$\widetilde{A}_{G_1}$,centrality
R-HSA-1226099,0.0008624447742824565,600.0,1,$\widetilde{A}_{G_1}$,centrality
R-HSA-5696399,0.0008590426847935997,601.0,1,$\widetilde{A}_{G_1}$,centrality
R-HSA-5685942,0.0008587613223738583,602.0,1,$\widetilde{A}_{G_1}$,centrality
R-HSA-4641265,0.0008584803984504433,603.0,1,$\widetilde{A}_{G_1}$,centrality
R-HSA-5668599,0.0008584013160053861,604.0,1,$\widetilde{A}_{G_1}$,centrality
R-HSA-4419969,0.0008576201802984975,605.0,1,$\widetilde{A}_{G_1}$,centrality
R-HSA-181438,0.0008568700643804509,606.5,1,$\widetilde{A}_{G_1}$,centrality
R-HSA-168179,0.0008568700643804509,606.5,1,$\widetilde{A}_{G_1}$,centrality
R-HSA-168928,0.0008563374824151822,608.0,1,$\widetilde{A}_{G_1}$,centrality
R-HSA-2029482,0.0008552364195276189,609.0,1,$\widetilde{A}_{G_1}$,centrality
R-HSA-168276,0.0008551222801525479,610.0,1,$\widetilde{A}_{G_1}$,centrality
R-HSA-450531,0.0008535002104058247,611.0,1,$\widetilde{A}_{G_1}$,centrality
R-HSA-2465910,0.0008521268441314783,612.0,1,$\widetilde{A}_{G_1}$,centrality
R-HSA-3928662,0.0008516416134449985,613.0,1,$\widetilde{A}_{G_1}$,centrality
R-HSA-390466,0.0008509726095355804,614.0,1,$\widetilde{A}_{G_1}$,centrality
R-HSA-5627117,0.0008505175328451773,615.0,1,$\widetilde{A}_{G_1}$,centrality
R-HSA-6784531,0.0008502677745969204,616.0,1,$\widetilde{A}_{G_1}$,centrality
R-HSA-6783310,0.0008502149249972884,617.0,1,$\widetilde{A}_{G_1}$,centrality
R-HSA-110373,0.0008501642122170109,618.0,1,$\widetilde{A}_{G_1}$,centrality
R-HSA-400253,0.0008489303300304689,619.0,1,$\widetilde{A}_{G_1}$,centrality
R-HSA-9696264,0.0008486714171580423,620.0,1,$\widetilde{A}_{G_1}$,centrality
R-HSA-5619107,0.0008479548023652945,622.0,1,$\widetilde{A}_{G_1}$,centrality
R-HSA-168325,0.0008479548023652945,622.0,1,$\widetilde{A}_{G_1}$,centrality
R-HSA-170822,0.0008479548023652945,622.0,1,$\widetilde{A}_{G_1}$,centrality
R-HSA-9617324,0.0008468775153430322,624.0,1,$\widetilde{A}_{G_1}$,centrality
R-HSA-6785807,0.0008467651868247814,625.0,1,$\widetilde{A}_{G_1}$,centrality
R-HSA-5218920,0.0008465984005097115,626.0,1,$\widetilde{A}_{G_1}$,centrality
R-HSA-4570464,0.0008463492142452498,627.0,1,$\widetilde{A}_{G_1}$,centrality
R-HSA-176033,0.0008460985290517001,628.0,1,$\widetilde{A}_{G_1}$,centrality
R-HSA-180910,0.0008460985290516998,629.0,1,$\widetilde{A}_{G_1}$,centrality
R-HSA-397795,0.0008456603968668019,630.0,1,$\widetilde{A}_{G_1}$,centrality
R-HSA-9013507,0.0008455372333405929,631.0,1,$\widetilde{A}_{G_1}$,centrality
R-HSA-6790901,0.0008453855115206419,632.0,1,$\widetilde{A}_{G_1}$,centrality
R-HSA-1834949,0.0008443520230110373,633.0,1,$\widetilde{A}_{G_1}$,centrality
R-HSA-69091,0.0008434570459053758,634.5,1,$\widetilde{A}_{G_1}$,centrality
R-HSA-69109,0.0008434570459053758,634.5,1,$\widetilde{A}_{G_1}$,centrality
R-HSA-9620244,0.0008431148712414917,636.0,1,$\widetilde{A}_{G_1}$,centrality
R-HSA-73884,0.0008426724669270077,637.0,1,$\widetilde{A}_{G_1}$,centrality
R-HSA-180786,0.00084155732113588,638.0,1,$\widetilde{A}_{G_1}$,centrality
R-HSA-203927,0.0008405165927525192,639.0,1,$\widetilde{A}_{G_1}$,centrality
R-HSA-6802957,0.0008396971794024451,640.0,1,$\widetilde{A}_{G_1}$,centrality
R-HSA-2995383,0.0008384181284734655,641.0,1,$\widetilde{A}_{G_1}$,centrality
R-HSA-109606,0.0008379952795081176,642.0,1,$\widetilde{A}_{G_1}$,centrality
R-HSA-5686938,0.0008375426774000796,643.0,1,$\widetilde{A}_{G_1}$,centrality
R-HSA-9013407,0.00083700046847841,644.0,1,$\widetilde{A}_{G_1}$,centrality
R-HSA-532668,0.0008368827118759752,645.0,1,$\widetilde{A}_{G_1}$,centrality
R-HSA-1236975,0.0008310059452033946,646.0,1,$\widetilde{A}_{G_1}$,centrality
R-HSA-1660499,0.0008309887545226979,647.0,1,$\widetilde{A}_{G_1}$,centrality
R-HSA-9648002,0.00083039889249765,648.0,1,$\widetilde{A}_{G_1}$,centrality
R-HSA-73854,0.000829251292189292,649.0,1,$\widetilde{A}_{G_1}$,centrality
R-HSA-198753,0.0008292389934356587,650.0,1,$\widetilde{A}_{G_1}$,centrality
R-HSA-9609736,0.0008271114471234781,651.0,1,$\widetilde{A}_{G_1}$,centrality
R-HSA-73864,0.0008260608313693377,652.0,1,$\widetilde{A}_{G_1}$,centrality
R-HSA-438064,0.0008259100647527889,653.0,1,$\widetilde{A}_{G_1}$,centrality
R-HSA-9679191,0.0008221244984091673,654.0,1,$\widetilde{A}_{G_1}$,centrality
R-HSA-9706369,0.0008219052474127417,655.0,1,$\widetilde{A}_{G_1}$,centrality
R-HSA-111932,0.0008217198492068257,656.0,1,$\widetilde{A}_{G_1}$,centrality
R-HSA-157579,0.000820032341617471,657.0,1,$\widetilde{A}_{G_1}$,centrality
R-HSA-212676,0.0008197431049444685,660.0,1,$\widetilde{A}_{G_1}$,centrality
R-HSA-264642,0.0008197431049444685,660.0,1,$\widetilde{A}_{G_1}$,centrality
R-HSA-210500,0.0008197431049444685,660.0,1,$\widetilde{A}_{G_1}$,centrality
R-HSA-181430,0.0008197431049444685,660.0,1,$\widetilde{A}_{G_1}$,centrality
R-HSA-181429,0.0008197431049444685,660.0,1,$\widetilde{A}_{G_1}$,centrality
R-HSA-70326,0.0008165230058867611,663.0,1,$\widetilde{A}_{G_1}$,centrality
R-HSA-174490,0.0008165168954915082,665.0,1,$\widetilde{A}_{G_1}$,centrality
R-HSA-174495,0.0008165168954915082,665.0,1,$\widetilde{A}_{G_1}$,centrality
R-HSA-175474,0.0008165168954915082,665.0,1,$\widetilde{A}_{G_1}$,centrality
R-HSA-8939243,0.0008158641698573101,667.0,1,$\widetilde{A}_{G_1}$,centrality
R-HSA-901032,0.0008129540526239842,668.0,1,$\widetilde{A}_{G_1}$,centrality
R-HSA-73772,0.0008109579353841886,669.0,1,$\widetilde{A}_{G_1}$,centrality
R-HSA-72187,0.0008105303534097425,670.0,1,$\widetilde{A}_{G_1}$,centrality
R-HSA-112409,0.0008098076316469536,671.0,1,$\widetilde{A}_{G_1}$,centrality
R-HSA-5619102,0.000809287176234586,672.0,1,$\widetilde{A}_{G_1}$,centrality
R-HSA-391251,0.0008090738719129802,673.0,1,$\widetilde{A}_{G_1}$,centrality
R-HSA-3301854,0.0008081982212500452,674.0,1,$\widetilde{A}_{G_1}$,centrality
R-HSA-844456,0.000808160635883321,675.0,1,$\widetilde{A}_{G_1}$,centrality
R-HSA-3928665,0.0008067391789667457,676.0,1,$\widetilde{A}_{G_1}$,centrality
R-HSA-70171,0.0008063060855199499,677.0,1,$\widetilde{A}_{G_1}$,centrality
R-HSA-3108214,0.0008042896376840793,678.0,1,$\widetilde{A}_{G_1}$,centrality
R-HSA-1362300,0.0008042096888591011,679.0,1,$\widetilde{A}_{G_1}$,centrality
R-HSA-774815,0.0008038786972658101,680.5,1,$\widetilde{A}_{G_1}$,centrality
R-HSA-606279,0.0008038786972658101,680.5,1,$\widetilde{A}_{G_1}$,centrality
R-HSA-72086,0.0008019319336776752,682.0,1,$\widetilde{A}_{G_1}$,centrality
R-HSA-113501,0.0008010164217019667,683.0,1,$\widetilde{A}_{G_1}$,centrality
R-HSA-111367,0.0008001787359117546,684.0,1,$\widetilde{A}_{G_1}$,centrality
R-HSA-6802952,0.0007990868882563287,685.0,1,$\widetilde{A}_{G_1}$,centrality
R-HSA-111458,0.0007987958655083805,686.5,1,$\widetilde{A}_{G_1}$,centrality
R-HSA-9627069,0.0007987958655083805,686.5,1,$\widetilde{A}_{G_1}$,centrality
R-HSA-3215018,0.0007987899957333386,688.0,1,$\widetilde{A}_{G_1}$,centrality
R-HSA-167200,0.0007980905848056923,689.5,1,$\widetilde{A}_{G_1}$,centrality
R-HSA-167169,0.0007980905848056923,689.5,1,$\widetilde{A}_{G_1}$,centrality
R-HSA-167246,0.0007980905848056922,691.0,1,$\widetilde{A}_{G_1}$,centrality
R-HSA-194441,0.0007974678383543517,692.5,1,$\widetilde{A}_{G_1}$,centrality
R-HSA-191859,0.0007974678383543517,692.5,1,$\widetilde{A}_{G_1}$,centrality
R-HSA-418597,0.000796494266517212,694.0,1,$\widetilde{A}_{G_1}$,centrality
R-HSA-6811436,0.000796050851545852,695.0,1,$\widetilde{A}_{G_1}$,centrality
R-HSA-73856,0.0007957616546194931,696.0,1,$\widetilde{A}_{G_1}$,centrality
R-HSA-77075,0.000794802655560986,697.5,1,$\widetilde{A}_{G_1}$,centrality
R-HSA-167160,0.000794802655560986,697.5,1,$\widetilde{A}_{G_1}$,centrality
R-HSA-2028269,0.0007931951982687905,699.0,1,$\widetilde{A}_{G_1}$,centrality
R-HSA-6791312,0.0007918561416447599,700.0,1,$\widetilde{A}_{G_1}$,centrality
R-HSA-1839126,0.0007903401698953384,701.0,1,$\widetilde{A}_{G_1}$,centrality
R-HSA-399956,0.0007902814204360112,702.0,1,$\widetilde{A}_{G_1}$,centrality
R-HSA-9029569,0.0007883072298918584,703.0,1,$\widetilde{A}_{G_1}$,centrality
R-HSA-9006936,0.0007869137285143093,704.0,1,$\widetilde{A}_{G_1}$,centrality
R-HSA-450282,0.0007868259268364019,705.0,1,$\widetilde{A}_{G_1}$,centrality
R-HSA-156711,0.0007863514659718827,706.0,1,$\widetilde{A}_{G_1}$,centrality
R-HSA-167152,0.0007863317983107804,707.0,1,$\widetilde{A}_{G_1}$,centrality
R-HSA-2559582,0.0007840203887380994,708.0,1,$\widetilde{A}_{G_1}$,centrality
R-HSA-445355,0.0007822398546532532,709.0,1,$\widetilde{A}_{G_1}$,centrality
R-HSA-73762,0.0007807556403468315,710.0,1,$\widetilde{A}_{G_1}$,centrality
R-HSA-5389840,0.0007806586832872441,711.0,1,$\widetilde{A}_{G_1}$,centrality
R-HSA-6796648,0.0007786834389614552,712.0,1,$\widetilde{A}_{G_1}$,centrality
R-HSA-5419276,0.0007771228022258435,713.0,1,$\widetilde{A}_{G_1}$,centrality
R-HSA-8979227,0.0007770405037409928,714.0,1,$\widetilde{A}_{G_1}$,centrality
R-HSA-450604,0.0007757412465745144,715.0,1,$\widetilde{A}_{G_1}$,centrality
R-HSA-5368286,0.0007757220939792297,716.0,1,$\widetilde{A}_{G_1}$,centrality
R-HSA-2682334,0.0007753649954772096,717.0,1,$\widetilde{A}_{G_1}$,centrality
R-HSA-113418,0.000775109473735451,718.5,1,$\widetilde{A}_{G_1}$,centrality
R-HSA-167158,0.000775109473735451,718.5,1,$\widetilde{A}_{G_1}$,centrality
R-HSA-8874081,0.0007744728158496156,720.0,1,$\widetilde{A}_{G_1}$,centrality
R-HSA-9687139,0.0007742874796649484,721.0,1,$\widetilde{A}_{G_1}$,centrality
R-HSA-442755,0.0007740588827781519,722.0,1,$\widetilde{A}_{G_1}$,centrality
R-HSA-9675126,0.000773989117624852,723.0,1,$\widetilde{A}_{G_1}$,centrality
R-HSA-77588,0.0007739734513066297,724.0,1,$\widetilde{A}_{G_1}$,centrality
R-HSA-2565942,0.0007732754853682996,725.0,1,$\widetilde{A}_{G_1}$,centrality
R-HSA-9662361,0.0007720772979332513,726.0,1,$\widetilde{A}_{G_1}$,centrality
R-HSA-4641262,0.0007662685135657082,727.0,1,$\widetilde{A}_{G_1}$,centrality
R-HSA-202733,0.0007658266123237003,728.0,1,$\widetilde{A}_{G_1}$,centrality
R-HSA-3769402,0.0007636360164649784,729.0,1,$\widetilde{A}_{G_1}$,centrality
R-HSA-9022692,0.0007634936738172805,730.0,1,$\widetilde{A}_{G_1}$,centrality
R-HSA-8964043,0.0007599514433871419,731.0,1,$\widetilde{A}_{G_1}$,centrality
R-HSA-5693568,0.0007596719389612014,732.0,1,$\widetilde{A}_{G_1}$,centrality
R-HSA-9013026,0.0007589924564725343,733.0,1,$\widetilde{A}_{G_1}$,centrality
R-HSA-6788467,0.0007579314395988434,734.0,1,$\widetilde{A}_{G_1}$,centrality
R-HSA-8853884,0.0007577661101533191,735.0,1,$\widetilde{A}_{G_1}$,centrality
R-HSA-70268,0.0007571619111477205,736.0,1,$\widetilde{A}_{G_1}$,centrality
R-HSA-5368287,0.0007564737626523872,737.0,1,$\widetilde{A}_{G_1}$,centrality
R-HSA-112310,0.000755110498885909,738.0,1,$\widetilde{A}_{G_1}$,centrality
R-HSA-69205,0.0007544762071402474,739.0,1,$\widetilde{A}_{G_1}$,centrality
R-HSA-9659379,0.0007535135940451818,740.0,1,$\widetilde{A}_{G_1}$,centrality
R-HSA-112382,0.0007528330062683872,741.5,1,$\widetilde{A}_{G_1}$,centrality
R-HSA-75955,0.0007528330062683872,741.5,1,$\widetilde{A}_{G_1}$,centrality
R-HSA-422356,0.0007526621071520884,743.0,1,$\widetilde{A}_{G_1}$,centrality
R-HSA-5250941,0.0007526154306935108,744.0,1,$\widetilde{A}_{G_1}$,centrality
R-HSA-5674400,0.0007512320217048232,745.0,1,$\widetilde{A}_{G_1}$,centrality
R-HSA-9662360,0.000750468724993748,746.0,1,$\widetilde{A}_{G_1}$,centrality
R-HSA-4791275,0.0007492716112857374,747.0,1,$\widetilde{A}_{G_1}$,centrality
R-HSA-5357769,0.0007492483147396822,748.0,1,$\widetilde{A}_{G_1}$,centrality
R-HSA-381676,0.0007487336296639528,749.0,1,$\widetilde{A}_{G_1}$,centrality
R-HSA-9664420,0.0007474385832777026,750.5,1,$\widetilde{A}_{G_1}$,centrality
R-HSA-9673324,0.0007474385832777026,750.5,1,$\widetilde{A}_{G_1}$,centrality
R-HSA-6811434,0.0007468467475462315,752.0,1,$\widetilde{A}_{G_1}$,centrality
R-HSA-427413,0.0007467814299978885,753.0,1,$\widetilde{A}_{G_1}$,centrality
R-HSA-211945,0.0007464167437766804,754.0,1,$\widetilde{A}_{G_1}$,centrality
R-HSA-211859,0.0007464167437766803,755.0,1,$\widetilde{A}_{G_1}$,centrality
R-HSA-5693537,0.0007451116493939273,756.0,1,$\widetilde{A}_{G_1}$,centrality
R-HSA-901042,0.0007438525633067188,757.0,1,$\widetilde{A}_{G_1}$,centrality
R-HSA-113510,0.0007428434765985309,758.0,1,$\widetilde{A}_{G_1}$,centrality
R-HSA-381070,0.0007421676383332093,759.0,1,$\widetilde{A}_{G_1}$,centrality
R-HSA-399721,0.0007375000372378121,760.0,1,$\widetilde{A}_{G_1}$,centrality
R-HSA-399719,0.000737500037237812,761.0,1,$\widetilde{A}_{G_1}$,centrality
R-HSA-977225,0.0007372757943708035,762.0,1,$\widetilde{A}_{G_1}$,centrality
R-HSA-8866652,0.000736671677668795,763.0,1,$\widetilde{A}_{G_1}$,centrality
R-HSA-164940,0.0007362898134866368,764.0,1,$\widetilde{A}_{G_1}$,centrality
R-HSA-392517,0.0007339106094657769,765.0,1,$\widetilde{A}_{G_1}$,centrality
R-HSA-264870,0.0007332228397746004,766.0,1,$\widetilde{A}_{G_1}$,centrality
R-HSA-6799198,0.0007324180524054533,767.0,1,$\widetilde{A}_{G_1}$,centrality
R-HSA-77595,0.000730094729986462,768.0,1,$\widetilde{A}_{G_1}$,centrality
R-HSA-9013424,0.0007300812213184025,769.0,1,$\widetilde{A}_{G_1}$,centrality
R-HSA-400685,0.0007288820157054387,770.0,1,$\widetilde{A}_{G_1}$,centrality
R-HSA-5578749,0.0007264834370757851,771.0,1,$\widetilde{A}_{G_1}$,centrality
R-HSA-429947,0.0007246661699542328,772.0,1,$\widetilde{A}_{G_1}$,centrality
R-HSA-622312,0.0007245749166425755,773.0,1,$\widetilde{A}_{G_1}$,centrality
R-HSA-383280,0.0007245738394353072,774.0,1,$\widetilde{A}_{G_1}$,centrality
R-HSA-9609523,0.0007245168110538757,775.0,1,$\widetilde{A}_{G_1}$,centrality
R-HSA-429958,0.000723259459399813,776.0,1,$\widetilde{A}_{G_1}$,centrality
R-HSA-2132295,0.0007217442110536377,777.0,1,$\widetilde{A}_{G_1}$,centrality
R-HSA-180024,0.0007212857598422706,778.0,1,$\widetilde{A}_{G_1}$,centrality
R-HSA-8986944,0.000720940337369641,779.0,1,$\widetilde{A}_{G_1}$,centrality
R-HSA-8856825,0.000720028988813294,780.0,1,$\widetilde{A}_{G_1}$,centrality
R-HSA-176412,0.000719341386683284,781.0,1,$\widetilde{A}_{G_1}$,centrality
R-HSA-8866654,0.0007186656548495423,782.0,1,$\widetilde{A}_{G_1}$,centrality
R-HSA-2426168,0.0007186013834603722,783.0,1,$\widetilde{A}_{G_1}$,centrality
R-HSA-193648,0.0007178209143485551,784.0,1,$\widetilde{A}_{G_1}$,centrality
R-HSA-9694548,0.0007172351589674255,785.0,1,$\widetilde{A}_{G_1}$,centrality
R-HSA-111461,0.0007169508892259903,786.0,1,$\widetilde{A}_{G_1}$,centrality
R-HSA-416572,0.0007168455217365291,787.0,1,$\widetilde{A}_{G_1}$,centrality
R-HSA-174411,0.0007153375920364013,788.0,1,$\widetilde{A}_{G_1}$,centrality
R-HSA-9013106,0.0007153034430921044,789.0,1,$\widetilde{A}_{G_1}$,centrality
R-HSA-193704,0.00071373520135239,790.0,1,$\widetilde{A}_{G_1}$,centrality
R-HSA-75067,0.0007135516611720796,791.0,1,$\widetilde{A}_{G_1}$,centrality
R-HSA-446353,0.000711248429733892,792.0,1,$\widetilde{A}_{G_1}$,centrality
R-HSA-8949215,0.0007109834962703871,793.0,1,$\widetilde{A}_{G_1}$,centrality
R-HSA-418555,0.000710099397609981,794.0,1,$\widetilde{A}_{G_1}$,centrality
R-HSA-373752,0.000708511562291227,795.0,1,$\widetilde{A}_{G_1}$,centrality
R-HSA-167172,0.000707330241006142,796.0,1,$\widetilde{A}_{G_1}$,centrality
R-HSA-211000,0.0007069681472744005,797.0,1,$\widetilde{A}_{G_1}$,centrality
R-HSA-8856688,0.0007065961918364122,798.0,1,$\widetilde{A}_{G_1}$,centrality
R-HSA-442720,0.0007053732264686958,799.0,1,$\widetilde{A}_{G_1}$,centrality
R-HSA-5663213,0.0007042980443129081,800.0,1,$\widetilde{A}_{G_1}$,centrality
R-HSA-9707616,0.000704276504049686,801.0,1,$\widetilde{A}_{G_1}$,centrality
R-HSA-9660826,0.0007033185652050973,802.5,1,$\widetilde{A}_{G_1}$,centrality
R-HSA-9664424,0.0007033185652050973,802.5,1,$\widetilde{A}_{G_1}$,centrality
R-HSA-674695,0.0007032738895765039,804.0,1,$\widetilde{A}_{G_1}$,centrality
R-HSA-9024446,0.0007023976760182935,805.0,1,$\widetilde{A}_{G_1}$,centrality
R-HSA-983231,0.0007021785162566417,806.0,1,$\widetilde{A}_{G_1}$,centrality
R-HSA-1500931,0.0007000589522654653,807.0,1,$\widetilde{A}_{G_1}$,centrality
R-HSA-380994,0.0006982596437439491,808.0,1,$\widetilde{A}_{G_1}$,centrality
R-HSA-72306,0.0006971196141200064,809.0,1,$\widetilde{A}_{G_1}$,centrality
R-HSA-450385,0.0006947565813812398,810.0,1,$\widetilde{A}_{G_1}$,centrality
R-HSA-9687136,0.0006934282618111296,811.0,1,$\widetilde{A}_{G_1}$,centrality
R-HSA-983170,0.0006933161181113626,812.0,1,$\widetilde{A}_{G_1}$,centrality
R-HSA-71403,0.0006932335472698438,813.0,1,$\widetilde{A}_{G_1}$,centrality
R-HSA-174048,0.0006926043917055804,814.0,1,$\widetilde{A}_{G_1}$,centrality
R-HSA-198725,0.0006925255903106898,815.0,1,$\widetilde{A}_{G_1}$,centrality
R-HSA-399955,0.0006917019608817825,816.0,1,$\widetilde{A}_{G_1}$,centrality
R-HSA-525793,0.000689473894433865,817.0,1,$\widetilde{A}_{G_1}$,centrality
R-HSA-9012852,0.000688132027336455,818.0,1,$\widetilde{A}_{G_1}$,centrality
R-HSA-8852135,0.0006876333196003956,819.0,1,$\widetilde{A}_{G_1}$,centrality
R-HSA-111933,0.0006871518663782359,820.0,1,$\widetilde{A}_{G_1}$,centrality
R-HSA-111997,0.0006871518663782357,821.0,1,$\widetilde{A}_{G_1}$,centrality
R-HSA-3214847,0.0006870239240533724,822.0,1,$\widetilde{A}_{G_1}$,centrality
R-HSA-167161,0.0006865034979589451,824.5,1,$\widetilde{A}_{G_1}$,centrality
R-HSA-75953,0.0006865034979589451,824.5,1,$\widetilde{A}_{G_1}$,centrality
R-HSA-73779,0.0006865034979589451,824.5,1,$\widetilde{A}_{G_1}$,centrality
R-HSA-73776,0.0006865034979589451,824.5,1,$\widetilde{A}_{G_1}$,centrality
R-HSA-76042,0.000686503497958945,827.0,1,$\widetilde{A}_{G_1}$,centrality
R-HSA-167162,0.0006865034979589449,828.0,1,$\widetilde{A}_{G_1}$,centrality
R-HSA-111996,0.0006864192846489732,829.0,1,$\widetilde{A}_{G_1}$,centrality
R-HSA-6807878,0.0006835115724462455,830.0,1,$\widetilde{A}_{G_1}$,centrality
R-HSA-8949664,0.0006823322207926445,831.0,1,$\widetilde{A}_{G_1}$,centrality
R-HSA-2980736,0.0006799183071310684,832.0,1,$\widetilde{A}_{G_1}$,centrality
R-HSA-9664433,0.0006779943683576665,833.5,1,$\widetilde{A}_{G_1}$,centrality
R-HSA-9662851,0.0006779943683576665,833.5,1,$\widetilde{A}_{G_1}$,centrality
R-HSA-1489509,0.0006765545920215754,835.0,1,$\widetilde{A}_{G_1}$,centrality
R-HSA-381042,0.000673170393666212,836.0,1,$\widetilde{A}_{G_1}$,centrality
R-HSA-9709957,0.0006723273601391084,837.0,1,$\widetilde{A}_{G_1}$,centrality
R-HSA-163210,0.0006717567209636444,838.0,1,$\widetilde{A}_{G_1}$,centrality
R-HSA-9660821,0.0006709246366486675,839.0,1,$\widetilde{A}_{G_1}$,centrality
R-HSA-429914,0.0006708880976395264,840.0,1,$\widetilde{A}_{G_1}$,centrality
R-HSA-381340,0.0006693563950004779,841.0,1,$\widetilde{A}_{G_1}$,centrality
R-HSA-373760,0.0006674654699507859,842.0,1,$\widetilde{A}_{G_1}$,centrality
R-HSA-9013406,0.0006674086996824482,843.0,1,$\widetilde{A}_{G_1}$,centrality
R-HSA-179409,0.0006649243129864164,844.0,1,$\widetilde{A}_{G_1}$,centrality
R-HSA-73933,0.0006644459468829849,845.0,1,$\widetilde{A}_{G_1}$,centrality
R-HSA-111931,0.0006640158498577233,846.0,1,$\widetilde{A}_{G_1}$,centrality
R-HSA-8957322,0.0006638881538877695,847.0,1,$\widetilde{A}_{G_1}$,centrality
R-HSA-141405,0.0006625221679757566,848.5,1,$\widetilde{A}_{G_1}$,centrality
R-HSA-141430,0.0006625221679757566,848.5,1,$\widetilde{A}_{G_1}$,centrality
R-HSA-381033,0.0006620386104474597,850.0,1,$\widetilde{A}_{G_1}$,centrality
R-HSA-176407,0.0006587982076191916,851.0,1,$\widetilde{A}_{G_1}$,centrality
R-HSA-6805567,0.0006578808312567374,852.0,1,$\widetilde{A}_{G_1}$,centrality
R-HSA-6809371,0.0006578808312567372,853.0,1,$\widetilde{A}_{G_1}$,centrality
R-HSA-73863,0.0006569526382624932,854.0,1,$\widetilde{A}_{G_1}$,centrality
R-HSA-5633008,0.0006567424535681952,855.0,1,$\widetilde{A}_{G_1}$,centrality
R-HSA-163685,0.0006537118180415475,856.0,1,$\widetilde{A}_{G_1}$,centrality
R-HSA-204998,0.0006537050042770314,857.0,1,$\widetilde{A}_{G_1}$,centrality
R-HSA-8949613,0.0006507757153982657,858.0,1,$\widetilde{A}_{G_1}$,centrality
R-HSA-432720,0.0006499531172609345,859.0,1,$\widetilde{A}_{G_1}$,centrality
R-HSA-177243,0.0006494360848578679,860.0,1,$\widetilde{A}_{G_1}$,centrality
R-HSA-1655829,0.0006492731981667577,861.0,1,$\widetilde{A}_{G_1}$,centrality
R-HSA-5607763,0.0006479485440383527,862.0,1,$\widetilde{A}_{G_1}$,centrality
R-HSA-168274,0.0006475989378714822,863.0,1,$\widetilde{A}_{G_1}$,centrality
R-HSA-168333,0.0006475989378714821,864.0,1,$\widetilde{A}_{G_1}$,centrality
R-HSA-112040,0.0006447518191310355,865.0,1,$\widetilde{A}_{G_1}$,centrality
R-HSA-71406,0.0006416324626559341,866.0,1,$\widetilde{A}_{G_1}$,centrality
R-HSA-111471,0.0006407508263362765,867.0,1,$\widetilde{A}_{G_1}$,centrality
R-HSA-1483206,0.0006402616101146199,868.0,1,$\widetilde{A}_{G_1}$,centrality
R-HSA-9013405,0.0006398760627820516,869.0,1,$\widetilde{A}_{G_1}$,centrality
R-HSA-917937,0.0006390399430000457,870.0,1,$\widetilde{A}_{G_1}$,centrality
R-HSA-450513,0.000638843945162901,871.0,1,$\widetilde{A}_{G_1}$,centrality
R-HSA-5362517,0.0006374342024675477,872.0,1,$\widetilde{A}_{G_1}$,centrality
R-HSA-114608,0.0006371594130442594,873.0,1,$\widetilde{A}_{G_1}$,centrality
R-HSA-111885,0.0006362010554075943,874.0,1,$\widetilde{A}_{G_1}$,centrality
R-HSA-162588,0.0006348348886453493,875.0,1,$\widetilde{A}_{G_1}$,centrality
R-HSA-76005,0.0006327689981028426,876.0,1,$\widetilde{A}_{G_1}$,centrality
R-HSA-6807505,0.0006322964464163038,877.0,1,$\widetilde{A}_{G_1}$,centrality
R-HSA-416476,0.0006318188761428848,878.0,1,$\widetilde{A}_{G_1}$,centrality
R-HSA-165159,0.0006315540263163052,879.0,1,$\widetilde{A}_{G_1}$,centrality
R-HSA-2995410,0.0006302534534538722,880.0,1,$\widetilde{A}_{G_1}$,centrality
R-HSA-611105,0.0006279130056722754,881.0,1,$\widetilde{A}_{G_1}$,centrality
R-HSA-112043,0.0006275821298514305,882.0,1,$\widetilde{A}_{G_1}$,centrality
R-HSA-159227,0.0006268244237610095,883.0,1,$\widetilde{A}_{G_1}$,centrality
R-HSA-73780,0.0006262831670579084,884.0,1,$\widetilde{A}_{G_1}$,centrality
R-HSA-73980,0.0006262831670579082,885.0,1,$\widetilde{A}_{G_1}$,centrality
R-HSA-1368108,0.0006262444460928494,886.0,1,$\widetilde{A}_{G_1}$,centrality
R-HSA-400206,0.0006257430702564088,887.0,1,$\widetilde{A}_{G_1}$,centrality
R-HSA-165054,0.0006249005227316584,888.0,1,$\widetilde{A}_{G_1}$,centrality
R-HSA-418990,0.0006243656499268971,889.0,1,$\widetilde{A}_{G_1}$,centrality
R-HSA-1980145,0.0006220518701665937,890.0,1,$\widetilde{A}_{G_1}$,centrality
R-HSA-9610379,0.0006209597135193553,891.0,1,$\widetilde{A}_{G_1}$,centrality
R-HSA-9031628,0.0006198761695347227,892.0,1,$\widetilde{A}_{G_1}$,centrality
R-HSA-9013408,0.0006193826628613067,893.0,1,$\widetilde{A}_{G_1}$,centrality
R-HSA-5628897,0.0006193631401025418,894.0,1,$\widetilde{A}_{G_1}$,centrality
R-HSA-201451,0.0006190766992948299,895.0,1,$\widetilde{A}_{G_1}$,centrality
R-HSA-76066,0.0006182158541342437,896.0,1,$\widetilde{A}_{G_1}$,centrality
R-HSA-1989781,0.0006181008266789908,897.0,1,$\widetilde{A}_{G_1}$,centrality
R-HSA-445095,0.0006165898835849671,898.0,1,$\widetilde{A}_{G_1}$,centrality
R-HSA-159230,0.0006164142540889653,899.0,1,$\widetilde{A}_{G_1}$,centrality
R-HSA-9013409,0.0006163686516336805,900.0,1,$\widetilde{A}_{G_1}$,centrality
R-HSA-3000170,0.0006153343337585999,901.0,1,$\widetilde{A}_{G_1}$,centrality
R-HSA-166208,0.0006136026762132188,902.0,1,$\widetilde{A}_{G_1}$,centrality
R-HSA-6783783,0.0006114183707260086,903.0,1,$\widetilde{A}_{G_1}$,centrality
R-HSA-416482,0.0006106270574715353,904.0,1,$\widetilde{A}_{G_1}$,centrality
R-HSA-917729,0.0006076360330708397,905.0,1,$\widetilde{A}_{G_1}$,centrality
R-HSA-204005,0.0006068236155265841,906.0,1,$\widetilde{A}_{G_1}$,centrality
R-HSA-1169408,0.0006066303316715247,907.0,1,$\widetilde{A}_{G_1}$,centrality
R-HSA-9013404,0.0006040675204835373,908.0,1,$\widetilde{A}_{G_1}$,centrality
R-HSA-380320,0.0006035935324574471,909.0,1,$\widetilde{A}_{G_1}$,centrality
R-HSA-8854518,0.0006025380942265901,910.0,1,$\widetilde{A}_{G_1}$,centrality
R-HSA-380259,0.0006006241241594001,911.5,1,$\widetilde{A}_{G_1}$,centrality
R-HSA-380284,0.0006006241241594001,911.5,1,$\widetilde{A}_{G_1}$,centrality
R-HSA-76061,0.0005988521992135481,913.0,1,$\widetilde{A}_{G_1}$,centrality
R-HSA-174824,0.0005978261859410357,914.0,1,$\widetilde{A}_{G_1}$,centrality
R-HSA-1169410,0.0005955119213036612,915.0,1,$\widetilde{A}_{G_1}$,centrality
R-HSA-5620924,0.0005951302975417492,916.0,1,$\widetilde{A}_{G_1}$,centrality
R-HSA-5694530,0.0005945759731326512,917.0,1,$\widetilde{A}_{G_1}$,centrality
R-HSA-2151201,0.000593769578465875,918.0,1,$\widetilde{A}_{G_1}$,centrality
R-HSA-159236,0.0005908847934536398,919.0,1,$\widetilde{A}_{G_1}$,centrality
R-HSA-430039,0.0005884635158157,920.0,1,$\widetilde{A}_{G_1}$,centrality
R-HSA-72202,0.0005876863101931031,921.0,1,$\widetilde{A}_{G_1}$,centrality
R-HSA-909733,0.0005875389112171989,922.0,1,$\widetilde{A}_{G_1}$,centrality
R-HSA-3299685,0.0005859016645054356,923.0,1,$\widetilde{A}_{G_1}$,centrality
R-HSA-2122948,0.0005849764773039509,924.0,1,$\widetilde{A}_{G_1}$,centrality
R-HSA-159231,0.0005849582264871723,925.0,1,$\widetilde{A}_{G_1}$,centrality
R-HSA-1592230,0.000584353722314757,926.0,1,$\widetilde{A}_{G_1}$,centrality
R-HSA-210991,0.0005785869186461864,927.0,1,$\widetilde{A}_{G_1}$,centrality
R-HSA-159234,0.0005775615884623772,928.0,1,$\widetilde{A}_{G_1}$,centrality
R-HSA-446728,0.0005747046119506421,929.0,1,$\widetilde{A}_{G_1}$,centrality
R-HSA-421270,0.0005707230550405469,930.0,1,$\widetilde{A}_{G_1}$,centrality
R-HSA-1502540,0.0005660000013435348,931.0,1,$\widetilde{A}_{G_1}$,centrality
R-HSA-1483255,0.0005650712001916912,932.0,1,$\widetilde{A}_{G_1}$,centrality
R-HSA-264876,0.0005647893103095407,933.0,1,$\widetilde{A}_{G_1}$,centrality
R-HSA-877300,0.0005634591428671998,934.0,1,$\widetilde{A}_{G_1}$,centrality
R-HSA-373080,0.000562299439031795,935.0,1,$\widetilde{A}_{G_1}$,centrality
R-HSA-380287,0.0005592771582447144,936.5,1,$\widetilde{A}_{G_1}$,centrality
R-HSA-380270,0.0005592771582447144,936.5,1,$\widetilde{A}_{G_1}$,centrality
R-HSA-380972,0.0005559820253628288,938.0,1,$\widetilde{A}_{G_1}$,centrality
R-HSA-389661,0.0005546992293980714,939.0,1,$\widetilde{A}_{G_1}$,centrality
R-HSA-432722,0.0005529461082071984,940.0,1,$\widetilde{A}_{G_1}$,centrality
R-HSA-373755,0.0005512956731828577,941.0,1,$\widetilde{A}_{G_1}$,centrality
R-HSA-9013423,0.0005511131772265105,942.0,1,$\widetilde{A}_{G_1}$,centrality
R-HSA-5578775,0.0005427484716412981,943.0,1,$\widetilde{A}_{G_1}$,centrality
R-HSA-6804115,0.000542148918515205,944.0,1,$\widetilde{A}_{G_1}$,centrality
R-HSA-199992,0.0005338418767020941,945.0,1,$\widetilde{A}_{G_1}$,centrality
R-HSA-2979096,0.0005322751392855165,946.0,1,$\widetilde{A}_{G_1}$,centrality
R-HSA-390522,0.0005291674252514791,947.0,1,$\widetilde{A}_{G_1}$,centrality
R-HSA-8982491,0.0005289364151235984,948.0,1,$\widetilde{A}_{G_1}$,centrality
R-HSA-428157,0.0005270934828279103,949.0,1,$\widetilde{A}_{G_1}$,centrality
R-HSA-8854214,0.0005250729347096015,950.0,1,$\widetilde{A}_{G_1}$,centrality
R-HSA-111465,0.0005237475098117629,951.0,1,$\widetilde{A}_{G_1}$,centrality
R-HSA-5635838,0.00052231432632979,952.0,1,$\widetilde{A}_{G_1}$,centrality
R-HSA-8957275,0.0005205676106622733,953.0,1,$\widetilde{A}_{G_1}$,centrality
R-HSA-5620916,0.0005204410306973942,954.0,1,$\widetilde{A}_{G_1}$,centrality
R-HSA-76046,0.0005193490186129942,955.5,1,$\widetilde{A}_{G_1}$,centrality
R-HSA-74158,0.0005193490186129942,955.5,1,$\widetilde{A}_{G_1}$,centrality
R-HSA-749476,0.0005193490186129941,957.0,1,$\widetilde{A}_{G_1}$,centrality
R-HSA-70221,0.0005176191318462079,958.0,1,$\widetilde{A}_{G_1}$,centrality
R-HSA-419037,0.0005145145166136226,959.0,1,$\widetilde{A}_{G_1}$,centrality
R-HSA-2187338,0.0005130083041238221,960.0,1,$\widetilde{A}_{G_1}$,centrality
R-HSA-6794361,0.0005124345256596064,961.0,1,$\widetilde{A}_{G_1}$,centrality
R-HSA-9013700,0.0005095565817277129,962.0,1,$\widetilde{A}_{G_1}$,centrality
R-HSA-75153,0.0005038167543918098,963.0,1,$\widetilde{A}_{G_1}$,centrality
R-HSA-76071,0.0005017358599370152,964.0,1,$\widetilde{A}_{G_1}$,centrality
R-HSA-9648025,0.0004946711403045649,965.0,1,$\widetilde{A}_{G_1}$,centrality
R-HSA-4086398,0.0004942328278459399,966.0,1,$\widetilde{A}_{G_1}$,centrality
R-HSA-397014,0.0004938933509994296,967.0,1,$\widetilde{A}_{G_1}$,centrality
R-HSA-5620912,0.0004877721630559388,968.0,1,$\widetilde{A}_{G_1}$,centrality
R-HSA-4641263,0.0004856992506145437,969.0,1,$\widetilde{A}_{G_1}$,centrality
R-HSA-381119,0.0004749710428246648,970.0,1,$\widetilde{A}_{G_1}$,centrality
R-HSA-6811438,0.00046987467631398367,971.0,1,$\widetilde{A}_{G_1}$,centrality
R-HSA-2980766,0.00046912332859181684,972.0,1,$\widetilde{A}_{G_1}$,centrality
R-HSA-6794362,0.00046841583868026106,973.0,1,$\widetilde{A}_{G_1}$,centrality
R-HSA-1483257,0.0004644795168525935,974.0,1,$\widetilde{A}_{G_1}$,centrality
R-HSA-141444,0.00046259116413692876,975.0,1,$\widetilde{A}_{G_1}$,centrality
R-HSA-141424,0.0004625911641369284,976.0,1,$\widetilde{A}_{G_1}$,centrality
R-HSA-69618,0.0004525594736131254,977.0,1,$\widetilde{A}_{G_1}$,centrality
R-HSA-2672351,0.00044930210205656074,978.0,1,$\widetilde{A}_{G_1}$,centrality
R-HSA-388844,0.0004427123918045291,979.0,1,$\widetilde{A}_{G_1}$,centrality
R-HSA-1268020,0.00044005264421445795,980.0,1,$\widetilde{A}_{G_1}$,centrality
R-HSA-3781865,0.00043863395126496845,981.0,1,$\widetilde{A}_{G_1}$,centrality
R-HSA-418346,0.0004374242028339995,982.0,1,$\widetilde{A}_{G_1}$,centrality
R-HSA-216083,0.0004373914009962287,983.0,1,$\widetilde{A}_{G_1}$,centrality
R-HSA-3000171,0.00043519254868956307,984.0,1,$\widetilde{A}_{G_1}$,centrality
R-HSA-2129379,0.0004306680843375126,985.0,1,$\widetilde{A}_{G_1}$,centrality
R-HSA-9033241,0.00043045132236194393,986.0,1,$\widetilde{A}_{G_1}$,centrality
R-HSA-6811440,0.00042848753034227803,987.0,1,$\widetilde{A}_{G_1}$,centrality
R-HSA-198933,0.00042496276007274024,988.0,1,$\widetilde{A}_{G_1}$,centrality
R-HSA-8873719,0.00042472238525981146,989.0,1,$\widetilde{A}_{G_1}$,centrality
R-HSA-3000157,0.0004229854692846035,990.0,1,$\widetilde{A}_{G_1}$,centrality
R-HSA-8876198,0.00042207663592064943,991.0,1,$\widetilde{A}_{G_1}$,centrality
R-HSA-5576891,0.0004210863806962943,992.0,1,$\widetilde{A}_{G_1}$,centrality
R-HSA-196854,0.0004151195127862542,993.0,1,$\widetilde{A}_{G_1}$,centrality
R-HSA-381426,0.0004142055061946479,994.0,1,$\widetilde{A}_{G_1}$,centrality
R-HSA-1650814,0.00041320586942433194,995.0,1,$\widetilde{A}_{G_1}$,centrality
R-HSA-5620920,0.00040221417609458544,996.0,1,$\widetilde{A}_{G_1}$,centrality
R-HSA-1474290,0.0003976556760441977,997.0,1,$\widetilde{A}_{G_1}$,centrality
R-HSA-1566948,0.00039270287826215504,998.0,1,$\widetilde{A}_{G_1}$,centrality
R-HSA-9639288,0.00039264733057696113,999.0,1,$\widetilde{A}_{G_1}$,centrality
R-HSA-3000178,0.00038437816922906137,1000.0,1,$\widetilde{A}_{G_1}$,centrality
R-HSA-9603798,0.0003832549848176708,1001.0,1,$\widetilde{A}_{G_1}$,centrality
R-HSA-917977,0.00038278550913531216,1002.0,1,$\widetilde{A}_{G_1}$,centrality
R-HSA-983712,0.00037577164921823056,1003.0,1,$\widetilde{A}_{G_1}$,centrality
R-HSA-3238698,0.0003727256508894683,1004.0,1,$\widetilde{A}_{G_1}$,centrality
R-HSA-77387,0.00037101817889278435,1005.0,1,$\widetilde{A}_{G_1}$,centrality
R-HSA-500792,0.00037068461079154205,1006.0,1,$\widetilde{A}_{G_1}$,centrality
R-HSA-1222556,0.0003661578974076472,1007.0,1,$\widetilde{A}_{G_1}$,centrality
R-HSA-1630316,0.0003471713235305144,1008.0,1,$\widetilde{A}_{G_1}$,centrality
R-HSA-2022090,0.0003457758342655648,1009.0,1,$\widetilde{A}_{G_1}$,centrality
R-HSA-5173105,0.0003414616587111562,1010.0,1,$\widetilde{A}_{G_1}$,centrality
R-HSA-425407,0.00033975117588614463,1011.0,1,$\widetilde{A}_{G_1}$,centrality
R-HSA-163125,0.00033196867494694044,1012.0,1,$\widetilde{A}_{G_1}$,centrality
R-HSA-373076,0.00032986183469775756,1013.0,1,$\widetilde{A}_{G_1}$,centrality
R-HSA-5668914,0.00031599120197850744,1014.0,1,$\widetilde{A}_{G_1}$,centrality
R-HSA-3772470,0.0003112885581324082,1015.0,1,$\widetilde{A}_{G_1}$,centrality
R-HSA-163841,0.00030496154155543735,1016.0,1,$\widetilde{A}_{G_1}$,centrality
R-HSA-8948216,0.00030242309323802604,1017.0,1,$\widetilde{A}_{G_1}$,centrality
R-HSA-1474228,0.0003005470602277575,1018.0,1,$\widetilde{A}_{G_1}$,centrality
R-HSA-977606,0.0003000650949016212,1019.0,1,$\widetilde{A}_{G_1}$,centrality
R-HSA-1442490,0.0002860942879056361,1020.0,1,$\widetilde{A}_{G_1}$,centrality
R-HSA-1592389,0.0002811482417021308,1021.0,1,$\widetilde{A}_{G_1}$,centrality
R-HSA-166658,0.000273277068106452,1022.0,1,$\widetilde{A}_{G_1}$,centrality
R-HSA-5620922,0.00027194245316748293,1023.0,1,$\widetilde{A}_{G_1}$,centrality
R-HSA-2022377,0.00026434673863899946,1024.0,1,$\widetilde{A}_{G_1}$,centrality
R-HSA-166663,0.0002451164331231477,1025.0,1,$\widetilde{A}_{G_1}$,centrality
