entity,score,rank,graphlet,graphlet_adj,score_method
R-HSA-5655253,0.0065351495495752695,1.0,0,$\widetilde{A}_{G_0}$,moving_distance
R-HSA-375165,0.00557739322411107,2.0,0,$\widetilde{A}_{G_0}$,moving_distance
R-HSA-74752,0.0054759294990270185,3.0,0,$\widetilde{A}_{G_0}$,moving_distance
R-HSA-5358346,0.005399404074814471,4.0,0,$\widetilde{A}_{G_0}$,moving_distance
R-HSA-1226099,0.005387400239664124,5.0,0,$\widetilde{A}_{G_0}$,moving_distance
R-HSA-5625900,0.005177115919047215,6.0,0,$\widetilde{A}_{G_0}$,moving_distance
R-HSA-5654738,0.004935468535954354,7.0,0,$\widetilde{A}_{G_0}$,moving_distance
R-HSA-388841,0.004770004406854014,8.0,0,$\widetilde{A}_{G_0}$,moving_distance
R-HSA-442982,0.0047218781541006755,9.0,0,$\widetilde{A}_{G_0}$,moving_distance
R-HSA-5654708,0.0047163523265176975,10.0,0,$\widetilde{A}_{G_0}$,moving_distance
R-HSA-9614085,0.0045870089747363394,11.0,0,$\widetilde{A}_{G_0}$,moving_distance
R-HSA-8853338,0.004463119587273411,12.0,0,$\widetilde{A}_{G_0}$,moving_distance
R-HSA-5655332,0.00446311958727341,13.0,0,$\widetilde{A}_{G_0}$,moving_distance
R-HSA-392517,0.004426880965488036,14.0,0,$\widetilde{A}_{G_0}$,moving_distance
R-HSA-190236,0.004419587475664983,15.0,0,$\widetilde{A}_{G_0}$,moving_distance
R-HSA-5632684,0.00435730684941713,16.0,0,$\widetilde{A}_{G_0}$,moving_distance
R-HSA-5654716,0.004116158498988616,17.0,0,$\widetilde{A}_{G_0}$,moving_distance
R-HSA-6814122,0.004041179348705296,18.0,0,$\widetilde{A}_{G_0}$,moving_distance
R-HSA-5654693,0.004035284996296761,19.0,0,$\widetilde{A}_{G_0}$,moving_distance
R-HSA-1295596,0.004021868231318483,20.0,0,$\widetilde{A}_{G_0}$,moving_distance
R-HSA-373755,0.00399811402930744,21.0,0,$\widetilde{A}_{G_0}$,moving_distance
R-HSA-5610787,0.003917803143317621,22.0,0,$\widetilde{A}_{G_0}$,moving_distance
R-HSA-442742,0.003909788827011151,23.0,0,$\widetilde{A}_{G_0}$,moving_distance
R-HSA-9639288,0.0038978975751994137,24.0,0,$\widetilde{A}_{G_0}$,moving_distance
R-HSA-9673770,0.003874572000477324,25.0,0,$\widetilde{A}_{G_0}$,moving_distance
R-HSA-9673767,0.0038745720004773215,26.0,0,$\widetilde{A}_{G_0}$,moving_distance
R-HSA-5637812,0.0038554265990684237,27.0,0,$\widetilde{A}_{G_0}$,moving_distance
R-HSA-5637810,0.0038554265990684232,28.0,0,$\widetilde{A}_{G_0}$,moving_distance
R-HSA-210993,0.003779683914007271,29.0,0,$\widetilde{A}_{G_0}$,moving_distance
R-HSA-5654733,0.003766679659381044,30.0,0,$\widetilde{A}_{G_0}$,moving_distance
R-HSA-166663,0.0037558329862007658,31.0,0,$\widetilde{A}_{G_0}$,moving_distance
R-HSA-9703648,0.003742454263256437,32.0,0,$\widetilde{A}_{G_0}$,moving_distance
R-HSA-400206,0.003683117712774244,33.0,0,$\widetilde{A}_{G_0}$,moving_distance
R-HSA-5655291,0.003681858923866365,34.0,0,$\widetilde{A}_{G_0}$,moving_distance
R-HSA-1989781,0.0036469575294879293,35.0,0,$\widetilde{A}_{G_0}$,moving_distance
R-HSA-5654732,0.003636797009058671,36.0,0,$\widetilde{A}_{G_0}$,moving_distance
R-HSA-9665348,0.0035796123373402,37.0,0,$\widetilde{A}_{G_0}$,moving_distance
R-HSA-5654726,0.003573886672585275,38.0,0,$\widetilde{A}_{G_0}$,moving_distance
R-HSA-6811558,0.0035579026109333394,39.0,0,$\widetilde{A}_{G_0}$,moving_distance
R-HSA-381038,0.0035539259120510648,40.0,0,$\widetilde{A}_{G_0}$,moving_distance
R-HSA-2424491,0.0035104787437370976,41.0,0,$\widetilde{A}_{G_0}$,moving_distance
R-HSA-5654687,0.0034989482825045007,42.0,0,$\widetilde{A}_{G_0}$,moving_distance
R-HSA-1980143,0.003428163303834952,43.0,0,$\widetilde{A}_{G_0}$,moving_distance
R-HSA-1250347,0.0034091735816946,44.0,0,$\widetilde{A}_{G_0}$,moving_distance
R-HSA-2644602,0.0034091621381650544,45.0,0,$\widetilde{A}_{G_0}$,moving_distance
R-HSA-2894858,0.003409162138165054,47.0,0,$\widetilde{A}_{G_0}$,moving_distance
R-HSA-2644606,0.003409162138165054,47.0,0,$\widetilde{A}_{G_0}$,moving_distance
R-HSA-2644603,0.003409162138165054,47.0,0,$\widetilde{A}_{G_0}$,moving_distance
R-HSA-2894862,0.003409162138165053,49.0,0,$\widetilde{A}_{G_0}$,moving_distance
R-HSA-9006115,0.003369554001417097,50.0,0,$\widetilde{A}_{G_0}$,moving_distance
R-HSA-9034015,0.003360331258693846,51.0,0,$\widetilde{A}_{G_0}$,moving_distance
R-HSA-391160,0.0033276919104733805,52.0,0,$\widetilde{A}_{G_0}$,moving_distance
R-HSA-9009391,0.0033162947899584207,53.0,0,$\widetilde{A}_{G_0}$,moving_distance
R-HSA-199418,0.0032600981937276645,54.0,0,$\widetilde{A}_{G_0}$,moving_distance
R-HSA-2172127,0.0032523680841008797,55.0,0,$\widetilde{A}_{G_0}$,moving_distance
R-HSA-5654727,0.0032346781520460398,56.0,0,$\widetilde{A}_{G_0}$,moving_distance
R-HSA-1643713,0.0032009794939856246,57.0,0,$\widetilde{A}_{G_0}$,moving_distance
R-HSA-1236382,0.003187641831909252,58.5,0,$\widetilde{A}_{G_0}$,moving_distance
R-HSA-5637815,0.003187641831909252,58.5,0,$\widetilde{A}_{G_0}$,moving_distance
R-HSA-9027284,0.0031572656600719175,60.0,0,$\widetilde{A}_{G_0}$,moving_distance
R-HSA-5654696,0.0031511010265153944,61.0,0,$\widetilde{A}_{G_0}$,moving_distance
R-HSA-2022090,0.0031331286198785393,62.0,0,$\widetilde{A}_{G_0}$,moving_distance
R-HSA-438064,0.0031050303729775863,63.0,0,$\widetilde{A}_{G_0}$,moving_distance
R-HSA-140534,0.003075999400787151,64.0,0,$\widetilde{A}_{G_0}$,moving_distance
R-HSA-9671555,0.003006161337616132,65.0,0,$\widetilde{A}_{G_0}$,moving_distance
R-HSA-9669938,0.0029977290343846086,66.5,0,$\widetilde{A}_{G_0}$,moving_distance
R-HSA-9670439,0.0029977290343846086,66.5,0,$\widetilde{A}_{G_0}$,moving_distance
R-HSA-180292,0.002993028943385494,68.0,0,$\widetilde{A}_{G_0}$,moving_distance
R-HSA-9634285,0.0029818599525057504,69.0,0,$\widetilde{A}_{G_0}$,moving_distance
R-HSA-2730905,0.002979756301779851,70.0,0,$\widetilde{A}_{G_0}$,moving_distance
R-HSA-937072,0.0029680184891117145,71.0,0,$\widetilde{A}_{G_0}$,moving_distance
R-HSA-3000171,0.0029670066669619352,72.0,0,$\widetilde{A}_{G_0}$,moving_distance
R-HSA-6806834,0.002949636046913164,73.0,0,$\widetilde{A}_{G_0}$,moving_distance
R-HSA-442755,0.0029465337398954443,74.0,0,$\widetilde{A}_{G_0}$,moving_distance
R-HSA-9664565,0.002945360739815394,75.0,0,$\widetilde{A}_{G_0}$,moving_distance
R-HSA-5654700,0.0029052541789763076,76.0,0,$\widetilde{A}_{G_0}$,moving_distance
R-HSA-373760,0.0029051413445732492,77.0,0,$\widetilde{A}_{G_0}$,moving_distance
R-HSA-5654741,0.002903038483131686,78.0,0,$\widetilde{A}_{G_0}$,moving_distance
R-HSA-975163,0.0028961325788576043,79.0,0,$\widetilde{A}_{G_0}$,moving_distance
R-HSA-5654743,0.0028936699447318012,80.0,0,$\widetilde{A}_{G_0}$,moving_distance
R-HSA-210990,0.002860622146355071,81.0,0,$\widetilde{A}_{G_0}$,moving_distance
R-HSA-937041,0.0028446806848128063,82.0,0,$\widetilde{A}_{G_0}$,moving_distance
R-HSA-1227990,0.0028418783490021093,83.0,0,$\widetilde{A}_{G_0}$,moving_distance
R-HSA-2029481,0.00284062914557879,84.0,0,$\widetilde{A}_{G_0}$,moving_distance
R-HSA-9665686,0.0027956372084567077,85.0,0,$\widetilde{A}_{G_0}$,moving_distance
R-HSA-3000178,0.0027806968817645074,86.0,0,$\widetilde{A}_{G_0}$,moving_distance
R-HSA-5686938,0.0027425830095044205,87.0,0,$\widetilde{A}_{G_0}$,moving_distance
R-HSA-5576891,0.002736067200383447,88.0,0,$\widetilde{A}_{G_0}$,moving_distance
R-HSA-936964,0.0027249659057042696,89.0,0,$\widetilde{A}_{G_0}$,moving_distance
R-HSA-912526,0.002724810314709551,90.0,0,$\widetilde{A}_{G_0}$,moving_distance
R-HSA-390466,0.0027204276197704052,91.0,0,$\widetilde{A}_{G_0}$,moving_distance
R-HSA-2871809,0.0027015987208082537,92.0,0,$\widetilde{A}_{G_0}$,moving_distance
R-HSA-8948216,0.0026462483140254033,93.0,0,$\widetilde{A}_{G_0}$,moving_distance
R-HSA-381070,0.0026307679950592273,94.0,0,$\widetilde{A}_{G_0}$,moving_distance
R-HSA-912694,0.0026121735932494896,95.0,0,$\widetilde{A}_{G_0}$,moving_distance
R-HSA-1433559,0.002590020323052457,96.0,0,$\widetilde{A}_{G_0}$,moving_distance
R-HSA-381042,0.002578063228347068,97.0,0,$\widetilde{A}_{G_0}$,moving_distance
R-HSA-391251,0.0025513275196649724,98.0,0,$\widetilde{A}_{G_0}$,moving_distance
R-HSA-5654695,0.0025437568600356897,99.0,0,$\widetilde{A}_{G_0}$,moving_distance
R-HSA-4086398,0.0025394744227950294,100.0,0,$\widetilde{A}_{G_0}$,moving_distance
R-HSA-1059683,0.00249137476125303,101.0,0,$\widetilde{A}_{G_0}$,moving_distance
R-HSA-186763,0.002474030385349626,102.0,0,$\widetilde{A}_{G_0}$,moving_distance
R-HSA-216083,0.002466901351614928,103.0,0,$\widetilde{A}_{G_0}$,moving_distance
R-HSA-354194,0.0024658632525687463,104.0,0,$\widetilde{A}_{G_0}$,moving_distance
R-HSA-9006335,0.00245279267666108,105.0,0,$\widetilde{A}_{G_0}$,moving_distance
R-HSA-5602498,0.0024507578911901963,106.0,0,$\widetilde{A}_{G_0}$,moving_distance
R-HSA-2871796,0.0024494875083640806,107.0,0,$\widetilde{A}_{G_0}$,moving_distance
R-HSA-3928665,0.0024477811351201737,108.0,0,$\widetilde{A}_{G_0}$,moving_distance
R-HSA-2586552,0.0024450783109856017,109.0,0,$\widetilde{A}_{G_0}$,moving_distance
R-HSA-5654736,0.0024418222240590545,110.0,0,$\widetilde{A}_{G_0}$,moving_distance
R-HSA-9703465,0.002438220762954253,111.0,0,$\widetilde{A}_{G_0}$,moving_distance
R-HSA-8851805,0.0024339448468665365,112.0,0,$\widetilde{A}_{G_0}$,moving_distance
R-HSA-9020558,0.0024317104446763484,113.0,0,$\widetilde{A}_{G_0}$,moving_distance
R-HSA-166658,0.002423311676535659,114.0,0,$\widetilde{A}_{G_0}$,moving_distance
R-HSA-1250196,0.002416437370872205,115.0,0,$\widetilde{A}_{G_0}$,moving_distance
R-HSA-9620244,0.002400557974616058,116.0,0,$\widetilde{A}_{G_0}$,moving_distance
R-HSA-1963640,0.002395027094702627,117.0,0,$\widetilde{A}_{G_0}$,moving_distance
R-HSA-1170546,0.002386791086942071,118.0,0,$\widetilde{A}_{G_0}$,moving_distance
R-HSA-1500931,0.002372876420849247,119.0,0,$\widetilde{A}_{G_0}$,moving_distance
R-HSA-1963642,0.0023696610430673404,120.0,0,$\widetilde{A}_{G_0}$,moving_distance
R-HSA-912631,0.0023631653896794575,121.0,0,$\widetilde{A}_{G_0}$,moving_distance
R-HSA-5357769,0.0023623952346367057,122.0,0,$\widetilde{A}_{G_0}$,moving_distance
R-HSA-977606,0.0023435292956685335,123.0,0,$\widetilde{A}_{G_0}$,moving_distance
R-HSA-9706369,0.0023209897268867516,124.0,0,$\widetilde{A}_{G_0}$,moving_distance
R-HSA-451927,0.002311583235080168,125.0,0,$\widetilde{A}_{G_0}$,moving_distance
R-HSA-202040,0.002290773971905512,126.0,0,$\widetilde{A}_{G_0}$,moving_distance
R-HSA-202430,0.0022895918671001496,127.0,0,$\widetilde{A}_{G_0}$,moving_distance
R-HSA-9617324,0.0022858884306383473,128.0,0,$\widetilde{A}_{G_0}$,moving_distance
R-HSA-5603041,0.0022832820342909128,129.0,0,$\widetilde{A}_{G_0}$,moving_distance
R-HSA-9682385,0.0022684624648182205,130.0,0,$\widetilde{A}_{G_0}$,moving_distance
R-HSA-8853659,0.002258045125216477,131.0,0,$\widetilde{A}_{G_0}$,moving_distance
R-HSA-397014,0.0022551913905926313,132.0,0,$\widetilde{A}_{G_0}$,moving_distance
R-HSA-420092,0.00225300333613608,133.0,0,$\widetilde{A}_{G_0}$,moving_distance
R-HSA-9614657,0.002252993059336174,134.0,0,$\widetilde{A}_{G_0}$,moving_distance
R-HSA-74749,0.0022330511108436405,135.0,0,$\widetilde{A}_{G_0}$,moving_distance
R-HSA-445717,0.002229209904503228,136.0,0,$\widetilde{A}_{G_0}$,moving_distance
R-HSA-432040,0.0022292099045032278,137.0,0,$\widetilde{A}_{G_0}$,moving_distance
R-HSA-1474290,0.0022205423853176166,138.0,0,$\widetilde{A}_{G_0}$,moving_distance
R-HSA-392851,0.0022093755127748456,139.0,0,$\widetilde{A}_{G_0}$,moving_distance
R-HSA-1433557,0.002206495918379274,140.0,0,$\widetilde{A}_{G_0}$,moving_distance
R-HSA-2559585,0.0022007247901416013,141.0,0,$\widetilde{A}_{G_0}$,moving_distance
R-HSA-8983432,0.002200256177814381,142.0,0,$\widetilde{A}_{G_0}$,moving_distance
R-HSA-418592,0.0021830109242228575,143.0,0,$\widetilde{A}_{G_0}$,moving_distance
R-HSA-76009,0.0021756195729815517,144.0,0,$\widetilde{A}_{G_0}$,moving_distance
R-HSA-9607240,0.0021690899869903704,145.0,0,$\widetilde{A}_{G_0}$,moving_distance
R-HSA-512988,0.002159423383843936,146.0,0,$\widetilde{A}_{G_0}$,moving_distance
R-HSA-114604,0.0021452389116117365,147.0,0,$\widetilde{A}_{G_0}$,moving_distance
R-HSA-389948,0.0021418313938117365,148.0,0,$\widetilde{A}_{G_0}$,moving_distance
R-HSA-163359,0.0021294956578105056,149.0,0,$\widetilde{A}_{G_0}$,moving_distance
R-HSA-9027276,0.0021244506120478733,150.0,0,$\widetilde{A}_{G_0}$,moving_distance
R-HSA-373752,0.0021156954478859713,151.0,0,$\widetilde{A}_{G_0}$,moving_distance
R-HSA-354192,0.00211526175410656,152.0,0,$\widetilde{A}_{G_0}$,moving_distance
R-HSA-112399,0.0020965851087449516,153.0,0,$\widetilde{A}_{G_0}$,moving_distance
R-HSA-74751,0.0020880303937528427,154.0,0,$\widetilde{A}_{G_0}$,moving_distance
R-HSA-1296041,0.002080924897373256,156.5,0,$\widetilde{A}_{G_0}$,moving_distance
R-HSA-1296065,0.002080924897373256,156.5,0,$\widetilde{A}_{G_0}$,moving_distance
R-HSA-1296059,0.002080924897373256,156.5,0,$\widetilde{A}_{G_0}$,moving_distance
R-HSA-997272,0.002080924897373256,156.5,0,$\widetilde{A}_{G_0}$,moving_distance
R-HSA-169893,0.002065127257436401,159.0,0,$\widetilde{A}_{G_0}$,moving_distance
R-HSA-372708,0.002053956413345403,160.0,0,$\widetilde{A}_{G_0}$,moving_distance
R-HSA-1296071,0.002053139533314004,161.0,0,$\widetilde{A}_{G_0}$,moving_distance
R-HSA-877300,0.0020531250131938608,162.0,0,$\widetilde{A}_{G_0}$,moving_distance
R-HSA-2029485,0.0020522845911181966,163.0,0,$\widetilde{A}_{G_0}$,moving_distance
R-HSA-202427,0.0020299198073727973,164.0,0,$\widetilde{A}_{G_0}$,moving_distance
R-HSA-428930,0.0020132112756902545,165.0,0,$\widetilde{A}_{G_0}$,moving_distance
R-HSA-170968,0.002004854373920023,166.0,0,$\widetilde{A}_{G_0}$,moving_distance
R-HSA-167044,0.0019980939777213256,167.0,0,$\widetilde{A}_{G_0}$,moving_distance
R-HSA-983695,0.001988282056768232,168.0,0,$\widetilde{A}_{G_0}$,moving_distance
R-HSA-977225,0.0019880803798749806,169.0,0,$\widetilde{A}_{G_0}$,moving_distance
R-HSA-389356,0.0019846706561570076,170.0,0,$\widetilde{A}_{G_0}$,moving_distance
R-HSA-8964315,0.001983019432957094,171.0,0,$\widetilde{A}_{G_0}$,moving_distance
R-HSA-5654699,0.001979588016867028,172.0,0,$\widetilde{A}_{G_0}$,moving_distance
R-HSA-8964616,0.0019768756867783676,173.0,0,$\widetilde{A}_{G_0}$,moving_distance
R-HSA-2132295,0.0019685045695324965,174.0,0,$\widetilde{A}_{G_0}$,moving_distance
R-HSA-5655302,0.0019544063849503785,175.0,0,$\widetilde{A}_{G_0}$,moving_distance
R-HSA-1655829,0.0019484603895292367,176.0,0,$\widetilde{A}_{G_0}$,moving_distance
R-HSA-2404192,0.0019417215575535949,177.0,0,$\widetilde{A}_{G_0}$,moving_distance
R-HSA-2428924,0.0019417215575535946,178.0,0,$\widetilde{A}_{G_0}$,moving_distance
R-HSA-500657,0.001935551889487776,179.0,0,$\widetilde{A}_{G_0}$,moving_distance
R-HSA-418217,0.0019355518894877753,180.0,0,$\widetilde{A}_{G_0}$,moving_distance
R-HSA-451326,0.0019355518894877738,181.0,0,$\widetilde{A}_{G_0}$,moving_distance
R-HSA-9664323,0.0019295746713217275,182.0,0,$\widetilde{A}_{G_0}$,moving_distance
R-HSA-186797,0.0019294703013511148,183.0,0,$\widetilde{A}_{G_0}$,moving_distance
R-HSA-1181150,0.0019162805513676289,184.0,0,$\widetilde{A}_{G_0}$,moving_distance
R-HSA-2428928,0.0018860688180420662,185.0,0,$\widetilde{A}_{G_0}$,moving_distance
R-HSA-1442490,0.001866955166563661,186.0,0,$\widetilde{A}_{G_0}$,moving_distance
R-HSA-6783589,0.0018466121493838107,187.0,0,$\widetilde{A}_{G_0}$,moving_distance
R-HSA-1222556,0.0018421182277887909,188.0,0,$\widetilde{A}_{G_0}$,moving_distance
R-HSA-2682334,0.001841158269154169,189.0,0,$\widetilde{A}_{G_0}$,moving_distance
R-HSA-877312,0.0018340825321044813,190.0,0,$\widetilde{A}_{G_0}$,moving_distance
R-HSA-8854691,0.0018296998922752742,191.0,0,$\widetilde{A}_{G_0}$,moving_distance
R-HSA-5260271,0.0018257661197543607,192.0,0,$\widetilde{A}_{G_0}$,moving_distance
R-HSA-5602358,0.00182576611975436,193.0,0,$\widetilde{A}_{G_0}$,moving_distance
R-HSA-1236394,0.0018016982862475667,194.0,0,$\widetilde{A}_{G_0}$,moving_distance
R-HSA-977443,0.0017843327517725453,196.0,0,$\widetilde{A}_{G_0}$,moving_distance
R-HSA-977444,0.0017843327517725453,196.0,0,$\widetilde{A}_{G_0}$,moving_distance
R-HSA-991365,0.0017843327517725453,196.0,0,$\widetilde{A}_{G_0}$,moving_distance
R-HSA-177929,0.0017800260787399192,198.0,0,$\widetilde{A}_{G_0}$,moving_distance
R-HSA-1474228,0.0017649239468907865,199.0,0,$\widetilde{A}_{G_0}$,moving_distance
R-HSA-373753,0.001757464888613765,200.0,0,$\widetilde{A}_{G_0}$,moving_distance
R-HSA-9609736,0.0017514360226821056,201.0,0,$\widetilde{A}_{G_0}$,moving_distance
R-HSA-392170,0.0017400730276318863,202.0,0,$\widetilde{A}_{G_0}$,moving_distance
R-HSA-400042,0.0017396367307665214,203.0,0,$\widetilde{A}_{G_0}$,moving_distance
R-HSA-109704,0.0017351528800057655,204.0,0,$\widetilde{A}_{G_0}$,moving_distance
R-HSA-419037,0.0017296698403592252,205.0,0,$\widetilde{A}_{G_0}$,moving_distance
R-HSA-1227986,0.0017266923637017876,206.0,0,$\widetilde{A}_{G_0}$,moving_distance
R-HSA-187037,0.001713479534597084,207.0,0,$\widetilde{A}_{G_0}$,moving_distance
R-HSA-445144,0.0016887956300657252,208.0,0,$\widetilde{A}_{G_0}$,moving_distance
R-HSA-456926,0.001687296634898907,209.0,0,$\widetilde{A}_{G_0}$,moving_distance
R-HSA-881907,0.0016829690304208623,210.0,0,$\widetilde{A}_{G_0}$,moving_distance
R-HSA-9674555,0.0016678465781085547,211.0,0,$\widetilde{A}_{G_0}$,moving_distance
R-HSA-202433,0.0016542647526463783,212.0,0,$\widetilde{A}_{G_0}$,moving_distance
R-HSA-5250941,0.0016528120949415048,213.0,0,$\widetilde{A}_{G_0}$,moving_distance
R-HSA-2029480,0.0016468372719756889,214.0,0,$\widetilde{A}_{G_0}$,moving_distance
R-HSA-427413,0.001644542590032051,215.0,0,$\widetilde{A}_{G_0}$,moving_distance
R-HSA-1839117,0.00164104307695834,216.0,0,$\widetilde{A}_{G_0}$,moving_distance
R-HSA-73854,0.0016391258171083146,217.0,0,$\widetilde{A}_{G_0}$,moving_distance
R-HSA-8957322,0.0016375535696751527,218.0,0,$\widetilde{A}_{G_0}$,moving_distance
R-HSA-392518,0.001628496848227109,219.0,0,$\widetilde{A}_{G_0}$,moving_distance
R-HSA-73864,0.0016225749406522643,220.0,0,$\widetilde{A}_{G_0}$,moving_distance
R-HSA-77387,0.0016168311978939519,221.0,0,$\widetilde{A}_{G_0}$,moving_distance
R-HSA-205043,0.001581352237954877,222.0,0,$\widetilde{A}_{G_0}$,moving_distance
R-HSA-389359,0.0015613689489347939,223.0,0,$\widetilde{A}_{G_0}$,moving_distance
R-HSA-2559582,0.0015492384870686047,224.0,0,$\widetilde{A}_{G_0}$,moving_distance
R-HSA-389357,0.0015427948030464988,225.0,0,$\widetilde{A}_{G_0}$,moving_distance
R-HSA-9634638,0.0015115846567648375,226.0,0,$\widetilde{A}_{G_0}$,moving_distance
R-HSA-9012852,0.0015094745798556572,227.0,0,$\widetilde{A}_{G_0}$,moving_distance
R-HSA-187687,0.0015040959772375827,228.0,0,$\widetilde{A}_{G_0}$,moving_distance
R-HSA-1839124,0.0014902019704134827,229.0,0,$\widetilde{A}_{G_0}$,moving_distance
R-HSA-2219530,0.0014800648254014016,230.0,0,$\widetilde{A}_{G_0}$,moving_distance
R-HSA-917977,0.0014701586676373485,231.0,0,$\widetilde{A}_{G_0}$,moving_distance
R-HSA-174084,0.001444209990682319,232.0,0,$\widetilde{A}_{G_0}$,moving_distance
R-HSA-392451,0.001438231480072128,233.0,0,$\widetilde{A}_{G_0}$,moving_distance
R-HSA-69017,0.0014361789335965364,234.0,0,$\widetilde{A}_{G_0}$,moving_distance
R-HSA-418885,0.0014182215817475719,235.0,0,$\widetilde{A}_{G_0}$,moving_distance
R-HSA-432142,0.0014150193535098251,236.0,0,$\widetilde{A}_{G_0}$,moving_distance
R-HSA-6802948,0.00141163873376948,237.0,0,$\widetilde{A}_{G_0}$,moving_distance
R-HSA-397795,0.0013990423101478161,238.0,0,$\widetilde{A}_{G_0}$,moving_distance
R-HSA-381119,0.0013906707421096273,239.0,0,$\widetilde{A}_{G_0}$,moving_distance
R-HSA-9013404,0.0013787891079439204,240.0,0,$\widetilde{A}_{G_0}$,moving_distance
R-HSA-177504,0.0013776338318058326,241.0,0,$\widetilde{A}_{G_0}$,moving_distance
R-HSA-1266695,0.001377234692739283,242.0,0,$\widetilde{A}_{G_0}$,moving_distance
R-HSA-179419,0.0013757575838227896,243.0,0,$\widetilde{A}_{G_0}$,moving_distance
R-HSA-389960,0.0013572358692986856,244.0,0,$\widetilde{A}_{G_0}$,moving_distance
R-HSA-975138,0.001354269739512141,245.0,0,$\widetilde{A}_{G_0}$,moving_distance
R-HSA-174184,0.0013526470240410636,246.0,0,$\widetilde{A}_{G_0}$,moving_distance
R-HSA-193704,0.0013490111794081164,247.0,0,$\widetilde{A}_{G_0}$,moving_distance
R-HSA-176409,0.0013488099233568587,248.0,0,$\widetilde{A}_{G_0}$,moving_distance
R-HSA-176814,0.0013449998339003571,249.0,0,$\widetilde{A}_{G_0}$,moving_distance
R-HSA-176408,0.0013444974085916194,250.0,0,$\widetilde{A}_{G_0}$,moving_distance
R-HSA-164952,0.0013420161957340424,251.0,0,$\widetilde{A}_{G_0}$,moving_distance
R-HSA-381676,0.0013409585412938955,252.0,0,$\widetilde{A}_{G_0}$,moving_distance
R-HSA-168138,0.0013385886762934762,254.0,0,$\widetilde{A}_{G_0}$,moving_distance
R-HSA-168181,0.0013385886762934762,254.0,0,$\widetilde{A}_{G_0}$,moving_distance
R-HSA-975155,0.0013385886762934762,254.0,0,$\widetilde{A}_{G_0}$,moving_distance
R-HSA-168188,0.0013155708500683743,256.0,0,$\widetilde{A}_{G_0}$,moving_distance
R-HSA-181438,0.001315570850068374,257.0,0,$\widetilde{A}_{G_0}$,moving_distance
R-HSA-168179,0.0013155708500683738,258.5,0,$\widetilde{A}_{G_0}$,moving_distance
R-HSA-166058,0.0013155708500683738,258.5,0,$\widetilde{A}_{G_0}$,moving_distance
R-HSA-4420097,0.0013101475870494663,260.0,0,$\widetilde{A}_{G_0}$,moving_distance
R-HSA-9660821,0.001308849034940259,261.0,0,$\widetilde{A}_{G_0}$,moving_distance
R-HSA-1650814,0.0013088065255068063,262.0,0,$\widetilde{A}_{G_0}$,moving_distance
R-HSA-69052,0.0013053024742595047,263.0,0,$\widetilde{A}_{G_0}$,moving_distance
R-HSA-9656223,0.001302120485781226,264.0,0,$\widetilde{A}_{G_0}$,moving_distance
R-HSA-389513,0.00129031567379421,265.0,0,$\widetilde{A}_{G_0}$,moving_distance
R-HSA-2219528,0.0012850986970414818,266.0,0,$\widetilde{A}_{G_0}$,moving_distance
R-HSA-9662851,0.0012842958323540518,267.0,0,$\widetilde{A}_{G_0}$,moving_distance
R-HSA-9664433,0.0012842958323540515,268.0,0,$\widetilde{A}_{G_0}$,moving_distance
R-HSA-193639,0.001284259714650699,269.0,0,$\widetilde{A}_{G_0}$,moving_distance
R-HSA-174178,0.0012810305186687536,270.0,0,$\widetilde{A}_{G_0}$,moving_distance
R-HSA-8980692,0.0012808380829809295,271.0,0,$\widetilde{A}_{G_0}$,moving_distance
R-HSA-453276,0.0012667532315549016,272.5,0,$\widetilde{A}_{G_0}$,moving_distance
R-HSA-174143,0.0012667532315549016,272.5,0,$\widetilde{A}_{G_0}$,moving_distance
R-HSA-141430,0.0012666252857251915,274.5,0,$\widetilde{A}_{G_0}$,moving_distance
R-HSA-141405,0.0012666252857251915,274.5,0,$\widetilde{A}_{G_0}$,moving_distance
R-HSA-422356,0.001258832209429182,276.0,0,$\widetilde{A}_{G_0}$,moving_distance
R-HSA-9619483,0.0012483449566267266,277.0,0,$\widetilde{A}_{G_0}$,moving_distance
R-HSA-399955,0.0012344198815135003,278.0,0,$\widetilde{A}_{G_0}$,moving_distance
R-HSA-937061,0.0012320894743264434,279.0,0,$\widetilde{A}_{G_0}$,moving_distance
R-HSA-166166,0.0012320894743264432,280.0,0,$\widetilde{A}_{G_0}$,moving_distance
R-HSA-8864260,0.0012239654230925725,281.0,0,$\widetilde{A}_{G_0}$,moving_distance
R-HSA-202670,0.0012217588613791608,282.0,0,$\widetilde{A}_{G_0}$,moving_distance
R-HSA-174154,0.001220050216019346,283.0,0,$\widetilde{A}_{G_0}$,moving_distance
R-HSA-5674135,0.0012162001058967505,284.0,0,$\widetilde{A}_{G_0}$,moving_distance
R-HSA-1502540,0.001202336543487936,285.0,0,$\widetilde{A}_{G_0}$,moving_distance
R-HSA-6802946,0.0011925332287431344,286.0,0,$\widetilde{A}_{G_0}$,moving_distance
R-HSA-6802955,0.0011925332287431333,287.0,0,$\widetilde{A}_{G_0}$,moving_distance
R-HSA-6802949,0.0011925332287431327,288.5,0,$\widetilde{A}_{G_0}$,moving_distance
R-HSA-9649948,0.0011925332287431327,288.5,0,$\widetilde{A}_{G_0}$,moving_distance
R-HSA-373080,0.0011890851430847917,290.0,0,$\widetilde{A}_{G_0}$,moving_distance
R-HSA-8875360,0.001180289051084929,291.0,0,$\widetilde{A}_{G_0}$,moving_distance
R-HSA-9013106,0.0011731159744506844,292.0,0,$\widetilde{A}_{G_0}$,moving_distance
R-HSA-9013700,0.0011651177966436642,293.0,0,$\widetilde{A}_{G_0}$,moving_distance
R-HSA-6785631,0.0011631464277942329,294.0,0,$\widetilde{A}_{G_0}$,moving_distance
R-HSA-390450,0.001159454521985108,295.0,0,$\widetilde{A}_{G_0}$,moving_distance
R-HSA-9013408,0.001145690150093907,296.0,0,$\widetilde{A}_{G_0}$,moving_distance
R-HSA-9664417,0.0011415196542609008,297.0,0,$\widetilde{A}_{G_0}$,moving_distance
R-HSA-9664407,0.0011415196542609006,298.5,0,$\widetilde{A}_{G_0}$,moving_distance
R-HSA-9664422,0.0011415196542609006,298.5,0,$\widetilde{A}_{G_0}$,moving_distance
R-HSA-8875555,0.001134552354358473,300.0,0,$\widetilde{A}_{G_0}$,moving_distance
R-HSA-9668328,0.0011313885667722364,301.0,0,$\widetilde{A}_{G_0}$,moving_distance
R-HSA-909733,0.0011289714188413877,302.0,0,$\widetilde{A}_{G_0}$,moving_distance
R-HSA-9013420,0.001127032642091919,303.0,0,$\widetilde{A}_{G_0}$,moving_distance
R-HSA-8876384,0.001126542747965014,304.0,0,$\widetilde{A}_{G_0}$,moving_distance
R-HSA-2426168,0.0011261079513923444,305.0,0,$\widetilde{A}_{G_0}$,moving_distance
R-HSA-193648,0.0011254616049555393,306.0,0,$\widetilde{A}_{G_0}$,moving_distance
R-HSA-418555,0.00112388032470078,307.0,0,$\widetilde{A}_{G_0}$,moving_distance
R-HSA-418597,0.0011195616078174902,308.0,0,$\widetilde{A}_{G_0}$,moving_distance
R-HSA-8934903,0.0011169630048473262,309.0,0,$\widetilde{A}_{G_0}$,moving_distance
R-HSA-6788467,0.0011031273553307533,310.0,0,$\widetilde{A}_{G_0}$,moving_distance
R-HSA-1660499,0.0011026204742897747,311.0,0,$\widetilde{A}_{G_0}$,moving_distance
R-HSA-9013424,0.0010940012071220732,312.0,0,$\widetilde{A}_{G_0}$,moving_distance
R-HSA-399956,0.0010925357562850842,313.0,0,$\widetilde{A}_{G_0}$,moving_distance
R-HSA-179409,0.0010896660424739154,314.0,0,$\widetilde{A}_{G_0}$,moving_distance
R-HSA-176407,0.0010849362234620305,315.0,0,$\widetilde{A}_{G_0}$,moving_distance
R-HSA-5663213,0.0010848087078112177,316.0,0,$\widetilde{A}_{G_0}$,moving_distance
R-HSA-2029482,0.0010726388710089428,317.0,0,$\widetilde{A}_{G_0}$,moving_distance
R-HSA-70263,0.001071903899426112,318.0,0,$\widetilde{A}_{G_0}$,moving_distance
R-HSA-6807004,0.0010588784410931267,319.0,0,$\widetilde{A}_{G_0}$,moving_distance
R-HSA-176412,0.0010563552556111335,320.0,0,$\widetilde{A}_{G_0}$,moving_distance
R-HSA-9013423,0.0010537133675562848,321.0,0,$\widetilde{A}_{G_0}$,moving_distance
R-HSA-5675221,0.0010532222642507956,322.0,0,$\widetilde{A}_{G_0}$,moving_distance
R-HSA-9013026,0.0010516231159645836,323.0,0,$\widetilde{A}_{G_0}$,moving_distance
R-HSA-212676,0.0010408298216920933,324.0,0,$\widetilde{A}_{G_0}$,moving_distance
R-HSA-181430,0.001040829821692093,325.5,0,$\widetilde{A}_{G_0}$,moving_distance
R-HSA-210500,0.001040829821692093,325.5,0,$\widetilde{A}_{G_0}$,moving_distance
R-HSA-264642,0.0010408298216920927,327.0,0,$\widetilde{A}_{G_0}$,moving_distance
R-HSA-181429,0.0010408298216920918,328.0,0,$\widetilde{A}_{G_0}$,moving_distance
R-HSA-428540,0.0010297803943205236,329.0,0,$\widetilde{A}_{G_0}$,moving_distance
R-HSA-6802952,0.0010271390858782486,330.0,0,$\widetilde{A}_{G_0}$,moving_distance
R-HSA-917937,0.0010125516474084064,331.0,0,$\widetilde{A}_{G_0}$,moving_distance
R-HSA-982772,0.0009960670999381452,332.0,0,$\widetilde{A}_{G_0}$,moving_distance
R-HSA-69231,0.0009934788756537087,333.0,0,$\widetilde{A}_{G_0}$,moving_distance
R-HSA-69236,0.0009934788756537085,334.0,0,$\widetilde{A}_{G_0}$,moving_distance
R-HSA-69205,0.0009912125097127356,335.0,0,$\widetilde{A}_{G_0}$,moving_distance
R-HSA-9696264,0.0009866626082239121,336.0,0,$\widetilde{A}_{G_0}$,moving_distance
R-HSA-3928663,0.0009700652737390582,337.0,0,$\widetilde{A}_{G_0}$,moving_distance
R-HSA-163685,0.0009672513030195538,338.0,0,$\widetilde{A}_{G_0}$,moving_distance
R-HSA-164938,0.0009660601744064782,339.0,0,$\widetilde{A}_{G_0}$,moving_distance
R-HSA-399954,0.0009629559420749992,340.0,0,$\widetilde{A}_{G_0}$,moving_distance
R-HSA-1592230,0.0009551208063039883,341.0,0,$\widetilde{A}_{G_0}$,moving_distance
R-HSA-5673000,0.0009469965079788532,342.0,0,$\widetilde{A}_{G_0}$,moving_distance
R-HSA-8940973,0.0009448263580844974,343.0,0,$\widetilde{A}_{G_0}$,moving_distance
R-HSA-399721,0.0009407373981674322,344.0,0,$\widetilde{A}_{G_0}$,moving_distance
R-HSA-399719,0.0009407373981674318,345.0,0,$\widetilde{A}_{G_0}$,moving_distance
R-HSA-8941326,0.0009259648240148862,346.0,0,$\widetilde{A}_{G_0}$,moving_distance
R-HSA-182971,0.0009225199231417888,347.0,0,$\widetilde{A}_{G_0}$,moving_distance
R-HSA-6794361,0.000900910094571519,348.0,0,$\widetilde{A}_{G_0}$,moving_distance
R-HSA-9687136,0.0008943935136448919,349.0,0,$\widetilde{A}_{G_0}$,moving_distance
R-HSA-1368082,0.0008939689167306769,350.0,0,$\widetilde{A}_{G_0}$,moving_distance
R-HSA-9013507,0.0008880218420314735,351.0,0,$\widetilde{A}_{G_0}$,moving_distance
R-HSA-9035034,0.0008834695382909697,352.0,0,$\widetilde{A}_{G_0}$,moving_distance
R-HSA-9013409,0.0008744808866906468,353.0,0,$\widetilde{A}_{G_0}$,moving_distance
R-HSA-9705462,0.0008669735492413003,354.0,0,$\widetilde{A}_{G_0}$,moving_distance
R-HSA-416476,0.000865016038862051,355.0,0,$\widetilde{A}_{G_0}$,moving_distance
R-HSA-418346,0.0008632951547458621,356.0,0,$\widetilde{A}_{G_0}$,moving_distance
R-HSA-388844,0.0008613342354784991,357.0,0,$\widetilde{A}_{G_0}$,moving_distance
R-HSA-201451,0.0008586722458837832,358.0,0,$\widetilde{A}_{G_0}$,moving_distance
R-HSA-111885,0.0008482056226926922,359.0,0,$\widetilde{A}_{G_0}$,moving_distance
R-HSA-389958,0.0008298003392931687,360.0,0,$\widetilde{A}_{G_0}$,moving_distance
R-HSA-1606322,0.0008245219040833195,361.0,0,$\widetilde{A}_{G_0}$,moving_distance
R-HSA-75035,0.0008240701373627674,362.0,0,$\widetilde{A}_{G_0}$,moving_distance
R-HSA-8964038,0.0008239734073728037,363.0,0,$\widetilde{A}_{G_0}$,moving_distance
R-HSA-937039,0.0008151366710563316,364.0,0,$\widetilde{A}_{G_0}$,moving_distance
R-HSA-975144,0.000815136671056331,365.0,0,$\widetilde{A}_{G_0}$,moving_distance
R-HSA-9013405,0.0008125504417199177,366.0,0,$\widetilde{A}_{G_0}$,moving_distance
R-HSA-5621575,0.0008055778966657159,367.0,0,$\widetilde{A}_{G_0}$,moving_distance
R-HSA-5635838,0.0008047366568866408,368.0,0,$\widetilde{A}_{G_0}$,moving_distance
R-HSA-6783783,0.0008027243702004667,369.0,0,$\widetilde{A}_{G_0}$,moving_distance
R-HSA-112310,0.0007994402720743119,370.0,0,$\widetilde{A}_{G_0}$,moving_distance
R-HSA-1251985,0.000799061313430838,371.0,0,$\widetilde{A}_{G_0}$,moving_distance
R-HSA-8957275,0.0007953319293104498,372.0,0,$\widetilde{A}_{G_0}$,moving_distance
R-HSA-6802957,0.0007860945459332207,373.0,0,$\widetilde{A}_{G_0}$,moving_distance
R-HSA-389957,0.0007859028992037255,374.0,0,$\widetilde{A}_{G_0}$,moving_distance
R-HSA-8984722,0.0007823024928002649,375.0,0,$\widetilde{A}_{G_0}$,moving_distance
R-HSA-918233,0.0007814445298486106,376.0,0,$\widetilde{A}_{G_0}$,moving_distance
R-HSA-5218921,0.0007799414028628122,377.0,0,$\widetilde{A}_{G_0}$,moving_distance
R-HSA-1980145,0.0007759617607184467,378.0,0,$\widetilde{A}_{G_0}$,moving_distance
R-HSA-2979096,0.0007756669051280444,379.0,0,$\widetilde{A}_{G_0}$,moving_distance
R-HSA-416482,0.0007747901022304888,380.0,0,$\widetilde{A}_{G_0}$,moving_distance
R-HSA-69273,0.0007743735290242718,381.0,0,$\widetilde{A}_{G_0}$,moving_distance
R-HSA-168142,0.0007732595445279445,382.5,0,$\widetilde{A}_{G_0}$,moving_distance
R-HSA-168176,0.0007732595445279445,382.5,0,$\widetilde{A}_{G_0}$,moving_distance
R-HSA-975871,0.0007732595445279442,384.0,0,$\widetilde{A}_{G_0}$,moving_distance
R-HSA-4090294,0.000769584658092702,385.0,0,$\widetilde{A}_{G_0}$,moving_distance
R-HSA-190828,0.0007654859674873568,386.0,0,$\widetilde{A}_{G_0}$,moving_distance
R-HSA-70221,0.000763495009668797,387.0,0,$\widetilde{A}_{G_0}$,moving_distance
R-HSA-9020702,0.000760806508603848,388.0,0,$\widetilde{A}_{G_0}$,moving_distance
R-HSA-445989,0.0007552561998688118,389.0,0,$\widetilde{A}_{G_0}$,moving_distance
R-HSA-9637690,0.0007519280169288995,390.0,0,$\widetilde{A}_{G_0}$,moving_distance
R-HSA-157858,0.0007486619114709971,391.0,0,$\widetilde{A}_{G_0}$,moving_distance
R-HSA-5693568,0.0007459361644149207,392.0,0,$\widetilde{A}_{G_0}$,moving_distance
R-HSA-5205647,0.0007432725732683579,393.0,0,$\widetilde{A}_{G_0}$,moving_distance
R-HSA-381033,0.0007347494046764756,394.0,0,$\widetilde{A}_{G_0}$,moving_distance
R-HSA-6794362,0.0007346255591836599,395.0,0,$\widetilde{A}_{G_0}$,moving_distance
R-HSA-9022692,0.0007329369826672027,396.0,0,$\widetilde{A}_{G_0}$,moving_distance
R-HSA-204998,0.0007319037278768001,397.0,0,$\widetilde{A}_{G_0}$,moving_distance
R-HSA-3270619,0.0007281525347201489,398.0,0,$\widetilde{A}_{G_0}$,moving_distance
R-HSA-2122948,0.000724441520384613,399.0,0,$\widetilde{A}_{G_0}$,moving_distance
R-HSA-202424,0.0007202844383383816,400.0,0,$\widetilde{A}_{G_0}$,moving_distance
R-HSA-174048,0.000714974449903654,401.0,0,$\widetilde{A}_{G_0}$,moving_distance
R-HSA-196025,0.0007146678321119516,402.0,0,$\widetilde{A}_{G_0}$,moving_distance
R-HSA-9635486,0.0007071837201285495,403.0,0,$\widetilde{A}_{G_0}$,moving_distance
R-HSA-1810476,0.0007068436749658124,404.0,0,$\widetilde{A}_{G_0}$,moving_distance
R-HSA-450321,0.0007041603023771336,405.0,0,$\widetilde{A}_{G_0}$,moving_distance
R-HSA-5693537,0.0006998618019147298,406.0,0,$\widetilde{A}_{G_0}$,moving_distance
R-HSA-8986944,0.0006974192157051881,407.0,0,$\widetilde{A}_{G_0}$,moving_distance
R-HSA-383280,0.0006941082435997157,408.0,0,$\widetilde{A}_{G_0}$,moving_distance
R-HSA-1362277,0.0006880374758738836,409.0,0,$\widetilde{A}_{G_0}$,moving_distance
R-HSA-68884,0.0006860513848971553,410.0,0,$\widetilde{A}_{G_0}$,moving_distance
R-HSA-3928664,0.0006852372423987434,411.0,0,$\widetilde{A}_{G_0}$,moving_distance
R-HSA-5099900,0.0006790067754088605,412.0,0,$\widetilde{A}_{G_0}$,moving_distance
R-HSA-1538133,0.0006749711887572839,413.0,0,$\widetilde{A}_{G_0}$,moving_distance
R-HSA-450302,0.0006738382112855494,414.0,0,$\widetilde{A}_{G_0}$,moving_distance
R-HSA-190873,0.0006707216687353969,415.0,0,$\widetilde{A}_{G_0}$,moving_distance
R-HSA-1368108,0.0006702631580853861,416.0,0,$\widetilde{A}_{G_0}$,moving_distance
R-HSA-381340,0.0006697635339889897,417.0,0,$\widetilde{A}_{G_0}$,moving_distance
R-HSA-168927,0.0006694464312697554,418.0,0,$\widetilde{A}_{G_0}$,moving_distance
R-HSA-1358803,0.0006670270496711001,419.0,0,$\widetilde{A}_{G_0}$,moving_distance
R-HSA-844456,0.0006590672633334253,420.0,0,$\widetilde{A}_{G_0}$,moving_distance
R-HSA-9675151,0.0006546966628299638,421.5,0,$\widetilde{A}_{G_0}$,moving_distance
R-HSA-9005891,0.0006546966628299638,421.5,0,$\widetilde{A}_{G_0}$,moving_distance
R-HSA-9005895,0.0006546966628299636,423.0,0,$\widetilde{A}_{G_0}$,moving_distance
R-HSA-9697154,0.0006546966628299635,424.0,0,$\widetilde{A}_{G_0}$,moving_distance
R-HSA-437239,0.000653920228989442,425.0,0,$\widetilde{A}_{G_0}$,moving_distance
R-HSA-933541,0.0006535962137166983,426.0,0,$\widetilde{A}_{G_0}$,moving_distance
R-HSA-1483255,0.0006497814319301293,427.0,0,$\widetilde{A}_{G_0}$,moving_distance
R-HSA-432720,0.0006480215969204152,428.0,0,$\widetilde{A}_{G_0}$,moving_distance
R-HSA-5140745,0.0006431958287564479,429.0,0,$\widetilde{A}_{G_0}$,moving_distance
R-HSA-5689896,0.0006397612969721549,430.0,0,$\widetilde{A}_{G_0}$,moving_distance
R-HSA-8852276,0.0006396408295667359,431.0,0,$\widetilde{A}_{G_0}$,moving_distance
R-HSA-68827,0.0006381228026806041,432.0,0,$\widetilde{A}_{G_0}$,moving_distance
R-HSA-8849471,0.0006333773984138821,433.0,0,$\widetilde{A}_{G_0}$,moving_distance
R-HSA-450341,0.0006256203895994211,434.0,0,$\widetilde{A}_{G_0}$,moving_distance
R-HSA-4839744,0.0006238717100450435,437.5,0,$\widetilde{A}_{G_0}$,moving_distance
R-HSA-4839748,0.0006238717100450435,437.5,0,$\widetilde{A}_{G_0}$,moving_distance
R-HSA-5467348,0.0006238717100450435,437.5,0,$\widetilde{A}_{G_0}$,moving_distance
R-HSA-4839735,0.0006238717100450435,437.5,0,$\widetilde{A}_{G_0}$,moving_distance
R-HSA-5467337,0.0006238717100450435,437.5,0,$\widetilde{A}_{G_0}$,moving_distance
R-HSA-5467340,0.0006238717100450435,437.5,0,$\widetilde{A}_{G_0}$,moving_distance
R-HSA-390471,0.0006160403746962216,441.0,0,$\widetilde{A}_{G_0}$,moving_distance
R-HSA-68949,0.0006158274341502199,442.0,0,$\widetilde{A}_{G_0}$,moving_distance
R-HSA-445095,0.0006136600354405897,443.0,0,$\widetilde{A}_{G_0}$,moving_distance
R-HSA-3928662,0.0006107045347376975,444.0,0,$\widetilde{A}_{G_0}$,moving_distance
R-HSA-8875878,0.0006097408882563551,445.0,0,$\widetilde{A}_{G_0}$,moving_distance
R-HSA-5205685,0.0006080451487837662,446.0,0,$\widetilde{A}_{G_0}$,moving_distance
R-HSA-5693554,0.0006077175790335947,447.0,0,$\widetilde{A}_{G_0}$,moving_distance
R-HSA-68962,0.000605141852097758,448.0,0,$\widetilde{A}_{G_0}$,moving_distance
R-HSA-9707616,0.0006004892482670322,449.0,0,$\widetilde{A}_{G_0}$,moving_distance
R-HSA-8863795,0.0005991616787328065,450.0,0,$\widetilde{A}_{G_0}$,moving_distance
R-HSA-4839743,0.0005982533383026143,451.5,0,$\widetilde{A}_{G_0}$,moving_distance
R-HSA-5358751,0.0005982533383026143,451.5,0,$\widetilde{A}_{G_0}$,moving_distance
R-HSA-5339716,0.0005982533383026142,454.5,0,$\widetilde{A}_{G_0}$,moving_distance
R-HSA-5358747,0.0005982533383026142,454.5,0,$\widetilde{A}_{G_0}$,moving_distance
R-HSA-5358749,0.0005982533383026142,454.5,0,$\widetilde{A}_{G_0}$,moving_distance
R-HSA-5358752,0.0005982533383026142,454.5,0,$\widetilde{A}_{G_0}$,moving_distance
R-HSA-445355,0.0005951164523214882,457.0,0,$\widetilde{A}_{G_0}$,moving_distance
R-HSA-3371571,0.0005909360006434538,458.0,0,$\widetilde{A}_{G_0}$,moving_distance
R-HSA-2980736,0.0005884240288450105,459.0,0,$\widetilde{A}_{G_0}$,moving_distance
R-HSA-198753,0.0005875770653580238,460.0,0,$\widetilde{A}_{G_0}$,moving_distance
R-HSA-983712,0.0005861556768529185,461.0,0,$\widetilde{A}_{G_0}$,moving_distance
R-HSA-5173105,0.0005859875970363193,462.0,0,$\widetilde{A}_{G_0}$,moving_distance
R-HSA-9678108,0.0005845334463733347,463.0,0,$\widetilde{A}_{G_0}$,moving_distance
R-HSA-186712,0.0005834959543280729,464.0,0,$\widetilde{A}_{G_0}$,moving_distance
R-HSA-171007,0.0005827967906000421,465.0,0,$\widetilde{A}_{G_0}$,moving_distance
R-HSA-1834941,0.0005827735949930778,466.0,0,$\widetilde{A}_{G_0}$,moving_distance
R-HSA-8856825,0.0005797330764743313,467.0,0,$\widetilde{A}_{G_0}$,moving_distance
R-HSA-5684264,0.0005729084750077131,468.0,0,$\widetilde{A}_{G_0}$,moving_distance
R-HSA-400253,0.000572823383284363,469.0,0,$\widetilde{A}_{G_0}$,moving_distance
R-HSA-6804760,0.0005712563452570154,470.0,0,$\widetilde{A}_{G_0}$,moving_distance
R-HSA-5689901,0.000570175807309296,471.0,0,$\widetilde{A}_{G_0}$,moving_distance
R-HSA-6811436,0.0005694587508745745,472.0,0,$\widetilde{A}_{G_0}$,moving_distance
R-HSA-933543,0.0005680599640516822,473.0,0,$\widetilde{A}_{G_0}$,moving_distance
R-HSA-5357786,0.0005665576747640978,474.0,0,$\widetilde{A}_{G_0}$,moving_distance
R-HSA-381426,0.0005644702897260274,475.0,0,$\widetilde{A}_{G_0}$,moving_distance
R-HSA-3371556,0.0005594804595476387,476.0,0,$\widetilde{A}_{G_0}$,moving_distance
R-HSA-2173789,0.0005591310660518559,477.0,0,$\widetilde{A}_{G_0}$,moving_distance
R-HSA-162658,0.0005589923027567128,478.0,0,$\widetilde{A}_{G_0}$,moving_distance
R-HSA-9660826,0.0005589728632032412,479.0,0,$\widetilde{A}_{G_0}$,moving_distance
R-HSA-9664424,0.000558972863203241,480.0,0,$\widetilde{A}_{G_0}$,moving_distance
R-HSA-68867,0.0005566155621795954,481.0,0,$\widetilde{A}_{G_0}$,moving_distance
R-HSA-9029569,0.0005552889141456106,482.0,0,$\widetilde{A}_{G_0}$,moving_distance
R-HSA-8950505,0.0005547297427968351,483.0,0,$\widetilde{A}_{G_0}$,moving_distance
R-HSA-933542,0.0005538129769556351,484.0,0,$\widetilde{A}_{G_0}$,moving_distance
R-HSA-416572,0.0005533299507426808,485.0,0,$\widetilde{A}_{G_0}$,moving_distance
R-HSA-69618,0.0005531266738697195,486.0,0,$\widetilde{A}_{G_0}$,moving_distance
R-HSA-187577,0.0005526728090181383,487.0,0,$\widetilde{A}_{G_0}$,moving_distance
R-HSA-168638,0.0005487627177163515,488.0,0,$\widetilde{A}_{G_0}$,moving_distance
R-HSA-69002,0.000546567903675505,489.0,0,$\widetilde{A}_{G_0}$,moving_distance
R-HSA-163560,0.000535157223268474,490.0,0,$\widetilde{A}_{G_0}$,moving_distance
R-HSA-5218920,0.0005325551274820391,491.0,0,$\widetilde{A}_{G_0}$,moving_distance
R-HSA-196299,0.0005319190389989827,492.0,0,$\widetilde{A}_{G_0}$,moving_distance
R-HSA-5693567,0.0005311103316869271,493.0,0,$\widetilde{A}_{G_0}$,moving_distance
R-HSA-983189,0.0005261460644077974,494.0,0,$\widetilde{A}_{G_0}$,moving_distance
R-HSA-622312,0.0005254710356967362,495.0,0,$\widetilde{A}_{G_0}$,moving_distance
R-HSA-8982491,0.000525290170405643,496.0,0,$\widetilde{A}_{G_0}$,moving_distance
R-HSA-5334118,0.000524244133222813,497.0,0,$\widetilde{A}_{G_0}$,moving_distance
R-HSA-176974,0.000521648002652156,498.0,0,$\widetilde{A}_{G_0}$,moving_distance
R-HSA-176187,0.0005203567193512595,499.0,0,$\widetilde{A}_{G_0}$,moving_distance
R-HSA-2672351,0.0005193977961333208,500.0,0,$\widetilde{A}_{G_0}$,moving_distance
R-HSA-350054,0.0005159399599468743,501.0,0,$\widetilde{A}_{G_0}$,moving_distance
R-HSA-9694516,0.0005132648510956673,502.0,0,$\widetilde{A}_{G_0}$,moving_distance
R-HSA-2470946,0.0005121775394870784,503.0,0,$\widetilde{A}_{G_0}$,moving_distance
R-HSA-1483257,0.0005120697584819007,504.0,0,$\widetilde{A}_{G_0}$,moving_distance
R-HSA-5676594,0.0005102624653729641,505.0,0,$\widetilde{A}_{G_0}$,moving_distance
R-HSA-9687139,0.0005098944287834037,506.0,0,$\widetilde{A}_{G_0}$,moving_distance
R-HSA-2122947,0.0005056028314686342,507.0,0,$\widetilde{A}_{G_0}$,moving_distance
R-HSA-6804114,0.0005037852714631444,508.0,0,$\widetilde{A}_{G_0}$,moving_distance
R-HSA-5674400,0.0004995223773367711,509.0,0,$\widetilde{A}_{G_0}$,moving_distance
R-HSA-264876,0.000498488312714556,510.0,0,$\widetilde{A}_{G_0}$,moving_distance
R-HSA-9627069,0.0004935712170081814,511.5,0,$\widetilde{A}_{G_0}$,moving_distance
R-HSA-111458,0.0004935712170081814,511.5,0,$\widetilde{A}_{G_0}$,moving_distance
R-HSA-5357956,0.0004935492889902583,513.0,0,$\widetilde{A}_{G_0}$,moving_distance
R-HSA-69473,0.0004927484663836808,514.0,0,$\widetilde{A}_{G_0}$,moving_distance
R-HSA-9619665,0.000490651372942973,515.0,0,$\widetilde{A}_{G_0}$,moving_distance
R-HSA-69563,0.0004899327372971201,516.5,0,$\widetilde{A}_{G_0}$,moving_distance
R-HSA-69580,0.0004899327372971201,516.5,0,$\widetilde{A}_{G_0}$,moving_distance
R-HSA-9024446,0.0004896703442485602,518.0,0,$\widetilde{A}_{G_0}$,moving_distance
R-HSA-400685,0.00048448543519548197,519.0,0,$\widetilde{A}_{G_0}$,moving_distance
R-HSA-168643,0.0004829792318262216,520.0,0,$\widetilde{A}_{G_0}$,moving_distance
R-HSA-4615885,0.00047964185801752085,521.0,0,$\widetilde{A}_{G_0}$,moving_distance
R-HSA-9006927,0.0004786176267738266,522.0,0,$\widetilde{A}_{G_0}$,moving_distance
R-HSA-8848021,0.0004786176267738265,523.0,0,$\widetilde{A}_{G_0}$,moving_distance
R-HSA-9675126,0.00047427146398677246,524.0,0,$\widetilde{A}_{G_0}$,moving_distance
R-HSA-69615,0.0004720092540755013,525.0,0,$\widetilde{A}_{G_0}$,moving_distance
R-HSA-1236974,0.0004705850756827272,526.0,0,$\widetilde{A}_{G_0}$,moving_distance
R-HSA-5358565,0.0004700469582128596,527.0,0,$\widetilde{A}_{G_0}$,moving_distance
R-HSA-5358606,0.00046707466466185447,528.0,0,$\widetilde{A}_{G_0}$,moving_distance
R-HSA-450294,0.00046703282509686267,529.0,0,$\widetilde{A}_{G_0}$,moving_distance
R-HSA-9013407,0.00046562998040118933,530.0,0,$\widetilde{A}_{G_0}$,moving_distance
R-HSA-168164,0.0004647175396188004,531.0,0,$\widetilde{A}_{G_0}$,moving_distance
R-HSA-4791275,0.0004644533389042483,532.0,0,$\widetilde{A}_{G_0}$,moving_distance
R-HSA-9648002,0.00046389413991139016,533.0,0,$\widetilde{A}_{G_0}$,moving_distance
R-HSA-9006936,0.0004637232846621097,534.0,0,$\widetilde{A}_{G_0}$,moving_distance
R-HSA-448424,0.0004629012986647617,535.0,0,$\widetilde{A}_{G_0}$,moving_distance
R-HSA-9659787,0.00046144883789037616,536.0,0,$\widetilde{A}_{G_0}$,moving_distance
R-HSA-9661069,0.00046144883789037583,537.0,0,$\widetilde{A}_{G_0}$,moving_distance
R-HSA-5675482,0.0004612456237685101,538.0,0,$\widetilde{A}_{G_0}$,moving_distance
R-HSA-5213460,0.0004612456237685085,539.0,0,$\widetilde{A}_{G_0}$,moving_distance
R-HSA-4655427,0.0004591629465382636,540.0,0,$\widetilde{A}_{G_0}$,moving_distance
R-HSA-3232118,0.00045911149348504715,541.0,0,$\widetilde{A}_{G_0}$,moving_distance
R-HSA-75153,0.000458281511195645,542.0,0,$\widetilde{A}_{G_0}$,moving_distance
R-HSA-210744,0.00045764386651333806,543.0,0,$\widetilde{A}_{G_0}$,moving_distance
R-HSA-5627123,0.0004559518403116369,544.0,0,$\widetilde{A}_{G_0}$,moving_distance
R-HSA-9609690,0.00045573829029513376,545.0,0,$\widetilde{A}_{G_0}$,moving_distance
R-HSA-141424,0.0004554447525710411,546.0,0,$\widetilde{A}_{G_0}$,moving_distance
R-HSA-141444,0.0004554447525710408,547.0,0,$\widetilde{A}_{G_0}$,moving_distance
R-HSA-450282,0.00045517516837232844,548.0,0,$\widetilde{A}_{G_0}$,moving_distance
R-HSA-5668599,0.0004551062004537938,549.0,0,$\widetilde{A}_{G_0}$,moving_distance
R-HSA-9683701,0.00045456092853594254,550.0,0,$\widetilde{A}_{G_0}$,moving_distance
R-HSA-1236975,0.0004538011711675929,551.0,0,$\widetilde{A}_{G_0}$,moving_distance
R-HSA-9646399,0.00045289242735271977,552.0,0,$\widetilde{A}_{G_0}$,moving_distance
R-HSA-9663891,0.00045195011729346,553.0,0,$\widetilde{A}_{G_0}$,moving_distance
R-HSA-447115,0.00044864977560290137,554.0,0,$\widetilde{A}_{G_0}$,moving_distance
R-HSA-8941856,0.0004468598465711938,555.0,0,$\widetilde{A}_{G_0}$,moving_distance
R-HSA-5696400,0.00044662748238703684,556.0,0,$\widetilde{A}_{G_0}$,moving_distance
R-HSA-111461,0.0004457317621811967,557.0,0,$\widetilde{A}_{G_0}$,moving_distance
R-HSA-5696394,0.0004442809561116425,558.0,0,$\widetilde{A}_{G_0}$,moving_distance
R-HSA-9679191,0.0004437316814191669,559.0,0,$\widetilde{A}_{G_0}$,moving_distance
R-HSA-912446,0.0004424605467931806,560.0,0,$\widetilde{A}_{G_0}$,moving_distance
R-HSA-170834,0.0004423938426754294,561.0,0,$\widetilde{A}_{G_0}$,moving_distance
R-HSA-9013695,0.00044053264844429125,562.0,0,$\widetilde{A}_{G_0}$,moving_distance
R-HSA-2465910,0.00043992286583547925,563.0,0,$\widetilde{A}_{G_0}$,moving_distance
R-HSA-6782210,0.0004379585251142557,564.0,0,$\widetilde{A}_{G_0}$,moving_distance
R-HSA-9615017,0.0004375354533611338,565.0,0,$\widetilde{A}_{G_0}$,moving_distance
R-HSA-389977,0.0004349112323198471,566.0,0,$\widetilde{A}_{G_0}$,moving_distance
R-HSA-5619084,0.00043430404125931334,567.0,0,$\widetilde{A}_{G_0}$,moving_distance
R-HSA-425407,0.00043365722682242597,568.0,0,$\widetilde{A}_{G_0}$,moving_distance
R-HSA-2173788,0.0004325178146096121,569.0,0,$\widetilde{A}_{G_0}$,moving_distance
R-HSA-111471,0.0004291783799734513,570.0,0,$\widetilde{A}_{G_0}$,moving_distance
R-HSA-5358508,0.00042821223533734133,571.0,0,$\widetilde{A}_{G_0}$,moving_distance
R-HSA-198323,0.0004279543056752399,572.0,0,$\widetilde{A}_{G_0}$,moving_distance
R-HSA-112040,0.00042375985664829105,573.0,0,$\widetilde{A}_{G_0}$,moving_distance
R-HSA-2500257,0.00042328484001632176,574.0,0,$\widetilde{A}_{G_0}$,moving_distance
R-HSA-112409,0.00042310956115656134,575.0,0,$\widetilde{A}_{G_0}$,moving_distance
R-HSA-9613829,0.0004216884851827973,576.0,0,$\widetilde{A}_{G_0}$,moving_distance
R-HSA-5693607,0.0004208476697091606,577.0,0,$\widetilde{A}_{G_0}$,moving_distance
R-HSA-6783310,0.00042042616908804804,578.0,0,$\widetilde{A}_{G_0}$,moving_distance
R-HSA-112043,0.000418571543887778,579.0,0,$\widetilde{A}_{G_0}$,moving_distance
R-HSA-9614399,0.0004177454806901192,580.0,0,$\widetilde{A}_{G_0}$,moving_distance
R-HSA-5601884,0.00041766120758774755,581.0,0,$\widetilde{A}_{G_0}$,moving_distance
R-HSA-9617828,0.00041599208390471435,582.0,0,$\widetilde{A}_{G_0}$,moving_distance
R-HSA-6781827,0.00041527769525331935,583.0,0,$\widetilde{A}_{G_0}$,moving_distance
R-HSA-5362768,0.00041506316625373774,584.0,0,$\widetilde{A}_{G_0}$,moving_distance
R-HSA-5685942,0.0004125977781240911,585.0,0,$\widetilde{A}_{G_0}$,moving_distance
R-HSA-174113,0.00041248213318918823,586.0,0,$\widetilde{A}_{G_0}$,moving_distance
R-HSA-2173795,0.0004118985762760356,587.0,0,$\widetilde{A}_{G_0}$,moving_distance
R-HSA-3769402,0.0004112298323511249,588.0,0,$\widetilde{A}_{G_0}$,moving_distance
R-HSA-73728,0.0004088783316342008,589.0,0,$\widetilde{A}_{G_0}$,moving_distance
R-HSA-111465,0.0004086343807570446,590.0,0,$\widetilde{A}_{G_0}$,moving_distance
R-HSA-8853884,0.0004083311393867818,591.0,0,$\widetilde{A}_{G_0}$,moving_distance
R-HSA-8941858,0.00040624621885256956,592.0,0,$\widetilde{A}_{G_0}$,moving_distance
R-HSA-5387390,0.00040612750298092936,593.0,0,$\widetilde{A}_{G_0}$,moving_distance
R-HSA-5656169,0.0004058783563884782,594.0,0,$\widetilde{A}_{G_0}$,moving_distance
R-HSA-936440,0.0004047889882433364,595.0,0,$\widetilde{A}_{G_0}$,moving_distance
R-HSA-4755510,0.0004010488838707143,596.0,0,$\widetilde{A}_{G_0}$,moving_distance
R-HSA-73928,0.0004009051796367829,598.0,0,$\widetilde{A}_{G_0}$,moving_distance
R-HSA-110328,0.0004009051796367829,598.0,0,$\widetilde{A}_{G_0}$,moving_distance
R-HSA-110329,0.0004009051796367829,598.0,0,$\widetilde{A}_{G_0}$,moving_distance
R-HSA-8874081,0.0003978120662266324,600.0,0,$\widetilde{A}_{G_0}$,moving_distance
R-HSA-5357905,0.0003957537314303368,601.0,0,$\widetilde{A}_{G_0}$,moving_distance
R-HSA-9648025,0.00039526397418848723,602.0,0,$\widetilde{A}_{G_0}$,moving_distance
R-HSA-113510,0.0003930028531868719,603.0,0,$\widetilde{A}_{G_0}$,moving_distance
R-HSA-350562,0.00039284768955980773,604.0,0,$\widetilde{A}_{G_0}$,moving_distance
R-HSA-111447,0.0003922362767808872,605.0,0,$\widetilde{A}_{G_0}$,moving_distance
R-HSA-211945,0.00039136692150729574,606.5,0,$\widetilde{A}_{G_0}$,moving_distance
R-HSA-211859,0.00039136692150729574,606.5,0,$\widetilde{A}_{G_0}$,moving_distance
R-HSA-9020591,0.0003891831450060612,608.0,0,$\widetilde{A}_{G_0}$,moving_distance
R-HSA-69541,0.0003887790438827784,609.0,0,$\widetilde{A}_{G_0}$,moving_distance
R-HSA-6782135,0.00038646185523393646,610.0,0,$\widetilde{A}_{G_0}$,moving_distance
R-HSA-432722,0.0003845784326507465,611.0,0,$\widetilde{A}_{G_0}$,moving_distance
R-HSA-3371453,0.0003837492432168482,612.0,0,$\widetilde{A}_{G_0}$,moving_distance
R-HSA-3000170,0.0003827525430032822,613.0,0,$\widetilde{A}_{G_0}$,moving_distance
R-HSA-5626467,0.0003823269550576722,614.0,0,$\widetilde{A}_{G_0}$,moving_distance
R-HSA-73929,0.00038125334810462137,615.0,0,$\widetilde{A}_{G_0}$,moving_distance
R-HSA-73927,0.0003812533481046212,617.0,0,$\widetilde{A}_{G_0}$,moving_distance
R-HSA-110331,0.0003812533481046212,617.0,0,$\widetilde{A}_{G_0}$,moving_distance
R-HSA-110330,0.0003812533481046212,617.0,0,$\widetilde{A}_{G_0}$,moving_distance
R-HSA-69202,0.00037956733877902944,619.0,0,$\widetilde{A}_{G_0}$,moving_distance
R-HSA-9662361,0.00037836409171688545,620.0,0,$\widetilde{A}_{G_0}$,moving_distance
R-HSA-69656,0.00037833518167088975,621.0,0,$\widetilde{A}_{G_0}$,moving_distance
R-HSA-3000157,0.0003781254259278258,622.0,0,$\widetilde{A}_{G_0}$,moving_distance
R-HSA-351202,0.00037696203968841716,623.0,0,$\widetilde{A}_{G_0}$,moving_distance
R-HSA-5689603,0.0003752978559352505,624.0,0,$\widetilde{A}_{G_0}$,moving_distance
R-HSA-2151201,0.0003736758697848075,625.0,0,$\widetilde{A}_{G_0}$,moving_distance
R-HSA-5625886,0.00037310562571626454,626.0,0,$\widetilde{A}_{G_0}$,moving_distance
R-HSA-1362300,0.00037295594174773655,627.0,0,$\widetilde{A}_{G_0}$,moving_distance
R-HSA-111996,0.00037183441107326243,628.0,0,$\widetilde{A}_{G_0}$,moving_distance
R-HSA-4641262,0.00037179941666824333,629.0,0,$\widetilde{A}_{G_0}$,moving_distance
R-HSA-901032,0.00036944878216893013,630.0,0,$\widetilde{A}_{G_0}$,moving_distance
R-HSA-9013508,0.00036686708201594823,631.0,0,$\widetilde{A}_{G_0}$,moving_distance
R-HSA-9013694,0.00036665792612385913,632.0,0,$\widetilde{A}_{G_0}$,moving_distance
R-HSA-2559586,0.0003641035210886937,633.0,0,$\widetilde{A}_{G_0}$,moving_distance
R-HSA-6811434,0.00036089161842951887,634.0,0,$\widetilde{A}_{G_0}$,moving_distance
R-HSA-983231,0.0003588719255773651,635.0,0,$\widetilde{A}_{G_0}$,moving_distance
R-HSA-4419969,0.0003579366360337812,636.0,0,$\widetilde{A}_{G_0}$,moving_distance
R-HSA-77075,0.00035593918511592714,637.0,0,$\widetilde{A}_{G_0}$,moving_distance
R-HSA-167160,0.0003559391851159266,638.0,0,$\widetilde{A}_{G_0}$,moving_distance
R-HSA-2995410,0.00035323419117804736,639.0,0,$\widetilde{A}_{G_0}$,moving_distance
R-HSA-532668,0.0003525736237013488,640.0,0,$\widetilde{A}_{G_0}$,moving_distance
R-HSA-5693579,0.0003500434049840051,641.0,0,$\widetilde{A}_{G_0}$,moving_distance
R-HSA-8979227,0.0003493843517853862,642.0,0,$\widetilde{A}_{G_0}$,moving_distance
R-HSA-5607764,0.0003490671421097747,643.0,0,$\widetilde{A}_{G_0}$,moving_distance
R-HSA-3214842,0.00034905732966820273,644.0,0,$\widetilde{A}_{G_0}$,moving_distance
R-HSA-171319,0.0003473915802710825,645.0,0,$\widetilde{A}_{G_0}$,moving_distance
R-HSA-8939236,0.00034690613756535723,646.0,0,$\widetilde{A}_{G_0}$,moving_distance
R-HSA-72086,0.0003464024351194828,647.0,0,$\widetilde{A}_{G_0}$,moving_distance
R-HSA-1168372,0.00034578953059329846,648.0,0,$\widetilde{A}_{G_0}$,moving_distance
R-HSA-110313,0.00034448296472791833,649.0,0,$\widetilde{A}_{G_0}$,moving_distance
R-HSA-5625740,0.00034444668451841,650.0,0,$\widetilde{A}_{G_0}$,moving_distance
R-HSA-3299685,0.00034060338184731655,651.0,0,$\widetilde{A}_{G_0}$,moving_distance
R-HSA-202131,0.0003404722226326558,652.0,0,$\widetilde{A}_{G_0}$,moving_distance
R-HSA-6804759,0.00033836093135258827,653.0,0,$\widetilde{A}_{G_0}$,moving_distance
R-HSA-163210,0.0003378299753809503,654.0,0,$\widetilde{A}_{G_0}$,moving_distance
R-HSA-8873719,0.00033643036569808057,655.0,0,$\widetilde{A}_{G_0}$,moving_distance
R-HSA-418990,0.00033639336306730906,656.0,0,$\widetilde{A}_{G_0}$,moving_distance
R-HSA-168273,0.0003355769471013045,657.0,0,$\widetilde{A}_{G_0}$,moving_distance
R-HSA-9710421,0.0003352035450213305,658.0,0,$\widetilde{A}_{G_0}$,moving_distance
R-HSA-73893,0.0003342241043118279,659.0,0,$\widetilde{A}_{G_0}$,moving_distance
R-HSA-5696399,0.00033403166724357846,660.0,0,$\widetilde{A}_{G_0}$,moving_distance
R-HSA-9664420,0.00033265725864612045,661.5,0,$\widetilde{A}_{G_0}$,moving_distance
R-HSA-9673324,0.00033265725864612045,661.5,0,$\widetilde{A}_{G_0}$,moving_distance
R-HSA-211733,0.00033213623506413864,663.0,0,$\widetilde{A}_{G_0}$,moving_distance
R-HSA-169911,0.0003321362350641373,664.0,0,$\widetilde{A}_{G_0}$,moving_distance
R-HSA-113418,0.00033115839814188227,665.0,0,$\widetilde{A}_{G_0}$,moving_distance
R-HSA-167158,0.00033115839814188173,666.0,0,$\widetilde{A}_{G_0}$,moving_distance
R-HSA-5578775,0.00033021204563086815,667.0,0,$\widetilde{A}_{G_0}$,moving_distance
R-HSA-264870,0.0003291915590690097,668.0,0,$\widetilde{A}_{G_0}$,moving_distance
R-HSA-349425,0.0003283283335356747,669.0,0,$\widetilde{A}_{G_0}$,moving_distance
R-HSA-70171,0.0003281108084272782,670.0,0,$\widetilde{A}_{G_0}$,moving_distance
R-HSA-9694635,0.00032765639741492606,671.0,0,$\widetilde{A}_{G_0}$,moving_distance
R-HSA-75815,0.00032756665500061804,672.0,0,$\widetilde{A}_{G_0}$,moving_distance
R-HSA-110320,0.00032723084778970104,673.0,0,$\widetilde{A}_{G_0}$,moving_distance
R-HSA-450408,0.0003271354964313159,674.0,0,$\widetilde{A}_{G_0}$,moving_distance
R-HSA-1169410,0.0003270901281256731,675.0,0,$\widetilde{A}_{G_0}$,moving_distance
R-HSA-8866652,0.0003270227814914035,676.0,0,$\widetilde{A}_{G_0}$,moving_distance
R-HSA-4551638,0.00032676530527480437,677.0,0,$\widetilde{A}_{G_0}$,moving_distance
R-HSA-901042,0.0003261502393236243,678.0,0,$\widetilde{A}_{G_0}$,moving_distance
R-HSA-427389,0.0003253196684672711,679.0,0,$\widetilde{A}_{G_0}$,moving_distance
R-HSA-167200,0.00032498913024390754,680.0,0,$\widetilde{A}_{G_0}$,moving_distance
R-HSA-167246,0.0003249891302439074,681.5,0,$\widetilde{A}_{G_0}$,moving_distance
R-HSA-167169,0.0003249891302439074,681.5,0,$\widetilde{A}_{G_0}$,moving_distance
R-HSA-199992,0.0003247118486475672,683.0,0,$\widetilde{A}_{G_0}$,moving_distance
R-HSA-5658442,0.0003241047311063009,684.0,0,$\widetilde{A}_{G_0}$,moving_distance
R-HSA-212300,0.0003236923650660116,685.0,0,$\widetilde{A}_{G_0}$,moving_distance
R-HSA-156842,0.0003231288457609297,686.0,0,$\widetilde{A}_{G_0}$,moving_distance
R-HSA-167152,0.00032157744608276884,687.0,0,$\widetilde{A}_{G_0}$,moving_distance
R-HSA-73884,0.0003214497951854653,688.0,0,$\widetilde{A}_{G_0}$,moving_distance
R-HSA-75893,0.00031966944335789545,689.0,0,$\widetilde{A}_{G_0}$,moving_distance
R-HSA-5610783,0.0003181293439698547,690.0,0,$\widetilde{A}_{G_0}$,moving_distance
R-HSA-69601,0.0003179811027519757,691.5,0,$\widetilde{A}_{G_0}$,moving_distance
R-HSA-69613,0.0003179811027519757,691.5,0,$\widetilde{A}_{G_0}$,moving_distance
R-HSA-69610,0.00031798110275197533,693.0,0,$\widetilde{A}_{G_0}$,moving_distance
R-HSA-5610785,0.0003179069494218585,694.0,0,$\widetilde{A}_{G_0}$,moving_distance
R-HSA-9615933,0.0003175283392188407,695.0,0,$\widetilde{A}_{G_0}$,moving_distance
R-HSA-156902,0.0003163955609524563,696.0,0,$\widetilde{A}_{G_0}$,moving_distance
R-HSA-1236978,0.0003160330709121884,697.0,0,$\widetilde{A}_{G_0}$,moving_distance
R-HSA-5610780,0.00031551576660521024,698.0,0,$\widetilde{A}_{G_0}$,moving_distance
R-HSA-1169091,0.000314239452177492,699.0,0,$\widetilde{A}_{G_0}$,moving_distance
R-HSA-2995383,0.00031410294661225567,700.0,0,$\widetilde{A}_{G_0}$,moving_distance
R-HSA-4641263,0.000313590328278571,701.0,0,$\widetilde{A}_{G_0}$,moving_distance
R-HSA-2408557,0.0003126975947975085,702.0,0,$\widetilde{A}_{G_0}$,moving_distance
R-HSA-171306,0.00031197222750163194,703.0,0,$\widetilde{A}_{G_0}$,moving_distance
R-HSA-5676590,0.000311757587153204,704.0,0,$\widetilde{A}_{G_0}$,moving_distance
R-HSA-525793,0.0003108236528342256,705.0,0,$\widetilde{A}_{G_0}$,moving_distance
R-HSA-3899300,0.00031075743635298146,706.0,0,$\widetilde{A}_{G_0}$,moving_distance
R-HSA-6796648,0.00031039476572386737,707.0,0,$\widetilde{A}_{G_0}$,moving_distance
R-HSA-5607761,0.0003101134678278266,708.0,0,$\widetilde{A}_{G_0}$,moving_distance
R-HSA-192823,0.00030908198445329027,709.0,0,$\widetilde{A}_{G_0}$,moving_distance
R-HSA-109606,0.000308590932715964,710.0,0,$\widetilde{A}_{G_0}$,moving_distance
R-HSA-9617629,0.0003085264414264373,711.0,0,$\widetilde{A}_{G_0}$,moving_distance
R-HSA-5687128,0.00030779775940390993,712.0,0,$\widetilde{A}_{G_0}$,moving_distance
R-HSA-450531,0.00030732418837651874,713.0,0,$\widetilde{A}_{G_0}$,moving_distance
R-HSA-8953750,0.00030676988853562326,714.0,0,$\widetilde{A}_{G_0}$,moving_distance
R-HSA-8964043,0.0003059873811772361,715.0,0,$\widetilde{A}_{G_0}$,moving_distance
R-HSA-8932339,0.0003059082898884303,716.0,0,$\widetilde{A}_{G_0}$,moving_distance
R-HSA-2173793,0.0003055901006291683,717.0,0,$\widetilde{A}_{G_0}$,moving_distance
R-HSA-1169408,0.00030523981279460615,718.0,0,$\widetilde{A}_{G_0}$,moving_distance
R-HSA-114452,0.00030520870227352716,719.0,0,$\widetilde{A}_{G_0}$,moving_distance
R-HSA-5693616,0.0003028565263794861,720.0,0,$\widetilde{A}_{G_0}$,moving_distance
R-HSA-606279,0.00030221886626898643,721.0,0,$\widetilde{A}_{G_0}$,moving_distance
R-HSA-774815,0.0003022188662689862,722.0,0,$\widetilde{A}_{G_0}$,moving_distance
R-HSA-5339562,0.0003022069902486223,723.0,0,$\widetilde{A}_{G_0}$,moving_distance
R-HSA-111933,0.0003020694466578151,724.5,0,$\widetilde{A}_{G_0}$,moving_distance
R-HSA-111997,0.0003020694466578151,724.5,0,$\widetilde{A}_{G_0}$,moving_distance
R-HSA-442720,0.00030205409298797757,726.0,0,$\widetilde{A}_{G_0}$,moving_distance
R-HSA-4641258,0.0003014829403072661,727.0,0,$\widetilde{A}_{G_0}$,moving_distance
R-HSA-4641257,0.00030064233724858447,728.0,0,$\widetilde{A}_{G_0}$,moving_distance
R-HSA-168274,0.0003006249587208977,729.0,0,$\widetilde{A}_{G_0}$,moving_distance
R-HSA-168333,0.00030062495872089725,730.0,0,$\widetilde{A}_{G_0}$,moving_distance
R-HSA-198725,0.00030038941760367465,731.0,0,$\widetilde{A}_{G_0}$,moving_distance
R-HSA-4641265,0.00029989207869602177,732.0,0,$\widetilde{A}_{G_0}$,moving_distance
R-HSA-204005,0.0002997516556311371,733.0,0,$\widetilde{A}_{G_0}$,moving_distance
R-HSA-3371511,0.00029948232071472236,734.0,0,$\widetilde{A}_{G_0}$,moving_distance
R-HSA-5607763,0.000298869662992251,735.0,0,$\widetilde{A}_{G_0}$,moving_distance
R-HSA-177243,0.000298267021591471,736.0,0,$\widetilde{A}_{G_0}$,moving_distance
R-HSA-72689,0.0002964859040259811,737.0,0,$\widetilde{A}_{G_0}$,moving_distance
R-HSA-180746,0.00029632150981578345,738.0,0,$\widetilde{A}_{G_0}$,moving_distance
R-HSA-5619107,0.0002948571207622548,740.0,0,$\widetilde{A}_{G_0}$,moving_distance
R-HSA-168325,0.0002948571207622548,740.0,0,$\widetilde{A}_{G_0}$,moving_distance
R-HSA-170822,0.0002948571207622548,740.0,0,$\widetilde{A}_{G_0}$,moving_distance
R-HSA-380994,0.00029484754744849066,742.0,0,$\widetilde{A}_{G_0}$,moving_distance
R-HSA-1912422,0.00029470828462002636,743.0,0,$\widetilde{A}_{G_0}$,moving_distance
R-HSA-6784531,0.00029432970529101116,744.0,0,$\widetilde{A}_{G_0}$,moving_distance
R-HSA-5656121,0.00029428626501283703,745.0,0,$\widetilde{A}_{G_0}$,moving_distance
R-HSA-168271,0.00029376934243575633,746.0,0,$\widetilde{A}_{G_0}$,moving_distance
R-HSA-8878159,0.0002933629636362053,747.0,0,$\widetilde{A}_{G_0}$,moving_distance
R-HSA-180024,0.0002933030951220671,748.0,0,$\widetilde{A}_{G_0}$,moving_distance
R-HSA-9707587,0.00029328499081489925,749.0,0,$\widetilde{A}_{G_0}$,moving_distance
R-HSA-165054,0.0002930541418172614,750.0,0,$\widetilde{A}_{G_0}$,moving_distance
R-HSA-8862803,0.0002929099838026024,751.5,0,$\widetilde{A}_{G_0}$,moving_distance
R-HSA-8863678,0.0002929099838026024,751.5,0,$\widetilde{A}_{G_0}$,moving_distance
R-HSA-72695,0.0002928528686852565,753.0,0,$\widetilde{A}_{G_0}$,moving_distance
R-HSA-8876198,0.00029259356144264016,754.0,0,$\widetilde{A}_{G_0}$,moving_distance
R-HSA-427359,0.00029244177248208324,755.0,0,$\widetilde{A}_{G_0}$,moving_distance
R-HSA-5678895,0.0002922300098970487,756.0,0,$\widetilde{A}_{G_0}$,moving_distance
R-HSA-112382,0.000292106427315669,757.0,0,$\widetilde{A}_{G_0}$,moving_distance
R-HSA-75955,0.0002921064273156684,758.0,0,$\widetilde{A}_{G_0}$,moving_distance
R-HSA-167172,0.0002911750514502757,759.0,0,$\widetilde{A}_{G_0}$,moving_distance
R-HSA-8939902,0.0002910765776856934,760.0,0,$\widetilde{A}_{G_0}$,moving_distance
R-HSA-2299718,0.0002906964445158131,761.0,0,$\widetilde{A}_{G_0}$,moving_distance
R-HSA-72649,0.00028933094606199916,762.0,0,$\widetilde{A}_{G_0}$,moving_distance
R-HSA-176033,0.00028718342958352,763.5,0,$\widetilde{A}_{G_0}$,moving_distance
R-HSA-180910,0.00028718342958352,763.5,0,$\widetilde{A}_{G_0}$,moving_distance
R-HSA-156827,0.0002870283244653973,765.0,0,$\widetilde{A}_{G_0}$,moving_distance
R-HSA-3371568,0.00028699907353383204,766.0,0,$\widetilde{A}_{G_0}$,moving_distance
R-HSA-113501,0.0002869157704111876,767.0,0,$\widetilde{A}_{G_0}$,moving_distance
R-HSA-1912408,0.00028667945976752486,768.0,0,$\widetilde{A}_{G_0}$,moving_distance
R-HSA-111931,0.00028625123515729604,769.0,0,$\widetilde{A}_{G_0}$,moving_distance
R-HSA-72702,0.0002858112992600734,770.0,0,$\widetilde{A}_{G_0}$,moving_distance
R-HSA-4570464,0.0002855314170671454,771.0,0,$\widetilde{A}_{G_0}$,moving_distance
R-HSA-5619115,0.00028494509825037945,772.0,0,$\widetilde{A}_{G_0}$,moving_distance
R-HSA-72706,0.000284924647148698,773.0,0,$\widetilde{A}_{G_0}$,moving_distance
R-HSA-72662,0.0002845863368238513,774.0,0,$\widetilde{A}_{G_0}$,moving_distance
R-HSA-1483206,0.00028347166628984717,775.0,0,$\widetilde{A}_{G_0}$,moving_distance
R-HSA-3215018,0.00028282379945935324,776.0,0,$\widetilde{A}_{G_0}$,moving_distance
R-HSA-2173791,0.0002827945710350318,777.0,0,$\widetilde{A}_{G_0}$,moving_distance
R-HSA-3214815,0.00028235724971280356,778.0,0,$\widetilde{A}_{G_0}$,moving_distance
R-HSA-8948751,0.00027895005850651396,779.0,0,$\widetilde{A}_{G_0}$,moving_distance
R-HSA-168928,0.000278759273496084,780.0,0,$\widetilde{A}_{G_0}$,moving_distance
R-HSA-9633012,0.00027856027566212867,781.0,0,$\widetilde{A}_{G_0}$,moving_distance
R-HSA-4085377,0.00027780956049318036,782.0,0,$\widetilde{A}_{G_0}$,moving_distance
R-HSA-429958,0.0002767911962171819,783.0,0,$\widetilde{A}_{G_0}$,moving_distance
R-HSA-1799339,0.00027504114883727216,784.0,0,$\widetilde{A}_{G_0}$,moving_distance
R-HSA-428157,0.00027441537095812237,785.0,0,$\widetilde{A}_{G_0}$,moving_distance
R-HSA-3232142,0.00027390718600743053,786.0,0,$\widetilde{A}_{G_0}$,moving_distance
R-HSA-5627117,0.0002736035327839702,787.0,0,$\widetilde{A}_{G_0}$,moving_distance
R-HSA-2565942,0.0002721242118360023,788.0,0,$\widetilde{A}_{G_0}$,moving_distance
R-HSA-1489509,0.0002713070297039517,789.0,0,$\widetilde{A}_{G_0}$,moving_distance
R-HSA-167161,0.00027054218418016155,790.0,0,$\widetilde{A}_{G_0}$,moving_distance
R-HSA-75953,0.0002705421841801609,793.0,0,$\widetilde{A}_{G_0}$,moving_distance
R-HSA-76042,0.0002705421841801609,793.0,0,$\widetilde{A}_{G_0}$,moving_distance
R-HSA-73779,0.0002705421841801609,793.0,0,$\widetilde{A}_{G_0}$,moving_distance
R-HSA-167162,0.0002705421841801609,793.0,0,$\widetilde{A}_{G_0}$,moving_distance
R-HSA-73776,0.0002705421841801609,793.0,0,$\widetilde{A}_{G_0}$,moving_distance
R-HSA-379716,0.00026996366732110567,796.0,0,$\widetilde{A}_{G_0}$,moving_distance
R-HSA-674695,0.0002684595443590662,797.0,0,$\widetilde{A}_{G_0}$,moving_distance
R-HSA-2559580,0.00026822511062909776,798.0,0,$\widetilde{A}_{G_0}$,moving_distance
R-HSA-9013418,0.0002673277414057808,799.0,0,$\widetilde{A}_{G_0}$,moving_distance
R-HSA-174414,0.00026695030701715406,800.0,0,$\widetilde{A}_{G_0}$,moving_distance
R-HSA-3301854,0.00026638966645266103,801.0,0,$\widetilde{A}_{G_0}$,moving_distance
R-HSA-5693571,0.0002661841297932899,802.0,0,$\widetilde{A}_{G_0}$,moving_distance
R-HSA-9706574,0.0002657182553614947,803.0,0,$\widetilde{A}_{G_0}$,moving_distance
R-HSA-9609523,0.0002649576238435683,804.0,0,$\widetilde{A}_{G_0}$,moving_distance
R-HSA-159227,0.0002646005509559626,805.0,0,$\widetilde{A}_{G_0}$,moving_distance
R-HSA-2408522,0.00026396587922303803,806.0,0,$\widetilde{A}_{G_0}$,moving_distance
R-HSA-9013422,0.0002635030946750746,807.0,0,$\widetilde{A}_{G_0}$,moving_distance
R-HSA-168276,0.00026343317211902323,808.0,0,$\widetilde{A}_{G_0}$,moving_distance
R-HSA-9694548,0.00026312492694290616,809.0,0,$\widetilde{A}_{G_0}$,moving_distance
R-HSA-382556,0.00026298111878648707,810.0,0,$\widetilde{A}_{G_0}$,moving_distance
R-HSA-379724,0.0002627278909562366,811.0,0,$\widetilde{A}_{G_0}$,moving_distance
R-HSA-8936459,0.0002626186181673321,812.0,0,$\widetilde{A}_{G_0}$,moving_distance
R-HSA-8949613,0.00026136799022989264,813.0,0,$\widetilde{A}_{G_0}$,moving_distance
R-HSA-159230,0.00025920960567618574,814.0,0,$\widetilde{A}_{G_0}$,moving_distance
R-HSA-5628897,0.0002587715661354411,815.0,0,$\widetilde{A}_{G_0}$,moving_distance
R-HSA-174824,0.0002587656499904942,816.0,0,$\widetilde{A}_{G_0}$,moving_distance
R-HSA-8854518,0.000258018935727761,817.0,0,$\widetilde{A}_{G_0}$,moving_distance
R-HSA-975956,0.0002575894610713162,818.0,0,$\widetilde{A}_{G_0}$,moving_distance
R-HSA-72764,0.0002561920586341368,819.0,0,$\widetilde{A}_{G_0}$,moving_distance
R-HSA-5617472,0.0002559608760421357,820.0,0,$\widetilde{A}_{G_0}$,moving_distance
R-HSA-5619507,0.0002559608760421354,821.0,0,$\widetilde{A}_{G_0}$,moving_distance
R-HSA-5668541,0.0002554573977091397,822.0,0,$\widetilde{A}_{G_0}$,moving_distance
R-HSA-6791312,0.00025319796798575533,823.0,0,$\widetilde{A}_{G_0}$,moving_distance
R-HSA-2129379,0.00025304991521296177,824.0,0,$\widetilde{A}_{G_0}$,moving_distance
R-HSA-69190,0.0002518981856994373,825.0,0,$\widetilde{A}_{G_0}$,moving_distance
R-HSA-5694530,0.00025148546704503743,826.0,0,$\widetilde{A}_{G_0}$,moving_distance
R-HSA-5250913,0.0002509672530341381,827.0,0,$\widetilde{A}_{G_0}$,moving_distance
R-HSA-9604323,0.00025092781063792725,828.0,0,$\widetilde{A}_{G_0}$,moving_distance
R-HSA-6803204,0.0002494023522733355,829.0,0,$\widetilde{A}_{G_0}$,moving_distance
R-HSA-389661,0.00024837072278129774,830.0,0,$\widetilde{A}_{G_0}$,moving_distance
R-HSA-157579,0.0002482887383549813,831.0,0,$\widetilde{A}_{G_0}$,moving_distance
R-HSA-70326,0.00024184137845314064,832.0,0,$\widetilde{A}_{G_0}$,moving_distance
R-HSA-201722,0.0002414153607337877,833.0,0,$\widetilde{A}_{G_0}$,moving_distance
R-HSA-5693606,0.0002383642884236049,834.0,0,$\widetilde{A}_{G_0}$,moving_distance
R-HSA-5693565,0.00023737544962931545,835.0,0,$\widetilde{A}_{G_0}$,moving_distance
R-HSA-3108214,0.0002370741831733522,836.0,0,$\widetilde{A}_{G_0}$,moving_distance
R-HSA-180534,0.00023682034825535042,837.0,0,$\widetilde{A}_{G_0}$,moving_distance
R-HSA-69166,0.00023641639670490377,838.0,0,$\widetilde{A}_{G_0}$,moving_distance
R-HSA-450604,0.00023636183218444444,839.0,0,$\widetilde{A}_{G_0}$,moving_distance
R-HSA-983170,0.00023425297057935076,840.0,0,$\widetilde{A}_{G_0}$,moving_distance
R-HSA-450385,0.00023362683852824195,841.0,0,$\widetilde{A}_{G_0}$,moving_distance
R-HSA-195253,0.00023334597437831486,842.0,0,$\widetilde{A}_{G_0}$,moving_distance
R-HSA-1566948,0.00023202511759949288,843.0,0,$\widetilde{A}_{G_0}$,moving_distance
R-HSA-450513,0.0002318622047026549,844.0,0,$\widetilde{A}_{G_0}$,moving_distance
R-HSA-9645723,0.00023065760190176302,845.0,0,$\widetilde{A}_{G_0}$,moving_distance
R-HSA-1445148,0.00022889728063687763,846.0,0,$\widetilde{A}_{G_0}$,moving_distance
R-HSA-159231,0.0002288710568476941,847.0,0,$\widetilde{A}_{G_0}$,moving_distance
R-HSA-69183,0.00022866847598682768,848.0,0,$\widetilde{A}_{G_0}$,moving_distance
R-HSA-3371497,0.00022841659543433934,849.0,0,$\widetilde{A}_{G_0}$,moving_distance
R-HSA-8854050,0.00022812039543359093,850.0,0,$\widetilde{A}_{G_0}$,moving_distance
R-HSA-3781865,0.00022796207988950076,851.0,0,$\widetilde{A}_{G_0}$,moving_distance
R-HSA-5633008,0.0002277667962644156,852.0,0,$\widetilde{A}_{G_0}$,moving_distance
R-HSA-1234174,0.0002274064057921439,853.0,0,$\widetilde{A}_{G_0}$,moving_distance
R-HSA-2980766,0.0002254692917626582,854.0,0,$\widetilde{A}_{G_0}$,moving_distance
R-HSA-159234,0.00022528890182934352,855.0,0,$\widetilde{A}_{G_0}$,moving_distance
R-HSA-2871837,0.00022431905379502584,856.0,0,$\widetilde{A}_{G_0}$,moving_distance
R-HSA-2173796,0.00022398746048478874,857.0,0,$\widetilde{A}_{G_0}$,moving_distance
R-HSA-5578749,0.00022384811196134809,858.0,0,$\widetilde{A}_{G_0}$,moving_distance
R-HSA-6807878,0.0002234336758731362,859.0,0,$\widetilde{A}_{G_0}$,moving_distance
R-HSA-380972,0.00022322830960500744,860.0,0,$\widetilde{A}_{G_0}$,moving_distance
R-HSA-5685938,0.00022321038394000907,861.0,0,$\widetilde{A}_{G_0}$,moving_distance
R-HSA-110314,0.00022294110885494024,862.0,0,$\widetilde{A}_{G_0}$,moving_distance
R-HSA-9616222,0.00022137581573904573,863.0,0,$\widetilde{A}_{G_0}$,moving_distance
R-HSA-180585,0.00022012259565645643,864.0,0,$\widetilde{A}_{G_0}$,moving_distance
R-HSA-9670095,0.00022002204825014076,865.0,0,$\widetilde{A}_{G_0}$,moving_distance
R-HSA-917729,0.00021717848466419696,866.0,0,$\widetilde{A}_{G_0}$,moving_distance
R-HSA-77595,0.00021687526687390888,867.0,0,$\widetilde{A}_{G_0}$,moving_distance
R-HSA-6781823,0.00021657523079648188,868.0,0,$\widetilde{A}_{G_0}$,moving_distance
R-HSA-1234176,0.00021447960499505685,869.0,0,$\widetilde{A}_{G_0}$,moving_distance
R-HSA-1839126,0.0002136616070690145,870.0,0,$\widetilde{A}_{G_0}$,moving_distance
R-HSA-72306,0.00021178552825463652,871.0,0,$\widetilde{A}_{G_0}$,moving_distance
R-HSA-9013406,0.00021118403226011884,872.0,0,$\widetilde{A}_{G_0}$,moving_distance
R-HSA-421270,0.00021114979028586252,873.0,0,$\widetilde{A}_{G_0}$,moving_distance
R-HSA-380259,0.00021113097510285577,874.0,0,$\widetilde{A}_{G_0}$,moving_distance
R-HSA-380284,0.00021113097510285517,875.0,0,$\widetilde{A}_{G_0}$,moving_distance
R-HSA-5651801,0.00021024767376003243,876.0,0,$\widetilde{A}_{G_0}$,moving_distance
R-HSA-6806003,0.0002099052122134544,877.5,0,$\widetilde{A}_{G_0}$,moving_distance
R-HSA-6804757,0.0002099052122134544,877.5,0,$\widetilde{A}_{G_0}$,moving_distance
R-HSA-5696395,0.0002088190995963529,879.0,0,$\widetilde{A}_{G_0}$,moving_distance
R-HSA-380320,0.00020851864327862922,880.0,0,$\widetilde{A}_{G_0}$,moving_distance
R-HSA-8856688,0.00020817112536385165,881.0,0,$\widetilde{A}_{G_0}$,moving_distance
R-HSA-5620971,0.00020542359252624705,882.0,0,$\widetilde{A}_{G_0}$,moving_distance
R-HSA-180786,0.00020476822457697057,883.0,0,$\widetilde{A}_{G_0}$,moving_distance
R-HSA-6804758,0.00020267482254260474,884.0,0,$\widetilde{A}_{G_0}$,moving_distance
R-HSA-5250924,0.00020239171386365683,885.0,0,$\widetilde{A}_{G_0}$,moving_distance
R-HSA-174437,0.00020216400198282779,886.0,0,$\widetilde{A}_{G_0}$,moving_distance
R-HSA-5619102,0.00020143283261479203,887.0,0,$\widetilde{A}_{G_0}$,moving_distance
R-HSA-165159,0.00020142680212425031,888.0,0,$\widetilde{A}_{G_0}$,moving_distance
R-HSA-8876725,0.0002012718505963202,889.0,0,$\widetilde{A}_{G_0}$,moving_distance
R-HSA-6790901,0.0002012462632807336,890.0,0,$\widetilde{A}_{G_0}$,moving_distance
R-HSA-4608870,0.00020031129884536916,891.0,0,$\widetilde{A}_{G_0}$,moving_distance
R-HSA-5218859,0.0002001320114231355,892.0,0,$\widetilde{A}_{G_0}$,moving_distance
R-HSA-3214858,0.00019805071172362978,893.0,0,$\widetilde{A}_{G_0}$,moving_distance
R-HSA-5620922,0.0001974982856225864,894.0,0,$\widetilde{A}_{G_0}$,moving_distance
R-HSA-5362517,0.00019437397746976706,895.0,0,$\widetilde{A}_{G_0}$,moving_distance
R-HSA-9662360,0.0001938160056571874,896.0,0,$\widetilde{A}_{G_0}$,moving_distance
R-HSA-191859,0.00019374526213094208,897.0,0,$\widetilde{A}_{G_0}$,moving_distance
R-HSA-194441,0.00019374526213094195,898.0,0,$\widetilde{A}_{G_0}$,moving_distance
R-HSA-9659379,0.00019140564783716874,899.0,0,$\widetilde{A}_{G_0}$,moving_distance
R-HSA-110373,0.00018913915411334386,900.0,0,$\widetilde{A}_{G_0}$,moving_distance
R-HSA-69186,0.00018830204139748448,901.0,0,$\widetilde{A}_{G_0}$,moving_distance
R-HSA-4086400,0.00018228171361006585,902.0,0,$\widetilde{A}_{G_0}$,moving_distance
R-HSA-380270,0.00017859420841479537,903.0,0,$\widetilde{A}_{G_0}$,moving_distance
R-HSA-380287,0.00017859420841479493,904.0,0,$\widetilde{A}_{G_0}$,moving_distance
R-HSA-71403,0.00017708301889812463,905.0,0,$\widetilde{A}_{G_0}$,moving_distance
R-HSA-1500620,0.00017690445886329857,906.5,0,$\widetilde{A}_{G_0}$,moving_distance
R-HSA-1474165,0.00017690445886329857,906.5,0,$\widetilde{A}_{G_0}$,moving_distance
R-HSA-72187,0.00017667311453021837,908.0,0,$\widetilde{A}_{G_0}$,moving_distance
R-HSA-5696397,0.00017584290156320265,909.0,0,$\widetilde{A}_{G_0}$,moving_distance
R-HSA-202733,0.00017317130994218226,910.0,0,$\widetilde{A}_{G_0}$,moving_distance
R-HSA-2028269,0.00017301229865681456,911.0,0,$\widetilde{A}_{G_0}$,moving_distance
R-HSA-73772,0.00016962756095767215,912.0,0,$\widetilde{A}_{G_0}$,moving_distance
R-HSA-9610379,0.00016874149035674471,913.0,0,$\widetilde{A}_{G_0}$,moving_distance
R-HSA-110312,0.00016811275217384387,914.0,0,$\widetilde{A}_{G_0}$,moving_distance
R-HSA-446353,0.00016798990827151654,915.0,0,$\widetilde{A}_{G_0}$,moving_distance
R-HSA-162588,0.00016777586562356087,916.0,0,$\widetilde{A}_{G_0}$,moving_distance
R-HSA-5620920,0.00016517957430172236,917.0,0,$\widetilde{A}_{G_0}$,moving_distance
R-HSA-5620912,0.0001647036446696701,918.0,0,$\widetilde{A}_{G_0}$,moving_distance
R-HSA-5655862,0.00016386068879021247,919.0,0,$\widetilde{A}_{G_0}$,moving_distance
R-HSA-1221632,0.0001616132003870919,920.0,0,$\widetilde{A}_{G_0}$,moving_distance
R-HSA-174417,0.00016063596495549854,921.0,0,$\widetilde{A}_{G_0}$,moving_distance
R-HSA-166208,0.0001598411770773352,922.0,0,$\widetilde{A}_{G_0}$,moving_distance
R-HSA-6799198,0.0001596730707465346,923.0,0,$\widetilde{A}_{G_0}$,moving_distance
R-HSA-196854,0.00015914031874102644,924.0,0,$\widetilde{A}_{G_0}$,moving_distance
R-HSA-8939243,0.00015842596690038323,925.0,0,$\widetilde{A}_{G_0}$,moving_distance
R-HSA-159236,0.0001578559268803498,926.0,0,$\widetilde{A}_{G_0}$,moving_distance
R-HSA-211000,0.0001572164202226632,927.0,0,$\widetilde{A}_{G_0}$,moving_distance
R-HSA-8943724,0.00015688733943157015,928.0,0,$\widetilde{A}_{G_0}$,moving_distance
R-HSA-9709957,0.00015534799112627213,929.0,0,$\widetilde{A}_{G_0}$,moving_distance
R-HSA-70268,0.00015285387072372082,930.0,0,$\widetilde{A}_{G_0}$,moving_distance
R-HSA-6804115,0.00015198171900395163,931.0,0,$\widetilde{A}_{G_0}$,moving_distance
R-HSA-6804756,0.00014933517817388573,932.0,0,$\widetilde{A}_{G_0}$,moving_distance
R-HSA-72165,0.00014902896607408623,933.0,0,$\widetilde{A}_{G_0}$,moving_distance
R-HSA-72202,0.00014874445998672387,934.0,0,$\widetilde{A}_{G_0}$,moving_distance
R-HSA-1834949,0.00014443111310935667,935.0,0,$\widetilde{A}_{G_0}$,moving_distance
R-HSA-210991,0.00014411445355136696,936.0,0,$\widetilde{A}_{G_0}$,moving_distance
R-HSA-6811438,0.00014336826993936584,937.0,0,$\widetilde{A}_{G_0}$,moving_distance
R-HSA-69091,0.00014271862593805078,938.5,0,$\widetilde{A}_{G_0}$,moving_distance
R-HSA-69109,0.00014271862593805078,938.5,0,$\widetilde{A}_{G_0}$,moving_distance
R-HSA-3214847,0.00014226619219780373,940.0,0,$\widetilde{A}_{G_0}$,moving_distance
R-HSA-8854214,0.0001418703879799067,941.0,0,$\widetilde{A}_{G_0}$,moving_distance
R-HSA-6785807,0.00013844442560304363,942.0,0,$\widetilde{A}_{G_0}$,moving_distance
R-HSA-163125,0.0001383811882698495,943.0,0,$\widetilde{A}_{G_0}$,moving_distance
R-HSA-8851708,0.000138247136346407,944.0,0,$\widetilde{A}_{G_0}$,moving_distance
R-HSA-6803529,0.00013820483897699053,945.0,0,$\widetilde{A}_{G_0}$,moving_distance
R-HSA-73933,0.0001374251759516331,946.0,0,$\widetilde{A}_{G_0}$,moving_distance
R-HSA-167243,0.00013679477221926776,947.5,0,$\widetilde{A}_{G_0}$,moving_distance
R-HSA-167238,0.00013679477221926776,947.5,0,$\widetilde{A}_{G_0}$,moving_distance
R-HSA-9031628,0.00013615748376133135,949.0,0,$\widetilde{A}_{G_0}$,moving_distance
R-HSA-114608,0.00013611478908560993,950.0,0,$\widetilde{A}_{G_0}$,moving_distance
R-HSA-175474,0.00013520309254357803,952.0,0,$\widetilde{A}_{G_0}$,moving_distance
R-HSA-174495,0.00013520309254357803,952.0,0,$\widetilde{A}_{G_0}$,moving_distance
R-HSA-174490,0.00013520309254357803,952.0,0,$\widetilde{A}_{G_0}$,moving_distance
R-HSA-167287,0.0001322260920719243,954.5,0,$\widetilde{A}_{G_0}$,moving_distance
R-HSA-167290,0.0001322260920719243,954.5,0,$\widetilde{A}_{G_0}$,moving_distance
R-HSA-167242,0.00012898185542764917,956.0,0,$\widetilde{A}_{G_0}$,moving_distance
R-HSA-76005,0.00012876735819998845,957.0,0,$\widetilde{A}_{G_0}$,moving_distance
R-HSA-3214841,0.00012801568160826667,958.0,0,$\widetilde{A}_{G_0}$,moving_distance
R-HSA-5620916,0.00012588680301101683,959.0,0,$\widetilde{A}_{G_0}$,moving_distance
R-HSA-163841,0.00012197624556448334,960.0,0,$\widetilde{A}_{G_0}$,moving_distance
R-HSA-174411,0.00011853396582246215,961.0,0,$\widetilde{A}_{G_0}$,moving_distance
R-HSA-430039,0.00011849226592490245,962.0,0,$\widetilde{A}_{G_0}$,moving_distance
R-HSA-111367,0.00011788114480292065,963.0,0,$\widetilde{A}_{G_0}$,moving_distance
R-HSA-5620924,0.00011700563971452782,964.0,0,$\widetilde{A}_{G_0}$,moving_distance
R-HSA-611105,0.00011600200834990283,965.0,0,$\widetilde{A}_{G_0}$,moving_distance
R-HSA-9615710,0.00011403569033368921,966.0,0,$\widetilde{A}_{G_0}$,moving_distance
R-HSA-77588,0.0001104948859885685,967.0,0,$\widetilde{A}_{G_0}$,moving_distance
R-HSA-73762,0.00011005257331679242,968.0,0,$\widetilde{A}_{G_0}$,moving_distance
R-HSA-73856,0.0001056509871762778,969.0,0,$\widetilde{A}_{G_0}$,moving_distance
R-HSA-73780,0.00010554900399294653,970.5,0,$\widetilde{A}_{G_0}$,moving_distance
R-HSA-73980,0.00010554900399294653,970.5,0,$\widetilde{A}_{G_0}$,moving_distance
R-HSA-429947,0.00010141971899972837,972.0,0,$\widetilde{A}_{G_0}$,moving_distance
R-HSA-6807505,9.984791071727707e-05,973.0,0,$\widetilde{A}_{G_0}$,moving_distance
R-HSA-76061,9.919294186065404e-05,974.0,0,$\widetilde{A}_{G_0}$,moving_distance
R-HSA-71406,9.565259315859827e-05,975.0,0,$\widetilde{A}_{G_0}$,moving_distance
R-HSA-76066,9.503853045093263e-05,976.0,0,$\widetilde{A}_{G_0}$,moving_distance
R-HSA-203927,9.22385038860267e-05,977.0,0,$\widetilde{A}_{G_0}$,moving_distance
R-HSA-75067,9.048669672367443e-05,978.0,0,$\widetilde{A}_{G_0}$,moving_distance
R-HSA-500792,8.898433169477854e-05,979.0,0,$\widetilde{A}_{G_0}$,moving_distance
R-HSA-429914,8.894990221850369e-05,980.0,0,$\widetilde{A}_{G_0}$,moving_distance
R-HSA-446728,8.753510335399376e-05,981.0,0,$\widetilde{A}_{G_0}$,moving_distance
R-HSA-76071,7.55001826266051e-05,982.0,0,$\widetilde{A}_{G_0}$,moving_distance
R-HSA-6811440,7.534212475270263e-05,983.0,0,$\widetilde{A}_{G_0}$,moving_distance
R-HSA-5389840,6.780401614656174e-05,984.0,0,$\widetilde{A}_{G_0}$,moving_distance
R-HSA-5419276,6.734823265386806e-05,985.0,0,$\widetilde{A}_{G_0}$,moving_distance
R-HSA-1362409,6.706935829027443e-05,986.0,0,$\widetilde{A}_{G_0}$,moving_distance
R-HSA-73863,6.513616152594085e-05,987.0,0,$\widetilde{A}_{G_0}$,moving_distance
R-HSA-9033241,6.468805466419082e-05,988.0,0,$\widetilde{A}_{G_0}$,moving_distance
R-HSA-8949664,6.105128117571828e-05,989.0,0,$\widetilde{A}_{G_0}$,moving_distance
R-HSA-74158,5.944401286112882e-05,991.0,0,$\widetilde{A}_{G_0}$,moving_distance
R-HSA-76046,5.944401286112882e-05,991.0,0,$\widetilde{A}_{G_0}$,moving_distance
R-HSA-749476,5.944401286112882e-05,991.0,0,$\widetilde{A}_{G_0}$,moving_distance
R-HSA-8866654,5.51164817835571e-05,993.0,0,$\widetilde{A}_{G_0}$,moving_distance
R-HSA-8949215,5.229621600617429e-05,994.0,0,$\widetilde{A}_{G_0}$,moving_distance
R-HSA-8852135,5.147340875447323e-05,995.0,0,$\widetilde{A}_{G_0}$,moving_distance
R-HSA-9603798,5.1114750215197845e-05,996.0,0,$\widetilde{A}_{G_0}$,moving_distance
R-HSA-1268020,4.767429314169275e-05,997.0,0,$\widetilde{A}_{G_0}$,moving_distance
R-HSA-5368286,4.3099831171731155e-05,998.0,0,$\widetilde{A}_{G_0}$,moving_distance
R-HSA-5368287,4.0330965700661366e-05,999.0,0,$\widetilde{A}_{G_0}$,moving_distance
R-HSA-198933,3.6743702694918526e-05,1000.0,0,$\widetilde{A}_{G_0}$,moving_distance
R-HSA-5668914,1.5102606789481439e-05,1001.0,0,$\widetilde{A}_{G_0}$,moving_distance
R-HSA-1630316,1.5069315497680326e-05,1002.0,0,$\widetilde{A}_{G_0}$,moving_distance
