entity,score,rank,graphlet,graphlet_adj,score_method
R-HSA-5632684,0.032413871056945376,1.0,8,$\widetilde{A}_{G_8}$,moving_distance
R-HSA-5635838,0.028923733360983635,2.0,8,$\widetilde{A}_{G_8}$,moving_distance
R-HSA-166663,0.01307469304797862,3.0,8,$\widetilde{A}_{G_8}$,moving_distance
R-HSA-8948216,0.009247824589041073,4.0,8,$\widetilde{A}_{G_8}$,moving_distance
R-HSA-5655253,0.009043911016146355,5.0,8,$\widetilde{A}_{G_8}$,moving_distance
R-HSA-375165,0.008087354670540843,6.0,8,$\widetilde{A}_{G_8}$,moving_distance
R-HSA-2022090,0.007625113811114215,7.0,8,$\widetilde{A}_{G_8}$,moving_distance
R-HSA-74752,0.00744847843805612,8.0,8,$\widetilde{A}_{G_8}$,moving_distance
R-HSA-166658,0.0074452205314755465,9.0,8,$\widetilde{A}_{G_8}$,moving_distance
R-HSA-419037,0.0070908301413007,10.0,8,$\widetilde{A}_{G_8}$,moving_distance
R-HSA-977606,0.006906645757420395,11.0,8,$\widetilde{A}_{G_8}$,moving_distance
R-HSA-1226099,0.006787290749188287,12.0,8,$\widetilde{A}_{G_8}$,moving_distance
R-HSA-388844,0.0066435842263734965,13.0,8,$\widetilde{A}_{G_8}$,moving_distance
R-HSA-1442490,0.006546025095873406,14.0,8,$\widetilde{A}_{G_8}$,moving_distance
R-HSA-1222556,0.006190902467130964,15.0,8,$\widetilde{A}_{G_8}$,moving_distance
R-HSA-77387,0.005755784212836284,16.0,8,$\widetilde{A}_{G_8}$,moving_distance
R-HSA-202433,0.005753683160590124,17.0,8,$\widetilde{A}_{G_8}$,moving_distance
R-HSA-1296071,0.005656935949283341,18.0,8,$\widetilde{A}_{G_8}$,moving_distance
R-HSA-418346,0.005588957607442059,19.0,8,$\widetilde{A}_{G_8}$,moving_distance
R-HSA-354194,0.0055710382223076674,20.0,8,$\widetilde{A}_{G_8}$,moving_distance
R-HSA-202430,0.0053969569754955486,21.0,8,$\widetilde{A}_{G_8}$,moving_distance
R-HSA-917977,0.005354573549725323,22.0,8,$\widetilde{A}_{G_8}$,moving_distance
R-HSA-917937,0.005068734364827855,23.0,8,$\widetilde{A}_{G_8}$,moving_distance
R-HSA-4420097,0.005040481424783025,24.0,8,$\widetilde{A}_{G_8}$,moving_distance
R-HSA-1474290,0.00484494652958447,25.0,8,$\widetilde{A}_{G_8}$,moving_distance
R-HSA-9639288,0.004841174007897798,26.0,8,$\widetilde{A}_{G_8}$,moving_distance
R-HSA-202427,0.004801558808250665,27.0,8,$\widetilde{A}_{G_8}$,moving_distance
R-HSA-3000178,0.00474335821156122,28.0,8,$\widetilde{A}_{G_8}$,moving_distance
R-HSA-3000171,0.004730259606990212,29.0,8,$\widetilde{A}_{G_8}$,moving_distance
R-HSA-5576891,0.004687398763561397,30.0,8,$\widetilde{A}_{G_8}$,moving_distance
R-HSA-372708,0.004641431880512878,31.0,8,$\widetilde{A}_{G_8}$,moving_distance
R-HSA-388841,0.004436251247703052,32.0,8,$\widetilde{A}_{G_8}$,moving_distance
R-HSA-193648,0.004360287720893671,33.0,8,$\widetilde{A}_{G_8}$,moving_distance
R-HSA-389948,0.004357216367255264,34.0,8,$\widetilde{A}_{G_8}$,moving_distance
R-HSA-936964,0.004200177569633894,35.0,8,$\widetilde{A}_{G_8}$,moving_distance
R-HSA-1650814,0.004185245482801604,36.0,8,$\widetilde{A}_{G_8}$,moving_distance
R-HSA-381038,0.004165630313325044,37.0,8,$\widetilde{A}_{G_8}$,moving_distance
R-HSA-9648002,0.0039664430057724616,38.0,8,$\widetilde{A}_{G_8}$,moving_distance
R-HSA-9013404,0.003784202290281124,39.0,8,$\widetilde{A}_{G_8}$,moving_distance
R-HSA-5619507,0.0037465397340354736,40.0,8,$\widetilde{A}_{G_8}$,moving_distance
R-HSA-5617472,0.0037465397340354727,41.0,8,$\widetilde{A}_{G_8}$,moving_distance
R-HSA-9020558,0.0037214465328725133,42.0,8,$\widetilde{A}_{G_8}$,moving_distance
R-HSA-1474228,0.0036931467550582234,43.0,8,$\widetilde{A}_{G_8}$,moving_distance
R-HSA-5602498,0.0036789405921760754,44.0,8,$\widetilde{A}_{G_8}$,moving_distance
R-HSA-140534,0.003658181386445791,45.0,8,$\widetilde{A}_{G_8}$,moving_distance
R-HSA-392517,0.0036562113010596715,46.0,8,$\widetilde{A}_{G_8}$,moving_distance
R-HSA-5686938,0.0036505477284164184,47.0,8,$\widetilde{A}_{G_8}$,moving_distance
R-HSA-1250347,0.003521170004867181,48.0,8,$\widetilde{A}_{G_8}$,moving_distance
R-HSA-5603041,0.00348903271154367,49.0,8,$\widetilde{A}_{G_8}$,moving_distance
R-HSA-975163,0.0034843413354076896,50.0,8,$\widetilde{A}_{G_8}$,moving_distance
R-HSA-2029481,0.003463267118058471,51.0,8,$\widetilde{A}_{G_8}$,moving_distance
R-HSA-9662360,0.0033965051092604095,52.0,8,$\widetilde{A}_{G_8}$,moving_distance
R-HSA-193639,0.003356429871776818,53.0,8,$\widetilde{A}_{G_8}$,moving_distance
R-HSA-6802955,0.003326735214089336,54.0,8,$\widetilde{A}_{G_8}$,moving_distance
R-HSA-6802946,0.0033267352140893356,56.0,8,$\widetilde{A}_{G_8}$,moving_distance
R-HSA-6802949,0.0033267352140893356,56.0,8,$\widetilde{A}_{G_8}$,moving_distance
R-HSA-9649948,0.0033267352140893356,56.0,8,$\widetilde{A}_{G_8}$,moving_distance
R-HSA-9656223,0.0032825005403059964,58.0,8,$\widetilde{A}_{G_8}$,moving_distance
R-HSA-9659379,0.0032780763038734225,59.0,8,$\widetilde{A}_{G_8}$,moving_distance
R-HSA-937072,0.0032545764201334215,60.0,8,$\widetilde{A}_{G_8}$,moving_distance
R-HSA-5654708,0.003250289106445239,61.0,8,$\widetilde{A}_{G_8}$,moving_distance
R-HSA-446728,0.003216648200682054,62.0,8,$\widetilde{A}_{G_8}$,moving_distance
R-HSA-181429,0.0031929616540488843,64.0,8,$\widetilde{A}_{G_8}$,moving_distance
R-HSA-181430,0.0031929616540488843,64.0,8,$\widetilde{A}_{G_8}$,moving_distance
R-HSA-212676,0.0031929616540488843,64.0,8,$\widetilde{A}_{G_8}$,moving_distance
R-HSA-264642,0.003192961654048884,66.5,8,$\widetilde{A}_{G_8}$,moving_distance
R-HSA-210500,0.003192961654048884,66.5,8,$\widetilde{A}_{G_8}$,moving_distance
R-HSA-216083,0.0031721323556869836,68.0,8,$\widetilde{A}_{G_8}$,moving_distance
R-HSA-8983432,0.0031286874418112657,69.0,8,$\widetilde{A}_{G_8}$,moving_distance
R-HSA-76009,0.003128344337341089,70.0,8,$\widetilde{A}_{G_8}$,moving_distance
R-HSA-354192,0.0031283443373410886,71.0,8,$\widetilde{A}_{G_8}$,moving_distance
R-HSA-1368082,0.0031105119660724784,72.0,8,$\widetilde{A}_{G_8}$,moving_distance
R-HSA-8957275,0.003106536707598569,73.0,8,$\widetilde{A}_{G_8}$,moving_distance
R-HSA-5637812,0.003080039229693001,74.0,8,$\widetilde{A}_{G_8}$,moving_distance
R-HSA-5637810,0.0030800392296929996,75.0,8,$\widetilde{A}_{G_8}$,moving_distance
R-HSA-2871809,0.0030538237164826677,76.0,8,$\widetilde{A}_{G_8}$,moving_distance
R-HSA-983712,0.0030493699476145907,77.0,8,$\widetilde{A}_{G_8}$,moving_distance
R-HSA-5654699,0.0029038489731927214,78.0,8,$\widetilde{A}_{G_8}$,moving_distance
R-HSA-112310,0.0028985636133893274,79.0,8,$\widetilde{A}_{G_8}$,moving_distance
R-HSA-9665686,0.002861718340045442,80.0,8,$\widetilde{A}_{G_8}$,moving_distance
R-HSA-9665348,0.0028506120025027135,81.0,8,$\widetilde{A}_{G_8}$,moving_distance
R-HSA-9027284,0.0028360653706055467,82.0,8,$\widetilde{A}_{G_8}$,moving_distance
R-HSA-5654716,0.0028229637505205736,83.0,8,$\widetilde{A}_{G_8}$,moving_distance
R-HSA-9013408,0.002816618171459205,84.0,8,$\widetilde{A}_{G_8}$,moving_distance
R-HSA-5655332,0.0027887783769677955,85.0,8,$\widetilde{A}_{G_8}$,moving_distance
R-HSA-8853338,0.002788778376967794,86.0,8,$\widetilde{A}_{G_8}$,moving_distance
R-HSA-438064,0.0027631951331182226,87.0,8,$\widetilde{A}_{G_8}$,moving_distance
R-HSA-877300,0.0027606095783987475,88.0,8,$\widetilde{A}_{G_8}$,moving_distance
R-HSA-9634285,0.002743809795348401,89.0,8,$\widetilde{A}_{G_8}$,moving_distance
R-HSA-5602358,0.0027204293934508864,90.5,8,$\widetilde{A}_{G_8}$,moving_distance
R-HSA-5260271,0.0027204293934508864,90.5,8,$\widetilde{A}_{G_8}$,moving_distance
R-HSA-5668599,0.002702484950175357,92.0,8,$\widetilde{A}_{G_8}$,moving_distance
R-HSA-9006115,0.002700877899817186,93.0,8,$\widetilde{A}_{G_8}$,moving_distance
R-HSA-5654687,0.0026962155176551636,94.0,8,$\widetilde{A}_{G_8}$,moving_distance
R-HSA-5357769,0.0026897072705231776,95.0,8,$\widetilde{A}_{G_8}$,moving_distance
R-HSA-381070,0.0026748099627348057,96.0,8,$\widetilde{A}_{G_8}$,moving_distance
R-HSA-9664565,0.0026670350449619438,97.0,8,$\widetilde{A}_{G_8}$,moving_distance
R-HSA-2122947,0.0026410750442101803,98.0,8,$\widetilde{A}_{G_8}$,moving_distance
R-HSA-114604,0.0026233698605993374,99.0,8,$\widetilde{A}_{G_8}$,moving_distance
R-HSA-1227990,0.0026158703216052097,100.0,8,$\widetilde{A}_{G_8}$,moving_distance
R-HSA-6802952,0.0026067996454455723,101.0,8,$\widetilde{A}_{G_8}$,moving_distance
R-HSA-1433559,0.002588813102951391,102.0,8,$\widetilde{A}_{G_8}$,moving_distance
R-HSA-6802948,0.0025710368936332074,103.0,8,$\widetilde{A}_{G_8}$,moving_distance
R-HSA-5654696,0.002556189031818828,104.0,8,$\widetilde{A}_{G_8}$,moving_distance
R-HSA-1643713,0.0025432027032777794,105.0,8,$\widetilde{A}_{G_8}$,moving_distance
R-HSA-350054,0.0025371392592722633,106.0,8,$\widetilde{A}_{G_8}$,moving_distance
R-HSA-442755,0.0025278979852791563,107.0,8,$\widetilde{A}_{G_8}$,moving_distance
R-HSA-5637815,0.0025273162795404367,108.5,8,$\widetilde{A}_{G_8}$,moving_distance
R-HSA-1236382,0.0025273162795404367,108.5,8,$\widetilde{A}_{G_8}$,moving_distance
R-HSA-1250196,0.002521211551453186,110.0,8,$\widetilde{A}_{G_8}$,moving_distance
R-HSA-210990,0.0024972485543392144,111.0,8,$\widetilde{A}_{G_8}$,moving_distance
R-HSA-389359,0.0024772544989881385,112.0,8,$\widetilde{A}_{G_8}$,moving_distance
R-HSA-2424491,0.002465052184709583,113.0,8,$\widetilde{A}_{G_8}$,moving_distance
R-HSA-1963642,0.002459659353696199,114.0,8,$\widetilde{A}_{G_8}$,moving_distance
R-HSA-397014,0.0024393613034637248,115.0,8,$\widetilde{A}_{G_8}$,moving_distance
R-HSA-1963640,0.0024105838112498043,116.0,8,$\widetilde{A}_{G_8}$,moving_distance
R-HSA-442982,0.002402615644118234,117.0,8,$\widetilde{A}_{G_8}$,moving_distance
R-HSA-74749,0.002400594533797358,118.0,8,$\widetilde{A}_{G_8}$,moving_distance
R-HSA-6802957,0.0023877508422235445,119.0,8,$\widetilde{A}_{G_8}$,moving_distance
R-HSA-912526,0.0023644674109235923,120.0,8,$\widetilde{A}_{G_8}$,moving_distance
R-HSA-420092,0.0023517904260753077,121.0,8,$\widetilde{A}_{G_8}$,moving_distance
R-HSA-2172127,0.0023254033635428327,122.0,8,$\widetilde{A}_{G_8}$,moving_distance
R-HSA-5674135,0.002324559148627693,123.0,8,$\widetilde{A}_{G_8}$,moving_distance
R-HSA-5621575,0.0023106290838089405,124.0,8,$\widetilde{A}_{G_8}$,moving_distance
R-HSA-937041,0.0023081432014017836,125.0,8,$\widetilde{A}_{G_8}$,moving_distance
R-HSA-170968,0.002303295906087011,126.0,8,$\widetilde{A}_{G_8}$,moving_distance
R-HSA-5655291,0.0022968396644231013,127.0,8,$\widetilde{A}_{G_8}$,moving_distance
R-HSA-164952,0.002250667265168474,128.0,8,$\widetilde{A}_{G_8}$,moving_distance
R-HSA-2871796,0.002238314635180418,129.0,8,$\widetilde{A}_{G_8}$,moving_distance
R-HSA-5620912,0.002234457885019237,130.0,8,$\widetilde{A}_{G_8}$,moving_distance
R-HSA-983695,0.002172620902717018,131.0,8,$\widetilde{A}_{G_8}$,moving_distance
R-HSA-9006335,0.0021596071746272,132.0,8,$\widetilde{A}_{G_8}$,moving_distance
R-HSA-3299685,0.00215718735048763,133.0,8,$\widetilde{A}_{G_8}$,moving_distance
R-HSA-167044,0.0021499660198350434,134.0,8,$\widetilde{A}_{G_8}$,moving_distance
R-HSA-1500931,0.0021499173595453096,135.0,8,$\widetilde{A}_{G_8}$,moving_distance
R-HSA-9034015,0.0021474463316749634,136.0,8,$\widetilde{A}_{G_8}$,moving_distance
R-HSA-70263,0.0021307172431861013,137.0,8,$\widetilde{A}_{G_8}$,moving_distance
R-HSA-381426,0.002102545517319129,138.0,8,$\widetilde{A}_{G_8}$,moving_distance
R-HSA-2129379,0.002073200786436249,139.0,8,$\widetilde{A}_{G_8}$,moving_distance
R-HSA-169893,0.0020689582179540967,140.0,8,$\widetilde{A}_{G_8}$,moving_distance
R-HSA-8864260,0.0020605569654677408,141.0,8,$\widetilde{A}_{G_8}$,moving_distance
R-HSA-9660821,0.0020581949181255896,142.0,8,$\widetilde{A}_{G_8}$,moving_distance
R-HSA-9620244,0.0020552415100256976,143.0,8,$\widetilde{A}_{G_8}$,moving_distance
R-HSA-2029485,0.002050591561139406,144.0,8,$\widetilde{A}_{G_8}$,moving_distance
R-HSA-163359,0.002045627233836681,145.0,8,$\widetilde{A}_{G_8}$,moving_distance
R-HSA-445717,0.0020151895729490416,146.5,8,$\widetilde{A}_{G_8}$,moving_distance
R-HSA-432040,0.0020151895729490416,146.5,8,$\widetilde{A}_{G_8}$,moving_distance
R-HSA-445144,0.0020080507563755593,148.0,8,$\widetilde{A}_{G_8}$,moving_distance
R-HSA-8853659,0.0020006010849812446,149.0,8,$\widetilde{A}_{G_8}$,moving_distance
R-HSA-512988,0.001972763402084626,150.0,8,$\widetilde{A}_{G_8}$,moving_distance
R-HSA-9709957,0.0019508318040235392,151.0,8,$\widetilde{A}_{G_8}$,moving_distance
R-HSA-1433557,0.0019453118407225835,152.0,8,$\widetilde{A}_{G_8}$,moving_distance
R-HSA-2151201,0.0019393287524699621,153.0,8,$\widetilde{A}_{G_8}$,moving_distance
R-HSA-177504,0.001928960581084391,154.0,8,$\widetilde{A}_{G_8}$,moving_distance
R-HSA-451927,0.0019227035102251722,155.0,8,$\widetilde{A}_{G_8}$,moving_distance
R-HSA-9703648,0.001901794778598648,156.0,8,$\widetilde{A}_{G_8}$,moving_distance
R-HSA-201451,0.0018905848371100408,157.0,8,$\widetilde{A}_{G_8}$,moving_distance
R-HSA-8875555,0.0018869853936584822,158.0,8,$\widetilde{A}_{G_8}$,moving_distance
R-HSA-180292,0.0018413467873874254,159.0,8,$\widetilde{A}_{G_8}$,moving_distance
R-HSA-9673770,0.0018405351090524692,160.0,8,$\widetilde{A}_{G_8}$,moving_distance
R-HSA-9673767,0.0018405351090524681,161.0,8,$\widetilde{A}_{G_8}$,moving_distance
R-HSA-186763,0.0018389847244503022,162.0,8,$\widetilde{A}_{G_8}$,moving_distance
R-HSA-9669938,0.001838181337122651,163.0,8,$\widetilde{A}_{G_8}$,moving_distance
R-HSA-9670439,0.00183818133712265,164.0,8,$\widetilde{A}_{G_8}$,moving_distance
R-HSA-8875360,0.0018209947300951014,165.0,8,$\widetilde{A}_{G_8}$,moving_distance
R-HSA-9617324,0.0018199360341844024,166.0,8,$\widetilde{A}_{G_8}$,moving_distance
R-HSA-8964315,0.0018176153802052662,167.0,8,$\widetilde{A}_{G_8}$,moving_distance
R-HSA-392851,0.0017975078070479836,168.0,8,$\widetilde{A}_{G_8}$,moving_distance
R-HSA-202040,0.0017957538712097083,169.0,8,$\widetilde{A}_{G_8}$,moving_distance
R-HSA-997272,0.0017902991354904955,171.5,8,$\widetilde{A}_{G_8}$,moving_distance
R-HSA-1296041,0.0017902991354904955,171.5,8,$\widetilde{A}_{G_8}$,moving_distance
R-HSA-1296059,0.0017902991354904955,171.5,8,$\widetilde{A}_{G_8}$,moving_distance
R-HSA-1296065,0.0017902991354904955,171.5,8,$\widetilde{A}_{G_8}$,moving_distance
R-HSA-5654741,0.0017874297540048626,174.0,8,$\widetilde{A}_{G_8}$,moving_distance
R-HSA-389513,0.0017704744492768256,175.0,8,$\widetilde{A}_{G_8}$,moving_distance
R-HSA-76005,0.0017704118368160671,176.0,8,$\widetilde{A}_{G_8}$,moving_distance
R-HSA-912631,0.0017570450143664527,177.0,8,$\widetilde{A}_{G_8}$,moving_distance
R-HSA-418592,0.001748282538879413,178.0,8,$\widetilde{A}_{G_8}$,moving_distance
R-HSA-392170,0.001741536265746491,179.0,8,$\widetilde{A}_{G_8}$,moving_distance
R-HSA-5654695,0.0017362215151879895,180.0,8,$\widetilde{A}_{G_8}$,moving_distance
R-HSA-5654743,0.0017245592495578766,181.0,8,$\widetilde{A}_{G_8}$,moving_distance
R-HSA-977443,0.0017105838926069175,182.0,8,$\widetilde{A}_{G_8}$,moving_distance
R-HSA-977444,0.001710583892606917,183.5,8,$\widetilde{A}_{G_8}$,moving_distance
R-HSA-991365,0.001710583892606917,183.5,8,$\widetilde{A}_{G_8}$,moving_distance
R-HSA-187687,0.00170761242218383,185.0,8,$\widetilde{A}_{G_8}$,moving_distance
R-HSA-1566948,0.0016602444535341065,186.0,8,$\widetilde{A}_{G_8}$,moving_distance
R-HSA-5654693,0.0016203648062494917,187.0,8,$\widetilde{A}_{G_8}$,moving_distance
R-HSA-8851805,0.001614806563764604,188.0,8,$\widetilde{A}_{G_8}$,moving_distance
R-HSA-400042,0.001605277823031826,189.0,8,$\widetilde{A}_{G_8}$,moving_distance
R-HSA-418990,0.0016000988321140035,190.0,8,$\widetilde{A}_{G_8}$,moving_distance
R-HSA-6807004,0.0015906375770768542,191.0,8,$\widetilde{A}_{G_8}$,moving_distance
R-HSA-5654736,0.0015868286246849164,192.0,8,$\widetilde{A}_{G_8}$,moving_distance
R-HSA-1227986,0.0015865339798493403,193.0,8,$\widetilde{A}_{G_8}$,moving_distance
R-HSA-428930,0.0015707513816260994,194.0,8,$\widetilde{A}_{G_8}$,moving_distance
R-HSA-9619483,0.0015665129327257215,195.0,8,$\widetilde{A}_{G_8}$,moving_distance
R-HSA-9674555,0.0015631476648622388,196.0,8,$\widetilde{A}_{G_8}$,moving_distance
R-HSA-8964616,0.0015429532699436771,197.0,8,$\widetilde{A}_{G_8}$,moving_distance
R-HSA-1295596,0.0015300280913463221,198.0,8,$\widetilde{A}_{G_8}$,moving_distance
R-HSA-170834,0.0014882167801004373,199.0,8,$\widetilde{A}_{G_8}$,moving_distance
R-HSA-2029482,0.001484477575566435,200.0,8,$\widetilde{A}_{G_8}$,moving_distance
R-HSA-2730905,0.0014833693930458196,201.0,8,$\widetilde{A}_{G_8}$,moving_distance
R-HSA-9671555,0.0014821055929476635,202.0,8,$\widetilde{A}_{G_8}$,moving_distance
R-HSA-5654700,0.0014449816049207616,203.0,8,$\widetilde{A}_{G_8}$,moving_distance
R-HSA-182971,0.0014229769797184494,204.0,8,$\widetilde{A}_{G_8}$,moving_distance
R-HSA-428540,0.0014003644138769684,205.0,8,$\widetilde{A}_{G_8}$,moving_distance
R-HSA-210993,0.0013975681660537151,206.0,8,$\widetilde{A}_{G_8}$,moving_distance
R-HSA-418555,0.0013892864357746152,207.0,8,$\widetilde{A}_{G_8}$,moving_distance
R-HSA-141430,0.0013883489409311646,208.5,8,$\widetilde{A}_{G_8}$,moving_distance
R-HSA-141405,0.0013883489409311646,208.5,8,$\widetilde{A}_{G_8}$,moving_distance
R-HSA-74751,0.0013682110462640493,210.0,8,$\widetilde{A}_{G_8}$,moving_distance
R-HSA-391160,0.001350677255898371,211.0,8,$\widetilde{A}_{G_8}$,moving_distance
R-HSA-392518,0.001349285683991104,212.0,8,$\widetilde{A}_{G_8}$,moving_distance
R-HSA-5218920,0.0013330462159862313,213.0,8,$\widetilde{A}_{G_8}$,moving_distance
R-HSA-442742,0.0013268465161240081,214.0,8,$\widetilde{A}_{G_8}$,moving_distance
R-HSA-9703465,0.0013268425869430202,215.0,8,$\widetilde{A}_{G_8}$,moving_distance
R-HSA-9013407,0.0013182885533199842,216.0,8,$\widetilde{A}_{G_8}$,moving_distance
R-HSA-450321,0.0013164461787069511,217.0,8,$\widetilde{A}_{G_8}$,moving_distance
R-HSA-373080,0.0013147091752413053,218.0,8,$\widetilde{A}_{G_8}$,moving_distance
R-HSA-1606322,0.0013096580213025077,219.0,8,$\widetilde{A}_{G_8}$,moving_distance
R-HSA-9664422,0.0013034626398865069,220.0,8,$\widetilde{A}_{G_8}$,moving_distance
R-HSA-9664417,0.0013034626398865067,221.0,8,$\widetilde{A}_{G_8}$,moving_distance
R-HSA-9664407,0.0013034626398865064,222.0,8,$\widetilde{A}_{G_8}$,moving_distance
R-HSA-1059683,0.0012824355587434785,223.0,8,$\widetilde{A}_{G_8}$,moving_distance
R-HSA-9617629,0.0012795185199710405,224.0,8,$\widetilde{A}_{G_8}$,moving_distance
R-HSA-445989,0.001269318877940305,225.0,8,$\widetilde{A}_{G_8}$,moving_distance
R-HSA-450302,0.0012614911449766277,226.0,8,$\widetilde{A}_{G_8}$,moving_distance
R-HSA-1358803,0.0012367062637118427,227.0,8,$\widetilde{A}_{G_8}$,moving_distance
R-HSA-418885,0.0012266526340065846,228.0,8,$\widetilde{A}_{G_8}$,moving_distance
R-HSA-164938,0.0012239549378871386,229.0,8,$\widetilde{A}_{G_8}$,moving_distance
R-HSA-421270,0.0012207935965237086,230.0,8,$\widetilde{A}_{G_8}$,moving_distance
R-HSA-456926,0.0012196046434097942,231.0,8,$\widetilde{A}_{G_8}$,moving_distance
R-HSA-186797,0.0012106144061929424,232.0,8,$\widetilde{A}_{G_8}$,moving_distance
R-HSA-4090294,0.0012052690083974285,233.0,8,$\widetilde{A}_{G_8}$,moving_distance
R-HSA-5655302,0.0011942104053909853,234.0,8,$\widetilde{A}_{G_8}$,moving_distance
R-HSA-6783589,0.0011928652807818947,235.0,8,$\widetilde{A}_{G_8}$,moving_distance
R-HSA-8849471,0.0011888789512458147,236.0,8,$\widetilde{A}_{G_8}$,moving_distance
R-HSA-1810476,0.0011866877143620897,237.0,8,$\widetilde{A}_{G_8}$,moving_distance
R-HSA-2029480,0.0011731775401910593,238.0,8,$\widetilde{A}_{G_8}$,moving_distance
R-HSA-392451,0.0011575092077669314,239.0,8,$\widetilde{A}_{G_8}$,moving_distance
R-HSA-389356,0.001150452540481021,240.0,8,$\widetilde{A}_{G_8}$,moving_distance
R-HSA-5654733,0.0011479842936933493,241.0,8,$\widetilde{A}_{G_8}$,moving_distance
R-HSA-168179,0.0011411418215677273,242.0,8,$\widetilde{A}_{G_8}$,moving_distance
R-HSA-166058,0.001141141821567727,243.0,8,$\widetilde{A}_{G_8}$,moving_distance
R-HSA-168188,0.0011411418215677269,244.5,8,$\widetilde{A}_{G_8}$,moving_distance
R-HSA-181438,0.0011411418215677269,244.5,8,$\widetilde{A}_{G_8}$,moving_distance
R-HSA-5654738,0.001135981121206927,246.0,8,$\widetilde{A}_{G_8}$,moving_distance
R-HSA-881907,0.001132770174676047,247.0,8,$\widetilde{A}_{G_8}$,moving_distance
R-HSA-8964038,0.0011281621730915969,248.0,8,$\widetilde{A}_{G_8}$,moving_distance
R-HSA-177929,0.0011273930534968285,249.0,8,$\widetilde{A}_{G_8}$,moving_distance
R-HSA-179409,0.0011191109468719415,250.0,8,$\widetilde{A}_{G_8}$,moving_distance
R-HSA-176412,0.001104011366707745,251.0,8,$\widetilde{A}_{G_8}$,moving_distance
R-HSA-9682385,0.001102867241858721,252.0,8,$\widetilde{A}_{G_8}$,moving_distance
R-HSA-168181,0.0011005744441216325,253.0,8,$\widetilde{A}_{G_8}$,moving_distance
R-HSA-168138,0.0011005744441216323,254.5,8,$\widetilde{A}_{G_8}$,moving_distance
R-HSA-975155,0.0011005744441216323,254.5,8,$\widetilde{A}_{G_8}$,moving_distance
R-HSA-2219530,0.0010980905011680328,256.0,8,$\widetilde{A}_{G_8}$,moving_distance
R-HSA-383280,0.0010964528076825419,257.0,8,$\widetilde{A}_{G_8}$,moving_distance
R-HSA-5693554,0.0010862455854946734,258.0,8,$\widetilde{A}_{G_8}$,moving_distance
R-HSA-373753,0.0010854201938006285,259.0,8,$\widetilde{A}_{G_8}$,moving_distance
R-HSA-9607240,0.0010851277260360806,260.0,8,$\widetilde{A}_{G_8}$,moving_distance
R-HSA-2426168,0.001084687075032277,261.0,8,$\widetilde{A}_{G_8}$,moving_distance
R-HSA-112399,0.0010829278713610105,262.0,8,$\widetilde{A}_{G_8}$,moving_distance
R-HSA-975138,0.0010815088144636468,263.0,8,$\widetilde{A}_{G_8}$,moving_distance
R-HSA-5654732,0.0010725151078448195,264.0,8,$\widetilde{A}_{G_8}$,moving_distance
R-HSA-9662851,0.0010702158263075513,265.5,8,$\widetilde{A}_{G_8}$,moving_distance
R-HSA-9664433,0.0010702158263075513,265.5,8,$\widetilde{A}_{G_8}$,moving_distance
R-HSA-176407,0.0010662809025710255,267.0,8,$\widetilde{A}_{G_8}$,moving_distance
R-HSA-5654726,0.0010655711426902736,268.0,8,$\widetilde{A}_{G_8}$,moving_distance
R-HSA-8876384,0.001061320824197877,269.0,8,$\widetilde{A}_{G_8}$,moving_distance
R-HSA-937061,0.0010489379680010923,270.5,8,$\widetilde{A}_{G_8}$,moving_distance
R-HSA-166166,0.0010489379680010923,270.5,8,$\widetilde{A}_{G_8}$,moving_distance
R-HSA-418597,0.0010402473300540197,272.0,8,$\widetilde{A}_{G_8}$,moving_distance
R-HSA-9027276,0.0010373430420510192,273.0,8,$\widetilde{A}_{G_8}$,moving_distance
R-HSA-5693568,0.0010372700294227996,274.0,8,$\widetilde{A}_{G_8}$,moving_distance
R-HSA-2428924,0.0010321364729717767,275.0,8,$\widetilde{A}_{G_8}$,moving_distance
R-HSA-2404192,0.0010321364729717756,276.0,8,$\widetilde{A}_{G_8}$,moving_distance
R-HSA-9609736,0.0010158122723359704,277.0,8,$\widetilde{A}_{G_8}$,moving_distance
R-HSA-168638,0.0010100637660547423,278.0,8,$\widetilde{A}_{G_8}$,moving_distance
R-HSA-1839117,0.001005130738858805,279.0,8,$\widetilde{A}_{G_8}$,moving_distance
R-HSA-6814122,0.001005032033282043,280.0,8,$\widetilde{A}_{G_8}$,moving_distance
R-HSA-5654727,0.0010026611630622178,281.0,8,$\widetilde{A}_{G_8}$,moving_distance
R-HSA-422356,0.00099798011190049,282.0,8,$\widetilde{A}_{G_8}$,moving_distance
R-HSA-975144,0.0009891529634005703,283.0,8,$\widetilde{A}_{G_8}$,moving_distance
R-HSA-937039,0.0009891529634005697,284.0,8,$\widetilde{A}_{G_8}$,moving_distance
R-HSA-190236,0.000964002209336241,285.0,8,$\widetilde{A}_{G_8}$,moving_distance
R-HSA-5693537,0.0009528621438672703,286.0,8,$\widetilde{A}_{G_8}$,moving_distance
R-HSA-1236394,0.0009515788508104156,287.0,8,$\widetilde{A}_{G_8}$,moving_distance
R-HSA-8854691,0.0009500578744619014,288.0,8,$\widetilde{A}_{G_8}$,moving_distance
R-HSA-5339562,0.0009457514088395884,289.0,8,$\widetilde{A}_{G_8}$,moving_distance
R-HSA-373752,0.0009394065636251785,290.0,8,$\widetilde{A}_{G_8}$,moving_distance
R-HSA-190828,0.0009388132557594096,291.0,8,$\widetilde{A}_{G_8}$,moving_distance
R-HSA-109704,0.0009275465446470387,292.0,8,$\widetilde{A}_{G_8}$,moving_distance
R-HSA-399955,0.0009180934923830774,293.0,8,$\widetilde{A}_{G_8}$,moving_distance
R-HSA-6811558,0.000913062580559127,294.0,8,$\widetilde{A}_{G_8}$,moving_distance
R-HSA-6785631,0.0009123909686424513,295.0,8,$\widetilde{A}_{G_8}$,moving_distance
R-HSA-5626467,0.0008928430933695269,296.0,8,$\widetilde{A}_{G_8}$,moving_distance
R-HSA-912446,0.0008909366223982342,297.0,8,$\widetilde{A}_{G_8}$,moving_distance
R-HSA-500657,0.0008898056378810183,299.0,8,$\widetilde{A}_{G_8}$,moving_distance
R-HSA-451326,0.0008898056378810183,299.0,8,$\widetilde{A}_{G_8}$,moving_distance
R-HSA-418217,0.0008898056378810183,299.0,8,$\widetilde{A}_{G_8}$,moving_distance
R-HSA-69205,0.0008870063033561904,301.0,8,$\widetilde{A}_{G_8}$,moving_distance
R-HSA-6788467,0.000880915762858099,302.0,8,$\widetilde{A}_{G_8}$,moving_distance
R-HSA-1502540,0.0008752193860549293,303.0,8,$\widetilde{A}_{G_8}$,moving_distance
R-HSA-1839124,0.000872968565942961,304.0,8,$\widetilde{A}_{G_8}$,moving_distance
R-HSA-9013420,0.0008663135799298411,305.0,8,$\widetilde{A}_{G_8}$,moving_distance
R-HSA-4755510,0.0008633083179888587,306.0,8,$\widetilde{A}_{G_8}$,moving_distance
R-HSA-933542,0.0008614661022795498,307.0,8,$\widetilde{A}_{G_8}$,moving_distance
R-HSA-2586552,0.0008489748226761447,308.0,8,$\widetilde{A}_{G_8}$,moving_distance
R-HSA-157858,0.0008472591792323661,309.0,8,$\widetilde{A}_{G_8}$,moving_distance
R-HSA-9706369,0.0008409943822191945,310.0,8,$\widetilde{A}_{G_8}$,moving_distance
R-HSA-168176,0.0008397786613591313,311.5,8,$\widetilde{A}_{G_8}$,moving_distance
R-HSA-168142,0.0008397786613591313,311.5,8,$\widetilde{A}_{G_8}$,moving_distance
R-HSA-975871,0.0008397786613591307,313.0,8,$\widetilde{A}_{G_8}$,moving_distance
R-HSA-163685,0.0008389159745173748,314.0,8,$\widetilde{A}_{G_8}$,moving_distance
R-HSA-912694,0.0008291375544960801,315.0,8,$\widetilde{A}_{G_8}$,moving_distance
R-HSA-5663213,0.0008157755385741603,316.0,8,$\widetilde{A}_{G_8}$,moving_distance
R-HSA-9013405,0.000814198390273412,317.0,8,$\widetilde{A}_{G_8}$,moving_distance
R-HSA-9687136,0.0008096496418137349,318.0,8,$\widetilde{A}_{G_8}$,moving_distance
R-HSA-9009391,0.0008076486441499867,319.0,8,$\widetilde{A}_{G_8}$,moving_distance
R-HSA-199418,0.000804381156277211,320.0,8,$\widetilde{A}_{G_8}$,moving_distance
R-HSA-168643,0.0008007404285966564,321.0,8,$\widetilde{A}_{G_8}$,moving_distance
R-HSA-196025,0.000794213371101277,322.0,8,$\widetilde{A}_{G_8}$,moving_distance
R-HSA-416482,0.0007941555015497741,323.0,8,$\widetilde{A}_{G_8}$,moving_distance
R-HSA-399954,0.000792097551298482,324.0,8,$\widetilde{A}_{G_8}$,moving_distance
R-HSA-187037,0.0007896248037290815,325.0,8,$\widetilde{A}_{G_8}$,moving_distance
R-HSA-933541,0.0007868337839218417,326.0,8,$\widetilde{A}_{G_8}$,moving_distance
R-HSA-5578775,0.0007815724121193621,327.0,8,$\widetilde{A}_{G_8}$,moving_distance
R-HSA-5620916,0.0007798287993871024,328.0,8,$\widetilde{A}_{G_8}$,moving_distance
R-HSA-5099900,0.0007783564100652578,329.0,8,$\widetilde{A}_{G_8}$,moving_distance
R-HSA-205043,0.0007753561371712107,330.0,8,$\widetilde{A}_{G_8}$,moving_distance
R-HSA-877312,0.0007736848684736375,331.0,8,$\widetilde{A}_{G_8}$,moving_distance
R-HSA-9013424,0.0007617644625219238,332.0,8,$\widetilde{A}_{G_8}$,moving_distance
R-HSA-2219528,0.0007593928431400845,333.0,8,$\widetilde{A}_{G_8}$,moving_distance
R-HSA-5218921,0.0007558019757606567,334.0,8,$\widetilde{A}_{G_8}$,moving_distance
R-HSA-202733,0.00075368614805185,335.0,8,$\widetilde{A}_{G_8}$,moving_distance
R-HSA-114608,0.0007530550355218836,336.0,8,$\widetilde{A}_{G_8}$,moving_distance
R-HSA-389357,0.0007524413448485937,337.0,8,$\widetilde{A}_{G_8}$,moving_distance
R-HSA-5625886,0.0007493139377478306,338.0,8,$\widetilde{A}_{G_8}$,moving_distance
R-HSA-3928664,0.0007440733950700689,339.0,8,$\widetilde{A}_{G_8}$,moving_distance
R-HSA-437239,0.0007423416645633532,340.0,8,$\widetilde{A}_{G_8}$,moving_distance
R-HSA-5334118,0.0007403132942734284,341.0,8,$\widetilde{A}_{G_8}$,moving_distance
R-HSA-69273,0.0007332167123543721,342.0,8,$\widetilde{A}_{G_8}$,moving_distance
R-HSA-190873,0.0007299151392093328,343.0,8,$\widetilde{A}_{G_8}$,moving_distance
R-HSA-500792,0.0007078194516876375,344.0,8,$\widetilde{A}_{G_8}$,moving_distance
R-HSA-1368108,0.0007057333519803971,345.0,8,$\widetilde{A}_{G_8}$,moving_distance
R-HSA-73728,0.0007054817569009084,346.0,8,$\widetilde{A}_{G_8}$,moving_distance
R-HSA-1538133,0.0007038697332346932,347.0,8,$\widetilde{A}_{G_8}$,moving_distance
R-HSA-399956,0.0007012400723469328,348.0,8,$\widetilde{A}_{G_8}$,moving_distance
R-HSA-3214842,0.0006972082468462328,349.0,8,$\widetilde{A}_{G_8}$,moving_distance
R-HSA-3232118,0.0006892709744960657,350.0,8,$\widetilde{A}_{G_8}$,moving_distance
R-HSA-9664420,0.0006869265024195527,351.5,8,$\widetilde{A}_{G_8}$,moving_distance
R-HSA-9673324,0.0006869265024195527,351.5,8,$\widetilde{A}_{G_8}$,moving_distance
R-HSA-6811436,0.000680103291590591,353.0,8,$\widetilde{A}_{G_8}$,moving_distance
R-HSA-8852276,0.0006776158650328497,354.0,8,$\widetilde{A}_{G_8}$,moving_distance
R-HSA-4615885,0.0006773904339414022,355.0,8,$\widetilde{A}_{G_8}$,moving_distance
R-HSA-68962,0.0006763763727718727,356.0,8,$\widetilde{A}_{G_8}$,moving_distance
R-HSA-68827,0.0006762290597890627,357.0,8,$\widetilde{A}_{G_8}$,moving_distance
R-HSA-390466,0.0006744400853357001,358.0,8,$\widetilde{A}_{G_8}$,moving_distance
R-HSA-445355,0.0006738088555437893,359.0,8,$\widetilde{A}_{G_8}$,moving_distance
R-HSA-112040,0.0006676526659208643,360.0,8,$\widetilde{A}_{G_8}$,moving_distance
R-HSA-9634638,0.0006649398827000394,361.0,8,$\widetilde{A}_{G_8}$,moving_distance
R-HSA-168927,0.0006585549267164053,362.0,8,$\widetilde{A}_{G_8}$,moving_distance
R-HSA-176814,0.0006508391166266732,363.0,8,$\widetilde{A}_{G_8}$,moving_distance
R-HSA-112043,0.0006427734915823632,364.0,8,$\widetilde{A}_{G_8}$,moving_distance
R-HSA-391251,0.0006415991005933107,365.0,8,$\widetilde{A}_{G_8}$,moving_distance
R-HSA-2428928,0.000641115205019137,366.0,8,$\widetilde{A}_{G_8}$,moving_distance
R-HSA-111885,0.0006407323494262955,367.0,8,$\widetilde{A}_{G_8}$,moving_distance
R-HSA-179419,0.0006379435748866846,368.0,8,$\widetilde{A}_{G_8}$,moving_distance
R-HSA-3928663,0.0006360408232002877,369.0,8,$\widetilde{A}_{G_8}$,moving_distance
R-HSA-3270619,0.0006203829800002817,370.0,8,$\widetilde{A}_{G_8}$,moving_distance
R-HSA-9005895,0.0006199626774342128,371.0,8,$\widetilde{A}_{G_8}$,moving_distance
R-HSA-9675151,0.0006199626774342123,372.0,8,$\widetilde{A}_{G_8}$,moving_distance
R-HSA-9697154,0.0006199626774342112,373.5,8,$\widetilde{A}_{G_8}$,moving_distance
R-HSA-9005891,0.0006199626774342112,373.5,8,$\widetilde{A}_{G_8}$,moving_distance
R-HSA-1266695,0.0006191439239156748,375.0,8,$\widetilde{A}_{G_8}$,moving_distance
R-HSA-8856825,0.0006173843725237646,376.0,8,$\widetilde{A}_{G_8}$,moving_distance
R-HSA-176409,0.0006057206055933812,377.0,8,$\widetilde{A}_{G_8}$,moving_distance
R-HSA-3214815,0.0006036363397898591,378.0,8,$\widetilde{A}_{G_8}$,moving_distance
R-HSA-68949,0.0006028540843399246,379.0,8,$\widetilde{A}_{G_8}$,moving_distance
R-HSA-9035034,0.0006006914569192885,380.0,8,$\widetilde{A}_{G_8}$,moving_distance
R-HSA-427389,0.000600275214555655,381.0,8,$\widetilde{A}_{G_8}$,moving_distance
R-HSA-5633008,0.0005973836779088365,382.0,8,$\widetilde{A}_{G_8}$,moving_distance
R-HSA-9013423,0.0005897516263581912,383.0,8,$\widetilde{A}_{G_8}$,moving_distance
R-HSA-176187,0.0005888681625695921,384.0,8,$\widetilde{A}_{G_8}$,moving_distance
R-HSA-9006936,0.0005854716571060207,385.0,8,$\widetilde{A}_{G_8}$,moving_distance
R-HSA-9696264,0.0005845664478027821,386.0,8,$\widetilde{A}_{G_8}$,moving_distance
R-HSA-174048,0.0005818002421939553,387.0,8,$\widetilde{A}_{G_8}$,moving_distance
R-HSA-168273,0.0005809798316012012,388.0,8,$\widetilde{A}_{G_8}$,moving_distance
R-HSA-933543,0.0005808562989062437,389.0,8,$\widetilde{A}_{G_8}$,moving_distance
R-HSA-3928662,0.0005789726747897399,390.0,8,$\widetilde{A}_{G_8}$,moving_distance
R-HSA-450294,0.0005781792969475713,391.0,8,$\widetilde{A}_{G_8}$,moving_distance
R-HSA-3371568,0.0005769659472617006,392.0,8,$\widetilde{A}_{G_8}$,moving_distance
R-HSA-9013409,0.0005745821209211497,393.0,8,$\widetilde{A}_{G_8}$,moving_distance
R-HSA-111931,0.0005740677926420563,394.0,8,$\widetilde{A}_{G_8}$,moving_distance
R-HSA-70221,0.0005701688189756885,395.0,8,$\widetilde{A}_{G_8}$,moving_distance
R-HSA-1181150,0.000569020159214941,396.0,8,$\widetilde{A}_{G_8}$,moving_distance
R-HSA-3371511,0.0005678410538449272,397.0,8,$\widetilde{A}_{G_8}$,moving_distance
R-HSA-75035,0.0005668888980437496,398.0,8,$\widetilde{A}_{G_8}$,moving_distance
R-HSA-174184,0.0005665410679758378,399.0,8,$\widetilde{A}_{G_8}$,moving_distance
R-HSA-389960,0.0005659428416920735,400.0,8,$\widetilde{A}_{G_8}$,moving_distance
R-HSA-448424,0.0005638279615098972,401.0,8,$\widetilde{A}_{G_8}$,moving_distance
R-HSA-69052,0.0005620785983734117,402.0,8,$\widetilde{A}_{G_8}$,moving_distance
R-HSA-73928,0.0005611996645992425,403.0,8,$\widetilde{A}_{G_8}$,moving_distance
R-HSA-110329,0.000561199664599242,404.5,8,$\widetilde{A}_{G_8}$,moving_distance
R-HSA-110328,0.000561199664599242,404.5,8,$\widetilde{A}_{G_8}$,moving_distance
R-HSA-9710421,0.0005524392281255334,406.0,8,$\widetilde{A}_{G_8}$,moving_distance
R-HSA-453276,0.0005505967711232623,407.0,8,$\widetilde{A}_{G_8}$,moving_distance
R-HSA-174143,0.0005505967711232615,408.0,8,$\widetilde{A}_{G_8}$,moving_distance
R-HSA-68867,0.0005478042523995688,409.0,8,$\widetilde{A}_{G_8}$,moving_distance
R-HSA-69017,0.0005467004986415107,410.0,8,$\widetilde{A}_{G_8}$,moving_distance
R-HSA-1660499,0.0005460805184931412,411.0,8,$\widetilde{A}_{G_8}$,moving_distance
R-HSA-9687139,0.0005453901036672649,412.0,8,$\widetilde{A}_{G_8}$,moving_distance
R-HSA-2559586,0.0005392251450225226,413.0,8,$\widetilde{A}_{G_8}$,moving_distance
R-HSA-3899300,0.0005357595340195239,414.0,8,$\widetilde{A}_{G_8}$,moving_distance
R-HSA-8940973,0.0005356852017225171,415.0,8,$\widetilde{A}_{G_8}$,moving_distance
R-HSA-2173793,0.0005333423561486323,416.0,8,$\widetilde{A}_{G_8}$,moving_distance
R-HSA-69002,0.0005327371527653051,417.0,8,$\widetilde{A}_{G_8}$,moving_distance
R-HSA-5689901,0.0005325073088449694,418.0,8,$\widetilde{A}_{G_8}$,moving_distance
R-HSA-168164,0.0005323118772686069,419.0,8,$\widetilde{A}_{G_8}$,moving_distance
R-HSA-6794361,0.0005302128139476005,420.0,8,$\widetilde{A}_{G_8}$,moving_distance
R-HSA-110331,0.0005295529223706202,421.0,8,$\widetilde{A}_{G_8}$,moving_distance
R-HSA-110330,0.0005295529223706195,422.5,8,$\widetilde{A}_{G_8}$,moving_distance
R-HSA-73929,0.0005295529223706195,422.5,8,$\widetilde{A}_{G_8}$,moving_distance
R-HSA-73927,0.0005295529223706189,424.0,8,$\widetilde{A}_{G_8}$,moving_distance
R-HSA-212300,0.0005256937168142389,425.0,8,$\widetilde{A}_{G_8}$,moving_distance
R-HSA-427359,0.00052505585919847,426.0,8,$\widetilde{A}_{G_8}$,moving_distance
R-HSA-9707616,0.0005200411328663991,427.0,8,$\widetilde{A}_{G_8}$,moving_distance
R-HSA-187577,0.0005193747205794764,428.0,8,$\widetilde{A}_{G_8}$,moving_distance
R-HSA-176408,0.0005166349534623618,429.0,8,$\widetilde{A}_{G_8}$,moving_distance
R-HSA-8984722,0.0005122155754928748,430.0,8,$\widetilde{A}_{G_8}$,moving_distance
R-HSA-918233,0.0005042318676728313,431.0,8,$\widetilde{A}_{G_8}$,moving_distance
R-HSA-174414,0.000502109579621912,432.0,8,$\widetilde{A}_{G_8}$,moving_distance
R-HSA-9675126,0.0004984853213099604,433.0,8,$\widetilde{A}_{G_8}$,moving_distance
R-HSA-5205685,0.0004970095108742757,434.0,8,$\widetilde{A}_{G_8}$,moving_distance
R-HSA-1474165,0.000496812584177963,435.0,8,$\widetilde{A}_{G_8}$,moving_distance
R-HSA-1500620,0.0004968125841779614,436.0,8,$\widetilde{A}_{G_8}$,moving_distance
R-HSA-8982491,0.0004900458846254674,437.0,8,$\widetilde{A}_{G_8}$,moving_distance
R-HSA-397795,0.0004876831839026312,438.0,8,$\widetilde{A}_{G_8}$,moving_distance
R-HSA-210744,0.00048633822314275363,439.0,8,$\widetilde{A}_{G_8}$,moving_distance
R-HSA-6804760,0.0004843120737091803,440.0,8,$\widetilde{A}_{G_8}$,moving_distance
R-HSA-6804114,0.0004832670309700574,441.0,8,$\widetilde{A}_{G_8}$,moving_distance
R-HSA-416476,0.0004817957830786959,442.0,8,$\widetilde{A}_{G_8}$,moving_distance
R-HSA-844456,0.00048085158813321863,443.0,8,$\widetilde{A}_{G_8}$,moving_distance
R-HSA-9619665,0.00048059186647196486,444.0,8,$\widetilde{A}_{G_8}$,moving_distance
R-HSA-141424,0.00047993903364379085,445.5,8,$\widetilde{A}_{G_8}$,moving_distance
R-HSA-141444,0.00047993903364379085,445.5,8,$\widetilde{A}_{G_8}$,moving_distance
R-HSA-9664323,0.00047735453552174206,447.0,8,$\widetilde{A}_{G_8}$,moving_distance
R-HSA-5693571,0.0004767013465066893,448.0,8,$\widetilde{A}_{G_8}$,moving_distance
R-HSA-9013507,0.00047479216124584646,449.0,8,$\widetilde{A}_{G_8}$,moving_distance
R-HSA-2299718,0.0004681578715741416,450.0,8,$\widetilde{A}_{G_8}$,moving_distance
R-HSA-606279,0.00046692750954546654,451.0,8,$\widetilde{A}_{G_8}$,moving_distance
R-HSA-774815,0.0004669275095454645,452.0,8,$\widetilde{A}_{G_8}$,moving_distance
R-HSA-69563,0.00046372819099034187,453.0,8,$\widetilde{A}_{G_8}$,moving_distance
R-HSA-69580,0.0004637281909903409,454.0,8,$\widetilde{A}_{G_8}$,moving_distance
R-HSA-5357956,0.00045941648996684377,455.0,8,$\widetilde{A}_{G_8}$,moving_distance
R-HSA-399721,0.00045009208839894005,456.0,8,$\widetilde{A}_{G_8}$,moving_distance
R-HSA-399719,0.00045009208839893994,457.0,8,$\widetilde{A}_{G_8}$,moving_distance
R-HSA-8964043,0.0004493015947542761,458.0,8,$\widetilde{A}_{G_8}$,moving_distance
R-HSA-445095,0.00044926661811478237,459.0,8,$\widetilde{A}_{G_8}$,moving_distance
R-HSA-9705462,0.00044896645497180705,460.0,8,$\widetilde{A}_{G_8}$,moving_distance
R-HSA-6783310,0.0004481877270771633,461.0,8,$\widetilde{A}_{G_8}$,moving_distance
R-HSA-1362277,0.0004472647457992128,462.0,8,$\widetilde{A}_{G_8}$,moving_distance
R-HSA-5625740,0.0004457553508122824,463.0,8,$\widetilde{A}_{G_8}$,moving_distance
R-HSA-400253,0.000440887471560148,464.0,8,$\widetilde{A}_{G_8}$,moving_distance
R-HSA-69615,0.0004408872851987692,465.0,8,$\widetilde{A}_{G_8}$,moving_distance
R-HSA-8936459,0.0004378615237264369,466.0,8,$\widetilde{A}_{G_8}$,moving_distance
R-HSA-5685942,0.0004345654905422508,467.0,8,$\widetilde{A}_{G_8}$,moving_distance
R-HSA-1989781,0.0004331470160113416,468.0,8,$\widetilde{A}_{G_8}$,moving_distance
R-HSA-8953750,0.00043291967591407816,469.0,8,$\widetilde{A}_{G_8}$,moving_distance
R-HSA-174178,0.0004318167895801534,470.0,8,$\widetilde{A}_{G_8}$,moving_distance
R-HSA-171306,0.0004311320976302687,471.0,8,$\widetilde{A}_{G_8}$,moving_distance
R-HSA-1834941,0.0004310647654852632,472.0,8,$\widetilde{A}_{G_8}$,moving_distance
R-HSA-68884,0.00043075812892058503,473.0,8,$\widetilde{A}_{G_8}$,moving_distance
R-HSA-9615017,0.00043042727841767833,474.0,8,$\widetilde{A}_{G_8}$,moving_distance
R-HSA-75893,0.00042398562943293404,475.0,8,$\widetilde{A}_{G_8}$,moving_distance
R-HSA-373755,0.0004232051158619184,476.0,8,$\widetilde{A}_{G_8}$,moving_distance
R-HSA-2173789,0.0004227505170271472,477.0,8,$\widetilde{A}_{G_8}$,moving_distance
R-HSA-9022692,0.0004227056950991525,478.0,8,$\widetilde{A}_{G_8}$,moving_distance
R-HSA-982772,0.000419629466471583,479.0,8,$\widetilde{A}_{G_8}$,moving_distance
R-HSA-9663891,0.0004187977180871922,480.0,8,$\widetilde{A}_{G_8}$,moving_distance
R-HSA-5693567,0.0004174252879859967,481.0,8,$\widetilde{A}_{G_8}$,moving_distance
R-HSA-69473,0.00041680687528055163,482.0,8,$\widetilde{A}_{G_8}$,moving_distance
R-HSA-201722,0.0004163223713251464,483.0,8,$\widetilde{A}_{G_8}$,moving_distance
R-HSA-2173788,0.00041496885066310245,484.0,8,$\widetilde{A}_{G_8}$,moving_distance
R-HSA-5689896,0.00041456862818085887,485.0,8,$\widetilde{A}_{G_8}$,moving_distance
R-HSA-4086398,0.00041448352966486036,486.0,8,$\widetilde{A}_{G_8}$,moving_distance
R-HSA-9029569,0.00041370294480660486,487.0,8,$\widetilde{A}_{G_8}$,moving_distance
R-HSA-5693579,0.00041299864560647364,488.0,8,$\widetilde{A}_{G_8}$,moving_distance
R-HSA-400206,0.000412751368063088,489.0,8,$\widetilde{A}_{G_8}$,moving_distance
R-HSA-9659787,0.00041147062033693936,490.0,8,$\widetilde{A}_{G_8}$,moving_distance
R-HSA-9661069,0.0004114706203369391,491.0,8,$\widetilde{A}_{G_8}$,moving_distance
R-HSA-9013508,0.0004112528874555549,492.0,8,$\widetilde{A}_{G_8}$,moving_distance
R-HSA-70171,0.0004103232906645463,493.0,8,$\widetilde{A}_{G_8}$,moving_distance
R-HSA-9013695,0.00040821245713494055,494.0,8,$\widetilde{A}_{G_8}$,moving_distance
R-HSA-9635486,0.000407853505834928,495.0,8,$\widetilde{A}_{G_8}$,moving_distance
R-HSA-5625900,0.0004052868774071028,496.0,8,$\widetilde{A}_{G_8}$,moving_distance
R-HSA-6794362,0.0004042827989638101,497.0,8,$\widetilde{A}_{G_8}$,moving_distance
R-HSA-73884,0.0004038003333558888,498.0,8,$\widetilde{A}_{G_8}$,moving_distance
R-HSA-2979096,0.0004037767311003172,499.0,8,$\widetilde{A}_{G_8}$,moving_distance
R-HSA-8950505,0.00040185971092139387,500.0,8,$\widetilde{A}_{G_8}$,moving_distance
R-HSA-9662361,0.00039616108047456713,501.0,8,$\widetilde{A}_{G_8}$,moving_distance
R-HSA-9660826,0.00039472280056873144,502.5,8,$\widetilde{A}_{G_8}$,moving_distance
R-HSA-9664424,0.00039472280056873144,502.5,8,$\widetilde{A}_{G_8}$,moving_distance
R-HSA-8980692,0.0003940070911428304,504.0,8,$\widetilde{A}_{G_8}$,moving_distance
R-HSA-5693607,0.00039330962212704893,505.0,8,$\widetilde{A}_{G_8}$,moving_distance
R-HSA-2995410,0.0003924098694822666,506.0,8,$\widetilde{A}_{G_8}$,moving_distance
R-HSA-168928,0.0003906936957522532,507.0,8,$\widetilde{A}_{G_8}$,moving_distance
R-HSA-5140745,0.0003900089487131453,508.0,8,$\widetilde{A}_{G_8}$,moving_distance
R-HSA-8986944,0.000386688089430348,509.0,8,$\widetilde{A}_{G_8}$,moving_distance
R-HSA-3214841,0.00038662761627987144,510.0,8,$\widetilde{A}_{G_8}$,moving_distance
R-HSA-8941856,0.000382878658974566,511.0,8,$\widetilde{A}_{G_8}$,moving_distance
R-HSA-6803204,0.00038253163792251004,512.0,8,$\widetilde{A}_{G_8}$,moving_distance
R-HSA-9024446,0.000379593605037539,513.0,8,$\widetilde{A}_{G_8}$,moving_distance
R-HSA-5250913,0.0003780615075687662,514.0,8,$\widetilde{A}_{G_8}$,moving_distance
R-HSA-2132295,0.00037615536370896836,515.0,8,$\widetilde{A}_{G_8}$,moving_distance
R-HSA-9648025,0.0003754251255647128,516.0,8,$\widetilde{A}_{G_8}$,moving_distance
R-HSA-400685,0.00037539152784153864,517.0,8,$\widetilde{A}_{G_8}$,moving_distance
R-HSA-8863795,0.0003753291631391797,518.0,8,$\widetilde{A}_{G_8}$,moving_distance
R-HSA-9013026,0.0003743736351188587,519.0,8,$\widetilde{A}_{G_8}$,moving_distance
R-HSA-9616222,0.0003711693960481359,520.0,8,$\widetilde{A}_{G_8}$,moving_distance
R-HSA-3000157,0.0003707071818967215,521.0,8,$\widetilde{A}_{G_8}$,moving_distance
R-HSA-9013418,0.00037031841306943913,522.0,8,$\widetilde{A}_{G_8}$,moving_distance
R-HSA-381676,0.0003694609916182994,523.0,8,$\widetilde{A}_{G_8}$,moving_distance
R-HSA-174824,0.0003676979898844736,524.0,8,$\widetilde{A}_{G_8}$,moving_distance
R-HSA-5693616,0.00036663870431991817,525.0,8,$\widetilde{A}_{G_8}$,moving_distance
R-HSA-9615933,0.00036367935840634106,526.0,8,$\widetilde{A}_{G_8}$,moving_distance
R-HSA-202670,0.00036345380037389364,527.0,8,$\widetilde{A}_{G_8}$,moving_distance
R-HSA-1912408,0.00036300692188359873,528.0,8,$\widetilde{A}_{G_8}$,moving_distance
R-HSA-380972,0.00036206217951148306,529.0,8,$\widetilde{A}_{G_8}$,moving_distance
R-HSA-432722,0.000361495501921305,530.0,8,$\widetilde{A}_{G_8}$,moving_distance
R-HSA-389958,0.00036014979308540853,531.0,8,$\widetilde{A}_{G_8}$,moving_distance
R-HSA-5689603,0.0003586185689433808,532.0,8,$\widetilde{A}_{G_8}$,moving_distance
R-HSA-6804115,0.0003575101960074122,533.0,8,$\widetilde{A}_{G_8}$,moving_distance
R-HSA-5627123,0.0003571569091796558,534.0,8,$\widetilde{A}_{G_8}$,moving_distance
R-HSA-174154,0.000355490082683221,535.0,8,$\widetilde{A}_{G_8}$,moving_distance
R-HSA-2500257,0.00035495398475693927,536.0,8,$\widetilde{A}_{G_8}$,moving_distance
R-HSA-69618,0.00035492086740262883,537.0,8,$\widetilde{A}_{G_8}$,moving_distance
R-HSA-171007,0.00035319730256459754,538.0,8,$\widetilde{A}_{G_8}$,moving_distance
R-HSA-2559585,0.00035183726451119715,539.0,8,$\widetilde{A}_{G_8}$,moving_distance
R-HSA-5673000,0.0003513310006425626,540.0,8,$\widetilde{A}_{G_8}$,moving_distance
R-HSA-1236975,0.0003503854402716675,541.0,8,$\widetilde{A}_{G_8}$,moving_distance
R-HSA-162658,0.0003475404085891211,542.0,8,$\widetilde{A}_{G_8}$,moving_distance
R-HSA-202131,0.000346209140706456,543.0,8,$\widetilde{A}_{G_8}$,moving_distance
R-HSA-5250924,0.00034483272478534453,544.0,8,$\widetilde{A}_{G_8}$,moving_distance
R-HSA-1912422,0.00034463556920691433,545.0,8,$\widetilde{A}_{G_8}$,moving_distance
R-HSA-168325,0.00034454290214639663,546.5,8,$\widetilde{A}_{G_8}$,moving_distance
R-HSA-5619107,0.00034454290214639663,546.5,8,$\widetilde{A}_{G_8}$,moving_distance
R-HSA-170822,0.00034454290214639625,548.0,8,$\widetilde{A}_{G_8}$,moving_distance
R-HSA-8848021,0.0003442656137384326,549.0,8,$\widetilde{A}_{G_8}$,moving_distance
R-HSA-9006927,0.00034426561373843167,550.0,8,$\widetilde{A}_{G_8}$,moving_distance
R-HSA-77075,0.00034379754113151277,551.0,8,$\widetilde{A}_{G_8}$,moving_distance
R-HSA-167160,0.00034379754113151207,552.0,8,$\widetilde{A}_{G_8}$,moving_distance
R-HSA-9637690,0.0003409792941777773,553.0,8,$\widetilde{A}_{G_8}$,moving_distance
R-HSA-9627069,0.0003403359184743269,554.5,8,$\widetilde{A}_{G_8}$,moving_distance
R-HSA-111458,0.0003403359184743269,554.5,8,$\widetilde{A}_{G_8}$,moving_distance
R-HSA-174113,0.00034022415865917036,556.0,8,$\widetilde{A}_{G_8}$,moving_distance
R-HSA-9645723,0.0003401491007432879,557.0,8,$\widetilde{A}_{G_8}$,moving_distance
R-HSA-5362768,0.0003371395533226897,558.0,8,$\widetilde{A}_{G_8}$,moving_distance
R-HSA-5387390,0.00033713955332268945,559.0,8,$\widetilde{A}_{G_8}$,moving_distance
R-HSA-5358565,0.0003367893077768242,560.0,8,$\widetilde{A}_{G_8}$,moving_distance
R-HSA-5358606,0.00033653276993268587,561.0,8,$\widetilde{A}_{G_8}$,moving_distance
R-HSA-3214858,0.0003357920830537245,562.0,8,$\widetilde{A}_{G_8}$,moving_distance
R-HSA-176033,0.0003349599962907834,563.5,8,$\widetilde{A}_{G_8}$,moving_distance
R-HSA-180910,0.0003349599962907834,563.5,8,$\widetilde{A}_{G_8}$,moving_distance
R-HSA-9614085,0.0003347931978359451,565.0,8,$\widetilde{A}_{G_8}$,moving_distance
R-HSA-168271,0.0003335465408968143,566.0,8,$\widetilde{A}_{G_8}$,moving_distance
R-HSA-389977,0.0003294571605260937,567.0,8,$\widetilde{A}_{G_8}$,moving_distance
R-HSA-168274,0.00032898209978659095,568.0,8,$\widetilde{A}_{G_8}$,moving_distance
R-HSA-168333,0.0003289820997865907,569.0,8,$\widetilde{A}_{G_8}$,moving_distance
R-HSA-174084,0.0003282523887702681,570.0,8,$\widetilde{A}_{G_8}$,moving_distance
R-HSA-2559582,0.00032816842668442417,571.0,8,$\widetilde{A}_{G_8}$,moving_distance
R-HSA-9670095,0.00032673221997610205,572.0,8,$\widetilde{A}_{G_8}$,moving_distance
R-HSA-6784531,0.0003246445328705396,573.0,8,$\widetilde{A}_{G_8}$,moving_distance
R-HSA-69541,0.00032415066539401733,574.0,8,$\widetilde{A}_{G_8}$,moving_distance
R-HSA-8941858,0.00032405474034441316,575.0,8,$\widetilde{A}_{G_8}$,moving_distance
R-HSA-447115,0.00032139830545735535,576.0,8,$\widetilde{A}_{G_8}$,moving_distance
R-HSA-5358346,0.0003210352645468403,577.0,8,$\widetilde{A}_{G_8}$,moving_distance
R-HSA-72086,0.00032098841342183265,578.0,8,$\widetilde{A}_{G_8}$,moving_distance
R-HSA-4570464,0.0003187816185971162,579.0,8,$\widetilde{A}_{G_8}$,moving_distance
R-HSA-180746,0.00031822490746753816,580.0,8,$\widetilde{A}_{G_8}$,moving_distance
R-HSA-5607763,0.0003160821979837128,581.0,8,$\widetilde{A}_{G_8}$,moving_distance
R-HSA-390450,0.0003160627207442228,582.0,8,$\widetilde{A}_{G_8}$,moving_distance
R-HSA-186712,0.0003147423196645154,583.0,8,$\widetilde{A}_{G_8}$,moving_distance
R-HSA-5684264,0.0003130345138199233,584.0,8,$\widetilde{A}_{G_8}$,moving_distance
R-HSA-9013106,0.0003129343715035687,585.0,8,$\widetilde{A}_{G_8}$,moving_distance
R-HSA-9020591,0.00030926075133736196,586.0,8,$\widetilde{A}_{G_8}$,moving_distance
R-HSA-73772,0.00030895824343461683,587.0,8,$\widetilde{A}_{G_8}$,moving_distance
R-HSA-112409,0.00030723353865574627,588.0,8,$\widetilde{A}_{G_8}$,moving_distance
R-HSA-159227,0.0003062907341635073,589.0,8,$\widetilde{A}_{G_8}$,moving_distance
R-HSA-8874081,0.000306224104116972,590.0,8,$\widetilde{A}_{G_8}$,moving_distance
R-HSA-1236974,0.00030411977735949014,591.0,8,$\widetilde{A}_{G_8}$,moving_distance
R-HSA-5656169,0.0003037235156923337,592.0,8,$\widetilde{A}_{G_8}$,moving_distance
R-HSA-3108214,0.000302932664177172,593.0,8,$\widetilde{A}_{G_8}$,moving_distance
R-HSA-2559580,0.0003027889737752804,594.0,8,$\widetilde{A}_{G_8}$,moving_distance
R-HSA-5357786,0.00030074708718435514,595.0,8,$\widetilde{A}_{G_8}$,moving_distance
R-HSA-165054,0.0003006465575391566,596.0,8,$\widetilde{A}_{G_8}$,moving_distance
R-HSA-4085377,0.00030018475514082677,597.0,8,$\widetilde{A}_{G_8}$,moving_distance
R-HSA-5358508,0.0003001261075789672,598.0,8,$\widetilde{A}_{G_8}$,moving_distance
R-HSA-2980766,0.00029987474439234886,599.0,8,$\widetilde{A}_{G_8}$,moving_distance
R-HSA-111461,0.0002998138973174413,600.0,8,$\widetilde{A}_{G_8}$,moving_distance
R-HSA-204005,0.00029890928173959274,601.0,8,$\widetilde{A}_{G_8}$,moving_distance
R-HSA-159230,0.00029754620388197943,602.0,8,$\widetilde{A}_{G_8}$,moving_distance
R-HSA-622312,0.0002972155985104574,603.0,8,$\widetilde{A}_{G_8}$,moving_distance
R-HSA-9613829,0.0002971495116560986,604.0,8,$\widetilde{A}_{G_8}$,moving_distance
R-HSA-177243,0.0002971405625548714,605.0,8,$\widetilde{A}_{G_8}$,moving_distance
R-HSA-9609690,0.00029639390159849144,606.0,8,$\widetilde{A}_{G_8}$,moving_distance
R-HSA-8862803,0.00029628278686290527,607.0,8,$\widetilde{A}_{G_8}$,moving_distance
R-HSA-8863678,0.0002962827868629052,608.0,8,$\widetilde{A}_{G_8}$,moving_distance
R-HSA-5693565,0.0002960686064518731,609.0,8,$\widetilde{A}_{G_8}$,moving_distance
R-HSA-381340,0.00029531788261876314,610.0,8,$\widetilde{A}_{G_8}$,moving_distance
R-HSA-4655427,0.0002945173045967137,611.0,8,$\widetilde{A}_{G_8}$,moving_distance
R-HSA-3301854,0.00029401604765636683,612.0,8,$\widetilde{A}_{G_8}$,moving_distance
R-HSA-1170546,0.0002935257110447051,613.0,8,$\widetilde{A}_{G_8}$,moving_distance
R-HSA-5693606,0.0002913592948353249,614.0,8,$\widetilde{A}_{G_8}$,moving_distance
R-HSA-113418,0.00028849082482313565,615.5,8,$\widetilde{A}_{G_8}$,moving_distance
R-HSA-167158,0.00028849082482313565,615.5,8,$\widetilde{A}_{G_8}$,moving_distance
R-HSA-983189,0.00028779681221431067,617.0,8,$\widetilde{A}_{G_8}$,moving_distance
R-HSA-525793,0.0002871116624780919,618.0,8,$\widetilde{A}_{G_8}$,moving_distance
R-HSA-8939236,0.0002842716075573039,619.0,8,$\widetilde{A}_{G_8}$,moving_distance
R-HSA-390471,0.0002824817487208167,620.0,8,$\widetilde{A}_{G_8}$,moving_distance
R-HSA-1221632,0.00028231739255241394,621.0,8,$\widetilde{A}_{G_8}$,moving_distance
R-HSA-165159,0.0002818895789003716,622.0,8,$\widetilde{A}_{G_8}$,moving_distance
R-HSA-5694530,0.00028180601176390626,623.0,8,$\widetilde{A}_{G_8}$,moving_distance
R-HSA-168276,0.0002811447835147674,624.0,8,$\widetilde{A}_{G_8}$,moving_distance
R-HSA-111471,0.00028074472655482025,625.0,8,$\widetilde{A}_{G_8}$,moving_distance
R-HSA-6783783,0.0002795512830344652,626.0,8,$\widetilde{A}_{G_8}$,moving_distance
R-HSA-3371571,0.0002790036658609447,627.0,8,$\widetilde{A}_{G_8}$,moving_distance
R-HSA-6806834,0.0002785499394196142,628.0,8,$\widetilde{A}_{G_8}$,moving_distance
R-HSA-1251985,0.00027784861436650236,629.0,8,$\widetilde{A}_{G_8}$,moving_distance
R-HSA-3232142,0.00027264078864088946,630.0,8,$\widetilde{A}_{G_8}$,moving_distance
R-HSA-917729,0.0002724034996876839,631.0,8,$\widetilde{A}_{G_8}$,moving_distance
R-HSA-5620920,0.0002710397476493189,632.0,8,$\widetilde{A}_{G_8}$,moving_distance
R-HSA-9614657,0.00026793679392650974,633.0,8,$\widetilde{A}_{G_8}$,moving_distance
R-HSA-69236,0.00026708409715275617,634.5,8,$\widetilde{A}_{G_8}$,moving_distance
R-HSA-69231,0.00026708409715275617,634.5,8,$\widetilde{A}_{G_8}$,moving_distance
R-HSA-389957,0.0002670326262468337,636.0,8,$\widetilde{A}_{G_8}$,moving_distance
R-HSA-1483255,0.0002660574451470321,637.0,8,$\widetilde{A}_{G_8}$,moving_distance
R-HSA-5578749,0.00026489640094900596,638.0,8,$\widetilde{A}_{G_8}$,moving_distance
R-HSA-6791312,0.0002648623247979358,639.0,8,$\widetilde{A}_{G_8}$,moving_distance
R-HSA-69202,0.00026445147004809525,640.0,8,$\widetilde{A}_{G_8}$,moving_distance
R-HSA-202424,0.0002643696029283085,641.0,8,$\widetilde{A}_{G_8}$,moving_distance
R-HSA-5357905,0.0002637614643275608,642.0,8,$\widetilde{A}_{G_8}$,moving_distance
R-HSA-9013700,0.0002635501605378736,643.0,8,$\widetilde{A}_{G_8}$,moving_distance
R-HSA-1362300,0.00026350389719143085,644.0,8,$\widetilde{A}_{G_8}$,moving_distance
R-HSA-176974,0.00026311593522403457,645.0,8,$\widetilde{A}_{G_8}$,moving_distance
R-HSA-8853884,0.0002624964315889792,646.0,8,$\widetilde{A}_{G_8}$,moving_distance
R-HSA-2980736,0.0002600162385862428,647.0,8,$\widetilde{A}_{G_8}$,moving_distance
R-HSA-8856688,0.0002598607328825101,648.0,8,$\widetilde{A}_{G_8}$,moving_distance
R-HSA-2995383,0.00025974790012539225,649.0,8,$\widetilde{A}_{G_8}$,moving_distance
R-HSA-909733,0.0002584327072859006,650.0,8,$\widetilde{A}_{G_8}$,moving_distance
R-HSA-5676594,0.0002571299757366268,651.0,8,$\widetilde{A}_{G_8}$,moving_distance
R-HSA-9617828,0.0002557960398965325,652.0,8,$\widetilde{A}_{G_8}$,moving_distance
R-HSA-69656,0.0002555229112900386,653.0,8,$\widetilde{A}_{G_8}$,moving_distance
R-HSA-159231,0.0002547671244868715,654.0,8,$\widetilde{A}_{G_8}$,moving_distance
R-HSA-9020702,0.0002530296185124595,655.0,8,$\widetilde{A}_{G_8}$,moving_distance
R-HSA-204998,0.00025186023700465843,656.0,8,$\widetilde{A}_{G_8}$,moving_distance
R-HSA-8875878,0.0002516128629286383,657.0,8,$\widetilde{A}_{G_8}$,moving_distance
R-HSA-110313,0.0002512627226295213,658.0,8,$\widetilde{A}_{G_8}$,moving_distance
R-HSA-157579,0.0002494071222338643,659.0,8,$\widetilde{A}_{G_8}$,moving_distance
R-HSA-159234,0.0002487068038568719,660.0,8,$\widetilde{A}_{G_8}$,moving_distance
R-HSA-5678895,0.0002468027939823596,661.0,8,$\widetilde{A}_{G_8}$,moving_distance
R-HSA-167169,0.0002454018798282053,663.0,8,$\widetilde{A}_{G_8}$,moving_distance
R-HSA-167200,0.0002454018798282053,663.0,8,$\widetilde{A}_{G_8}$,moving_distance
R-HSA-167246,0.0002454018798282053,663.0,8,$\widetilde{A}_{G_8}$,moving_distance
R-HSA-8876725,0.000245289345668915,665.0,8,$\widetilde{A}_{G_8}$,moving_distance
R-HSA-9646399,0.0002452362548947345,666.0,8,$\widetilde{A}_{G_8}$,moving_distance
R-HSA-70326,0.0002432645982698247,667.0,8,$\widetilde{A}_{G_8}$,moving_distance
R-HSA-432142,0.0002408340777080219,668.0,8,$\widetilde{A}_{G_8}$,moving_distance
R-HSA-8941326,0.00023938737177991648,669.0,8,$\widetilde{A}_{G_8}$,moving_distance
R-HSA-198323,0.00023782013724255542,670.0,8,$\widetilde{A}_{G_8}$,moving_distance
R-HSA-1445148,0.00023741519774618064,671.0,8,$\widetilde{A}_{G_8}$,moving_distance
R-HSA-73893,0.00023711885491159635,672.0,8,$\widetilde{A}_{G_8}$,moving_distance
R-HSA-4791275,0.00023628634490826603,673.0,8,$\widetilde{A}_{G_8}$,moving_distance
R-HSA-1236978,0.00023563952723893805,674.0,8,$\widetilde{A}_{G_8}$,moving_distance
R-HSA-5173105,0.0002351210562694306,675.0,8,$\widetilde{A}_{G_8}$,moving_distance
R-HSA-5619084,0.00023497822927356901,676.0,8,$\widetilde{A}_{G_8}$,moving_distance
R-HSA-2465910,0.0002348369442723565,677.0,8,$\widetilde{A}_{G_8}$,moving_distance
R-HSA-167152,0.00023341901204665806,678.0,8,$\widetilde{A}_{G_8}$,moving_distance
R-HSA-5213460,0.00023117278122339007,679.0,8,$\widetilde{A}_{G_8}$,moving_distance
R-HSA-5675482,0.00023117278122338947,680.0,8,$\widetilde{A}_{G_8}$,moving_distance
R-HSA-983170,0.00022724853439459294,681.0,8,$\widetilde{A}_{G_8}$,moving_distance
R-HSA-211733,0.00022694454057889672,682.5,8,$\widetilde{A}_{G_8}$,moving_distance
R-HSA-169911,0.00022694454057889672,682.5,8,$\widetilde{A}_{G_8}$,moving_distance
R-HSA-264876,0.00022659260262088572,684.0,8,$\widetilde{A}_{G_8}$,moving_distance
R-HSA-5627117,0.0002256582412835245,685.0,8,$\widetilde{A}_{G_8}$,moving_distance
R-HSA-72306,0.00022537667325923632,686.0,8,$\widetilde{A}_{G_8}$,moving_distance
R-HSA-6811434,0.00022176969352271064,687.0,8,$\widetilde{A}_{G_8}$,moving_distance
R-HSA-162588,0.00021885130569327657,688.0,8,$\widetilde{A}_{G_8}$,moving_distance
R-HSA-69166,0.0002188060063542148,689.0,8,$\widetilde{A}_{G_8}$,moving_distance
R-HSA-349425,0.000218079256700444,690.0,8,$\widetilde{A}_{G_8}$,moving_distance
R-HSA-75815,0.0002165955178199656,691.0,8,$\widetilde{A}_{G_8}$,moving_distance
R-HSA-450408,0.0002162328518201744,692.0,8,$\widetilde{A}_{G_8}$,moving_distance
R-HSA-350562,0.00021568609333347429,693.0,8,$\widetilde{A}_{G_8}$,moving_distance
R-HSA-1483206,0.00021488730900021187,694.0,8,$\widetilde{A}_{G_8}$,moving_distance
R-HSA-69190,0.00021469666652013355,695.0,8,$\widetilde{A}_{G_8}$,moving_distance
R-HSA-171319,0.00021434947830084833,696.0,8,$\widetilde{A}_{G_8}$,moving_distance
R-HSA-3781865,0.00021416332936841448,697.0,8,$\widetilde{A}_{G_8}$,moving_distance
R-HSA-69183,0.0002138189277552029,698.0,8,$\widetilde{A}_{G_8}$,moving_distance
R-HSA-9683701,0.00021357793796905944,699.0,8,$\widetilde{A}_{G_8}$,moving_distance
R-HSA-69601,0.00021350641452512557,700.0,8,$\widetilde{A}_{G_8}$,moving_distance
R-HSA-69613,0.00021350641452512546,701.0,8,$\widetilde{A}_{G_8}$,moving_distance
R-HSA-69610,0.00021350641452512505,702.0,8,$\widetilde{A}_{G_8}$,moving_distance
R-HSA-211000,0.00021299831260985922,703.0,8,$\widetilde{A}_{G_8}$,moving_distance
R-HSA-351202,0.00021122091714290356,704.0,8,$\widetilde{A}_{G_8}$,moving_distance
R-HSA-5628897,0.00020816955838905596,705.0,8,$\widetilde{A}_{G_8}$,moving_distance
R-HSA-6807878,0.00020735240898619176,706.0,8,$\widetilde{A}_{G_8}$,moving_distance
R-HSA-156842,0.0002071715428491011,707.0,8,$\widetilde{A}_{G_8}$,moving_distance
R-HSA-180024,0.0002065685691247942,708.0,8,$\widetilde{A}_{G_8}$,moving_distance
R-HSA-429947,0.00020638959967968727,709.0,8,$\widetilde{A}_{G_8}$,moving_distance
R-HSA-416572,0.0002056759962863463,710.0,8,$\widetilde{A}_{G_8}$,moving_distance
R-HSA-3769402,0.00020524382307529482,711.0,8,$\widetilde{A}_{G_8}$,moving_distance
R-HSA-3000170,0.000203601478240906,712.0,8,$\widetilde{A}_{G_8}$,moving_distance
R-HSA-113510,0.00020313642573875924,713.0,8,$\widetilde{A}_{G_8}$,moving_distance
R-HSA-9614399,0.00020299032636809553,714.0,8,$\widetilde{A}_{G_8}$,moving_distance
R-HSA-4641265,0.00020298983015221592,715.0,8,$\widetilde{A}_{G_8}$,moving_distance
R-HSA-4641257,0.0002024109677019959,716.0,8,$\widetilde{A}_{G_8}$,moving_distance
R-HSA-8939243,0.00020193723673580995,717.0,8,$\widetilde{A}_{G_8}$,moving_distance
R-HSA-5676590,0.00020166834880835599,718.0,8,$\widetilde{A}_{G_8}$,moving_distance
R-HSA-5687128,0.00020127704161007954,719.0,8,$\widetilde{A}_{G_8}$,moving_distance
R-HSA-5685938,0.00020115229764378274,720.0,8,$\widetilde{A}_{G_8}$,moving_distance
R-HSA-8932339,0.00020049528047405747,721.0,8,$\widetilde{A}_{G_8}$,moving_distance
R-HSA-1483257,0.00020034211103940114,722.0,8,$\widetilde{A}_{G_8}$,moving_distance
R-HSA-5610780,0.0001994847128295946,723.0,8,$\widetilde{A}_{G_8}$,moving_distance
R-HSA-110320,0.00019869889943695905,724.0,8,$\widetilde{A}_{G_8}$,moving_distance
R-HSA-5607761,0.00019817797623241577,725.0,8,$\widetilde{A}_{G_8}$,moving_distance
R-HSA-5610785,0.00019743896903913157,726.0,8,$\widetilde{A}_{G_8}$,moving_distance
R-HSA-5610783,0.0001974241851941438,727.0,8,$\widetilde{A}_{G_8}$,moving_distance
R-HSA-432720,0.00019720096731618567,728.0,8,$\widetilde{A}_{G_8}$,moving_distance
R-HSA-5675221,0.0001954617414092293,729.0,8,$\widetilde{A}_{G_8}$,moving_distance
R-HSA-6804758,0.00019505440289663587,730.0,8,$\widetilde{A}_{G_8}$,moving_distance
R-HSA-3215018,0.0001939667236372328,731.0,8,$\widetilde{A}_{G_8}$,moving_distance
R-HSA-194441,0.0001931873750453638,732.0,8,$\widetilde{A}_{G_8}$,moving_distance
R-HSA-191859,0.0001931873750453628,733.0,8,$\widetilde{A}_{G_8}$,moving_distance
R-HSA-9610379,0.00019126463530986094,734.0,8,$\widetilde{A}_{G_8}$,moving_distance
R-HSA-1799339,0.00019031356210374173,735.0,8,$\widetilde{A}_{G_8}$,moving_distance
R-HSA-174417,0.00019022230457521635,736.0,8,$\widetilde{A}_{G_8}$,moving_distance
R-HSA-5658442,0.0001897148064186116,737.0,8,$\widetilde{A}_{G_8}$,moving_distance
R-HSA-72695,0.000189536295812614,738.0,8,$\widetilde{A}_{G_8}$,moving_distance
R-HSA-382556,0.00018936905146915866,739.0,8,$\widetilde{A}_{G_8}$,moving_distance
R-HSA-110312,0.00018916195799189756,740.0,8,$\widetilde{A}_{G_8}$,moving_distance
R-HSA-1169410,0.00018889967544212367,741.0,8,$\widetilde{A}_{G_8}$,moving_distance
R-HSA-2122948,0.00018876655846073224,742.0,8,$\widetilde{A}_{G_8}$,moving_distance
R-HSA-1980145,0.0001875214777169573,743.0,8,$\widetilde{A}_{G_8}$,moving_distance
R-HSA-2408557,0.00018672481510785687,744.0,8,$\widetilde{A}_{G_8}$,moving_distance
R-HSA-72649,0.0001865271595895691,745.0,8,$\widetilde{A}_{G_8}$,moving_distance
R-HSA-156902,0.00018636206744166507,746.0,8,$\widetilde{A}_{G_8}$,moving_distance
R-HSA-2173795,0.0001860364356069506,747.0,8,$\widetilde{A}_{G_8}$,moving_distance
R-HSA-2672351,0.0001858098038810674,748.0,8,$\widetilde{A}_{G_8}$,moving_distance
R-HSA-192823,0.00018559690984792517,749.0,8,$\widetilde{A}_{G_8}$,moving_distance
R-HSA-9706574,0.00018397760931025665,750.0,8,$\widetilde{A}_{G_8}$,moving_distance
R-HSA-373760,0.0001838939199371996,751.0,8,$\widetilde{A}_{G_8}$,moving_distance
R-HSA-72689,0.00018384957267242682,752.0,8,$\widetilde{A}_{G_8}$,moving_distance
R-HSA-72662,0.0001830602977565801,753.0,8,$\widetilde{A}_{G_8}$,moving_distance
R-HSA-1169091,0.0001827566340840808,754.0,8,$\widetilde{A}_{G_8}$,moving_distance
R-HSA-9707587,0.00018205902093592995,755.0,8,$\widetilde{A}_{G_8}$,moving_distance
R-HSA-72702,0.000181652020470511,756.0,8,$\widetilde{A}_{G_8}$,moving_distance
R-HSA-936440,0.00018005137645083364,757.0,8,$\widetilde{A}_{G_8}$,moving_distance
R-HSA-156827,0.00017998101469749383,758.0,8,$\widetilde{A}_{G_8}$,moving_distance
R-HSA-5655862,0.0001786899956437143,759.0,8,$\widetilde{A}_{G_8}$,moving_distance
R-HSA-72706,0.00017713324845322213,760.0,8,$\widetilde{A}_{G_8}$,moving_distance
R-HSA-6796648,0.00017643582732675863,761.0,8,$\widetilde{A}_{G_8}$,moving_distance
R-HSA-9668328,0.0001759847802621833,762.0,8,$\widetilde{A}_{G_8}$,moving_distance
R-HSA-9678108,0.00017498504666778173,763.0,8,$\widetilde{A}_{G_8}$,moving_distance
R-HSA-9033241,0.00017480489273257618,764.0,8,$\widetilde{A}_{G_8}$,moving_distance
R-HSA-193704,0.00017474790613492458,765.0,8,$\widetilde{A}_{G_8}$,moving_distance
R-HSA-8948751,0.00017393987667482598,766.0,8,$\widetilde{A}_{G_8}$,moving_distance
R-HSA-8854518,0.00017349286244744164,767.0,8,$\widetilde{A}_{G_8}$,moving_distance
R-HSA-450341,0.00017343591397642357,768.0,8,$\widetilde{A}_{G_8}$,moving_distance
R-HSA-5620924,0.00017321269923619359,769.0,8,$\widetilde{A}_{G_8}$,moving_distance
R-HSA-196854,0.00017160621634372913,770.0,8,$\widetilde{A}_{G_8}$,moving_distance
R-HSA-9013406,0.00017096364217639612,771.0,8,$\widetilde{A}_{G_8}$,moving_distance
R-HSA-8939902,0.00017091525601281254,772.0,8,$\widetilde{A}_{G_8}$,moving_distance
R-HSA-9633012,0.0001694514158277588,773.0,8,$\widetilde{A}_{G_8}$,moving_distance
R-HSA-5656121,0.000168569275507137,774.0,8,$\widetilde{A}_{G_8}$,moving_distance
R-HSA-6785807,0.0001678407243506202,775.0,8,$\widetilde{A}_{G_8}$,moving_distance
R-HSA-69186,0.00016757136940452112,776.0,8,$\widetilde{A}_{G_8}$,moving_distance
R-HSA-76042,0.00016745332278859308,777.0,8,$\widetilde{A}_{G_8}$,moving_distance
R-HSA-73776,0.0001674533227885924,778.0,8,$\widetilde{A}_{G_8}$,moving_distance
R-HSA-167162,0.00016745332278859237,779.0,8,$\widetilde{A}_{G_8}$,moving_distance
R-HSA-167161,0.00016745332278859227,780.5,8,$\widetilde{A}_{G_8}$,moving_distance
R-HSA-73779,0.00016745332278859227,780.5,8,$\widetilde{A}_{G_8}$,moving_distance
R-HSA-75953,0.00016745332278859183,782.0,8,$\widetilde{A}_{G_8}$,moving_distance
R-HSA-112382,0.0001673921564499124,783.0,8,$\widetilde{A}_{G_8}$,moving_distance
R-HSA-75955,0.0001673921564499123,784.0,8,$\widetilde{A}_{G_8}$,moving_distance
R-HSA-3371556,0.0001640211062958943,785.0,8,$\widetilde{A}_{G_8}$,moving_distance
R-HSA-5620922,0.00016355071939105702,786.0,8,$\widetilde{A}_{G_8}$,moving_distance
R-HSA-5696395,0.00016285727354924424,787.0,8,$\widetilde{A}_{G_8}$,moving_distance
R-HSA-110314,0.0001611082904272412,788.0,8,$\widetilde{A}_{G_8}$,moving_distance
R-HSA-3371453,0.00016081171126299004,789.0,8,$\widetilde{A}_{G_8}$,moving_distance
R-HSA-180786,0.0001587520811508565,790.0,8,$\widetilde{A}_{G_8}$,moving_distance
R-HSA-389661,0.0001583492582068136,791.0,8,$\widetilde{A}_{G_8}$,moving_distance
R-HSA-1169408,0.0001581512284106638,792.0,8,$\widetilde{A}_{G_8}$,moving_distance
R-HSA-9615710,0.00015803222150948058,793.0,8,$\widetilde{A}_{G_8}$,moving_distance
R-HSA-6781823,0.00015797283317549944,794.0,8,$\widetilde{A}_{G_8}$,moving_distance
R-HSA-1168372,0.00015783817988041513,795.0,8,$\widetilde{A}_{G_8}$,moving_distance
R-HSA-174495,0.0001576224350995626,797.0,8,$\widetilde{A}_{G_8}$,moving_distance
R-HSA-174490,0.0001576224350995626,797.0,8,$\widetilde{A}_{G_8}$,moving_distance
R-HSA-175474,0.0001576224350995626,797.0,8,$\widetilde{A}_{G_8}$,moving_distance
R-HSA-5218859,0.0001571595288163627,799.0,8,$\widetilde{A}_{G_8}$,moving_distance
R-HSA-3928665,0.00015625066579960122,800.0,8,$\widetilde{A}_{G_8}$,moving_distance
R-HSA-111447,0.00015498616675687038,801.0,8,$\widetilde{A}_{G_8}$,moving_distance
R-HSA-163560,0.00015497311626931333,802.0,8,$\widetilde{A}_{G_8}$,moving_distance
R-HSA-2028269,0.00015380962315173052,803.0,8,$\widetilde{A}_{G_8}$,moving_distance
R-HSA-5696400,0.00015368052350828778,804.0,8,$\widetilde{A}_{G_8}$,moving_distance
R-HSA-159236,0.0001536751499055671,805.0,8,$\widetilde{A}_{G_8}$,moving_distance
R-HSA-6804759,0.00015322924966049758,806.0,8,$\widetilde{A}_{G_8}$,moving_distance
R-HSA-5358747,0.00015165624580760497,809.5,8,$\widetilde{A}_{G_8}$,moving_distance
R-HSA-5358749,0.00015165624580760497,809.5,8,$\widetilde{A}_{G_8}$,moving_distance
R-HSA-5358751,0.00015165624580760497,809.5,8,$\widetilde{A}_{G_8}$,moving_distance
R-HSA-4839743,0.00015165624580760497,809.5,8,$\widetilde{A}_{G_8}$,moving_distance
R-HSA-5358752,0.00015165624580760497,809.5,8,$\widetilde{A}_{G_8}$,moving_distance
R-HSA-5339716,0.00015165624580760497,809.5,8,$\widetilde{A}_{G_8}$,moving_distance
R-HSA-264870,0.000150333107728427,813.0,8,$\widetilde{A}_{G_8}$,moving_distance
R-HSA-450531,0.00014988125242275448,814.0,8,$\widetilde{A}_{G_8}$,moving_distance
R-HSA-975956,0.00014919185183756792,815.0,8,$\widetilde{A}_{G_8}$,moving_distance
R-HSA-5620971,0.00014829933923534192,816.0,8,$\widetilde{A}_{G_8}$,moving_distance
R-HSA-442720,0.00014820281716297916,817.0,8,$\widetilde{A}_{G_8}$,moving_distance
R-HSA-9679191,0.0001472969336485711,818.0,8,$\widetilde{A}_{G_8}$,moving_distance
R-HSA-2173791,0.00014704350941708915,819.0,8,$\widetilde{A}_{G_8}$,moving_distance
R-HSA-380320,0.00014581212582204069,820.0,8,$\widetilde{A}_{G_8}$,moving_distance
R-HSA-1592230,0.00014510626314721863,821.0,8,$\widetilde{A}_{G_8}$,moving_distance
R-HSA-5696394,0.00014507198724467293,822.0,8,$\widetilde{A}_{G_8}$,moving_distance
R-HSA-6782135,0.00014451630367373012,823.0,8,$\widetilde{A}_{G_8}$,moving_distance
R-HSA-72764,0.00014342269028589424,824.0,8,$\widetilde{A}_{G_8}$,moving_distance
R-HSA-6782210,0.00014243947234610237,825.0,8,$\widetilde{A}_{G_8}$,moving_distance
R-HSA-73762,0.0001424162789524489,826.0,8,$\widetilde{A}_{G_8}$,moving_distance
R-HSA-196299,0.00014219693816658953,827.0,8,$\widetilde{A}_{G_8}$,moving_distance
R-HSA-2408522,0.00014157544898199819,828.0,8,$\widetilde{A}_{G_8}$,moving_distance
R-HSA-5619115,0.00014140294843814334,829.0,8,$\widetilde{A}_{G_8}$,moving_distance
R-HSA-3371497,0.00014065646014370723,830.0,8,$\widetilde{A}_{G_8}$,moving_distance
R-HSA-6807505,0.0001388912644355827,831.0,8,$\widetilde{A}_{G_8}$,moving_distance
R-HSA-3214847,0.00013793730920286059,832.0,8,$\widetilde{A}_{G_8}$,moving_distance
R-HSA-72202,0.0001369127618146001,833.0,8,$\widetilde{A}_{G_8}$,moving_distance
R-HSA-5467340,0.00013687319659881647,836.5,8,$\widetilde{A}_{G_8}$,moving_distance
R-HSA-5467337,0.00013687319659881647,836.5,8,$\widetilde{A}_{G_8}$,moving_distance
R-HSA-4839735,0.00013687319659881647,836.5,8,$\widetilde{A}_{G_8}$,moving_distance
R-HSA-5467348,0.00013687319659881647,836.5,8,$\widetilde{A}_{G_8}$,moving_distance
R-HSA-4839744,0.00013687319659881647,836.5,8,$\widetilde{A}_{G_8}$,moving_distance
R-HSA-4839748,0.00013687319659881647,836.5,8,$\widetilde{A}_{G_8}$,moving_distance
R-HSA-380259,0.00013630380232919123,840.0,8,$\widetilde{A}_{G_8}$,moving_distance
R-HSA-380284,0.000136303802329191,841.0,8,$\widetilde{A}_{G_8}$,moving_distance
R-HSA-174437,0.00013522795769311266,842.0,8,$\widetilde{A}_{G_8}$,moving_distance
R-HSA-4551638,0.00013399034285790072,843.0,8,$\widetilde{A}_{G_8}$,moving_distance
R-HSA-4419969,0.00013364152883964554,844.0,8,$\widetilde{A}_{G_8}$,moving_distance
R-HSA-9013422,0.000132180803919251,845.0,8,$\widetilde{A}_{G_8}$,moving_distance
R-HSA-9694516,0.0001320918646713477,846.0,8,$\widetilde{A}_{G_8}$,moving_distance
R-HSA-69091,0.0001315359728003108,847.5,8,$\widetilde{A}_{G_8}$,moving_distance
R-HSA-69109,0.0001315359728003108,847.5,8,$\widetilde{A}_{G_8}$,moving_distance
R-HSA-9694635,0.0001305392161661737,849.0,8,$\widetilde{A}_{G_8}$,moving_distance
R-HSA-2470946,0.00012983865179434434,850.0,8,$\widetilde{A}_{G_8}$,moving_distance
R-HSA-6806003,0.0001298106721319399,851.5,8,$\widetilde{A}_{G_8}$,moving_distance
R-HSA-6804757,0.0001298106721319399,851.5,8,$\widetilde{A}_{G_8}$,moving_distance
R-HSA-5651801,0.00012914897067646067,853.0,8,$\widetilde{A}_{G_8}$,moving_distance
R-HSA-5205647,0.00012643284907874183,854.0,8,$\widetilde{A}_{G_8}$,moving_distance
R-HSA-2871837,0.0001257345802033317,855.0,8,$\widetilde{A}_{G_8}$,moving_distance
R-HSA-8866652,0.00012230464308445458,856.0,8,$\widetilde{A}_{G_8}$,moving_distance
R-HSA-110373,0.0001221445497899277,857.0,8,$\widetilde{A}_{G_8}$,moving_distance
R-HSA-111367,0.00012049714353648136,858.0,8,$\widetilde{A}_{G_8}$,moving_distance
R-HSA-6781827,0.0001196236771255366,859.0,8,$\widetilde{A}_{G_8}$,moving_distance
R-HSA-114452,0.00011893512393318954,860.0,8,$\widetilde{A}_{G_8}$,moving_distance
R-HSA-211945,0.00011826775948980884,861.0,8,$\widetilde{A}_{G_8}$,moving_distance
R-HSA-211859,0.00011826775948980874,862.0,8,$\widetilde{A}_{G_8}$,moving_distance
R-HSA-5696397,0.00011641707678533037,863.0,8,$\widetilde{A}_{G_8}$,moving_distance
R-HSA-5601884,0.00011607998715412701,864.0,8,$\widetilde{A}_{G_8}$,moving_distance
R-HSA-167172,0.00011550018903951205,865.0,8,$\widetilde{A}_{G_8}$,moving_distance
R-HSA-5619102,0.00011412142490752678,866.0,8,$\widetilde{A}_{G_8}$,moving_distance
R-HSA-113501,0.0001130571862796618,867.0,8,$\widetilde{A}_{G_8}$,moving_distance
R-HSA-4641263,0.00011294171073231732,868.0,8,$\widetilde{A}_{G_8}$,moving_distance
R-HSA-76061,0.00011252338736453434,869.0,8,$\widetilde{A}_{G_8}$,moving_distance
R-HSA-5607764,0.00011228105357980543,870.0,8,$\widetilde{A}_{G_8}$,moving_distance
R-HSA-2682334,0.00011216198614557693,871.0,8,$\widetilde{A}_{G_8}$,moving_distance
R-HSA-73780,0.0001116856871738489,872.0,8,$\widetilde{A}_{G_8}$,moving_distance
R-HSA-73980,0.00011168568717384831,873.0,8,$\widetilde{A}_{G_8}$,moving_distance
R-HSA-8878159,0.00011158030349930438,874.0,8,$\widetilde{A}_{G_8}$,moving_distance
R-HSA-77588,0.00011083493708989616,875.0,8,$\widetilde{A}_{G_8}$,moving_distance
R-HSA-2565942,0.00011048608187550387,876.0,8,$\widetilde{A}_{G_8}$,moving_distance
R-HSA-380270,0.00010889565214660818,877.0,8,$\widetilde{A}_{G_8}$,moving_distance
R-HSA-380287,0.00010889565214660788,878.0,8,$\widetilde{A}_{G_8}$,moving_distance
R-HSA-9013694,0.0001080942042727259,879.0,8,$\widetilde{A}_{G_8}$,moving_distance
R-HSA-1834949,0.00010777558820458856,880.0,8,$\widetilde{A}_{G_8}$,moving_distance
R-HSA-8873719,0.00010683550221157299,881.0,8,$\widetilde{A}_{G_8}$,moving_distance
R-HSA-9609523,0.00010642086541270508,882.0,8,$\widetilde{A}_{G_8}$,moving_distance
R-HSA-8851708,0.00010633947465436472,883.0,8,$\widetilde{A}_{G_8}$,moving_distance
R-HSA-379716,0.00010567579317051423,884.0,8,$\widetilde{A}_{G_8}$,moving_distance
R-HSA-9012852,0.00010422338918485274,885.0,8,$\widetilde{A}_{G_8}$,moving_distance
R-HSA-8934903,0.00010174705512174724,886.0,8,$\widetilde{A}_{G_8}$,moving_distance
R-HSA-77595,9.840438204252685e-05,887.0,8,$\widetilde{A}_{G_8}$,moving_distance
R-HSA-72187,9.830606154972386e-05,888.0,8,$\widetilde{A}_{G_8}$,moving_distance
R-HSA-379724,9.809616615670125e-05,889.0,8,$\widetilde{A}_{G_8}$,moving_distance
R-HSA-73856,9.767333113628498e-05,890.0,8,$\widetilde{A}_{G_8}$,moving_distance
R-HSA-429958,9.666581044793772e-05,891.0,8,$\widetilde{A}_{G_8}$,moving_distance
R-HSA-75067,9.586189420728944e-05,892.0,8,$\widetilde{A}_{G_8}$,moving_distance
R-HSA-4641262,9.533999490812999e-05,893.0,8,$\widetilde{A}_{G_8}$,moving_distance
R-HSA-380994,9.528561975948561e-05,894.0,8,$\widetilde{A}_{G_8}$,moving_distance
R-HSA-532668,9.4288017093372e-05,895.0,8,$\widetilde{A}_{G_8}$,moving_distance
R-HSA-674695,9.415377768718196e-05,896.0,8,$\widetilde{A}_{G_8}$,moving_distance
R-HSA-73863,9.345433530495878e-05,897.0,8,$\widetilde{A}_{G_8}$,moving_distance
R-HSA-977225,9.215065765628596e-05,898.0,8,$\widetilde{A}_{G_8}$,moving_distance
R-HSA-6803529,9.09559787331252e-05,899.0,8,$\widetilde{A}_{G_8}$,moving_distance
R-HSA-167242,9.087587974890602e-05,900.0,8,$\widetilde{A}_{G_8}$,moving_distance
R-HSA-111996,9.048515333742996e-05,901.0,8,$\widetilde{A}_{G_8}$,moving_distance
R-HSA-1234174,8.896783618282267e-05,902.0,8,$\widetilde{A}_{G_8}$,moving_distance
R-HSA-1839126,8.859112184120746e-05,903.0,8,$\widetilde{A}_{G_8}$,moving_distance
R-HSA-163841,8.857749982367984e-05,904.0,8,$\widetilde{A}_{G_8}$,moving_distance
R-HSA-428157,8.705528813302352e-05,905.0,8,$\widetilde{A}_{G_8}$,moving_distance
R-HSA-381119,8.681090286087819e-05,906.0,8,$\widetilde{A}_{G_8}$,moving_distance
R-HSA-73933,8.666329960134912e-05,907.0,8,$\widetilde{A}_{G_8}$,moving_distance
R-HSA-450385,8.614244461637428e-05,908.0,8,$\widetilde{A}_{G_8}$,moving_distance
R-HSA-5696399,8.599689673823076e-05,909.0,8,$\widetilde{A}_{G_8}$,moving_distance
R-HSA-450513,8.566564226039549e-05,910.0,8,$\widetilde{A}_{G_8}$,moving_distance
R-HSA-5668541,8.520946427791812e-05,911.0,8,$\widetilde{A}_{G_8}$,moving_distance
R-HSA-167238,8.497017968280812e-05,912.0,8,$\widetilde{A}_{G_8}$,moving_distance
R-HSA-167243,8.49701796828081e-05,913.0,8,$\widetilde{A}_{G_8}$,moving_distance
R-HSA-1234176,8.484337471148881e-05,914.0,8,$\widetilde{A}_{G_8}$,moving_distance
R-HSA-111997,8.446017689878712e-05,915.0,8,$\widetilde{A}_{G_8}$,moving_distance
R-HSA-111933,8.446017689878673e-05,916.0,8,$\widetilde{A}_{G_8}$,moving_distance
R-HSA-8949664,8.428201717782933e-05,917.0,8,$\widetilde{A}_{G_8}$,moving_distance
R-HSA-76071,8.413416292804873e-05,918.0,8,$\widetilde{A}_{G_8}$,moving_distance
R-HSA-198753,8.371302809240323e-05,919.0,8,$\widetilde{A}_{G_8}$,moving_distance
R-HSA-6790901,8.36852076372453e-05,920.0,8,$\widetilde{A}_{G_8}$,moving_distance
R-HSA-9604323,8.338978267194637e-05,921.0,8,$\widetilde{A}_{G_8}$,moving_distance
R-HSA-8949215,8.295347840501672e-05,922.0,8,$\widetilde{A}_{G_8}$,moving_distance
R-HSA-9031628,8.286691211614534e-05,923.0,8,$\widetilde{A}_{G_8}$,moving_distance
R-HSA-167290,8.285136676310345e-05,924.0,8,$\widetilde{A}_{G_8}$,moving_distance
R-HSA-167287,8.285136676310294e-05,925.0,8,$\widetilde{A}_{G_8}$,moving_distance
R-HSA-8957322,8.271647430577867e-05,926.0,8,$\widetilde{A}_{G_8}$,moving_distance
R-HSA-381033,8.249825084879281e-05,927.0,8,$\widetilde{A}_{G_8}$,moving_distance
R-HSA-429914,8.193122888986262e-05,928.0,8,$\widetilde{A}_{G_8}$,moving_distance
R-HSA-76066,8.096437198550972e-05,929.0,8,$\widetilde{A}_{G_8}$,moving_distance
R-HSA-5419276,8.01144354973321e-05,930.0,8,$\widetilde{A}_{G_8}$,moving_distance
R-HSA-70268,7.945198802387892e-05,931.0,8,$\widetilde{A}_{G_8}$,moving_distance
R-HSA-74158,7.942347446728225e-05,932.5,8,$\widetilde{A}_{G_8}$,moving_distance
R-HSA-76046,7.942347446728225e-05,932.5,8,$\widetilde{A}_{G_8}$,moving_distance
R-HSA-749476,7.942347446728168e-05,934.0,8,$\widetilde{A}_{G_8}$,moving_distance
R-HSA-8854050,7.904122448924526e-05,935.0,8,$\widetilde{A}_{G_8}$,moving_distance
R-HSA-4608870,7.855798716653207e-05,936.0,8,$\widetilde{A}_{G_8}$,moving_distance
R-HSA-109606,7.816992238378962e-05,937.0,8,$\widetilde{A}_{G_8}$,moving_distance
R-HSA-174411,7.748888884192083e-05,938.0,8,$\widetilde{A}_{G_8}$,moving_distance
R-HSA-4641258,7.736142256030071e-05,939.0,8,$\widetilde{A}_{G_8}$,moving_distance
R-HSA-5362517,7.724964938274115e-05,940.0,8,$\widetilde{A}_{G_8}$,moving_distance
R-HSA-430039,7.699125754721375e-05,941.0,8,$\widetilde{A}_{G_8}$,moving_distance
R-HSA-450604,7.624702052084849e-05,942.0,8,$\widetilde{A}_{G_8}$,moving_distance
R-HSA-210991,7.458089880311694e-05,943.0,8,$\widetilde{A}_{G_8}$,moving_distance
R-HSA-180585,7.342341960969579e-05,944.0,8,$\widetilde{A}_{G_8}$,moving_distance
R-HSA-72165,7.174298292912188e-05,945.0,8,$\widetilde{A}_{G_8}$,moving_distance
R-HSA-446353,7.112969770360278e-05,946.0,8,$\widetilde{A}_{G_8}$,moving_distance
R-HSA-2644606,7.110776302863707e-05,948.5,8,$\widetilde{A}_{G_8}$,moving_distance
R-HSA-2644602,7.110776302863707e-05,948.5,8,$\widetilde{A}_{G_8}$,moving_distance
R-HSA-2644603,7.110776302863707e-05,948.5,8,$\widetilde{A}_{G_8}$,moving_distance
R-HSA-2894858,7.110776302863707e-05,948.5,8,$\widetilde{A}_{G_8}$,moving_distance
R-HSA-2894862,7.110776302863688e-05,951.0,8,$\widetilde{A}_{G_8}$,moving_distance
R-HSA-180534,6.879172554388045e-05,952.0,8,$\widetilde{A}_{G_8}$,moving_distance
R-HSA-1655829,6.725391364288592e-05,953.0,8,$\widetilde{A}_{G_8}$,moving_distance
R-HSA-2173796,6.688097889951224e-05,954.0,8,$\widetilde{A}_{G_8}$,moving_distance
R-HSA-71403,6.668342116602042e-05,955.0,8,$\widetilde{A}_{G_8}$,moving_distance
R-HSA-71406,6.652599911131162e-05,956.0,8,$\widetilde{A}_{G_8}$,moving_distance
R-HSA-983231,6.589149097057834e-05,957.0,8,$\widetilde{A}_{G_8}$,moving_distance
R-HSA-1489509,6.50269892458461e-05,958.0,8,$\widetilde{A}_{G_8}$,moving_distance
R-HSA-8866654,6.476365722667811e-05,959.0,8,$\widetilde{A}_{G_8}$,moving_distance
R-HSA-901042,6.417495779288461e-05,960.0,8,$\widetilde{A}_{G_8}$,moving_distance
R-HSA-9694548,6.342526112985321e-05,961.0,8,$\widetilde{A}_{G_8}$,moving_distance
R-HSA-450282,6.30251493048752e-05,962.0,8,$\widetilde{A}_{G_8}$,moving_distance
R-HSA-901032,6.25972319392432e-05,963.0,8,$\widetilde{A}_{G_8}$,moving_distance
R-HSA-1980143,6.211468096308351e-05,964.0,8,$\widetilde{A}_{G_8}$,moving_distance
R-HSA-73854,5.90798074862309e-05,965.0,8,$\widetilde{A}_{G_8}$,moving_distance
R-HSA-73864,5.8787190900293326e-05,966.0,8,$\widetilde{A}_{G_8}$,moving_distance
R-HSA-427413,5.733181956515705e-05,967.0,8,$\widetilde{A}_{G_8}$,moving_distance
R-HSA-5250941,5.731087389249043e-05,968.0,8,$\widetilde{A}_{G_8}$,moving_distance
R-HSA-195253,5.7098080762723855e-05,969.0,8,$\widetilde{A}_{G_8}$,moving_distance
R-HSA-203927,5.621652702985081e-05,970.0,8,$\widetilde{A}_{G_8}$,moving_distance
R-HSA-8979227,5.5291118661534845e-05,971.0,8,$\widetilde{A}_{G_8}$,moving_distance
R-HSA-75153,5.1955220162238944e-05,972.0,8,$\widetilde{A}_{G_8}$,moving_distance
R-HSA-381042,5.124266127122835e-05,973.0,8,$\widetilde{A}_{G_8}$,moving_distance
R-HSA-5674400,5.019661365128443e-05,974.0,8,$\widetilde{A}_{G_8}$,moving_distance
R-HSA-4086400,4.932734256668897e-05,975.0,8,$\widetilde{A}_{G_8}$,moving_distance
R-HSA-6804756,4.855150470914795e-05,976.0,8,$\widetilde{A}_{G_8}$,moving_distance
R-HSA-163210,4.825930036923119e-05,977.0,8,$\widetilde{A}_{G_8}$,moving_distance
R-HSA-8949613,4.775013527887722e-05,978.0,8,$\widetilde{A}_{G_8}$,moving_distance
R-HSA-5610787,4.4217768677211265e-05,979.0,8,$\widetilde{A}_{G_8}$,moving_distance
R-HSA-425407,4.3670660115216e-05,980.0,8,$\widetilde{A}_{G_8}$,moving_distance
R-HSA-166208,4.290775562715175e-05,981.0,8,$\widetilde{A}_{G_8}$,moving_distance
R-HSA-6799198,4.2515261683737615e-05,982.0,8,$\widetilde{A}_{G_8}$,moving_distance
R-HSA-8943724,4.1793098420555734e-05,983.0,8,$\widetilde{A}_{G_8}$,moving_distance
R-HSA-5389840,4.145687664494567e-05,984.0,8,$\widetilde{A}_{G_8}$,moving_distance
R-HSA-111465,4.112036756436371e-05,985.0,8,$\widetilde{A}_{G_8}$,moving_distance
R-HSA-1268020,4.0450560504967256e-05,986.0,8,$\widetilde{A}_{G_8}$,moving_distance
R-HSA-5368287,3.993691775061794e-05,987.0,8,$\widetilde{A}_{G_8}$,moving_distance
R-HSA-5668914,3.529967165226286e-05,988.0,8,$\widetilde{A}_{G_8}$,moving_distance
R-HSA-198725,3.467053581674723e-05,989.0,8,$\widetilde{A}_{G_8}$,moving_distance
R-HSA-6811438,2.6950079964013717e-05,990.0,8,$\widetilde{A}_{G_8}$,moving_distance
R-HSA-611105,2.6137807436636856e-05,991.0,8,$\widetilde{A}_{G_8}$,moving_distance
R-HSA-6811440,2.5872348604630442e-05,992.0,8,$\widetilde{A}_{G_8}$,moving_distance
R-HSA-199992,2.5841029404569463e-05,993.0,8,$\widetilde{A}_{G_8}$,moving_distance
R-HSA-1630316,2.4930294772168466e-05,994.0,8,$\widetilde{A}_{G_8}$,moving_distance
R-HSA-163125,1.713742123073139e-05,995.0,8,$\widetilde{A}_{G_8}$,moving_distance
R-HSA-8876198,1.6956264715963307e-05,996.0,8,$\widetilde{A}_{G_8}$,moving_distance
R-HSA-8854214,1.6237352245556258e-05,997.0,8,$\widetilde{A}_{G_8}$,moving_distance
R-HSA-9603798,1.1883944585430742e-05,998.0,8,$\widetilde{A}_{G_8}$,moving_distance
R-HSA-8852135,1.1709679119775119e-05,999.0,8,$\widetilde{A}_{G_8}$,moving_distance
R-HSA-5368286,9.10817542310001e-06,1000.0,8,$\widetilde{A}_{G_8}$,moving_distance
R-HSA-198933,6.283520557755565e-06,1001.0,8,$\widetilde{A}_{G_8}$,moving_distance
R-HSA-1362409,1.4439319372083112e-10,1002.0,8,$\widetilde{A}_{G_8}$,moving_distance
