entity,score,rank,graphlet,graphlet_adj,score_method
R-HSA-2424491,0.011385941926825053,1.0,5,$\widetilde{A}_{G_5}$,moving_distance
R-HSA-2172127,0.009896362778832404,2.0,5,$\widetilde{A}_{G_5}$,moving_distance
R-HSA-983695,0.008625137511760406,3.0,5,$\widetilde{A}_{G_5}$,moving_distance
R-HSA-4641263,0.007560495640230822,4.0,5,$\widetilde{A}_{G_5}$,moving_distance
R-HSA-375276,0.006954793772394507,5.0,5,$\widetilde{A}_{G_5}$,moving_distance
R-HSA-5676594,0.0065224938144813165,6.0,5,$\widetilde{A}_{G_5}$,moving_distance
R-HSA-392451,0.005301780074810459,7.0,5,$\widetilde{A}_{G_5}$,moving_distance
R-HSA-419037,0.0051878734843401626,8.0,5,$\widetilde{A}_{G_5}$,moving_distance
R-HSA-397795,0.005121440241023591,9.0,5,$\widetilde{A}_{G_5}$,moving_distance
R-HSA-456926,0.005024154919671147,10.0,5,$\widetilde{A}_{G_5}$,moving_distance
R-HSA-381676,0.004788801547438215,11.0,5,$\widetilde{A}_{G_5}$,moving_distance
R-HSA-8964616,0.004584414770904561,12.0,5,$\widetilde{A}_{G_5}$,moving_distance
R-HSA-5654699,0.004417800654669452,13.0,5,$\widetilde{A}_{G_5}$,moving_distance
R-HSA-389948,0.0044028379171166246,14.0,5,$\widetilde{A}_{G_5}$,moving_distance
R-HSA-198933,0.004339665189921466,15.0,5,$\widetilde{A}_{G_5}$,moving_distance
R-HSA-2029481,0.004332863053717516,16.0,5,$\widetilde{A}_{G_5}$,moving_distance
R-HSA-163685,0.0040292242841471135,17.0,5,$\widetilde{A}_{G_5}$,moving_distance
R-HSA-1650814,0.003935074126241915,18.0,5,$\widetilde{A}_{G_5}$,moving_distance
R-HSA-111885,0.0039189804110741485,19.0,5,$\widetilde{A}_{G_5}$,moving_distance
R-HSA-418555,0.0037385750401296375,20.0,5,$\widetilde{A}_{G_5}$,moving_distance
R-HSA-163359,0.0035931325538202693,21.0,5,$\widetilde{A}_{G_5}$,moving_distance
R-HSA-422356,0.003587548167746278,22.0,5,$\widetilde{A}_{G_5}$,moving_distance
R-HSA-9013409,0.003568189444916438,23.0,5,$\widetilde{A}_{G_5}$,moving_distance
R-HSA-451326,0.003564184599442614,24.0,5,$\widetilde{A}_{G_5}$,moving_distance
R-HSA-166658,0.0035192683737718983,25.0,5,$\widetilde{A}_{G_5}$,moving_distance
R-HSA-445717,0.0034844222254266765,26.5,5,$\widetilde{A}_{G_5}$,moving_distance
R-HSA-432040,0.0034844222254266765,26.5,5,$\widetilde{A}_{G_5}$,moving_distance
R-HSA-392851,0.003472512952134723,28.0,5,$\widetilde{A}_{G_5}$,moving_distance
R-HSA-977606,0.0033315250952841006,29.0,5,$\widetilde{A}_{G_5}$,moving_distance
R-HSA-1474290,0.0033279534212683325,30.0,5,$\widetilde{A}_{G_5}$,moving_distance
R-HSA-418597,0.0033156791422935877,31.0,5,$\widetilde{A}_{G_5}$,moving_distance
R-HSA-392170,0.003255309735507367,32.0,5,$\widetilde{A}_{G_5}$,moving_distance
R-HSA-420092,0.0032035069067926094,33.0,5,$\widetilde{A}_{G_5}$,moving_distance
R-HSA-392518,0.003202701109634255,34.0,5,$\widetilde{A}_{G_5}$,moving_distance
R-HSA-5654695,0.0031959112201739347,35.0,5,$\widetilde{A}_{G_5}$,moving_distance
R-HSA-389359,0.0031851326303005602,36.0,5,$\widetilde{A}_{G_5}$,moving_distance
R-HSA-179812,0.0031792002894773783,37.0,5,$\widetilde{A}_{G_5}$,moving_distance
R-HSA-9662851,0.0031468489948043694,38.5,5,$\widetilde{A}_{G_5}$,moving_distance
R-HSA-9664433,0.0031468489948043694,38.5,5,$\widetilde{A}_{G_5}$,moving_distance
R-HSA-8964315,0.003120384942675169,40.0,5,$\widetilde{A}_{G_5}$,moving_distance
R-HSA-9660821,0.0031041267040506624,41.0,5,$\widetilde{A}_{G_5}$,moving_distance
R-HSA-180336,0.003003168207345149,42.0,5,$\widetilde{A}_{G_5}$,moving_distance
R-HSA-4090294,0.002980706248954531,43.0,5,$\widetilde{A}_{G_5}$,moving_distance
R-HSA-400042,0.0029735272667261656,44.0,5,$\widetilde{A}_{G_5}$,moving_distance
R-HSA-5654688,0.002950989800851583,45.0,5,$\widetilde{A}_{G_5}$,moving_distance
R-HSA-1170546,0.002949913648602475,46.0,5,$\widetilde{A}_{G_5}$,moving_distance
R-HSA-8940973,0.0028672753800657617,47.0,5,$\widetilde{A}_{G_5}$,moving_distance
R-HSA-202040,0.002806699268491151,48.0,5,$\widetilde{A}_{G_5}$,moving_distance
R-HSA-202427,0.002806640353447586,49.0,5,$\widetilde{A}_{G_5}$,moving_distance
R-HSA-418217,0.002794823192420138,50.0,5,$\widetilde{A}_{G_5}$,moving_distance
R-HSA-622312,0.002791297744991169,51.0,5,$\widetilde{A}_{G_5}$,moving_distance
R-HSA-3000178,0.002786132089892516,52.0,5,$\widetilde{A}_{G_5}$,moving_distance
R-HSA-500657,0.0027834952766948944,53.0,5,$\widetilde{A}_{G_5}$,moving_distance
R-HSA-9660826,0.0027645876147854936,54.0,5,$\widetilde{A}_{G_5}$,moving_distance
R-HSA-9664424,0.0027645876147854927,55.0,5,$\widetilde{A}_{G_5}$,moving_distance
R-HSA-5654700,0.002762285174107383,56.0,5,$\widetilde{A}_{G_5}$,moving_distance
R-HSA-1963640,0.002728321593806927,57.0,5,$\widetilde{A}_{G_5}$,moving_distance
R-HSA-2022090,0.002725474512835854,58.0,5,$\widetilde{A}_{G_5}$,moving_distance
R-HSA-166663,0.0027175047194024854,59.0,5,$\widetilde{A}_{G_5}$,moving_distance
R-HSA-383280,0.002713232884549591,60.0,5,$\widetilde{A}_{G_5}$,moving_distance
R-HSA-977443,0.0026191006546909834,61.0,5,$\widetilde{A}_{G_5}$,moving_distance
R-HSA-977444,0.002619100654690983,62.0,5,$\widetilde{A}_{G_5}$,moving_distance
R-HSA-991365,0.0026191006546909825,63.0,5,$\widetilde{A}_{G_5}$,moving_distance
R-HSA-1296041,0.0026032157714897257,65.0,5,$\widetilde{A}_{G_5}$,moving_distance
R-HSA-1296059,0.0026032157714897257,65.0,5,$\widetilde{A}_{G_5}$,moving_distance
R-HSA-1296065,0.0026032157714897257,65.0,5,$\widetilde{A}_{G_5}$,moving_distance
R-HSA-997272,0.002603215771489725,67.5,5,$\widetilde{A}_{G_5}$,moving_distance
R-HSA-1296071,0.002603215771489725,67.5,5,$\widetilde{A}_{G_5}$,moving_distance
R-HSA-418592,0.00259232829936454,69.0,5,$\widetilde{A}_{G_5}$,moving_distance
R-HSA-5654689,0.0025894702911859763,70.0,5,$\widetilde{A}_{G_5}$,moving_distance
R-HSA-168928,0.0025801564218047987,71.0,5,$\widetilde{A}_{G_5}$,moving_distance
R-HSA-6814122,0.002554298889369163,72.0,5,$\widetilde{A}_{G_5}$,moving_distance
R-HSA-1474228,0.002550488141192755,73.0,5,$\widetilde{A}_{G_5}$,moving_distance
R-HSA-428930,0.0025482370348808635,74.0,5,$\widetilde{A}_{G_5}$,moving_distance
R-HSA-512988,0.0025292291563509097,75.0,5,$\widetilde{A}_{G_5}$,moving_distance
R-HSA-5654727,0.0024965727339724456,76.0,5,$\widetilde{A}_{G_5}$,moving_distance
R-HSA-1643713,0.002495260313012114,77.0,5,$\widetilde{A}_{G_5}$,moving_distance
R-HSA-844456,0.0024301669908718066,78.0,5,$\widetilde{A}_{G_5}$,moving_distance
R-HSA-1251985,0.0024211389711947524,79.0,5,$\widetilde{A}_{G_5}$,moving_distance
R-HSA-416482,0.002382017318221232,80.0,5,$\widetilde{A}_{G_5}$,moving_distance
R-HSA-1234176,0.002380737792908281,81.0,5,$\widetilde{A}_{G_5}$,moving_distance
R-HSA-912631,0.0023487410687777753,82.0,5,$\widetilde{A}_{G_5}$,moving_distance
R-HSA-6785807,0.0023480523747403423,83.0,5,$\widetilde{A}_{G_5}$,moving_distance
R-HSA-1234174,0.002344939670376222,84.0,5,$\widetilde{A}_{G_5}$,moving_distance
R-HSA-9664323,0.002338157753017066,85.0,5,$\widetilde{A}_{G_5}$,moving_distance
R-HSA-5637810,0.0022915767985792457,86.0,5,$\widetilde{A}_{G_5}$,moving_distance
R-HSA-5637812,0.0022915767985792444,87.0,5,$\widetilde{A}_{G_5}$,moving_distance
R-HSA-8948216,0.0022745219341693177,88.0,5,$\widetilde{A}_{G_5}$,moving_distance
R-HSA-163560,0.0022648493158494826,89.0,5,$\widetilde{A}_{G_5}$,moving_distance
R-HSA-9665686,0.0022593106603542488,90.0,5,$\widetilde{A}_{G_5}$,moving_distance
R-HSA-9664565,0.002253621630751157,91.0,5,$\widetilde{A}_{G_5}$,moving_distance
R-HSA-9682385,0.0022451150280206208,92.0,5,$\widetilde{A}_{G_5}$,moving_distance
R-HSA-2219530,0.002190852022433879,93.0,5,$\widetilde{A}_{G_5}$,moving_distance
R-HSA-1227990,0.0021504136993693644,94.0,5,$\widetilde{A}_{G_5}$,moving_distance
R-HSA-5637815,0.0021347915202923648,95.0,5,$\widetilde{A}_{G_5}$,moving_distance
R-HSA-1236382,0.002134791520292364,96.0,5,$\widetilde{A}_{G_5}$,moving_distance
R-HSA-2730905,0.002127925436330144,97.0,5,$\widetilde{A}_{G_5}$,moving_distance
R-HSA-5654741,0.002126350325600064,98.0,5,$\widetilde{A}_{G_5}$,moving_distance
R-HSA-3270619,0.0021148709155632156,99.0,5,$\widetilde{A}_{G_5}$,moving_distance
R-HSA-168164,0.002110905647305112,100.0,5,$\widetilde{A}_{G_5}$,moving_distance
R-HSA-912526,0.0021100444068523436,101.0,5,$\widetilde{A}_{G_5}$,moving_distance
R-HSA-180292,0.002107305967685094,102.0,5,$\widetilde{A}_{G_5}$,moving_distance
R-HSA-9665348,0.0021001348427436926,103.0,5,$\widetilde{A}_{G_5}$,moving_distance
R-HSA-451927,0.0020937335140598255,104.0,5,$\widetilde{A}_{G_5}$,moving_distance
R-HSA-209560,0.0020737518769498023,105.0,5,$\widetilde{A}_{G_5}$,moving_distance
R-HSA-5654738,0.0020722966140923355,106.0,5,$\widetilde{A}_{G_5}$,moving_distance
R-HSA-2029485,0.0020697904004890653,107.0,5,$\widetilde{A}_{G_5}$,moving_distance
R-HSA-388841,0.0020693965132767013,108.0,5,$\widetilde{A}_{G_5}$,moving_distance
R-HSA-166166,0.0020595943654475495,109.0,5,$\widetilde{A}_{G_5}$,moving_distance
R-HSA-937061,0.0020595943654475473,110.0,5,$\widetilde{A}_{G_5}$,moving_distance
R-HSA-202433,0.00203655025422308,111.0,5,$\widetilde{A}_{G_5}$,moving_distance
R-HSA-373753,0.0020088194008024652,112.0,5,$\widetilde{A}_{G_5}$,moving_distance
R-HSA-9607240,0.002003489510306554,113.0,5,$\widetilde{A}_{G_5}$,moving_distance
R-HSA-373080,0.0020014311856056876,114.0,5,$\widetilde{A}_{G_5}$,moving_distance
R-HSA-190236,0.0019949267373232413,115.0,5,$\widetilde{A}_{G_5}$,moving_distance
R-HSA-9619665,0.001993638709231541,116.0,5,$\widetilde{A}_{G_5}$,moving_distance
R-HSA-5668599,0.0019891918057826628,117.0,5,$\widetilde{A}_{G_5}$,moving_distance
R-HSA-5654696,0.0019867411873755844,118.0,5,$\widetilde{A}_{G_5}$,moving_distance
R-HSA-6783783,0.001978910961839623,119.0,5,$\widetilde{A}_{G_5}$,moving_distance
R-HSA-5654736,0.0019743211308253196,120.0,5,$\widetilde{A}_{G_5}$,moving_distance
R-HSA-69473,0.0019711830670464886,121.0,5,$\widetilde{A}_{G_5}$,moving_distance
R-HSA-5654743,0.0019675505617088983,122.0,5,$\widetilde{A}_{G_5}$,moving_distance
R-HSA-418346,0.0019660021045884387,123.0,5,$\widetilde{A}_{G_5}$,moving_distance
R-HSA-70263,0.001956326967350755,124.0,5,$\widetilde{A}_{G_5}$,moving_distance
R-HSA-9662360,0.001932663368003068,125.0,5,$\widetilde{A}_{G_5}$,moving_distance
R-HSA-8853659,0.001904115357439241,126.0,5,$\widetilde{A}_{G_5}$,moving_distance
R-HSA-9696264,0.0018985019539373136,127.0,5,$\widetilde{A}_{G_5}$,moving_distance
R-HSA-9013422,0.001890435921299507,128.0,5,$\widetilde{A}_{G_5}$,moving_distance
R-HSA-77387,0.001878534592029953,129.0,5,$\widetilde{A}_{G_5}$,moving_distance
R-HSA-9009391,0.0018491908939349052,130.0,5,$\widetilde{A}_{G_5}$,moving_distance
R-HSA-2871809,0.001833277254196217,131.0,5,$\widetilde{A}_{G_5}$,moving_distance
R-HSA-9659379,0.0018322933534300903,132.0,5,$\widetilde{A}_{G_5}$,moving_distance
R-HSA-8941326,0.0018271223226068117,133.0,5,$\widetilde{A}_{G_5}$,moving_distance
R-HSA-114604,0.0018200420617860396,134.0,5,$\widetilde{A}_{G_5}$,moving_distance
R-HSA-5654693,0.001818026440261808,135.0,5,$\widetilde{A}_{G_5}$,moving_distance
R-HSA-5654726,0.0018011767546735648,136.0,5,$\widetilde{A}_{G_5}$,moving_distance
R-HSA-8863795,0.0017939567176915904,137.0,5,$\widetilde{A}_{G_5}$,moving_distance
R-HSA-1834941,0.0017921327888602912,138.0,5,$\widetilde{A}_{G_5}$,moving_distance
R-HSA-9027276,0.001768992489780157,139.0,5,$\widetilde{A}_{G_5}$,moving_distance
R-HSA-5693607,0.0017617620469152842,140.0,5,$\widetilde{A}_{G_5}$,moving_distance
R-HSA-6811558,0.0017393054919481376,141.0,5,$\widetilde{A}_{G_5}$,moving_distance
R-HSA-937041,0.001737413644808842,142.0,5,$\widetilde{A}_{G_5}$,moving_distance
R-HSA-1963642,0.0017278110869461988,143.0,5,$\widetilde{A}_{G_5}$,moving_distance
R-HSA-9609690,0.0017124692263474812,144.0,5,$\widetilde{A}_{G_5}$,moving_distance
R-HSA-1250196,0.0017124259878763223,145.0,5,$\widetilde{A}_{G_5}$,moving_distance
R-HSA-5655253,0.0017038178410094071,146.0,5,$\widetilde{A}_{G_5}$,moving_distance
R-HSA-8983432,0.0017012911949985726,147.0,5,$\widetilde{A}_{G_5}$,moving_distance
R-HSA-109704,0.0017005777186896954,148.0,5,$\widetilde{A}_{G_5}$,moving_distance
R-HSA-1059683,0.0016933846687416662,149.0,5,$\widetilde{A}_{G_5}$,moving_distance
R-HSA-1442490,0.0016895009447278643,150.0,5,$\widetilde{A}_{G_5}$,moving_distance
R-HSA-5668541,0.001674502901488164,151.0,5,$\widetilde{A}_{G_5}$,moving_distance
R-HSA-202424,0.0016715087022344845,152.0,5,$\widetilde{A}_{G_5}$,moving_distance
R-HSA-1227986,0.001667163732941917,153.0,5,$\widetilde{A}_{G_5}$,moving_distance
R-HSA-2219528,0.0016501146054569112,154.0,5,$\widetilde{A}_{G_5}$,moving_distance
R-HSA-8939236,0.0016485606890577554,155.0,5,$\widetilde{A}_{G_5}$,moving_distance
R-HSA-209543,0.001647129610399932,156.0,5,$\widetilde{A}_{G_5}$,moving_distance
R-HSA-199418,0.0016279957497165724,157.0,5,$\widetilde{A}_{G_5}$,moving_distance
R-HSA-5655332,0.00162217681016912,158.0,5,$\widetilde{A}_{G_5}$,moving_distance
R-HSA-8853338,0.0016221768101691196,159.0,5,$\widetilde{A}_{G_5}$,moving_distance
R-HSA-5654687,0.0016138443548281206,160.0,5,$\widetilde{A}_{G_5}$,moving_distance
R-HSA-2559580,0.0016094219225987268,161.0,5,$\widetilde{A}_{G_5}$,moving_distance
R-HSA-877312,0.0016088713860744697,162.0,5,$\widetilde{A}_{G_5}$,moving_distance
R-HSA-881907,0.0016039001334585707,163.0,5,$\widetilde{A}_{G_5}$,moving_distance
R-HSA-389513,0.0015997634699386105,164.0,5,$\widetilde{A}_{G_5}$,moving_distance
R-HSA-1489509,0.0015992917960803445,165.0,5,$\widetilde{A}_{G_5}$,moving_distance
R-HSA-389357,0.0015965734267807102,166.0,5,$\widetilde{A}_{G_5}$,moving_distance
R-HSA-390450,0.0015931632457018405,167.0,5,$\widetilde{A}_{G_5}$,moving_distance
R-HSA-2029480,0.0015786541271169256,168.0,5,$\widetilde{A}_{G_5}$,moving_distance
R-HSA-375165,0.0015689666644751014,169.0,5,$\widetilde{A}_{G_5}$,moving_distance
R-HSA-168927,0.001566660967065718,170.0,5,$\widetilde{A}_{G_5}$,moving_distance
R-HSA-8939902,0.0015622730129152029,171.0,5,$\widetilde{A}_{G_5}$,moving_distance
R-HSA-1250347,0.0015618450847663477,172.0,5,$\widetilde{A}_{G_5}$,moving_distance
R-HSA-391160,0.0015613517127010487,173.0,5,$\widetilde{A}_{G_5}$,moving_distance
R-HSA-9034015,0.0015529422627947398,174.0,5,$\widetilde{A}_{G_5}$,moving_distance
R-HSA-177929,0.0015425124776788477,175.0,5,$\widetilde{A}_{G_5}$,moving_distance
R-HSA-5654708,0.0015398503326493897,176.0,5,$\widetilde{A}_{G_5}$,moving_distance
R-HSA-936440,0.0015350650656890397,177.0,5,$\widetilde{A}_{G_5}$,moving_distance
R-HSA-390466,0.0014995360740338844,178.0,5,$\widetilde{A}_{G_5}$,moving_distance
R-HSA-8851805,0.001493690310036254,179.0,5,$\widetilde{A}_{G_5}$,moving_distance
R-HSA-210990,0.0014885215222525537,180.0,5,$\widetilde{A}_{G_5}$,moving_distance
R-HSA-2871796,0.0014842883821180955,181.0,5,$\widetilde{A}_{G_5}$,moving_distance
R-HSA-3928663,0.0014809226086768552,182.0,5,$\widetilde{A}_{G_5}$,moving_distance
R-HSA-9006335,0.0014796932826164938,183.0,5,$\widetilde{A}_{G_5}$,moving_distance
R-HSA-6785631,0.0014792673152113863,184.0,5,$\widetilde{A}_{G_5}$,moving_distance
R-HSA-9706369,0.0014767914479954607,185.0,5,$\widetilde{A}_{G_5}$,moving_distance
R-HSA-5654732,0.0014764773202179968,186.0,5,$\widetilde{A}_{G_5}$,moving_distance
R-HSA-201722,0.0014714946467633931,187.0,5,$\widetilde{A}_{G_5}$,moving_distance
R-HSA-5250913,0.001468180550292444,188.0,5,$\widetilde{A}_{G_5}$,moving_distance
R-HSA-163125,0.0014648998254373124,189.0,5,$\widetilde{A}_{G_5}$,moving_distance
R-HSA-392517,0.0014594690946329173,190.0,5,$\widetilde{A}_{G_5}$,moving_distance
R-HSA-1839126,0.0014543649585222803,191.0,5,$\widetilde{A}_{G_5}$,moving_distance
R-HSA-2173793,0.001453842831813115,192.0,5,$\widetilde{A}_{G_5}$,moving_distance
R-HSA-8864260,0.0014495873800371099,193.0,5,$\widetilde{A}_{G_5}$,moving_distance
R-HSA-389960,0.00144830124781037,194.0,5,$\widetilde{A}_{G_5}$,moving_distance
R-HSA-5655291,0.0014451599008737696,195.0,5,$\widetilde{A}_{G_5}$,moving_distance
R-HSA-5654706,0.0014431943156646752,196.0,5,$\widetilde{A}_{G_5}$,moving_distance
R-HSA-5654716,0.0014391097400308032,197.0,5,$\widetilde{A}_{G_5}$,moving_distance
R-HSA-2404192,0.0014333965656524264,198.0,5,$\widetilde{A}_{G_5}$,moving_distance
R-HSA-2428924,0.0014333965656524261,199.0,5,$\widetilde{A}_{G_5}$,moving_distance
R-HSA-6804115,0.00142540816219359,200.0,5,$\widetilde{A}_{G_5}$,moving_distance
R-HSA-373752,0.0014180591520457633,201.0,5,$\widetilde{A}_{G_5}$,moving_distance
R-HSA-447115,0.001411860196229544,202.0,5,$\widetilde{A}_{G_5}$,moving_distance
R-HSA-74749,0.0014076895947740089,203.0,5,$\widetilde{A}_{G_5}$,moving_distance
R-HSA-1226099,0.0014053455749619493,204.0,5,$\widetilde{A}_{G_5}$,moving_distance
R-HSA-5576891,0.0014047793489610687,205.0,5,$\widetilde{A}_{G_5}$,moving_distance
R-HSA-5686938,0.0013977654648364049,206.0,5,$\widetilde{A}_{G_5}$,moving_distance
R-HSA-5635838,0.0013966089881392114,207.0,5,$\widetilde{A}_{G_5}$,moving_distance
R-HSA-416476,0.0013950023135627621,208.0,5,$\widetilde{A}_{G_5}$,moving_distance
R-HSA-1266695,0.001387507872980763,209.0,5,$\widetilde{A}_{G_5}$,moving_distance
R-HSA-1236394,0.0013870492967392694,210.0,5,$\widetilde{A}_{G_5}$,moving_distance
R-HSA-445095,0.0013852552031842365,211.0,5,$\widetilde{A}_{G_5}$,moving_distance
R-HSA-112399,0.0013837200449044883,212.0,5,$\widetilde{A}_{G_5}$,moving_distance
R-HSA-354192,0.0013799123960347847,213.0,5,$\widetilde{A}_{G_5}$,moving_distance
R-HSA-9013407,0.0013788269544921022,214.0,5,$\widetilde{A}_{G_5}$,moving_distance
R-HSA-1592389,0.0013656814767639316,215.0,5,$\widetilde{A}_{G_5}$,moving_distance
R-HSA-4420097,0.0013624793902636454,216.0,5,$\widetilde{A}_{G_5}$,moving_distance
R-HSA-5689896,0.0013595128042154035,217.0,5,$\widetilde{A}_{G_5}$,moving_distance
R-HSA-525793,0.0013503306920691922,218.0,5,$\widetilde{A}_{G_5}$,moving_distance
R-HSA-418990,0.0013503082078702567,219.0,5,$\widetilde{A}_{G_5}$,moving_distance
R-HSA-9013695,0.0013472269128774043,220.0,5,$\widetilde{A}_{G_5}$,moving_distance
R-HSA-1474165,0.0013467856459936668,221.0,5,$\widetilde{A}_{G_5}$,moving_distance
R-HSA-1500620,0.0013467856459936662,222.0,5,$\widetilde{A}_{G_5}$,moving_distance
R-HSA-2428928,0.001346489127215266,223.0,5,$\widetilde{A}_{G_5}$,moving_distance
R-HSA-5621575,0.0013452206184228419,224.0,5,$\widetilde{A}_{G_5}$,moving_distance
R-HSA-9020591,0.001341580155496461,225.0,5,$\widetilde{A}_{G_5}$,moving_distance
R-HSA-9006115,0.0013401773603800879,226.0,5,$\widetilde{A}_{G_5}$,moving_distance
R-HSA-5693606,0.001340159106356355,227.0,5,$\widetilde{A}_{G_5}$,moving_distance
R-HSA-9703648,0.0013282675646387003,228.0,5,$\widetilde{A}_{G_5}$,moving_distance
R-HSA-177504,0.0013220738373679818,229.0,5,$\widetilde{A}_{G_5}$,moving_distance
R-HSA-2672351,0.0013206512332137538,230.0,5,$\widetilde{A}_{G_5}$,moving_distance
R-HSA-9671555,0.001306104880204535,231.0,5,$\widetilde{A}_{G_5}$,moving_distance
R-HSA-9616222,0.0013048462649342314,232.0,5,$\widetilde{A}_{G_5}$,moving_distance
R-HSA-9634285,0.0012975790283864454,233.0,5,$\widetilde{A}_{G_5}$,moving_distance
R-HSA-8979227,0.0012957791931890255,234.0,5,$\widetilde{A}_{G_5}$,moving_distance
R-HSA-354194,0.0012946591152580636,235.0,5,$\widetilde{A}_{G_5}$,moving_distance
R-HSA-418885,0.0012854851033974007,236.0,5,$\widetilde{A}_{G_5}$,moving_distance
R-HSA-5693565,0.0012823166248080572,237.0,5,$\widetilde{A}_{G_5}$,moving_distance
R-HSA-391251,0.0012806330863425494,238.0,5,$\widetilde{A}_{G_5}$,moving_distance
R-HSA-8853334,0.0012787107534910243,239.0,5,$\widetilde{A}_{G_5}$,moving_distance
R-HSA-210993,0.0012752155168236027,240.0,5,$\widetilde{A}_{G_5}$,moving_distance
R-HSA-9703465,0.0012748930240282696,241.0,5,$\widetilde{A}_{G_5}$,moving_distance
R-HSA-9673770,0.0012738068002365413,242.5,5,$\widetilde{A}_{G_5}$,moving_distance
R-HSA-9673767,0.0012738068002365413,242.5,5,$\widetilde{A}_{G_5}$,moving_distance
R-HSA-193639,0.0012727199411336403,244.0,5,$\widetilde{A}_{G_5}$,moving_distance
R-HSA-1810476,0.001272003190954218,245.0,5,$\widetilde{A}_{G_5}$,moving_distance
R-HSA-1358803,0.0012660718062507603,246.0,5,$\widetilde{A}_{G_5}$,moving_distance
R-HSA-6806834,0.0012631451037521024,247.0,5,$\widetilde{A}_{G_5}$,moving_distance
R-HSA-5218921,0.0012629598550392526,248.0,5,$\widetilde{A}_{G_5}$,moving_distance
R-HSA-912446,0.0012612141702490808,249.0,5,$\widetilde{A}_{G_5}$,moving_distance
R-HSA-389356,0.0012583264608365815,250.0,5,$\widetilde{A}_{G_5}$,moving_distance
R-HSA-2129379,0.001252724730685697,251.0,5,$\widetilde{A}_{G_5}$,moving_distance
R-HSA-5602358,0.001240261259120666,252.0,5,$\widetilde{A}_{G_5}$,moving_distance
R-HSA-5260271,0.0012402612591206653,253.0,5,$\widetilde{A}_{G_5}$,moving_distance
R-HSA-1839124,0.0012334103316974843,254.0,5,$\widetilde{A}_{G_5}$,moving_distance
R-HSA-9683701,0.0012291432277708168,255.0,5,$\widetilde{A}_{G_5}$,moving_distance
R-HSA-74751,0.0012134276168158725,256.0,5,$\widetilde{A}_{G_5}$,moving_distance
R-HSA-1433559,0.001205782282768797,257.0,5,$\widetilde{A}_{G_5}$,moving_distance
R-HSA-9634638,0.0011938656013266394,258.0,5,$\widetilde{A}_{G_5}$,moving_distance
R-HSA-5218920,0.0011849433405631048,259.0,5,$\widetilde{A}_{G_5}$,moving_distance
R-HSA-9669938,0.001181476037453026,260.0,5,$\widetilde{A}_{G_5}$,moving_distance
R-HSA-9670439,0.001181476037453025,261.0,5,$\widetilde{A}_{G_5}$,moving_distance
R-HSA-5654712,0.0011791722383992442,262.0,5,$\widetilde{A}_{G_5}$,moving_distance
R-HSA-216083,0.0011738443668306519,263.0,5,$\widetilde{A}_{G_5}$,moving_distance
R-HSA-5655302,0.0011637933987060178,264.0,5,$\widetilde{A}_{G_5}$,moving_distance
R-HSA-9648002,0.0011596257040283565,265.0,5,$\widetilde{A}_{G_5}$,moving_distance
R-HSA-9027284,0.0011566551148108168,266.0,5,$\widetilde{A}_{G_5}$,moving_distance
R-HSA-1433557,0.0011529987839677025,267.0,5,$\widetilde{A}_{G_5}$,moving_distance
R-HSA-2029482,0.0011520688961583678,268.0,5,$\widetilde{A}_{G_5}$,moving_distance
R-HSA-9020558,0.001146079039306236,269.0,5,$\widetilde{A}_{G_5}$,moving_distance
R-HSA-2871837,0.0011444457913633878,270.0,5,$\widetilde{A}_{G_5}$,moving_distance
R-HSA-5205685,0.0011420876985045016,271.0,5,$\widetilde{A}_{G_5}$,moving_distance
R-HSA-3214842,0.0011354120389360492,272.0,5,$\widetilde{A}_{G_5}$,moving_distance
R-HSA-9013406,0.0011315119323282651,273.0,5,$\widetilde{A}_{G_5}$,moving_distance
R-HSA-1912408,0.0011314666258909055,274.0,5,$\widetilde{A}_{G_5}$,moving_distance
R-HSA-5654733,0.001129625552968775,275.0,5,$\widetilde{A}_{G_5}$,moving_distance
R-HSA-9664422,0.0011285677064801001,276.0,5,$\widetilde{A}_{G_5}$,moving_distance
R-HSA-9664417,0.0011285677064801,277.0,5,$\widetilde{A}_{G_5}$,moving_distance
R-HSA-9664407,0.0011285677064800995,278.0,5,$\widetilde{A}_{G_5}$,moving_distance
R-HSA-427389,0.0011262456870492965,279.0,5,$\widetilde{A}_{G_5}$,moving_distance
R-HSA-76009,0.0011239133882601981,280.0,5,$\widetilde{A}_{G_5}$,moving_distance
R-HSA-9614399,0.0011224584907966624,281.0,5,$\widetilde{A}_{G_5}$,moving_distance
R-HSA-2586552,0.001116455161328169,282.0,5,$\widetilde{A}_{G_5}$,moving_distance
R-HSA-5339562,0.001116006454417886,283.0,5,$\widetilde{A}_{G_5}$,moving_distance
R-HSA-975163,0.0011137570801595,284.0,5,$\widetilde{A}_{G_5}$,moving_distance
R-HSA-428540,0.0011118167200404308,285.0,5,$\widetilde{A}_{G_5}$,moving_distance
R-HSA-70268,0.0011045346423616818,286.0,5,$\widetilde{A}_{G_5}$,moving_distance
R-HSA-190872,0.0011021165413439909,287.0,5,$\widetilde{A}_{G_5}$,moving_distance
R-HSA-8955332,0.0011021165413439892,288.5,5,$\widetilde{A}_{G_5}$,moving_distance
R-HSA-190840,0.0011021165413439892,288.5,5,$\widetilde{A}_{G_5}$,moving_distance
R-HSA-190861,0.001102116541343989,290.0,5,$\widetilde{A}_{G_5}$,moving_distance
R-HSA-6783589,0.0010923683226240356,291.0,5,$\widetilde{A}_{G_5}$,moving_distance
R-HSA-373076,0.0010797530090107172,292.0,5,$\widetilde{A}_{G_5}$,moving_distance
R-HSA-9013404,0.0010734014809613446,293.0,5,$\widetilde{A}_{G_5}$,moving_distance
R-HSA-111931,0.0010715300649652372,294.0,5,$\widetilde{A}_{G_5}$,moving_distance
R-HSA-186763,0.0010699580511506273,295.0,5,$\widetilde{A}_{G_5}$,moving_distance
R-HSA-1912422,0.0010652375818423008,296.0,5,$\widetilde{A}_{G_5}$,moving_distance
R-HSA-186797,0.0010650655751875036,297.0,5,$\widetilde{A}_{G_5}$,moving_distance
R-HSA-8854691,0.0010649593957110458,298.0,5,$\widetilde{A}_{G_5}$,moving_distance
R-HSA-112040,0.0010626570990885367,299.0,5,$\widetilde{A}_{G_5}$,moving_distance
R-HSA-1606322,0.0010566488568521726,300.0,5,$\widetilde{A}_{G_5}$,moving_distance
R-HSA-9020956,0.001054773720400583,301.0,5,$\widetilde{A}_{G_5}$,moving_distance
R-HSA-399954,0.00105388812062407,302.0,5,$\widetilde{A}_{G_5}$,moving_distance
R-HSA-9013507,0.0010510064559761782,303.0,5,$\widetilde{A}_{G_5}$,moving_distance
R-HSA-5693571,0.0010484675124604228,304.0,5,$\widetilde{A}_{G_5}$,moving_distance
R-HSA-9012852,0.001027559970027232,305.0,5,$\widetilde{A}_{G_5}$,moving_distance
R-HSA-9645723,0.0010252049142569187,306.0,5,$\widetilde{A}_{G_5}$,moving_distance
R-HSA-9013405,0.0010251971201588833,307.0,5,$\widetilde{A}_{G_5}$,moving_distance
R-HSA-9694635,0.0010214962698422345,308.0,5,$\widetilde{A}_{G_5}$,moving_distance
R-HSA-9706574,0.0010214158798577903,309.0,5,$\widetilde{A}_{G_5}$,moving_distance
R-HSA-8957322,0.0010116307834010453,310.0,5,$\widetilde{A}_{G_5}$,moving_distance
R-HSA-982772,0.0010111997025039634,311.0,5,$\widetilde{A}_{G_5}$,moving_distance
R-HSA-3371511,0.00100585633018388,312.0,5,$\widetilde{A}_{G_5}$,moving_distance
R-HSA-168643,0.0010041544875716674,313.0,5,$\widetilde{A}_{G_5}$,moving_distance
R-HSA-167044,0.0010029832379562474,314.0,5,$\widetilde{A}_{G_5}$,moving_distance
R-HSA-1295596,0.0009936668915961119,315.0,5,$\widetilde{A}_{G_5}$,moving_distance
R-HSA-5603041,0.0009854735964135181,316.0,5,$\widetilde{A}_{G_5}$,moving_distance
R-HSA-264870,0.0009854545220209726,317.0,5,$\widetilde{A}_{G_5}$,moving_distance
R-HSA-5362517,0.0009851020752760769,318.0,5,$\widetilde{A}_{G_5}$,moving_distance
R-HSA-202733,0.000984356181705976,319.0,5,$\widetilde{A}_{G_5}$,moving_distance
R-HSA-1980143,0.0009814856535713568,320.0,5,$\widetilde{A}_{G_5}$,moving_distance
R-HSA-5607764,0.0009813622043732858,321.0,5,$\widetilde{A}_{G_5}$,moving_distance
R-HSA-5625740,0.0009711698605822072,322.0,5,$\widetilde{A}_{G_5}$,moving_distance
R-HSA-1839117,0.0009700161035892555,323.0,5,$\widetilde{A}_{G_5}$,moving_distance
R-HSA-186712,0.0009616229909358756,324.0,5,$\widetilde{A}_{G_5}$,moving_distance
R-HSA-389958,0.0009560002547945207,325.0,5,$\widetilde{A}_{G_5}$,moving_distance
R-HSA-912694,0.0009545737558475897,326.0,5,$\widetilde{A}_{G_5}$,moving_distance
R-HSA-1500931,0.0009518491447457067,327.0,5,$\widetilde{A}_{G_5}$,moving_distance
R-HSA-9613829,0.0009488239510388145,328.0,5,$\widetilde{A}_{G_5}$,moving_distance
R-HSA-2122947,0.0009463699684929751,329.0,5,$\widetilde{A}_{G_5}$,moving_distance
R-HSA-5602498,0.0009457132189333561,330.0,5,$\widetilde{A}_{G_5}$,moving_distance
R-HSA-5213460,0.0009438825055770575,331.0,5,$\widetilde{A}_{G_5}$,moving_distance
R-HSA-5675482,0.0009438825055770568,332.0,5,$\widetilde{A}_{G_5}$,moving_distance
R-HSA-1660499,0.0009424636470556503,333.0,5,$\widetilde{A}_{G_5}$,moving_distance
R-HSA-140534,0.0009354735437847231,334.0,5,$\widetilde{A}_{G_5}$,moving_distance
R-HSA-164952,0.0009340056166391436,335.0,5,$\widetilde{A}_{G_5}$,moving_distance
R-HSA-8936459,0.0009304014082378453,336.0,5,$\widetilde{A}_{G_5}$,moving_distance
R-HSA-5218859,0.0009295088700158192,337.0,5,$\widetilde{A}_{G_5}$,moving_distance
R-HSA-1566948,0.0009236033800163802,338.0,5,$\widetilde{A}_{G_5}$,moving_distance
R-HSA-5617472,0.0009224768472098985,339.0,5,$\widetilde{A}_{G_5}$,moving_distance
R-HSA-5619507,0.0009224768472098981,340.0,5,$\widetilde{A}_{G_5}$,moving_distance
R-HSA-1502540,0.0009193754919267065,341.0,5,$\widetilde{A}_{G_5}$,moving_distance
R-HSA-9710421,0.0009080551061471647,342.0,5,$\widetilde{A}_{G_5}$,moving_distance
R-HSA-5625886,0.0009040613864355787,343.0,5,$\widetilde{A}_{G_5}$,moving_distance
R-HSA-187687,0.0009035695039797514,344.0,5,$\widetilde{A}_{G_5}$,moving_distance
R-HSA-8876384,0.0009030329086850005,345.0,5,$\widetilde{A}_{G_5}$,moving_distance
R-HSA-111996,0.0009029129487518444,346.0,5,$\widetilde{A}_{G_5}$,moving_distance
R-HSA-2173788,0.0008996841818052607,347.0,5,$\widetilde{A}_{G_5}$,moving_distance
R-HSA-937072,0.0008979706857311895,348.0,5,$\widetilde{A}_{G_5}$,moving_distance
R-HSA-5205647,0.0008902416928813829,349.0,5,$\widetilde{A}_{G_5}$,moving_distance
R-HSA-212300,0.0008868296455555203,350.0,5,$\widetilde{A}_{G_5}$,moving_distance
R-HSA-8875555,0.0008855166869266058,351.0,5,$\widetilde{A}_{G_5}$,moving_distance
R-HSA-73728,0.0008818807579775741,352.0,5,$\widetilde{A}_{G_5}$,moving_distance
R-HSA-157579,0.0008776995598579884,353.0,5,$\widetilde{A}_{G_5}$,moving_distance
R-HSA-112043,0.0008715097540260053,354.0,5,$\widetilde{A}_{G_5}$,moving_distance
R-HSA-9662361,0.0008701006102070387,355.0,5,$\widetilde{A}_{G_5}$,moving_distance
R-HSA-937039,0.0008651948644437863,356.0,5,$\widetilde{A}_{G_5}$,moving_distance
R-HSA-975144,0.000865194864443784,357.0,5,$\widetilde{A}_{G_5}$,moving_distance
R-HSA-180024,0.0008636205938063556,358.0,5,$\widetilde{A}_{G_5}$,moving_distance
R-HSA-2644603,0.0008623692453923618,359.0,5,$\widetilde{A}_{G_5}$,moving_distance
R-HSA-2894858,0.0008623692453923616,360.0,5,$\widetilde{A}_{G_5}$,moving_distance
R-HSA-2644602,0.0008623692453923609,361.0,5,$\widetilde{A}_{G_5}$,moving_distance
R-HSA-2894862,0.0008623692453923607,362.0,5,$\widetilde{A}_{G_5}$,moving_distance
R-HSA-2644606,0.0008623692453923602,363.0,5,$\widetilde{A}_{G_5}$,moving_distance
R-HSA-190828,0.0008620791242344889,364.0,5,$\widetilde{A}_{G_5}$,moving_distance
R-HSA-111447,0.0008573462015461857,365.0,5,$\widetilde{A}_{G_5}$,moving_distance
R-HSA-390471,0.0008562684416643286,366.0,5,$\widetilde{A}_{G_5}$,moving_distance
R-HSA-2122948,0.0008543138271054188,367.0,5,$\widetilde{A}_{G_5}$,moving_distance
R-HSA-3214815,0.0008528779505096759,368.0,5,$\widetilde{A}_{G_5}$,moving_distance
R-HSA-6788467,0.0008458625798548234,369.0,5,$\widetilde{A}_{G_5}$,moving_distance
R-HSA-182971,0.0008450869577839514,370.0,5,$\widetilde{A}_{G_5}$,moving_distance
R-HSA-5689901,0.0008436049910131974,371.0,5,$\widetilde{A}_{G_5}$,moving_distance
R-HSA-8875360,0.0008374007822633293,372.0,5,$\widetilde{A}_{G_5}$,moving_distance
R-HSA-2980736,0.000834938187339148,373.0,5,$\widetilde{A}_{G_5}$,moving_distance
R-HSA-5334118,0.0008300971664336559,374.0,5,$\widetilde{A}_{G_5}$,moving_distance
R-HSA-9656223,0.0008292578694803074,375.0,5,$\widetilde{A}_{G_5}$,moving_distance
R-HSA-2173789,0.0008262090969453811,376.0,5,$\widetilde{A}_{G_5}$,moving_distance
R-HSA-4551638,0.0008250672645596644,377.0,5,$\widetilde{A}_{G_5}$,moving_distance
R-HSA-8848021,0.00082402795448574,378.0,5,$\widetilde{A}_{G_5}$,moving_distance
R-HSA-9006927,0.0008240279544857385,379.0,5,$\widetilde{A}_{G_5}$,moving_distance
R-HSA-350054,0.0008216510762463137,380.0,5,$\widetilde{A}_{G_5}$,moving_distance
R-HSA-196025,0.000821487168478401,381.0,5,$\widetilde{A}_{G_5}$,moving_distance
R-HSA-389957,0.0008158449207133779,382.0,5,$\widetilde{A}_{G_5}$,moving_distance
R-HSA-164938,0.0008157597510728561,383.0,5,$\widetilde{A}_{G_5}$,moving_distance
R-HSA-157858,0.0008152448147000887,384.0,5,$\widetilde{A}_{G_5}$,moving_distance
R-HSA-372708,0.0008137229637403946,385.0,5,$\widetilde{A}_{G_5}$,moving_distance
R-HSA-8984722,0.0008104709183368959,386.0,5,$\widetilde{A}_{G_5}$,moving_distance
R-HSA-171306,0.0008022851826694496,387.0,5,$\widetilde{A}_{G_5}$,moving_distance
R-HSA-450341,0.0007891634935227287,388.0,5,$\widetilde{A}_{G_5}$,moving_distance
R-HSA-205043,0.0007862989221387205,389.0,5,$\widetilde{A}_{G_5}$,moving_distance
R-HSA-5674135,0.0007851791538114583,390.0,5,$\widetilde{A}_{G_5}$,moving_distance
R-HSA-110328,0.0007850706715681674,392.0,5,$\widetilde{A}_{G_5}$,moving_distance
R-HSA-110329,0.0007850706715681674,392.0,5,$\widetilde{A}_{G_5}$,moving_distance
R-HSA-73928,0.0007850706715681674,392.0,5,$\widetilde{A}_{G_5}$,moving_distance
R-HSA-6802948,0.0007850495505150388,394.0,5,$\widetilde{A}_{G_5}$,moving_distance
R-HSA-2559586,0.0007849873834766589,395.0,5,$\widetilde{A}_{G_5}$,moving_distance
R-HSA-9031628,0.0007817026234651706,396.0,5,$\widetilde{A}_{G_5}$,moving_distance
R-HSA-193648,0.0007802481240730664,397.0,5,$\widetilde{A}_{G_5}$,moving_distance
R-HSA-381038,0.0007793355607037832,398.0,5,$\widetilde{A}_{G_5}$,moving_distance
R-HSA-3371497,0.0007771388583391351,399.0,5,$\widetilde{A}_{G_5}$,moving_distance
R-HSA-9694516,0.000776720019220426,400.0,5,$\widetilde{A}_{G_5}$,moving_distance
R-HSA-1221632,0.0007762312437879253,401.0,5,$\widetilde{A}_{G_5}$,moving_distance
R-HSA-2132295,0.0007719229014394467,402.0,5,$\widetilde{A}_{G_5}$,moving_distance
R-HSA-190873,0.0007703076363596049,403.0,5,$\widetilde{A}_{G_5}$,moving_distance
R-HSA-73929,0.0007682200680559626,404.5,5,$\widetilde{A}_{G_5}$,moving_distance
R-HSA-110331,0.0007682200680559626,404.5,5,$\widetilde{A}_{G_5}$,moving_distance
R-HSA-110330,0.0007682200680559617,406.5,5,$\widetilde{A}_{G_5}$,moving_distance
R-HSA-73927,0.0007682200680559617,406.5,5,$\widetilde{A}_{G_5}$,moving_distance
R-HSA-397014,0.0007670870444435871,408.0,5,$\widetilde{A}_{G_5}$,moving_distance
R-HSA-9013418,0.0007636805558253008,409.0,5,$\widetilde{A}_{G_5}$,moving_distance
R-HSA-73854,0.0007612951004699353,410.0,5,$\widetilde{A}_{G_5}$,moving_distance
R-HSA-211945,0.000760151652315838,411.0,5,$\widetilde{A}_{G_5}$,moving_distance
R-HSA-211859,0.0007601516523158359,412.0,5,$\widetilde{A}_{G_5}$,moving_distance
R-HSA-73864,0.0007601125190323098,413.0,5,$\widetilde{A}_{G_5}$,moving_distance
R-HSA-8875878,0.0007539634727223703,414.0,5,$\widetilde{A}_{G_5}$,moving_distance
R-HSA-9705462,0.000752943963361096,415.0,5,$\widetilde{A}_{G_5}$,moving_distance
R-HSA-9649948,0.0007503235694844267,416.0,5,$\widetilde{A}_{G_5}$,moving_distance
R-HSA-6802946,0.0007503235694844266,417.0,5,$\widetilde{A}_{G_5}$,moving_distance
R-HSA-6802955,0.0007503235694844265,418.0,5,$\widetilde{A}_{G_5}$,moving_distance
R-HSA-6802949,0.0007503235694844259,419.0,5,$\widetilde{A}_{G_5}$,moving_distance
R-HSA-6807004,0.0007503153965018916,420.0,5,$\widetilde{A}_{G_5}$,moving_distance
R-HSA-427359,0.0007487359791297626,421.0,5,$\widetilde{A}_{G_5}$,moving_distance
R-HSA-3214858,0.0007483309035799287,422.0,5,$\widetilde{A}_{G_5}$,moving_distance
R-HSA-198323,0.0007481772550819531,423.0,5,$\widetilde{A}_{G_5}$,moving_distance
R-HSA-373760,0.0007479973475046927,424.0,5,$\widetilde{A}_{G_5}$,moving_distance
R-HSA-390522,0.0007476003673205649,425.0,5,$\widetilde{A}_{G_5}$,moving_distance
R-HSA-8934903,0.0007470153940371754,426.0,5,$\widetilde{A}_{G_5}$,moving_distance
R-HSA-5632684,0.0007423963767282965,427.0,5,$\widetilde{A}_{G_5}$,moving_distance
R-HSA-9615017,0.0007415525244823167,428.0,5,$\widetilde{A}_{G_5}$,moving_distance
R-HSA-442755,0.0007414247825756649,429.0,5,$\widetilde{A}_{G_5}$,moving_distance
R-HSA-9679191,0.0007406748268672498,430.0,5,$\widetilde{A}_{G_5}$,moving_distance
R-HSA-9673324,0.0007364882310916691,431.0,5,$\widetilde{A}_{G_5}$,moving_distance
R-HSA-9664420,0.0007364882310916689,432.0,5,$\widetilde{A}_{G_5}$,moving_distance
R-HSA-9678108,0.0007346084024279068,433.0,5,$\widetilde{A}_{G_5}$,moving_distance
R-HSA-9013408,0.0007323577115568258,434.0,5,$\widetilde{A}_{G_5}$,moving_distance
R-HSA-9005895,0.0007310129909427712,435.0,5,$\widetilde{A}_{G_5}$,moving_distance
R-HSA-9675151,0.000731012990942771,436.0,5,$\widetilde{A}_{G_5}$,moving_distance
R-HSA-9697154,0.0007310129909427702,437.0,5,$\widetilde{A}_{G_5}$,moving_distance
R-HSA-9005891,0.0007310129909427699,438.0,5,$\widetilde{A}_{G_5}$,moving_distance
R-HSA-70326,0.0007273650806011748,439.0,5,$\widetilde{A}_{G_5}$,moving_distance
R-HSA-3928665,0.0007238886555480793,440.0,5,$\widetilde{A}_{G_5}$,moving_distance
R-HSA-170968,0.0007182938157765723,441.0,5,$\widetilde{A}_{G_5}$,moving_distance
R-HSA-2299718,0.0007175439314287215,442.0,5,$\widetilde{A}_{G_5}$,moving_distance
R-HSA-3371568,0.000717288987148899,443.0,5,$\widetilde{A}_{G_5}$,moving_distance
R-HSA-5250924,0.000715330655338791,444.0,5,$\widetilde{A}_{G_5}$,moving_distance
R-HSA-111933,0.0007142549183811054,445.5,5,$\widetilde{A}_{G_5}$,moving_distance
R-HSA-111997,0.0007142549183811054,445.5,5,$\widetilde{A}_{G_5}$,moving_distance
R-HSA-169893,0.0007139018056497554,447.0,5,$\widetilde{A}_{G_5}$,moving_distance
R-HSA-983712,0.0007103103072604235,448.0,5,$\widetilde{A}_{G_5}$,moving_distance
R-HSA-75035,0.0007090935310415242,449.0,5,$\widetilde{A}_{G_5}$,moving_distance
R-HSA-9013423,0.0007080529503408606,450.0,5,$\widetilde{A}_{G_5}$,moving_distance
R-HSA-5673000,0.000706925400213111,451.0,5,$\widetilde{A}_{G_5}$,moving_distance
R-HSA-6802952,0.0007031230156666206,452.0,5,$\widetilde{A}_{G_5}$,moving_distance
R-HSA-8849471,0.0007023282671586652,453.0,5,$\widetilde{A}_{G_5}$,moving_distance
R-HSA-8964043,0.0006964201125830862,454.0,5,$\widetilde{A}_{G_5}$,moving_distance
R-HSA-381119,0.0006962838803612346,455.0,5,$\widetilde{A}_{G_5}$,moving_distance
R-HSA-9035034,0.0006889838612038776,456.0,5,$\widetilde{A}_{G_5}$,moving_distance
R-HSA-909733,0.0006862257804911004,457.0,5,$\widetilde{A}_{G_5}$,moving_distance
R-HSA-6804758,0.0006862079561222528,458.0,5,$\widetilde{A}_{G_5}$,moving_distance
R-HSA-198725,0.0006846668814598836,459.0,5,$\widetilde{A}_{G_5}$,moving_distance
R-HSA-8950505,0.0006844396110415429,460.0,5,$\widetilde{A}_{G_5}$,moving_distance
R-HSA-977225,0.0006812844097786638,461.0,5,$\widetilde{A}_{G_5}$,moving_distance
R-HSA-5663213,0.0006793194374472173,462.0,5,$\widetilde{A}_{G_5}$,moving_distance
R-HSA-9013700,0.0006785923142498542,463.0,5,$\widetilde{A}_{G_5}$,moving_distance
R-HSA-373755,0.000677052775961724,464.0,5,$\widetilde{A}_{G_5}$,moving_distance
R-HSA-3214841,0.0006762854561140012,465.0,5,$\widetilde{A}_{G_5}$,moving_distance
R-HSA-5173105,0.0006737474845246704,466.0,5,$\widetilde{A}_{G_5}$,moving_distance
R-HSA-9006936,0.0006728629036142403,467.0,5,$\widetilde{A}_{G_5}$,moving_distance
R-HSA-438064,0.0006728079520703335,468.0,5,$\widetilde{A}_{G_5}$,moving_distance
R-HSA-9614085,0.0006716755400660511,469.0,5,$\widetilde{A}_{G_5}$,moving_distance
R-HSA-3232118,0.0006704349964007473,470.0,5,$\widetilde{A}_{G_5}$,moving_distance
R-HSA-5625900,0.0006697755517372179,471.0,5,$\widetilde{A}_{G_5}$,moving_distance
R-HSA-2022377,0.0006678368816399942,472.0,5,$\widetilde{A}_{G_5}$,moving_distance
R-HSA-74752,0.0006677639169820504,473.0,5,$\widetilde{A}_{G_5}$,moving_distance
R-HSA-5626467,0.0006663725465542749,474.0,5,$\widetilde{A}_{G_5}$,moving_distance
R-HSA-8941856,0.0006613733933561274,475.0,5,$\widetilde{A}_{G_5}$,moving_distance
R-HSA-936964,0.0006565119618475207,476.0,5,$\widetilde{A}_{G_5}$,moving_distance
R-HSA-5684264,0.0006561060662412147,477.0,5,$\widetilde{A}_{G_5}$,moving_distance
R-HSA-877300,0.0006558753929688215,478.0,5,$\widetilde{A}_{G_5}$,moving_distance
R-HSA-5357769,0.0006518982346885597,479.0,5,$\widetilde{A}_{G_5}$,moving_distance
R-HSA-2559582,0.0006501317696912694,480.0,5,$\widetilde{A}_{G_5}$,moving_distance
R-HSA-2995383,0.0006478301891612904,481.0,5,$\widetilde{A}_{G_5}$,moving_distance
R-HSA-202131,0.0006469769287871642,482.0,5,$\widetilde{A}_{G_5}$,moving_distance
R-HSA-196299,0.0006460245406787307,483.0,5,$\widetilde{A}_{G_5}$,moving_distance
R-HSA-5357786,0.0006431369448143842,484.0,5,$\widetilde{A}_{G_5}$,moving_distance
R-HSA-6804760,0.0006389207971452032,485.0,5,$\widetilde{A}_{G_5}$,moving_distance
R-HSA-445144,0.000637498651827352,486.0,5,$\widetilde{A}_{G_5}$,moving_distance
R-HSA-437239,0.0006371530591929669,487.0,5,$\widetilde{A}_{G_5}$,moving_distance
R-HSA-4419969,0.0006359490693455246,488.0,5,$\widetilde{A}_{G_5}$,moving_distance
R-HSA-9646399,0.0006357889311192779,489.0,5,$\widetilde{A}_{G_5}$,moving_distance
R-HSA-4086400,0.0006333738215367581,490.0,5,$\widetilde{A}_{G_5}$,moving_distance
R-HSA-8876725,0.0006308928654246845,491.0,5,$\widetilde{A}_{G_5}$,moving_distance
R-HSA-8856825,0.0006307208783398978,492.0,5,$\widetilde{A}_{G_5}$,moving_distance
R-HSA-5357905,0.0006269797301724765,493.0,5,$\widetilde{A}_{G_5}$,moving_distance
R-HSA-168179,0.0006243687133978251,494.0,5,$\widetilde{A}_{G_5}$,moving_distance
R-HSA-181438,0.0006243687133978249,495.0,5,$\widetilde{A}_{G_5}$,moving_distance
R-HSA-264876,0.0006239403726764399,496.0,5,$\widetilde{A}_{G_5}$,moving_distance
R-HSA-388844,0.0006190117335778578,497.0,5,$\widetilde{A}_{G_5}$,moving_distance
R-HSA-5357956,0.0006185052811951574,498.0,5,$\widetilde{A}_{G_5}$,moving_distance
R-HSA-9013420,0.0006101401861892102,499.0,5,$\widetilde{A}_{G_5}$,moving_distance
R-HSA-9013694,0.0006043384822200595,500.0,5,$\widetilde{A}_{G_5}$,moving_distance
R-HSA-1181150,0.0006038614708096779,501.0,5,$\widetilde{A}_{G_5}$,moving_distance
R-HSA-379716,0.0006013208044742583,502.0,5,$\widetilde{A}_{G_5}$,moving_distance
R-HSA-5140745,0.0006009254317894025,503.0,5,$\widetilde{A}_{G_5}$,moving_distance
R-HSA-5610785,0.0005975243230668694,504.0,5,$\widetilde{A}_{G_5}$,moving_distance
R-HSA-975138,0.0005972941175086268,505.0,5,$\widetilde{A}_{G_5}$,moving_distance
R-HSA-68884,0.0005968106423015277,506.0,5,$\widetilde{A}_{G_5}$,moving_distance
R-HSA-8862803,0.0005954100551226192,507.0,5,$\widetilde{A}_{G_5}$,moving_distance
R-HSA-8863678,0.0005954100551226188,508.0,5,$\widetilde{A}_{G_5}$,moving_distance
R-HSA-5610787,0.0005952534749788363,509.0,5,$\widetilde{A}_{G_5}$,moving_distance
R-HSA-448424,0.0005936785520864961,510.0,5,$\widetilde{A}_{G_5}$,moving_distance
R-HSA-156902,0.0005920201262307476,511.0,5,$\widetilde{A}_{G_5}$,moving_distance
R-HSA-156842,0.0005901166260737274,512.0,5,$\widetilde{A}_{G_5}$,moving_distance
R-HSA-69416,0.0005901035732332384,513.0,5,$\widetilde{A}_{G_5}$,moving_distance
R-HSA-3371378,0.0005901035732332381,514.0,5,$\widetilde{A}_{G_5}$,moving_distance
R-HSA-5218900,0.0005901035732332373,515.0,5,$\widetilde{A}_{G_5}$,moving_distance
R-HSA-168138,0.0005900144506837519,516.0,5,$\widetilde{A}_{G_5}$,moving_distance
R-HSA-975155,0.0005900144506837512,517.0,5,$\widetilde{A}_{G_5}$,moving_distance
R-HSA-168181,0.0005900144506837507,518.0,5,$\widetilde{A}_{G_5}$,moving_distance
R-HSA-450321,0.0005875364184851875,519.0,5,$\widetilde{A}_{G_5}$,moving_distance
R-HSA-3371571,0.0005874868357856688,520.0,5,$\widetilde{A}_{G_5}$,moving_distance
R-HSA-2408557,0.0005832840486852195,521.0,5,$\widetilde{A}_{G_5}$,moving_distance
R-HSA-425407,0.0005811362096330019,522.0,5,$\widetilde{A}_{G_5}$,moving_distance
R-HSA-168188,0.0005798967221171727,523.0,5,$\widetilde{A}_{G_5}$,moving_distance
R-HSA-166058,0.0005798967221171712,524.0,5,$\widetilde{A}_{G_5}$,moving_distance
R-HSA-192823,0.0005790173040233658,525.0,5,$\widetilde{A}_{G_5}$,moving_distance
R-HSA-73884,0.0005761578753938914,526.0,5,$\widetilde{A}_{G_5}$,moving_distance
R-HSA-170834,0.0005758398035362325,527.0,5,$\widetilde{A}_{G_5}$,moving_distance
R-HSA-9604323,0.0005758041429263724,528.0,5,$\widetilde{A}_{G_5}$,moving_distance
R-HSA-5099900,0.000575545172536376,529.0,5,$\widetilde{A}_{G_5}$,moving_distance
R-HSA-3000157,0.0005753332928622116,530.0,5,$\widetilde{A}_{G_5}$,moving_distance
R-HSA-8852276,0.0005730501711179806,531.0,5,$\widetilde{A}_{G_5}$,moving_distance
R-HSA-379724,0.0005723572589393645,532.0,5,$\widetilde{A}_{G_5}$,moving_distance
R-HSA-73772,0.0005681229937035658,533.0,5,$\widetilde{A}_{G_5}$,moving_distance
R-HSA-9696273,0.0005680343072798739,534.0,5,$\widetilde{A}_{G_5}$,moving_distance
R-HSA-1236975,0.0005679093463409333,535.0,5,$\widetilde{A}_{G_5}$,moving_distance
R-HSA-8854050,0.0005668456982003954,536.0,5,$\widetilde{A}_{G_5}$,moving_distance
R-HSA-421270,0.0005660877289087019,537.0,5,$\widetilde{A}_{G_5}$,moving_distance
R-HSA-2682334,0.0005654758897506745,538.0,5,$\widetilde{A}_{G_5}$,moving_distance
R-HSA-975956,0.0005647920226958134,539.0,5,$\widetilde{A}_{G_5}$,moving_distance
R-HSA-2408522,0.0005640981689082036,540.0,5,$\widetilde{A}_{G_5}$,moving_distance
R-HSA-9619483,0.0005628229037895235,541.0,5,$\widetilde{A}_{G_5}$,moving_distance
R-HSA-450294,0.000562055870697724,542.0,5,$\widetilde{A}_{G_5}$,moving_distance
R-HSA-8982491,0.0005617223108425987,543.0,5,$\widetilde{A}_{G_5}$,moving_distance
R-HSA-6802957,0.0005610847063150913,544.0,5,$\widetilde{A}_{G_5}$,moving_distance
R-HSA-168638,0.0005604272761308093,545.0,5,$\widetilde{A}_{G_5}$,moving_distance
R-HSA-72695,0.0005564129209277616,546.0,5,$\widetilde{A}_{G_5}$,moving_distance
R-HSA-9694548,0.0005561267511211649,547.0,5,$\widetilde{A}_{G_5}$,moving_distance
R-HSA-72689,0.0005559372209014494,548.0,5,$\widetilde{A}_{G_5}$,moving_distance
R-HSA-450282,0.000554915515707075,549.0,5,$\widetilde{A}_{G_5}$,moving_distance
R-HSA-4641258,0.0005547635263288717,550.0,5,$\widetilde{A}_{G_5}$,moving_distance
R-HSA-72649,0.0005546283156041957,551.0,5,$\widetilde{A}_{G_5}$,moving_distance
R-HSA-933542,0.000553002486512952,552.0,5,$\widetilde{A}_{G_5}$,moving_distance
R-HSA-204998,0.0005521814085023767,553.0,5,$\widetilde{A}_{G_5}$,moving_distance
R-HSA-72764,0.0005504869094014721,554.0,5,$\widetilde{A}_{G_5}$,moving_distance
R-HSA-9637690,0.000550481852517039,555.0,5,$\widetilde{A}_{G_5}$,moving_distance
R-HSA-193704,0.0005504724191131308,556.0,5,$\widetilde{A}_{G_5}$,moving_distance
R-HSA-8941858,0.0005481636515235651,557.0,5,$\widetilde{A}_{G_5}$,moving_distance
R-HSA-72202,0.0005476565929857731,558.0,5,$\widetilde{A}_{G_5}$,moving_distance
R-HSA-156827,0.0005474185182242868,559.0,5,$\widetilde{A}_{G_5}$,moving_distance
R-HSA-8874081,0.0005470906598467833,560.0,5,$\widetilde{A}_{G_5}$,moving_distance
R-HSA-8943724,0.0005447951878221133,561.0,5,$\widetilde{A}_{G_5}$,moving_distance
R-HSA-72662,0.0005447117659895921,562.0,5,$\widetilde{A}_{G_5}$,moving_distance
R-HSA-933541,0.0005443673466498483,563.0,5,$\widetilde{A}_{G_5}$,moving_distance
R-HSA-432142,0.0005440271513389153,564.0,5,$\widetilde{A}_{G_5}$,moving_distance
R-HSA-5610780,0.0005436154245671811,565.0,5,$\widetilde{A}_{G_5}$,moving_distance
R-HSA-5578775,0.0005432593124507879,566.0,5,$\widetilde{A}_{G_5}$,moving_distance
R-HSA-198753,0.0005426119838184673,567.0,5,$\widetilde{A}_{G_5}$,moving_distance
R-HSA-389977,0.0005424117661452229,568.0,5,$\widetilde{A}_{G_5}$,moving_distance
R-HSA-774815,0.0005412043424859554,569.0,5,$\widetilde{A}_{G_5}$,moving_distance
R-HSA-606279,0.0005412043424859548,570.0,5,$\widetilde{A}_{G_5}$,moving_distance
R-HSA-72702,0.00054090921491921,571.0,5,$\widetilde{A}_{G_5}$,moving_distance
R-HSA-159236,0.0005398060030664455,572.0,5,$\widetilde{A}_{G_5}$,moving_distance
R-HSA-72706,0.0005391235058414126,573.0,5,$\widetilde{A}_{G_5}$,moving_distance
R-HSA-9013424,0.0005387762649769324,574.0,5,$\widetilde{A}_{G_5}$,moving_distance
R-HSA-110312,0.0005385957886094667,575.0,5,$\widetilde{A}_{G_5}$,moving_distance
R-HSA-5675221,0.0005365059246678029,576.0,5,$\widetilde{A}_{G_5}$,moving_distance
R-HSA-5610783,0.0005341339751348853,577.0,5,$\widetilde{A}_{G_5}$,moving_distance
R-HSA-1834949,0.0005333147106645315,578.0,5,$\widetilde{A}_{G_5}$,moving_distance
R-HSA-8957275,0.0005325236006993505,579.0,5,$\widetilde{A}_{G_5}$,moving_distance
R-HSA-9020702,0.0005323642647705612,580.0,5,$\widetilde{A}_{G_5}$,moving_distance
R-HSA-168273,0.0005323374098684031,581.0,5,$\widetilde{A}_{G_5}$,moving_distance
R-HSA-983189,0.0005315920293610683,582.0,5,$\widetilde{A}_{G_5}$,moving_distance
R-HSA-9670095,0.0005315319250031594,583.0,5,$\widetilde{A}_{G_5}$,moving_distance
R-HSA-109606,0.0005312030519279831,584.0,5,$\widetilde{A}_{G_5}$,moving_distance
R-HSA-9013508,0.0005304001818064439,585.0,5,$\widetilde{A}_{G_5}$,moving_distance
R-HSA-5620971,0.0005297367065095778,586.0,5,$\widetilde{A}_{G_5}$,moving_distance
R-HSA-3371453,0.0005278694067060941,587.0,5,$\widetilde{A}_{G_5}$,moving_distance
R-HSA-8948751,0.0005273207261788174,588.0,5,$\widetilde{A}_{G_5}$,moving_distance
R-HSA-75893,0.0005269774375173345,589.0,5,$\widetilde{A}_{G_5}$,moving_distance
R-HSA-110320,0.0005266712220457646,590.0,5,$\widetilde{A}_{G_5}$,moving_distance
R-HSA-9668328,0.0005262878820980731,591.0,5,$\widetilde{A}_{G_5}$,moving_distance
R-HSA-5627123,0.0005249225783907301,592.0,5,$\widetilde{A}_{G_5}$,moving_distance
R-HSA-8866427,0.0005232599029069525,593.0,5,$\widetilde{A}_{G_5}$,moving_distance
R-HSA-9633012,0.0005231645637390094,594.0,5,$\widetilde{A}_{G_5}$,moving_distance
R-HSA-9635486,0.0005222116211944267,595.0,5,$\widetilde{A}_{G_5}$,moving_distance
R-HSA-73893,0.0005219185885261391,596.0,5,$\widetilde{A}_{G_5}$,moving_distance
R-HSA-3928662,0.0005217725021462817,597.0,5,$\widetilde{A}_{G_5}$,moving_distance
R-HSA-9615933,0.0005201887474921905,598.0,5,$\widetilde{A}_{G_5}$,moving_distance
R-HSA-918233,0.000519532578713594,599.0,5,$\widetilde{A}_{G_5}$,moving_distance
R-HSA-445989,0.0005167281360957199,600.0,5,$\widetilde{A}_{G_5}$,moving_distance
R-HSA-381070,0.0005145172721222083,601.0,5,$\widetilde{A}_{G_5}$,moving_distance
R-HSA-3371556,0.0005144533657845093,602.0,5,$\widetilde{A}_{G_5}$,moving_distance
R-HSA-1799339,0.0005120658254034366,603.0,5,$\widetilde{A}_{G_5}$,moving_distance
R-HSA-8932339,0.0005116462156352297,604.0,5,$\widetilde{A}_{G_5}$,moving_distance
R-HSA-2470946,0.0005103094883541382,605.0,5,$\widetilde{A}_{G_5}$,moving_distance
R-HSA-2187338,0.0005097107153123238,606.0,5,$\widetilde{A}_{G_5}$,moving_distance
R-HSA-6806003,0.0005092732611691304,607.0,5,$\widetilde{A}_{G_5}$,moving_distance
R-HSA-6804757,0.0005092732611691299,608.0,5,$\widetilde{A}_{G_5}$,moving_distance
R-HSA-5656169,0.000508568740221855,609.0,5,$\widetilde{A}_{G_5}$,moving_distance
R-HSA-168274,0.0005079932133021584,610.0,5,$\widetilde{A}_{G_5}$,moving_distance
R-HSA-168333,0.0005079932133021579,611.0,5,$\widetilde{A}_{G_5}$,moving_distance
R-HSA-5687128,0.0005074958391168128,612.0,5,$\widetilde{A}_{G_5}$,moving_distance
R-HSA-5655862,0.0005071877099996145,613.0,5,$\widetilde{A}_{G_5}$,moving_distance
R-HSA-450408,0.0005059591514372958,614.0,5,$\widetilde{A}_{G_5}$,moving_distance
R-HSA-114452,0.0005055288537074695,615.0,5,$\widetilde{A}_{G_5}$,moving_distance
R-HSA-399956,0.0005045589115174788,616.0,5,$\widetilde{A}_{G_5}$,moving_distance
R-HSA-187577,0.0005035853014460955,617.0,5,$\widetilde{A}_{G_5}$,moving_distance
R-HSA-168176,0.000502999379176943,618.0,5,$\widetilde{A}_{G_5}$,moving_distance
R-HSA-975871,0.0005029993791769428,619.0,5,$\widetilde{A}_{G_5}$,moving_distance
R-HSA-168142,0.0005029993791769425,620.0,5,$\widetilde{A}_{G_5}$,moving_distance
R-HSA-165054,0.0005008418213266144,621.0,5,$\widetilde{A}_{G_5}$,moving_distance
R-HSA-9610379,0.0005000544314503476,622.0,5,$\widetilde{A}_{G_5}$,moving_distance
R-HSA-162658,0.0004987197379330016,623.0,5,$\widetilde{A}_{G_5}$,moving_distance
R-HSA-177243,0.0004979503528155019,624.0,5,$\widetilde{A}_{G_5}$,moving_distance
R-HSA-3232142,0.0004978749982552131,625.0,5,$\widetilde{A}_{G_5}$,moving_distance
R-HSA-9615710,0.0004973065349057755,626.0,5,$\widetilde{A}_{G_5}$,moving_distance
R-HSA-5656121,0.0004972109350017015,627.0,5,$\widetilde{A}_{G_5}$,moving_distance
R-HSA-5676590,0.0004969444950852806,628.0,5,$\widetilde{A}_{G_5}$,moving_distance
R-HSA-9675126,0.0004965564622285139,629.0,5,$\widetilde{A}_{G_5}$,moving_distance
R-HSA-5607761,0.0004957593936567311,630.0,5,$\widetilde{A}_{G_5}$,moving_distance
R-HSA-211000,0.0004953591234134787,631.0,5,$\widetilde{A}_{G_5}$,moving_distance
R-HSA-5658442,0.0004950070130357544,632.0,5,$\widetilde{A}_{G_5}$,moving_distance
R-HSA-9674555,0.0004945209230181867,633.0,5,$\widetilde{A}_{G_5}$,moving_distance
R-HSA-110314,0.0004912114183127738,634.0,5,$\widetilde{A}_{G_5}$,moving_distance
R-HSA-68949,0.0004903744517157704,635.0,5,$\widetilde{A}_{G_5}$,moving_distance
R-HSA-9620244,0.0004903114116080403,636.0,5,$\widetilde{A}_{G_5}$,moving_distance
R-HSA-2995410,0.0004901493492695708,637.0,5,$\widetilde{A}_{G_5}$,moving_distance
R-HSA-180746,0.0004900495278597599,638.0,5,$\widetilde{A}_{G_5}$,moving_distance
R-HSA-9707587,0.0004883761572236678,639.0,5,$\widetilde{A}_{G_5}$,moving_distance
R-HSA-399721,0.0004877687271903554,640.0,5,$\widetilde{A}_{G_5}$,moving_distance
R-HSA-399719,0.00048776872719035483,641.0,5,$\widetilde{A}_{G_5}$,moving_distance
R-HSA-6804116,0.00048765891558779284,642.0,5,$\widetilde{A}_{G_5}$,moving_distance
R-HSA-71406,0.0004864146941432258,643.0,5,$\widetilde{A}_{G_5}$,moving_distance
R-HSA-349425,0.0004858456515116147,644.0,5,$\widetilde{A}_{G_5}$,moving_distance
R-HSA-6804114,0.00048578697544842444,645.0,5,$\widetilde{A}_{G_5}$,moving_distance
R-HSA-5674400,0.0004851928176530844,646.0,5,$\widetilde{A}_{G_5}$,moving_distance
R-HSA-5250941,0.0004844353185177251,647.0,5,$\widetilde{A}_{G_5}$,moving_distance
R-HSA-110313,0.00048386248006919696,648.0,5,$\widetilde{A}_{G_5}$,moving_distance
R-HSA-3928664,0.0004811530824798877,649.0,5,$\widetilde{A}_{G_5}$,moving_distance
R-HSA-4570464,0.00048015804715309166,650.0,5,$\widetilde{A}_{G_5}$,moving_distance
R-HSA-4085377,0.0004797667341325222,651.0,5,$\widetilde{A}_{G_5}$,moving_distance
R-HSA-174113,0.0004795058553659951,652.0,5,$\widetilde{A}_{G_5}$,moving_distance
R-HSA-210744,0.0004793934208270872,653.0,5,$\widetilde{A}_{G_5}$,moving_distance
R-HSA-180585,0.00047865767050050056,654.0,5,$\widetilde{A}_{G_5}$,moving_distance
R-HSA-69541,0.0004780850952282385,655.0,5,$\widetilde{A}_{G_5}$,moving_distance
R-HSA-75153,0.00047777383396728983,656.0,5,$\widetilde{A}_{G_5}$,moving_distance
R-HSA-9663891,0.00047671989510136175,657.0,5,$\widetilde{A}_{G_5}$,moving_distance
R-HSA-5607763,0.0004763712240543347,658.0,5,$\widetilde{A}_{G_5}$,moving_distance
R-HSA-9609736,0.0004757346213843138,659.0,5,$\widetilde{A}_{G_5}$,moving_distance
R-HSA-163210,0.0004756746362274416,660.0,5,$\widetilde{A}_{G_5}$,moving_distance
R-HSA-6803529,0.00047524232467324414,661.0,5,$\widetilde{A}_{G_5}$,moving_distance
R-HSA-4755510,0.0004748251832358303,662.0,5,$\widetilde{A}_{G_5}$,moving_distance
R-HSA-2465910,0.0004745901594420878,663.0,5,$\widetilde{A}_{G_5}$,moving_distance
R-HSA-111465,0.00047452047961262065,664.0,5,$\widetilde{A}_{G_5}$,moving_distance
R-HSA-5578749,0.0004734320854726206,665.0,5,$\widetilde{A}_{G_5}$,moving_distance
R-HSA-5685939,0.00047275943616854405,666.0,5,$\widetilde{A}_{G_5}$,moving_distance
R-HSA-168271,0.0004727343896099629,667.0,5,$\widetilde{A}_{G_5}$,moving_distance
R-HSA-1169091,0.0004720056765214172,668.0,5,$\widetilde{A}_{G_5}$,moving_distance
R-HSA-5619107,0.00047197191395499606,669.0,5,$\widetilde{A}_{G_5}$,moving_distance
R-HSA-168325,0.000471971913954996,670.0,5,$\widetilde{A}_{G_5}$,moving_distance
R-HSA-170822,0.00047197191395499584,671.0,5,$\widetilde{A}_{G_5}$,moving_distance
R-HSA-69202,0.00047129799365834937,672.0,5,$\widetilde{A}_{G_5}$,moving_distance
R-HSA-6784531,0.0004712551147165481,673.0,5,$\widetilde{A}_{G_5}$,moving_distance
R-HSA-8878159,0.0004707742692277001,674.0,5,$\widetilde{A}_{G_5}$,moving_distance
R-HSA-5678895,0.00047065777349253904,675.0,5,$\widetilde{A}_{G_5}$,moving_distance
R-HSA-75815,0.00047029159092661706,676.0,5,$\widetilde{A}_{G_5}$,moving_distance
R-HSA-445355,0.00047025872775745926,677.0,5,$\widetilde{A}_{G_5}$,moving_distance
R-HSA-69580,0.000469859284588324,678.0,5,$\widetilde{A}_{G_5}$,moving_distance
R-HSA-69563,0.00046985928458832365,679.0,5,$\widetilde{A}_{G_5}$,moving_distance
R-HSA-180534,0.00046863397005146855,680.0,5,$\widetilde{A}_{G_5}$,moving_distance
R-HSA-4615885,0.00046846962587341587,681.0,5,$\widetilde{A}_{G_5}$,moving_distance
R-HSA-983231,0.0004684443009900452,682.0,5,$\widetilde{A}_{G_5}$,moving_distance
R-HSA-176033,0.0004676134549131474,683.0,5,$\widetilde{A}_{G_5}$,moving_distance
R-HSA-180910,0.0004676134549131473,684.0,5,$\widetilde{A}_{G_5}$,moving_distance
R-HSA-3214847,0.00046692954038173343,685.0,5,$\widetilde{A}_{G_5}$,moving_distance
R-HSA-195253,0.00046624384206914215,686.0,5,$\widetilde{A}_{G_5}$,moving_distance
R-HSA-6807878,0.0004656353538586846,687.0,5,$\widetilde{A}_{G_5}$,moving_distance
R-HSA-114608,0.00046379351022333667,688.0,5,$\widetilde{A}_{G_5}$,moving_distance
R-HSA-69656,0.000463529762735653,689.0,5,$\widetilde{A}_{G_5}$,moving_distance
R-HSA-69615,0.00046329451467801706,690.0,5,$\widetilde{A}_{G_5}$,moving_distance
R-HSA-168276,0.00046288268598727975,691.0,5,$\widetilde{A}_{G_5}$,moving_distance
R-HSA-1168372,0.0004625696756611834,692.0,5,$\widetilde{A}_{G_5}$,moving_distance
R-HSA-5358747,0.0004620504467578665,693.5,5,$\widetilde{A}_{G_5}$,moving_distance
R-HSA-5339716,0.0004620504467578665,693.5,5,$\widetilde{A}_{G_5}$,moving_distance
R-HSA-5358751,0.00046205044675786636,695.0,5,$\widetilde{A}_{G_5}$,moving_distance
R-HSA-5358749,0.00046205044675786614,696.0,5,$\widetilde{A}_{G_5}$,moving_distance
R-HSA-4839743,0.0004620504467578659,697.0,5,$\widetilde{A}_{G_5}$,moving_distance
R-HSA-5358752,0.0004620504467578658,698.0,5,$\widetilde{A}_{G_5}$,moving_distance
R-HSA-5625970,0.00045999138818980797,699.0,5,$\widetilde{A}_{G_5}$,moving_distance
R-HSA-427413,0.0004592148306269118,700.0,5,$\widetilde{A}_{G_5}$,moving_distance
R-HSA-70171,0.00045828953075196355,701.0,5,$\widetilde{A}_{G_5}$,moving_distance
R-HSA-399955,0.00045821263720217833,702.0,5,$\widetilde{A}_{G_5}$,moving_distance
R-HSA-3899300,0.0004566088038872834,703.0,5,$\widetilde{A}_{G_5}$,moving_distance
R-HSA-450531,0.0004560372467471145,704.0,5,$\widetilde{A}_{G_5}$,moving_distance
R-HSA-169911,0.00045574183404151994,705.0,5,$\widetilde{A}_{G_5}$,moving_distance
R-HSA-211733,0.0004557418340415196,706.0,5,$\widetilde{A}_{G_5}$,moving_distance
R-HSA-8953750,0.00045159928939641716,707.0,5,$\widetilde{A}_{G_5}$,moving_distance
R-HSA-8964038,0.0004515939747136855,708.0,5,$\widetilde{A}_{G_5}$,moving_distance
R-HSA-2173795,0.0004514553908994019,709.0,5,$\widetilde{A}_{G_5}$,moving_distance
R-HSA-9696270,0.00045132435289668113,710.0,5,$\widetilde{A}_{G_5}$,moving_distance
R-HSA-3299685,0.0004504008767724559,711.0,5,$\widetilde{A}_{G_5}$,moving_distance
R-HSA-69091,0.00044924968410102754,712.0,5,$\widetilde{A}_{G_5}$,moving_distance
R-HSA-69109,0.00044924968410102743,713.0,5,$\widetilde{A}_{G_5}$,moving_distance
R-HSA-2173791,0.0004490136218987049,714.0,5,$\widetilde{A}_{G_5}$,moving_distance
R-HSA-450302,0.0004463824397119862,715.0,5,$\widetilde{A}_{G_5}$,moving_distance
R-HSA-69002,0.00044624401301231653,716.0,5,$\widetilde{A}_{G_5}$,moving_distance
R-HSA-5619102,0.0004449258477378057,717.0,5,$\widetilde{A}_{G_5}$,moving_distance
R-HSA-5619084,0.0004446487225345657,718.0,5,$\widetilde{A}_{G_5}$,moving_distance
R-HSA-176974,0.0004443088910995079,719.0,5,$\widetilde{A}_{G_5}$,moving_distance
R-HSA-2980766,0.0004425394005020617,720.0,5,$\widetilde{A}_{G_5}$,moving_distance
R-HSA-194441,0.0004425170326423627,721.0,5,$\widetilde{A}_{G_5}$,moving_distance
R-HSA-191859,0.00044251703264236236,722.0,5,$\widetilde{A}_{G_5}$,moving_distance
R-HSA-400253,0.0004425060348983579,723.0,5,$\widetilde{A}_{G_5}$,moving_distance
R-HSA-1236974,0.00044211813007824,724.0,5,$\widetilde{A}_{G_5}$,moving_distance
R-HSA-5601884,0.0004418163699572167,725.0,5,$\widetilde{A}_{G_5}$,moving_distance
R-HSA-69613,0.0004397295059852828,726.0,5,$\widetilde{A}_{G_5}$,moving_distance
R-HSA-69610,0.00043972950598528235,727.0,5,$\widetilde{A}_{G_5}$,moving_distance
R-HSA-69601,0.0004397295059852823,728.0,5,$\widetilde{A}_{G_5}$,moving_distance
R-HSA-3301854,0.00043957353213036463,729.0,5,$\widetilde{A}_{G_5}$,moving_distance
R-HSA-453276,0.0004390807845753139,730.0,5,$\widetilde{A}_{G_5}$,moving_distance
R-HSA-174143,0.0004390807845753135,731.0,5,$\widetilde{A}_{G_5}$,moving_distance
R-HSA-5362768,0.00043880231366858277,732.0,5,$\widetilde{A}_{G_5}$,moving_distance
R-HSA-5387390,0.00043880231366858196,733.0,5,$\widetilde{A}_{G_5}$,moving_distance
R-HSA-429958,0.0004385556291455968,734.0,5,$\widetilde{A}_{G_5}$,moving_distance
R-HSA-2468052,0.00043799862473207276,735.0,5,$\widetilde{A}_{G_5}$,moving_distance
R-HSA-446353,0.00043689294337102234,736.0,5,$\widetilde{A}_{G_5}$,moving_distance
R-HSA-6790901,0.0004362742021926709,737.0,5,$\widetilde{A}_{G_5}$,moving_distance
R-HSA-3769402,0.00043591999018295207,738.0,5,$\widetilde{A}_{G_5}$,moving_distance
R-HSA-176408,0.00043511936032391847,739.0,5,$\widetilde{A}_{G_5}$,moving_distance
R-HSA-68867,0.00043496777992849275,740.0,5,$\widetilde{A}_{G_5}$,moving_distance
R-HSA-202670,0.0004348910408821092,741.0,5,$\widetilde{A}_{G_5}$,moving_distance
R-HSA-69236,0.0004347795937015461,742.0,5,$\widetilde{A}_{G_5}$,moving_distance
R-HSA-69231,0.0004347795937015454,743.0,5,$\widetilde{A}_{G_5}$,moving_distance
R-HSA-446728,0.00043393577126734305,744.0,5,$\widetilde{A}_{G_5}$,moving_distance
R-HSA-428157,0.00043125842173624603,745.0,5,$\widetilde{A}_{G_5}$,moving_distance
R-HSA-1236978,0.00043046164365449134,746.0,5,$\widetilde{A}_{G_5}$,moving_distance
R-HSA-76005,0.0004297571352186133,747.0,5,$\widetilde{A}_{G_5}$,moving_distance
R-HSA-933543,0.00042766399024493076,748.0,5,$\widetilde{A}_{G_5}$,moving_distance
R-HSA-6804759,0.00042749037734280266,749.0,5,$\widetilde{A}_{G_5}$,moving_distance
R-HSA-4608870,0.00042589699611315587,750.0,5,$\widetilde{A}_{G_5}$,moving_distance
R-HSA-5358346,0.000425303462249763,751.0,5,$\widetilde{A}_{G_5}$,moving_distance
R-HSA-9617629,0.00042412273994357644,752.0,5,$\widetilde{A}_{G_5}$,moving_distance
R-HSA-4839748,0.0004236288703519227,753.0,5,$\widetilde{A}_{G_5}$,moving_distance
R-HSA-5467348,0.00042362887035192254,754.5,5,$\widetilde{A}_{G_5}$,moving_distance
R-HSA-5467340,0.00042362887035192254,754.5,5,$\widetilde{A}_{G_5}$,moving_distance
R-HSA-4839735,0.0004236288703519224,756.0,5,$\widetilde{A}_{G_5}$,moving_distance
R-HSA-5467337,0.000423628870351922,757.0,5,$\widetilde{A}_{G_5}$,moving_distance
R-HSA-4839744,0.0004236288703519218,758.0,5,$\widetilde{A}_{G_5}$,moving_distance
R-HSA-69052,0.00042339894631670616,759.0,5,$\widetilde{A}_{G_5}$,moving_distance
R-HSA-4641262,0.0004226862908477851,760.0,5,$\widetilde{A}_{G_5}$,moving_distance
R-HSA-9707616,0.00041945956004316474,761.0,5,$\widetilde{A}_{G_5}$,moving_distance
R-HSA-4641257,0.00041778144291856146,762.0,5,$\widetilde{A}_{G_5}$,moving_distance
R-HSA-4655427,0.00041662015504966303,763.0,5,$\widetilde{A}_{G_5}$,moving_distance
R-HSA-2979096,0.00041656843820311304,764.0,5,$\widetilde{A}_{G_5}$,moving_distance
R-HSA-77595,0.00041412660247349645,765.0,5,$\widetilde{A}_{G_5}$,moving_distance
R-HSA-9687139,0.0004101027013746749,766.0,5,$\widetilde{A}_{G_5}$,moving_distance
R-HSA-6794361,0.0004092665434595841,767.0,5,$\widetilde{A}_{G_5}$,moving_distance
R-HSA-2173796,0.0004088247512620143,768.0,5,$\widetilde{A}_{G_5}$,moving_distance
R-HSA-380994,0.00040828014990702247,769.0,5,$\widetilde{A}_{G_5}$,moving_distance
R-HSA-1169408,0.00040463920307025493,770.0,5,$\widetilde{A}_{G_5}$,moving_distance
R-HSA-351202,0.0004043602134352855,771.0,5,$\widetilde{A}_{G_5}$,moving_distance
R-HSA-1169410,0.0004030179216921507,772.0,5,$\widetilde{A}_{G_5}$,moving_distance
R-HSA-1445148,0.00040245097533364967,773.0,5,$\widetilde{A}_{G_5}$,moving_distance
R-HSA-2565942,0.00040229597877644417,774.0,5,$\widetilde{A}_{G_5}$,moving_distance
R-HSA-69166,0.00040153945142290873,775.0,5,$\widetilde{A}_{G_5}$,moving_distance
R-HSA-5358565,0.0004011719503813658,776.0,5,$\widetilde{A}_{G_5}$,moving_distance
R-HSA-70221,0.00039892313931133913,777.0,5,$\widetilde{A}_{G_5}$,moving_distance
R-HSA-380320,0.00039791788982322115,778.0,5,$\widetilde{A}_{G_5}$,moving_distance
R-HSA-174178,0.0003976141089709703,779.0,5,$\widetilde{A}_{G_5}$,moving_distance
R-HSA-5696394,0.0003976049494032387,780.0,5,$\widetilde{A}_{G_5}$,moving_distance
R-HSA-72306,0.00039634512669608064,781.0,5,$\widetilde{A}_{G_5}$,moving_distance
R-HSA-112409,0.00039610044016172774,782.0,5,$\widetilde{A}_{G_5}$,moving_distance
R-HSA-380259,0.0003956602680530647,783.0,5,$\widetilde{A}_{G_5}$,moving_distance
R-HSA-380284,0.0003956602680530643,784.0,5,$\widetilde{A}_{G_5}$,moving_distance
R-HSA-5358606,0.00039513556598171697,785.0,5,$\widetilde{A}_{G_5}$,moving_distance
R-HSA-382556,0.0003943538163614072,786.0,5,$\widetilde{A}_{G_5}$,moving_distance
R-HSA-72187,0.0003942184797119193,787.0,5,$\widetilde{A}_{G_5}$,moving_distance
R-HSA-69273,0.0003940174343494701,788.0,5,$\widetilde{A}_{G_5}$,moving_distance
R-HSA-450513,0.00039395566465001263,789.0,5,$\widetilde{A}_{G_5}$,moving_distance
R-HSA-9709957,0.0003937538609348022,790.0,5,$\widetilde{A}_{G_5}$,moving_distance
R-HSA-68827,0.00039363446293593315,791.0,5,$\widetilde{A}_{G_5}$,moving_distance
R-HSA-8854518,0.00039233930407023303,792.0,5,$\widetilde{A}_{G_5}$,moving_distance
R-HSA-4791275,0.0003908444900075919,793.0,5,$\widetilde{A}_{G_5}$,moving_distance
R-HSA-5627117,0.0003890708189216237,794.0,5,$\widetilde{A}_{G_5}$,moving_distance
R-HSA-193692,0.00038779734882902654,795.0,5,$\widetilde{A}_{G_5}$,moving_distance
R-HSA-69017,0.0003875503070068655,796.0,5,$\widetilde{A}_{G_5}$,moving_distance
R-HSA-111367,0.0003872136906698875,797.0,5,$\widetilde{A}_{G_5}$,moving_distance
R-HSA-174437,0.00038656271764638634,798.0,5,$\widetilde{A}_{G_5}$,moving_distance
R-HSA-69183,0.00038459483302313917,799.0,5,$\widetilde{A}_{G_5}$,moving_distance
R-HSA-1483255,0.0003842603083675253,800.0,5,$\widetilde{A}_{G_5}$,moving_distance
R-HSA-113501,0.0003832947235216662,801.0,5,$\widetilde{A}_{G_5}$,moving_distance
R-HSA-5358508,0.0003831266041568667,802.0,5,$\widetilde{A}_{G_5}$,moving_distance
R-HSA-350562,0.00038180598586358297,803.0,5,$\widetilde{A}_{G_5}$,moving_distance
R-HSA-1538133,0.0003815656869281855,804.0,5,$\widetilde{A}_{G_5}$,moving_distance
R-HSA-429947,0.00038131861816372936,805.0,5,$\widetilde{A}_{G_5}$,moving_distance
R-HSA-72165,0.00038079601554960824,806.0,5,$\widetilde{A}_{G_5}$,moving_distance
R-HSA-8851708,0.000380606924615721,807.0,5,$\widetilde{A}_{G_5}$,moving_distance
R-HSA-442742,0.0003805421557518983,808.0,5,$\widetilde{A}_{G_5}$,moving_distance
R-HSA-450604,0.000379576779286315,809.0,5,$\widetilde{A}_{G_5}$,moving_distance
R-HSA-174184,0.00037862810345954366,810.0,5,$\widetilde{A}_{G_5}$,moving_distance
R-HSA-174084,0.0003782065027633256,811.0,5,$\widetilde{A}_{G_5}$,moving_distance
R-HSA-171007,0.00037797537096474,812.0,5,$\widetilde{A}_{G_5}$,moving_distance
R-HSA-111471,0.00037785672555827756,813.0,5,$\widetilde{A}_{G_5}$,moving_distance
R-HSA-3215018,0.00037750187695450703,814.0,5,$\widetilde{A}_{G_5}$,moving_distance
R-HSA-73856,0.0003773934098655027,815.0,5,$\widetilde{A}_{G_5}$,moving_distance
R-HSA-179419,0.0003773639586724054,816.0,5,$\widetilde{A}_{G_5}$,moving_distance
R-HSA-176814,0.00037604888246003975,817.0,5,$\widetilde{A}_{G_5}$,moving_distance
R-HSA-9617828,0.00037362746659374895,818.0,5,$\widetilde{A}_{G_5}$,moving_distance
R-HSA-8949613,0.0003732773799103496,819.0,5,$\widetilde{A}_{G_5}$,moving_distance
R-HSA-8949215,0.00037263587123710873,820.0,5,$\widetilde{A}_{G_5}$,moving_distance
R-HSA-176409,0.00037257693053943756,821.0,5,$\widetilde{A}_{G_5}$,moving_distance
R-HSA-174154,0.0003724076263028776,822.0,5,$\widetilde{A}_{G_5}$,moving_distance
R-HSA-1362277,0.0003712778837759027,823.0,5,$\widetilde{A}_{G_5}$,moving_distance
R-HSA-69190,0.00037096449455388715,824.0,5,$\widetilde{A}_{G_5}$,moving_distance
R-HSA-5651801,0.000370418904694135,825.0,5,$\widetilde{A}_{G_5}$,moving_distance
R-HSA-176187,0.00036878096449465404,826.0,5,$\widetilde{A}_{G_5}$,moving_distance
R-HSA-171319,0.0003674971719915569,827.0,5,$\widetilde{A}_{G_5}$,moving_distance
R-HSA-6791312,0.00036741276621053904,828.0,5,$\widetilde{A}_{G_5}$,moving_distance
R-HSA-5696397,0.00036650727517514164,829.0,5,$\widetilde{A}_{G_5}$,moving_distance
R-HSA-8939243,0.0003661047442011976,830.0,5,$\widetilde{A}_{G_5}$,moving_distance
R-HSA-203927,0.00036590771120677837,831.0,5,$\widetilde{A}_{G_5}$,moving_distance
R-HSA-174414,0.0003654782937372574,832.0,5,$\widetilde{A}_{G_5}$,moving_distance
R-HSA-77588,0.00036474979321151225,833.0,5,$\widetilde{A}_{G_5}$,moving_distance
R-HSA-6811436,0.00036462608812168237,834.0,5,$\widetilde{A}_{G_5}$,moving_distance
R-HSA-5689603,0.00036221706023255665,835.0,5,$\widetilde{A}_{G_5}$,moving_distance
R-HSA-450385,0.00036164725610358093,836.0,5,$\widetilde{A}_{G_5}$,moving_distance
R-HSA-1980145,0.00036082039016676346,837.0,5,$\widetilde{A}_{G_5}$,moving_distance
R-HSA-400685,0.0003606977839103574,838.0,5,$\widetilde{A}_{G_5}$,moving_distance
R-HSA-380287,0.00036032262805157445,839.0,5,$\widetilde{A}_{G_5}$,moving_distance
R-HSA-380270,0.00036032262805157407,840.0,5,$\widetilde{A}_{G_5}$,moving_distance
R-HSA-2028269,0.0003601448957337485,841.0,5,$\widetilde{A}_{G_5}$,moving_distance
R-HSA-6805567,0.00035982221925594243,842.0,5,$\widetilde{A}_{G_5}$,moving_distance
R-HSA-6809371,0.00035982221925594216,843.0,5,$\widetilde{A}_{G_5}$,moving_distance
R-HSA-75067,0.0003585821094220574,844.0,5,$\widetilde{A}_{G_5}$,moving_distance
R-HSA-1483206,0.0003574232242314556,845.0,5,$\widetilde{A}_{G_5}$,moving_distance
R-HSA-9617324,0.00035638449519686643,846.0,5,$\widetilde{A}_{G_5}$,moving_distance
R-HSA-5696395,0.0003561988905283888,847.0,5,$\widetilde{A}_{G_5}$,moving_distance
R-HSA-4641265,0.00035531056095418914,848.0,5,$\widetilde{A}_{G_5}$,moving_distance
R-HSA-5628897,0.0003547021247349666,849.0,5,$\widetilde{A}_{G_5}$,moving_distance
R-HSA-917977,0.00035289227739223575,850.0,5,$\widetilde{A}_{G_5}$,moving_distance
R-HSA-8949664,0.00035043318694950404,851.0,5,$\widetilde{A}_{G_5}$,moving_distance
R-HSA-5696400,0.0003504296727048021,852.0,5,$\widetilde{A}_{G_5}$,moving_distance
R-HSA-442982,0.0003500830190319654,853.0,5,$\widetilde{A}_{G_5}$,moving_distance
R-HSA-2559584,0.000350056617646009,854.0,5,$\widetilde{A}_{G_5}$,moving_distance
R-HSA-430039,0.0003491013406493024,855.0,5,$\widetilde{A}_{G_5}$,moving_distance
R-HSA-174411,0.0003486161401308015,856.0,5,$\widetilde{A}_{G_5}$,moving_distance
R-HSA-69186,0.00034820034751713384,857.0,5,$\widetilde{A}_{G_5}$,moving_distance
R-HSA-381340,0.0003480216528573563,858.0,5,$\widetilde{A}_{G_5}$,moving_distance
R-HSA-416572,0.0003474844252334397,859.0,5,$\widetilde{A}_{G_5}$,moving_distance
R-HSA-113510,0.00034664664195856317,860.0,5,$\widetilde{A}_{G_5}$,moving_distance
R-HSA-6811434,0.00034605001528556603,861.0,5,$\widetilde{A}_{G_5}$,moving_distance
R-HSA-164940,0.00034595686569822986,862.0,5,$\widetilde{A}_{G_5}$,moving_distance
R-HSA-110373,0.0003438908637453344,863.0,5,$\widetilde{A}_{G_5}$,moving_distance
R-HSA-141405,0.00034287619727154896,864.0,5,$\widetilde{A}_{G_5}$,moving_distance
R-HSA-141430,0.00034287619727154886,865.0,5,$\widetilde{A}_{G_5}$,moving_distance
R-HSA-6781823,0.0003424130210325503,866.0,5,$\widetilde{A}_{G_5}$,moving_distance
R-HSA-5693616,0.0003401809764101292,867.0,5,$\widetilde{A}_{G_5}$,moving_distance
R-HSA-71403,0.0003401152339270451,868.0,5,$\widetilde{A}_{G_5}$,moving_distance
R-HSA-3108214,0.00033875402667328926,869.0,5,$\widetilde{A}_{G_5}$,moving_distance
R-HSA-6794362,0.00033842383982332153,870.0,5,$\widetilde{A}_{G_5}$,moving_distance
R-HSA-381426,0.00033669360398649813,871.0,5,$\widetilde{A}_{G_5}$,moving_distance
R-HSA-176407,0.0003358699879842203,872.0,5,$\widetilde{A}_{G_5}$,moving_distance
R-HSA-6782210,0.0003348070257323467,873.0,5,$\widetilde{A}_{G_5}$,moving_distance
R-HSA-73933,0.00033400899593964294,874.0,5,$\widetilde{A}_{G_5}$,moving_distance
R-HSA-176412,0.0003331350962806769,875.0,5,$\widetilde{A}_{G_5}$,moving_distance
R-HSA-73762,0.0003328254997362139,876.0,5,$\widetilde{A}_{G_5}$,moving_distance
R-HSA-429914,0.0003292904941330589,877.0,5,$\widetilde{A}_{G_5}$,moving_distance
R-HSA-6782135,0.0003248942472194041,878.0,5,$\widetilde{A}_{G_5}$,moving_distance
R-HSA-68962,0.00032435112464109547,879.0,5,$\widetilde{A}_{G_5}$,moving_distance
R-HSA-6781827,0.0003228436920286044,880.0,5,$\widetilde{A}_{G_5}$,moving_distance
R-HSA-8856688,0.00032247929281510644,881.0,5,$\widetilde{A}_{G_5}$,moving_distance
R-HSA-983170,0.00032215265215355184,882.0,5,$\widetilde{A}_{G_5}$,moving_distance
R-HSA-6804756,0.000318875608589625,883.0,5,$\widetilde{A}_{G_5}$,moving_distance
R-HSA-156711,0.0003187718794953199,884.0,5,$\widetilde{A}_{G_5}$,moving_distance
R-HSA-9013026,0.0003180574971818766,885.0,5,$\widetilde{A}_{G_5}$,moving_distance
R-HSA-167242,0.00031795407988285826,886.0,5,$\widetilde{A}_{G_5}$,moving_distance
R-HSA-167243,0.00031699869081225167,887.0,5,$\widetilde{A}_{G_5}$,moving_distance
R-HSA-167238,0.0003169986908122509,888.0,5,$\widetilde{A}_{G_5}$,moving_distance
R-HSA-5696399,0.00031659934975374505,889.0,5,$\widetilde{A}_{G_5}$,moving_distance
R-HSA-917937,0.00031529173933605276,890.0,5,$\widetilde{A}_{G_5}$,moving_distance
R-HSA-532668,0.0003143242526062454,891.0,5,$\widetilde{A}_{G_5}$,moving_distance
R-HSA-3000170,0.0003133708054731042,892.0,5,$\widetilde{A}_{G_5}$,moving_distance
R-HSA-2151201,0.0003132375161389672,893.0,5,$\widetilde{A}_{G_5}$,moving_distance
R-HSA-1222556,0.0003132259945287278,894.0,5,$\widetilde{A}_{G_5}$,moving_distance
R-HSA-9687136,0.0003131521450390588,895.0,5,$\widetilde{A}_{G_5}$,moving_distance
R-HSA-166208,0.0003129966818817906,896.0,5,$\widetilde{A}_{G_5}$,moving_distance
R-HSA-1362300,0.0003103687614839321,897.0,5,$\widetilde{A}_{G_5}$,moving_distance
R-HSA-381042,0.00030785839078755194,898.0,5,$\widetilde{A}_{G_5}$,moving_distance
R-HSA-167290,0.00030773667904564916,899.0,5,$\widetilde{A}_{G_5}$,moving_distance
R-HSA-167287,0.0003077366790456491,900.0,5,$\widetilde{A}_{G_5}$,moving_distance
R-HSA-180786,0.00030743832859048305,901.0,5,$\widetilde{A}_{G_5}$,moving_distance
R-HSA-9614657,0.00030639266528480105,902.0,5,$\widetilde{A}_{G_5}$,moving_distance
R-HSA-432720,0.0003051068948813391,903.0,5,$\widetilde{A}_{G_5}$,moving_distance
R-HSA-1368082,0.0003045098303991354,904.0,5,$\widetilde{A}_{G_5}$,moving_distance
R-HSA-162588,0.00030378113080271483,905.0,5,$\widetilde{A}_{G_5}$,moving_distance
R-HSA-73863,0.0003012876456257355,906.0,5,$\widetilde{A}_{G_5}$,moving_distance
R-HSA-69205,0.0003011029259533631,907.0,5,$\widetilde{A}_{G_5}$,moving_distance
R-HSA-6803204,0.00030090292585031875,908.0,5,$\widetilde{A}_{G_5}$,moving_distance
R-HSA-9013106,0.00030022208878446475,909.0,5,$\widetilde{A}_{G_5}$,moving_distance
R-HSA-5693579,0.00029950541098150955,910.0,5,$\widetilde{A}_{G_5}$,moving_distance
R-HSA-389661,0.00029575982064606606,911.0,5,$\widetilde{A}_{G_5}$,moving_distance
R-HSA-72086,0.0002952422721300925,912.0,5,$\widetilde{A}_{G_5}$,moving_distance
R-HSA-5620912,0.000295025079985542,913.0,5,$\widetilde{A}_{G_5}$,moving_distance
R-HSA-6796648,0.00029479045948440854,914.0,5,$\widetilde{A}_{G_5}$,moving_distance
R-HSA-9659787,0.0002916305145462381,915.0,5,$\widetilde{A}_{G_5}$,moving_distance
R-HSA-9661069,0.00029163051454623805,916.0,5,$\widetilde{A}_{G_5}$,moving_distance
R-HSA-174824,0.0002895841661410119,917.0,5,$\widetilde{A}_{G_5}$,moving_distance
R-HSA-174048,0.00028474462849999925,918.0,5,$\widetilde{A}_{G_5}$,moving_distance
R-HSA-4086398,0.0002837738636333485,919.0,5,$\widetilde{A}_{G_5}$,moving_distance
R-HSA-167246,0.00028227751775099344,920.0,5,$\widetilde{A}_{G_5}$,moving_distance
R-HSA-167169,0.0002822775177509933,921.0,5,$\widetilde{A}_{G_5}$,moving_distance
R-HSA-167200,0.00028227751775099317,922.0,5,$\widetilde{A}_{G_5}$,moving_distance
R-HSA-1362409,0.00028200917582042376,923.0,5,$\widetilde{A}_{G_5}$,moving_distance
R-HSA-210991,0.0002810627345762071,924.0,5,$\widetilde{A}_{G_5}$,moving_distance
R-HSA-9603798,0.00028081191889171706,925.0,5,$\widetilde{A}_{G_5}$,moving_distance
R-HSA-75955,0.0002805774190613205,926.0,5,$\widetilde{A}_{G_5}$,moving_distance
R-HSA-112382,0.00028057741906132016,927.0,5,$\widetilde{A}_{G_5}$,moving_distance
R-HSA-1268020,0.0002805550103573092,928.0,5,$\widetilde{A}_{G_5}$,moving_distance
R-HSA-174417,0.00027971797004655693,929.0,5,$\widetilde{A}_{G_5}$,moving_distance
R-HSA-400206,0.00027957192687073614,930.0,5,$\widetilde{A}_{G_5}$,moving_distance
R-HSA-1989781,0.0002795105199350307,931.0,5,$\widetilde{A}_{G_5}$,moving_distance
R-HSA-1630316,0.00027934637057577745,932.0,5,$\widetilde{A}_{G_5}$,moving_distance
R-HSA-167152,0.00027873147962229435,933.0,5,$\widetilde{A}_{G_5}$,moving_distance
R-HSA-159231,0.0002785466134314051,934.0,5,$\widetilde{A}_{G_5}$,moving_distance
R-HSA-901042,0.00027751055089743733,935.0,5,$\widetilde{A}_{G_5}$,moving_distance
R-HSA-167160,0.00027577822489275596,936.0,5,$\widetilde{A}_{G_5}$,moving_distance
R-HSA-77075,0.00027577822489275585,937.0,5,$\widetilde{A}_{G_5}$,moving_distance
R-HSA-1483257,0.00027567644596878115,938.0,5,$\widetilde{A}_{G_5}$,moving_distance
R-HSA-5620916,0.00027427253687875634,939.0,5,$\widetilde{A}_{G_5}$,moving_distance
R-HSA-5633008,0.00027409601916040816,940.0,5,$\widetilde{A}_{G_5}$,moving_distance
R-HSA-1655829,0.0002734075854748384,941.0,5,$\widetilde{A}_{G_5}$,moving_distance
R-HSA-167158,0.0002733454305243682,942.0,5,$\widetilde{A}_{G_5}$,moving_distance
R-HSA-113418,0.00027334543052436803,943.0,5,$\widetilde{A}_{G_5}$,moving_distance
R-HSA-2426168,0.00027234130560102577,944.0,5,$\widetilde{A}_{G_5}$,moving_distance
R-HSA-159234,0.0002723033126022782,945.0,5,$\widetilde{A}_{G_5}$,moving_distance
R-HSA-917729,0.0002675521564994674,946.0,5,$\widetilde{A}_{G_5}$,moving_distance
R-HSA-5685938,0.0002661661426920593,947.0,5,$\widetilde{A}_{G_5}$,moving_distance
R-HSA-381033,0.0002660382283837448,948.0,5,$\widetilde{A}_{G_5}$,moving_distance
R-HSA-432722,0.00026559997581020216,949.0,5,$\widetilde{A}_{G_5}$,moving_distance
R-HSA-9627069,0.0002623256849025568,950.0,5,$\widetilde{A}_{G_5}$,moving_distance
R-HSA-111458,0.00026232568490255665,951.0,5,$\widetilde{A}_{G_5}$,moving_distance
R-HSA-901032,0.00026048702475671393,952.0,5,$\widetilde{A}_{G_5}$,moving_distance
R-HSA-5389840,0.00025455959846910285,953.0,5,$\widetilde{A}_{G_5}$,moving_distance
R-HSA-199992,0.00025236157169510574,954.0,5,$\widetilde{A}_{G_5}$,moving_distance
R-HSA-165159,0.000251345867903773,955.0,5,$\widetilde{A}_{G_5}$,moving_distance
R-HSA-674695,0.0002496833802464082,956.0,5,$\widetilde{A}_{G_5}$,moving_distance
R-HSA-1368108,0.00024926956352911946,957.0,5,$\widetilde{A}_{G_5}$,moving_distance
R-HSA-9609523,0.00024917180527753467,958.0,5,$\widetilde{A}_{G_5}$,moving_distance
R-HSA-8866654,0.00024898687038307337,959.0,5,$\widetilde{A}_{G_5}$,moving_distance
R-HSA-5693554,0.0002475524445241,960.0,5,$\widetilde{A}_{G_5}$,moving_distance
R-HSA-5368287,0.000245493667085276,961.0,5,$\widetilde{A}_{G_5}$,moving_distance
R-HSA-159227,0.0002453667282268479,962.0,5,$\widetilde{A}_{G_5}$,moving_distance
R-HSA-1592230,0.00024471225495883666,963.0,5,$\widetilde{A}_{G_5}$,moving_distance
R-HSA-8866652,0.0002444801816180613,964.0,5,$\widetilde{A}_{G_5}$,moving_distance
R-HSA-9029569,0.00024195681479362822,965.0,5,$\widetilde{A}_{G_5}$,moving_distance
R-HSA-111461,0.00024139939141911467,966.0,5,$\widetilde{A}_{G_5}$,moving_distance
R-HSA-167172,0.00024099163496051613,967.0,5,$\widetilde{A}_{G_5}$,moving_distance
R-HSA-159230,0.00023868418681061572,968.0,5,$\widetilde{A}_{G_5}$,moving_distance
R-HSA-5368286,0.0002379968808831272,969.0,5,$\widetilde{A}_{G_5}$,moving_distance
R-HSA-5419276,0.00023682001968266817,970.0,5,$\widetilde{A}_{G_5}$,moving_distance
R-HSA-179409,0.00023548622956259002,971.0,5,$\widetilde{A}_{G_5}$,moving_distance
R-HSA-75953,0.0002321632383976733,972.0,5,$\widetilde{A}_{G_5}$,moving_distance
R-HSA-167162,0.00023216323839767323,973.0,5,$\widetilde{A}_{G_5}$,moving_distance
R-HSA-76042,0.0002321632383976732,974.0,5,$\widetilde{A}_{G_5}$,moving_distance
R-HSA-73779,0.00023216323839767318,975.5,5,$\widetilde{A}_{G_5}$,moving_distance
R-HSA-73776,0.00023216323839767318,975.5,5,$\widetilde{A}_{G_5}$,moving_distance
R-HSA-167161,0.00023216323839767301,977.0,5,$\widetilde{A}_{G_5}$,moving_distance
R-HSA-8876198,0.0002315049132195117,978.0,5,$\widetilde{A}_{G_5}$,moving_distance
R-HSA-181429,0.00023107858572816333,981.0,5,$\widetilde{A}_{G_5}$,moving_distance
R-HSA-210500,0.00023107858572816333,981.0,5,$\widetilde{A}_{G_5}$,moving_distance
R-HSA-212676,0.00023107858572816333,981.0,5,$\widetilde{A}_{G_5}$,moving_distance
R-HSA-264642,0.00023107858572816333,981.0,5,$\widetilde{A}_{G_5}$,moving_distance
R-HSA-181430,0.00023107858572816333,981.0,5,$\widetilde{A}_{G_5}$,moving_distance
R-HSA-141444,0.00023069894041982802,984.5,5,$\widetilde{A}_{G_5}$,moving_distance
R-HSA-141424,0.00023069894041982802,984.5,5,$\widetilde{A}_{G_5}$,moving_distance
R-HSA-6799198,0.0002304942778265701,986.0,5,$\widetilde{A}_{G_5}$,moving_distance
R-HSA-5620924,0.00022782675263205917,987.0,5,$\widetilde{A}_{G_5}$,moving_distance
R-HSA-5685942,0.00022395837771424143,988.0,5,$\widetilde{A}_{G_5}$,moving_distance
R-HSA-6807505,0.00022268263397922592,989.0,5,$\widetilde{A}_{G_5}$,moving_distance
R-HSA-8852135,0.00022068726904815068,990.0,5,$\widetilde{A}_{G_5}$,moving_distance
R-HSA-380972,0.0002189210568435954,991.0,5,$\widetilde{A}_{G_5}$,moving_distance
R-HSA-3000171,0.00021677779448533034,992.0,5,$\widetilde{A}_{G_5}$,moving_distance
R-HSA-5668914,0.00021373957861818663,993.0,5,$\widetilde{A}_{G_5}$,moving_distance
R-HSA-6783310,0.00020658597697654143,994.0,5,$\widetilde{A}_{G_5}$,moving_distance
R-HSA-9022692,0.000205831742616751,995.0,5,$\widetilde{A}_{G_5}$,moving_distance
R-HSA-5693568,0.00020364616791295807,996.0,5,$\widetilde{A}_{G_5}$,moving_distance
R-HSA-8854214,0.00020232789998619186,997.0,5,$\widetilde{A}_{G_5}$,moving_distance
R-HSA-76066,0.00020163936917191836,998.0,5,$\widetilde{A}_{G_5}$,moving_distance
R-HSA-5693537,0.0001989863534942495,999.0,5,$\widetilde{A}_{G_5}$,moving_distance
R-HSA-196854,0.00019890575513590547,1000.0,5,$\widetilde{A}_{G_5}$,moving_distance
R-HSA-9024446,0.00019652087614953172,1001.0,5,$\widetilde{A}_{G_5}$,moving_distance
R-HSA-9639288,0.0001942291868120001,1002.0,5,$\widetilde{A}_{G_5}$,moving_distance
R-HSA-76061,0.00019411459339768616,1003.0,5,$\widetilde{A}_{G_5}$,moving_distance
R-HSA-8986944,0.00019241405561632892,1004.0,5,$\widetilde{A}_{G_5}$,moving_distance
R-HSA-2559585,0.00019115678420103887,1005.0,5,$\widetilde{A}_{G_5}$,moving_distance
R-HSA-611105,0.00018950506048328892,1006.0,5,$\widetilde{A}_{G_5}$,moving_distance
R-HSA-73780,0.0001794992124603839,1007.0,5,$\widetilde{A}_{G_5}$,moving_distance
R-HSA-73980,0.00017949921246038334,1008.0,5,$\widetilde{A}_{G_5}$,moving_distance
R-HSA-112310,0.0001776782377221752,1009.0,5,$\widetilde{A}_{G_5}$,moving_distance
R-HSA-5620920,0.00017169877338376604,1010.0,5,$\widetilde{A}_{G_5}$,moving_distance
R-HSA-749476,0.00016299966001640128,1011.0,5,$\widetilde{A}_{G_5}$,moving_distance
R-HSA-76046,0.0001629996600164011,1012.0,5,$\widetilde{A}_{G_5}$,moving_distance
R-HSA-74158,0.00016299966001640095,1013.0,5,$\widetilde{A}_{G_5}$,moving_distance
R-HSA-5694530,0.00016188010135326285,1014.0,5,$\widetilde{A}_{G_5}$,moving_distance
R-HSA-140877,0.00015550077239394775,1015.0,5,$\widetilde{A}_{G_5}$,moving_distance
R-HSA-3781865,0.00015310335589413288,1016.0,5,$\widetilde{A}_{G_5}$,moving_distance
R-HSA-163841,0.00015161535288741026,1017.0,5,$\widetilde{A}_{G_5}$,moving_distance
R-HSA-8853884,0.00014982658662807707,1018.0,5,$\widetilde{A}_{G_5}$,moving_distance
R-HSA-8873719,0.00014115083155764586,1019.0,5,$\widetilde{A}_{G_5}$,moving_distance
R-HSA-201451,0.00013816179517735626,1020.0,5,$\widetilde{A}_{G_5}$,moving_distance
R-HSA-76071,0.00012830077495792325,1021.0,5,$\widetilde{A}_{G_5}$,moving_distance
R-HSA-9033241,0.00012623273753494424,1022.0,5,$\widetilde{A}_{G_5}$,moving_distance
R-HSA-204005,0.00012031074084233097,1023.0,5,$\widetilde{A}_{G_5}$,moving_distance
R-HSA-6811440,0.00010179693301891961,1024.0,5,$\widetilde{A}_{G_5}$,moving_distance
R-HSA-6811438,7.757084435490462e-05,1025.0,5,$\widetilde{A}_{G_5}$,moving_distance
R-HSA-5620922,4.53723153024585e-05,1026.0,5,$\widetilde{A}_{G_5}$,moving_distance
