entity,score,rank,graphlet,graphlet_adj,score_method
R-HSA-4641263,0.004381710258177814,1.0,5,$\widetilde{A}_{G_5}$,hybrid
R-HSA-2424491,0.0038777315630224504,2.0,5,$\widetilde{A}_{G_5}$,hybrid
R-HSA-2172127,0.00327410784568842,3.0,5,$\widetilde{A}_{G_5}$,hybrid
R-HSA-5654699,0.00251778288045157,4.0,5,$\widetilde{A}_{G_5}$,hybrid
R-HSA-2029481,0.002467563153663012,5.0,5,$\widetilde{A}_{G_5}$,hybrid
R-HSA-5637812,0.002406925677503314,6.0,5,$\widetilde{A}_{G_5}$,hybrid
R-HSA-5637810,0.002406925677503313,7.0,5,$\widetilde{A}_{G_5}$,hybrid
R-HSA-912446,0.002329139943162209,8.0,5,$\widetilde{A}_{G_5}$,hybrid
R-HSA-9665348,0.0022369171054729873,9.0,5,$\widetilde{A}_{G_5}$,hybrid
R-HSA-983695,0.0022230661426745225,10.0,5,$\widetilde{A}_{G_5}$,hybrid
R-HSA-1236382,0.0022210163146465065,11.0,5,$\widetilde{A}_{G_5}$,hybrid
R-HSA-5637815,0.0022210163146465056,12.0,5,$\widetilde{A}_{G_5}$,hybrid
R-HSA-166663,0.002162652332449047,13.0,5,$\widetilde{A}_{G_5}$,hybrid
R-HSA-8864260,0.002119280300181224,14.0,5,$\widetilde{A}_{G_5}$,hybrid
R-HSA-69473,0.0021167927533339835,15.0,5,$\widetilde{A}_{G_5}$,hybrid
R-HSA-427389,0.0020841596981707113,16.0,5,$\widetilde{A}_{G_5}$,hybrid
R-HSA-180336,0.0020830035435602363,17.0,5,$\widetilde{A}_{G_5}$,hybrid
R-HSA-389359,0.0020672243953381002,18.0,5,$\widetilde{A}_{G_5}$,hybrid
R-HSA-198933,0.002060298043867763,19.0,5,$\widetilde{A}_{G_5}$,hybrid
R-HSA-5654688,0.0020473780798628545,20.0,5,$\widetilde{A}_{G_5}$,hybrid
R-HSA-5693606,0.002046617033572007,21.0,5,$\widetilde{A}_{G_5}$,hybrid
R-HSA-166658,0.002042016064190678,22.0,5,$\widetilde{A}_{G_5}$,hybrid
R-HSA-5693565,0.0020200408548938023,23.0,5,$\widetilde{A}_{G_5}$,hybrid
R-HSA-8939236,0.0020128821194975157,24.0,5,$\widetilde{A}_{G_5}$,hybrid
R-HSA-1963640,0.002012167937388792,25.0,5,$\widetilde{A}_{G_5}$,hybrid
R-HSA-1963642,0.0019906980045931635,26.0,5,$\widetilde{A}_{G_5}$,hybrid
R-HSA-1500620,0.0019809899284443824,27.0,5,$\widetilde{A}_{G_5}$,hybrid
R-HSA-1474165,0.0019809899284443815,28.0,5,$\widetilde{A}_{G_5}$,hybrid
R-HSA-201722,0.0019804693518795866,29.0,5,$\widetilde{A}_{G_5}$,hybrid
R-HSA-5693607,0.001968081417393996,30.0,5,$\widetilde{A}_{G_5}$,hybrid
R-HSA-9616222,0.001946025436213738,31.0,5,$\widetilde{A}_{G_5}$,hybrid
R-HSA-9634285,0.0019198801434287276,32.0,5,$\widetilde{A}_{G_5}$,hybrid
R-HSA-5655291,0.0019083482730930363,33.0,5,$\widetilde{A}_{G_5}$,hybrid
R-HSA-5654700,0.0019026732149611456,34.0,5,$\widetilde{A}_{G_5}$,hybrid
R-HSA-209560,0.0019005229367482779,35.0,5,$\widetilde{A}_{G_5}$,hybrid
R-HSA-5693571,0.0018921680196983754,36.0,5,$\widetilde{A}_{G_5}$,hybrid
R-HSA-1643713,0.0018898717493222726,37.0,5,$\widetilde{A}_{G_5}$,hybrid
R-HSA-5654743,0.0018867907478672167,38.0,5,$\widetilde{A}_{G_5}$,hybrid
R-HSA-977606,0.00188180778053253,39.0,5,$\widetilde{A}_{G_5}$,hybrid
R-HSA-9609690,0.0018816898204015785,40.0,5,$\widetilde{A}_{G_5}$,hybrid
R-HSA-2730905,0.0018696951962012284,41.0,5,$\widetilde{A}_{G_5}$,hybrid
R-HSA-9673767,0.0018591470429828517,42.5,5,$\widetilde{A}_{G_5}$,hybrid
R-HSA-9673770,0.0018591470429828517,42.5,5,$\widetilde{A}_{G_5}$,hybrid
R-HSA-4090294,0.0018553432835482144,44.0,5,$\widetilde{A}_{G_5}$,hybrid
R-HSA-5250913,0.0018523871488615566,45.0,5,$\widetilde{A}_{G_5}$,hybrid
R-HSA-5654716,0.0018477294377206026,46.0,5,$\widetilde{A}_{G_5}$,hybrid
R-HSA-5654696,0.0018398299382364795,47.0,5,$\widetilde{A}_{G_5}$,hybrid
R-HSA-5654695,0.0018344047672762597,48.0,5,$\widetilde{A}_{G_5}$,hybrid
R-HSA-9710421,0.0018340721144727077,49.0,5,$\widetilde{A}_{G_5}$,hybrid
R-HSA-9664565,0.0018305136464692858,50.0,5,$\widetilde{A}_{G_5}$,hybrid
R-HSA-390450,0.0018187828277199392,51.0,5,$\widetilde{A}_{G_5}$,hybrid
R-HSA-5625900,0.0018148488421418569,52.0,5,$\widetilde{A}_{G_5}$,hybrid
R-HSA-9665686,0.0018095768884693567,53.0,5,$\widetilde{A}_{G_5}$,hybrid
R-HSA-5654741,0.001804823011374511,54.0,5,$\widetilde{A}_{G_5}$,hybrid
R-HSA-9613829,0.0018039200629315524,55.0,5,$\widetilde{A}_{G_5}$,hybrid
R-HSA-8851805,0.0017997381241967251,56.0,5,$\widetilde{A}_{G_5}$,hybrid
R-HSA-8853334,0.0017990624664351756,57.0,5,$\widetilde{A}_{G_5}$,hybrid
R-HSA-1227990,0.0017834770174262613,58.0,5,$\widetilde{A}_{G_5}$,hybrid
R-HSA-212300,0.0017785681838842352,59.0,5,$\widetilde{A}_{G_5}$,hybrid
R-HSA-9682385,0.0017754663744543862,60.0,5,$\widetilde{A}_{G_5}$,hybrid
R-HSA-1912408,0.0017708051313778165,61.0,5,$\widetilde{A}_{G_5}$,hybrid
R-HSA-912631,0.0017667509575944056,62.0,5,$\widetilde{A}_{G_5}$,hybrid
R-HSA-9645723,0.0017393818189737496,63.0,5,$\widetilde{A}_{G_5}$,hybrid
R-HSA-389948,0.001736981438856252,64.0,5,$\widetilde{A}_{G_5}$,hybrid
R-HSA-5654727,0.0017343539820414275,65.0,5,$\widetilde{A}_{G_5}$,hybrid
R-HSA-5654712,0.001729129100200903,66.0,5,$\widetilde{A}_{G_5}$,hybrid
R-HSA-1221632,0.0017273593546756419,67.0,5,$\widetilde{A}_{G_5}$,hybrid
R-HSA-5625740,0.001706391940327781,68.0,5,$\widetilde{A}_{G_5}$,hybrid
R-HSA-2559586,0.0017015388695798615,69.0,5,$\widetilde{A}_{G_5}$,hybrid
R-HSA-1660499,0.0017009641962725522,70.0,5,$\widetilde{A}_{G_5}$,hybrid
R-HSA-5655332,0.0016974007574622012,71.5,5,$\widetilde{A}_{G_5}$,hybrid
R-HSA-8853338,0.0016974007574622012,71.5,5,$\widetilde{A}_{G_5}$,hybrid
R-HSA-512988,0.0016970039978437515,73.0,5,$\widetilde{A}_{G_5}$,hybrid
R-HSA-5654689,0.0016926606338902824,74.0,5,$\widetilde{A}_{G_5}$,hybrid
R-HSA-180292,0.0016923907934759,75.0,5,$\widetilde{A}_{G_5}$,hybrid
R-HSA-68884,0.0016920635077538003,76.0,5,$\widetilde{A}_{G_5}$,hybrid
R-HSA-9034015,0.0016907732810192981,77.0,5,$\widetilde{A}_{G_5}$,hybrid
R-HSA-9028731,0.0016895613173563927,78.0,5,$\widetilde{A}_{G_5}$,hybrid
R-HSA-5654708,0.0016880508051834945,79.0,5,$\widetilde{A}_{G_5}$,hybrid
R-HSA-1251985,0.0016864614471606035,80.0,5,$\widetilde{A}_{G_5}$,hybrid
R-HSA-5654736,0.0016744259792031053,81.0,5,$\widetilde{A}_{G_5}$,hybrid
R-HSA-3214815,0.0016712959638616983,82.0,5,$\widetilde{A}_{G_5}$,hybrid
R-HSA-176974,0.0016651581594131744,83.0,5,$\widetilde{A}_{G_5}$,hybrid
R-HSA-5654687,0.0016648270337654804,84.0,5,$\widetilde{A}_{G_5}$,hybrid
R-HSA-5654693,0.001664325804818562,85.0,5,$\widetilde{A}_{G_5}$,hybrid
R-HSA-9703648,0.00166157059741104,86.0,5,$\widetilde{A}_{G_5}$,hybrid
R-HSA-2559580,0.0016368859818785078,87.0,5,$\widetilde{A}_{G_5}$,hybrid
R-HSA-3371511,0.0016364459461416403,88.0,5,$\widetilde{A}_{G_5}$,hybrid
R-HSA-9006115,0.0016345082429920427,89.0,5,$\widetilde{A}_{G_5}$,hybrid
R-HSA-8936459,0.0016337139731482629,90.0,5,$\widetilde{A}_{G_5}$,hybrid
R-HSA-881907,0.001632962430504582,91.0,5,$\widetilde{A}_{G_5}$,hybrid
R-HSA-5625886,0.0016320565384262322,92.0,5,$\widetilde{A}_{G_5}$,hybrid
R-HSA-419037,0.0016319868547966132,93.0,5,$\widetilde{A}_{G_5}$,hybrid
R-HSA-209543,0.0016303213911249995,94.0,5,$\widetilde{A}_{G_5}$,hybrid
R-HSA-5334118,0.0016277286818142086,95.0,5,$\widetilde{A}_{G_5}$,hybrid
R-HSA-210993,0.0016255106513035562,96.0,5,$\widetilde{A}_{G_5}$,hybrid
R-HSA-381119,0.0016242314678528082,97.0,5,$\widetilde{A}_{G_5}$,hybrid
R-HSA-70263,0.0016191934048596696,98.0,5,$\widetilde{A}_{G_5}$,hybrid
R-HSA-73728,0.0016165126890962467,99.0,5,$\widetilde{A}_{G_5}$,hybrid
R-HSA-1236394,0.001614287920834741,100.0,5,$\widetilde{A}_{G_5}$,hybrid
R-HSA-1170546,0.001611131793075837,101.0,5,$\widetilde{A}_{G_5}$,hybrid
R-HSA-5621575,0.0016108343918187216,102.0,5,$\widetilde{A}_{G_5}$,hybrid
R-HSA-373753,0.0016096497487772903,103.0,5,$\widetilde{A}_{G_5}$,hybrid
R-HSA-9646399,0.001602669713857168,104.0,5,$\widetilde{A}_{G_5}$,hybrid
R-HSA-4551638,0.001602158474160884,105.0,5,$\widetilde{A}_{G_5}$,hybrid
R-HSA-114604,0.0015977611847921016,106.0,5,$\widetilde{A}_{G_5}$,hybrid
R-HSA-1912422,0.00159630494388895,107.0,5,$\widetilde{A}_{G_5}$,hybrid
R-HSA-9671555,0.0015867336192188725,108.0,5,$\widetilde{A}_{G_5}$,hybrid
R-HSA-9607240,0.0015816589387235628,109.0,5,$\widetilde{A}_{G_5}$,hybrid
R-HSA-9669938,0.0015719416103489277,110.0,5,$\widetilde{A}_{G_5}$,hybrid
R-HSA-9670439,0.0015719416103489269,111.0,5,$\widetilde{A}_{G_5}$,hybrid
R-HSA-5654738,0.0015683818969838331,112.0,5,$\widetilde{A}_{G_5}$,hybrid
R-HSA-1650814,0.0015655185178350785,113.0,5,$\widetilde{A}_{G_5}$,hybrid
R-HSA-8940973,0.0015629335318446244,114.0,5,$\widetilde{A}_{G_5}$,hybrid
R-HSA-5654726,0.0015588297667603961,115.0,5,$\widetilde{A}_{G_5}$,hybrid
R-HSA-5689896,0.0015582432193840482,116.0,5,$\widetilde{A}_{G_5}$,hybrid
R-HSA-389960,0.0015578669052481134,117.0,5,$\widetilde{A}_{G_5}$,hybrid
R-HSA-171306,0.001543975266100714,118.0,5,$\widetilde{A}_{G_5}$,hybrid
R-HSA-1250347,0.0015356846633590153,119.0,5,$\widetilde{A}_{G_5}$,hybrid
R-HSA-1250196,0.0015306146756338304,120.0,5,$\widetilde{A}_{G_5}$,hybrid
R-HSA-210990,0.0015295612159748869,121.0,5,$\widetilde{A}_{G_5}$,hybrid
R-HSA-622312,0.001528738340257554,122.0,5,$\widetilde{A}_{G_5}$,hybrid
R-HSA-2871796,0.0015283305134585845,123.0,5,$\widetilde{A}_{G_5}$,hybrid
R-HSA-157579,0.00152593659937115,124.0,5,$\widetilde{A}_{G_5}$,hybrid
R-HSA-3214842,0.0015229018914127072,125.0,5,$\widetilde{A}_{G_5}$,hybrid
R-HSA-8939902,0.0015221002801815752,126.0,5,$\widetilde{A}_{G_5}$,hybrid
R-HSA-9006335,0.0015178309059290115,127.0,5,$\widetilde{A}_{G_5}$,hybrid
R-HSA-2029485,0.0015167553760010476,128.0,5,$\widetilde{A}_{G_5}$,hybrid
R-HSA-5654706,0.001514754104037728,129.0,5,$\widetilde{A}_{G_5}$,hybrid
R-HSA-190236,0.0015060778402936792,130.0,5,$\widetilde{A}_{G_5}$,hybrid
R-HSA-1266695,0.0015058872361900363,131.0,5,$\widetilde{A}_{G_5}$,hybrid
R-HSA-5676594,0.0015041474590610446,132.0,5,$\widetilde{A}_{G_5}$,hybrid
R-HSA-9027284,0.0015030503836531654,133.0,5,$\widetilde{A}_{G_5}$,hybrid
R-HSA-110330,0.0015013792518472136,134.0,5,$\widetilde{A}_{G_5}$,hybrid
R-HSA-110331,0.0015013792518472134,135.5,5,$\widetilde{A}_{G_5}$,hybrid
R-HSA-73927,0.0015013792518472134,135.5,5,$\widetilde{A}_{G_5}$,hybrid
R-HSA-844456,0.0014925452711514178,137.0,5,$\widetilde{A}_{G_5}$,hybrid
R-HSA-912526,0.0014920789982330645,138.0,5,$\widetilde{A}_{G_5}$,hybrid
R-HSA-5617472,0.0014900705248295804,139.0,5,$\widetilde{A}_{G_5}$,hybrid
R-HSA-5619507,0.0014900705248295802,140.0,5,$\widetilde{A}_{G_5}$,hybrid
R-HSA-3214858,0.0014895018397436642,141.0,5,$\widetilde{A}_{G_5}$,hybrid
R-HSA-186763,0.0014732734700306492,142.0,5,$\widetilde{A}_{G_5}$,hybrid
R-HSA-9020591,0.0014709385609708726,143.0,5,$\widetilde{A}_{G_5}$,hybrid
R-HSA-9703465,0.001449708488136287,144.0,5,$\widetilde{A}_{G_5}$,hybrid
R-HSA-156902,0.0014437366513374323,145.0,5,$\widetilde{A}_{G_5}$,hybrid
R-HSA-110328,0.0014421280336011403,146.0,5,$\widetilde{A}_{G_5}$,hybrid
R-HSA-73928,0.0014421280336011399,147.5,5,$\widetilde{A}_{G_5}$,hybrid
R-HSA-110329,0.0014421280336011399,147.5,5,$\widetilde{A}_{G_5}$,hybrid
R-HSA-2299718,0.0014395384819438622,149.0,5,$\widetilde{A}_{G_5}$,hybrid
R-HSA-2408557,0.0014381046084707117,150.0,5,$\widetilde{A}_{G_5}$,hybrid
R-HSA-9013409,0.0014358257681681501,151.0,5,$\widetilde{A}_{G_5}$,hybrid
R-HSA-354192,0.0014327711710184633,152.0,5,$\widetilde{A}_{G_5}$,hybrid
R-HSA-156842,0.0014278733662666026,153.0,5,$\widetilde{A}_{G_5}$,hybrid
R-HSA-192823,0.0014259568508099357,154.0,5,$\widetilde{A}_{G_5}$,hybrid
R-HSA-937041,0.0014237730749313193,155.0,5,$\widetilde{A}_{G_5}$,hybrid
R-HSA-427359,0.0014192144851451092,156.0,5,$\widetilde{A}_{G_5}$,hybrid
R-HSA-5250924,0.0014155368085414914,157.0,5,$\widetilde{A}_{G_5}$,hybrid
R-HSA-3214841,0.0014112056685658134,158.0,5,$\widetilde{A}_{G_5}$,hybrid
R-HSA-193639,0.00141065322901526,159.0,5,$\widetilde{A}_{G_5}$,hybrid
R-HSA-74752,0.001410307975725514,160.5,5,$\widetilde{A}_{G_5}$,hybrid
R-HSA-74751,0.001410307975725514,160.5,5,$\widetilde{A}_{G_5}$,hybrid
R-HSA-76009,0.0014086824029119031,162.0,5,$\widetilde{A}_{G_5}$,hybrid
R-HSA-2408522,0.0014065169561807418,163.0,5,$\widetilde{A}_{G_5}$,hybrid
R-HSA-73884,0.00140162296022332,164.0,5,$\widetilde{A}_{G_5}$,hybrid
R-HSA-73929,0.0013979841293381918,165.0,5,$\widetilde{A}_{G_5}$,hybrid
R-HSA-5654733,0.001396454092711865,166.0,5,$\widetilde{A}_{G_5}$,hybrid
R-HSA-9664424,0.001395950424320292,167.0,5,$\widetilde{A}_{G_5}$,hybrid
R-HSA-9660826,0.0013959504243202918,168.0,5,$\widetilde{A}_{G_5}$,hybrid
R-HSA-168928,0.0013929755842147745,169.0,5,$\widetilde{A}_{G_5}$,hybrid
R-HSA-1474290,0.001389208347184561,170.0,5,$\widetilde{A}_{G_5}$,hybrid
R-HSA-202427,0.0013867862391760877,171.0,5,$\widetilde{A}_{G_5}$,hybrid
R-HSA-75035,0.0013851481834091398,172.0,5,$\widetilde{A}_{G_5}$,hybrid
R-HSA-167044,0.0013835880626648332,173.0,5,$\widetilde{A}_{G_5}$,hybrid
R-HSA-975956,0.0013769721834973635,174.0,5,$\widetilde{A}_{G_5}$,hybrid
R-HSA-983189,0.0013732060530165574,175.0,5,$\widetilde{A}_{G_5}$,hybrid
R-HSA-1295596,0.0013712159710663446,176.0,5,$\widetilde{A}_{G_5}$,hybrid
R-HSA-9027276,0.0013692995590969784,177.0,5,$\widetilde{A}_{G_5}$,hybrid
R-HSA-72764,0.0013574347288638515,178.0,5,$\widetilde{A}_{G_5}$,hybrid
R-HSA-5655253,0.0013536216703275393,179.0,5,$\widetilde{A}_{G_5}$,hybrid
R-HSA-2404192,0.0013459971324173636,180.5,5,$\widetilde{A}_{G_5}$,hybrid
R-HSA-2428924,0.0013459971324173636,180.5,5,$\widetilde{A}_{G_5}$,hybrid
R-HSA-72689,0.0013422444569183283,182.0,5,$\widetilde{A}_{G_5}$,hybrid
R-HSA-1227986,0.0013370024867137085,183.0,5,$\widetilde{A}_{G_5}$,hybrid
R-HSA-8853659,0.0013369856730164873,184.0,5,$\widetilde{A}_{G_5}$,hybrid
R-HSA-73854,0.0013339996085007283,185.0,5,$\widetilde{A}_{G_5}$,hybrid
R-HSA-112399,0.0013295480192143762,186.0,5,$\widetilde{A}_{G_5}$,hybrid
R-HSA-73864,0.0013281189169135996,187.0,5,$\widetilde{A}_{G_5}$,hybrid
R-HSA-8941326,0.00132701518248559,188.0,5,$\widetilde{A}_{G_5}$,hybrid
R-HSA-388841,0.0013245317847778034,189.0,5,$\widetilde{A}_{G_5}$,hybrid
R-HSA-5654732,0.0013240962858903683,190.0,5,$\widetilde{A}_{G_5}$,hybrid
R-HSA-2559582,0.0013203562879434694,191.0,5,$\widetilde{A}_{G_5}$,hybrid
R-HSA-2219530,0.0013165396396129677,192.0,5,$\widetilde{A}_{G_5}$,hybrid
R-HSA-5205685,0.0013115714531389384,193.0,5,$\widetilde{A}_{G_5}$,hybrid
R-HSA-9035034,0.0013091457065516957,194.0,5,$\widetilde{A}_{G_5}$,hybrid
R-HSA-381038,0.0013029090176383262,195.0,5,$\widetilde{A}_{G_5}$,hybrid
R-HSA-9009391,0.001301535599203986,196.0,5,$\widetilde{A}_{G_5}$,hybrid
R-HSA-156827,0.0013014278311780142,197.0,5,$\widetilde{A}_{G_5}$,hybrid
R-HSA-447115,0.0012983026368732103,198.0,5,$\widetilde{A}_{G_5}$,hybrid
R-HSA-9013422,0.0012965638174432495,199.0,5,$\widetilde{A}_{G_5}$,hybrid
R-HSA-177929,0.0012932372647700638,200.0,5,$\widetilde{A}_{G_5}$,hybrid
R-HSA-975163,0.0012927362257136904,201.0,5,$\widetilde{A}_{G_5}$,hybrid
R-HSA-168273,0.0012878705852981866,202.0,5,$\widetilde{A}_{G_5}$,hybrid
R-HSA-3270619,0.001287207822535358,203.0,5,$\widetilde{A}_{G_5}$,hybrid
R-HSA-2428928,0.0012870251410325223,204.0,5,$\widetilde{A}_{G_5}$,hybrid
R-HSA-72706,0.0012838470003321003,205.0,5,$\widetilde{A}_{G_5}$,hybrid
R-HSA-9013418,0.0012835390537656232,206.0,5,$\widetilde{A}_{G_5}$,hybrid
R-HSA-109704,0.0012811980023810581,207.0,5,$\widetilde{A}_{G_5}$,hybrid
R-HSA-9633012,0.001280125601603756,208.0,5,$\widetilde{A}_{G_5}$,hybrid
R-HSA-5668541,0.0012795277525359976,209.0,5,$\widetilde{A}_{G_5}$,hybrid
R-HSA-1433557,0.001272996746384144,210.0,5,$\widetilde{A}_{G_5}$,hybrid
R-HSA-187687,0.0012694292469462138,211.0,5,$\widetilde{A}_{G_5}$,hybrid
R-HSA-392517,0.0012683276834047406,212.0,5,$\widetilde{A}_{G_5}$,hybrid
R-HSA-2894862,0.0012678081292266607,213.5,5,$\widetilde{A}_{G_5}$,hybrid
R-HSA-2644606,0.0012678081292266607,213.5,5,$\widetilde{A}_{G_5}$,hybrid
R-HSA-2644602,0.0012678081292266604,215.0,5,$\widetilde{A}_{G_5}$,hybrid
R-HSA-2644603,0.00126780812922666,216.0,5,$\widetilde{A}_{G_5}$,hybrid
R-HSA-2894858,0.0012678081292266596,217.0,5,$\widetilde{A}_{G_5}$,hybrid
R-HSA-5678895,0.001265142068874546,218.0,5,$\widetilde{A}_{G_5}$,hybrid
R-HSA-391160,0.001262170537190942,219.0,5,$\widetilde{A}_{G_5}$,hybrid
R-HSA-389957,0.001259013212975226,220.0,5,$\widetilde{A}_{G_5}$,hybrid
R-HSA-168643,0.0012569135662437295,221.0,5,$\widetilde{A}_{G_5}$,hybrid
R-HSA-1799339,0.0012566520167356643,222.0,5,$\widetilde{A}_{G_5}$,hybrid
R-HSA-389958,0.0012546019003232853,223.0,5,$\widetilde{A}_{G_5}$,hybrid
R-HSA-389513,0.001254019098413617,224.0,5,$\widetilde{A}_{G_5}$,hybrid
R-HSA-5213460,0.0012496399898959027,225.0,5,$\widetilde{A}_{G_5}$,hybrid
R-HSA-5675482,0.0012496399898959017,226.0,5,$\widetilde{A}_{G_5}$,hybrid
R-HSA-390522,0.0012492281489278566,227.0,5,$\widetilde{A}_{G_5}$,hybrid
R-HSA-5619084,0.0012486254664929425,228.0,5,$\widetilde{A}_{G_5}$,hybrid
R-HSA-2871809,0.001248620375032147,229.0,5,$\widetilde{A}_{G_5}$,hybrid
R-HSA-168927,0.0012476330638574431,230.0,5,$\widetilde{A}_{G_5}$,hybrid
R-HSA-1433559,0.0012445993701511026,231.0,5,$\widetilde{A}_{G_5}$,hybrid
R-HSA-6785807,0.001243851986325905,232.0,5,$\widetilde{A}_{G_5}$,hybrid
R-HSA-5668599,0.001243253294543624,233.0,5,$\widetilde{A}_{G_5}$,hybrid
R-HSA-9670095,0.00124096429068054,234.0,5,$\widetilde{A}_{G_5}$,hybrid
R-HSA-1234174,0.0012356834384615685,235.0,5,$\widetilde{A}_{G_5}$,hybrid
R-HSA-6814122,0.0012352389266905707,236.0,5,$\widetilde{A}_{G_5}$,hybrid
R-HSA-8876384,0.0012346868453726354,237.0,5,$\widetilde{A}_{G_5}$,hybrid
R-HSA-9648002,0.0012334356930862702,238.0,5,$\widetilde{A}_{G_5}$,hybrid
R-HSA-5655302,0.0012306376206451938,239.0,5,$\widetilde{A}_{G_5}$,hybrid
R-HSA-5684264,0.0012297414990284214,240.0,5,$\widetilde{A}_{G_5}$,hybrid
R-HSA-3371568,0.0012264086590707364,241.0,5,$\widetilde{A}_{G_5}$,hybrid
R-HSA-6785631,0.0012240803814188184,242.0,5,$\widetilde{A}_{G_5}$,hybrid
R-HSA-606279,0.0012227508579317804,243.0,5,$\widetilde{A}_{G_5}$,hybrid
R-HSA-774815,0.00122275085793178,244.0,5,$\widetilde{A}_{G_5}$,hybrid
R-HSA-163125,0.0012206895900665606,245.0,5,$\widetilde{A}_{G_5}$,hybrid
R-HSA-72649,0.0012168385584591227,246.0,5,$\widetilde{A}_{G_5}$,hybrid
R-HSA-202424,0.0012124313948554863,247.0,5,$\widetilde{A}_{G_5}$,hybrid
R-HSA-72695,0.001211813812323836,248.0,5,$\widetilde{A}_{G_5}$,hybrid
R-HSA-9013507,0.0012112090950280434,249.0,5,$\widetilde{A}_{G_5}$,hybrid
R-HSA-418885,0.0012102930012626602,250.0,5,$\widetilde{A}_{G_5}$,hybrid
R-HSA-5357786,0.0012100138349859359,251.0,5,$\widetilde{A}_{G_5}$,hybrid
R-HSA-5218921,0.0012085264664573625,252.0,5,$\widetilde{A}_{G_5}$,hybrid
R-HSA-389356,0.0012077824672497418,253.0,5,$\widetilde{A}_{G_5}$,hybrid
R-HSA-451927,0.00120477083144169,254.0,5,$\widetilde{A}_{G_5}$,hybrid
R-HSA-2122947,0.0011995954862296107,255.0,5,$\widetilde{A}_{G_5}$,hybrid
R-HSA-977225,0.0011989840833111257,256.0,5,$\widetilde{A}_{G_5}$,hybrid
R-HSA-72662,0.001195010477561684,257.0,5,$\widetilde{A}_{G_5}$,hybrid
R-HSA-5626467,0.0011942571271088896,258.0,5,$\widetilde{A}_{G_5}$,hybrid
R-HSA-1226099,0.0011939890141116597,259.0,5,$\widetilde{A}_{G_5}$,hybrid
R-HSA-186797,0.0011934504676888598,260.0,5,$\widetilde{A}_{G_5}$,hybrid
R-HSA-5357956,0.0011882614629571129,261.0,5,$\widetilde{A}_{G_5}$,hybrid
R-HSA-8875360,0.0011865972267888305,262.0,5,$\widetilde{A}_{G_5}$,hybrid
R-HSA-379716,0.0011856781039087892,263.0,5,$\widetilde{A}_{G_5}$,hybrid
R-HSA-9012852,0.0011853781173162118,264.0,5,$\widetilde{A}_{G_5}$,hybrid
R-HSA-72702,0.0011846799908949753,265.0,5,$\widetilde{A}_{G_5}$,hybrid
R-HSA-9013407,0.0011814568857489915,266.0,5,$\widetilde{A}_{G_5}$,hybrid
R-HSA-9664323,0.0011775275768396867,267.0,5,$\widetilde{A}_{G_5}$,hybrid
R-HSA-176187,0.001176875714123339,268.0,5,$\widetilde{A}_{G_5}$,hybrid
R-HSA-8849471,0.0011768316695416029,269.0,5,$\widetilde{A}_{G_5}$,hybrid
R-HSA-1234176,0.0011709587376412924,270.0,5,$\widetilde{A}_{G_5}$,hybrid
R-HSA-9706574,0.0011706729868214887,271.0,5,$\widetilde{A}_{G_5}$,hybrid
R-HSA-1474228,0.0011705228411443222,272.0,5,$\widetilde{A}_{G_5}$,hybrid
R-HSA-877312,0.001170268843758347,273.0,5,$\widetilde{A}_{G_5}$,hybrid
R-HSA-2173793,0.0011696990684964906,274.0,5,$\widetilde{A}_{G_5}$,hybrid
R-HSA-6806834,0.0011667056250732031,275.0,5,$\widetilde{A}_{G_5}$,hybrid
R-HSA-390471,0.0011628868997422474,276.0,5,$\widetilde{A}_{G_5}$,hybrid
R-HSA-354194,0.0011627030384973836,277.0,5,$\widetilde{A}_{G_5}$,hybrid
R-HSA-5205647,0.0011619578620097497,278.0,5,$\widetilde{A}_{G_5}$,hybrid
R-HSA-1839126,0.0011573457802873317,279.0,5,$\widetilde{A}_{G_5}$,hybrid
R-HSA-8948216,0.0011563002271224188,280.0,5,$\widetilde{A}_{G_5}$,hybrid
R-HSA-3371497,0.001154398742830984,281.0,5,$\widetilde{A}_{G_5}$,hybrid
R-HSA-202433,0.0011512557350459856,282.0,5,$\widetilde{A}_{G_5}$,hybrid
R-HSA-9020558,0.0011497405675463326,283.0,5,$\widetilde{A}_{G_5}$,hybrid
R-HSA-937072,0.001149721249617492,284.0,5,$\widetilde{A}_{G_5}$,hybrid
R-HSA-8950505,0.0011490853954406297,285.0,5,$\widetilde{A}_{G_5}$,hybrid
R-HSA-9637690,0.0011463623733204149,286.0,5,$\widetilde{A}_{G_5}$,hybrid
R-HSA-428540,0.001144975212039564,287.0,5,$\widetilde{A}_{G_5}$,hybrid
R-HSA-2029480,0.001142770886575725,288.0,5,$\widetilde{A}_{G_5}$,hybrid
R-HSA-1059683,0.001137646384109921,289.0,5,$\widetilde{A}_{G_5}$,hybrid
R-HSA-1834941,0.001137188894759328,290.0,5,$\widetilde{A}_{G_5}$,hybrid
R-HSA-110312,0.0011353282027844512,291.0,5,$\widetilde{A}_{G_5}$,hybrid
R-HSA-2995383,0.0011347347471999582,292.0,5,$\widetilde{A}_{G_5}$,hybrid
R-HSA-9615710,0.0011317056873852312,293.0,5,$\widetilde{A}_{G_5}$,hybrid
R-HSA-6783783,0.0011305422576226817,294.0,5,$\widetilde{A}_{G_5}$,hybrid
R-HSA-8875555,0.0011294528540515883,295.0,5,$\widetilde{A}_{G_5}$,hybrid
R-HSA-379724,0.0011270982534822348,296.0,5,$\widetilde{A}_{G_5}$,hybrid
R-HSA-6804760,0.001123784085200292,297.0,5,$\widetilde{A}_{G_5}$,hybrid
R-HSA-2219528,0.001123535013992541,298.0,5,$\widetilde{A}_{G_5}$,hybrid
R-HSA-168164,0.0011201269731100263,299.0,5,$\widetilde{A}_{G_5}$,hybrid
R-HSA-389357,0.0011180743077925472,300.0,5,$\widetilde{A}_{G_5}$,hybrid
R-HSA-6811558,0.0011154297339033014,301.0,5,$\widetilde{A}_{G_5}$,hybrid
R-HSA-4420097,0.0011149029869371404,302.0,5,$\widetilde{A}_{G_5}$,hybrid
R-HSA-9013695,0.0011147081257353495,303.0,5,$\widetilde{A}_{G_5}$,hybrid
R-HSA-9610379,0.0011125910668199315,304.0,5,$\widetilde{A}_{G_5}$,hybrid
R-HSA-383280,0.0011113343697616502,305.0,5,$\widetilde{A}_{G_5}$,hybrid
R-HSA-111447,0.001109012609875838,306.0,5,$\widetilde{A}_{G_5}$,hybrid
R-HSA-3371571,0.0011089792513241385,307.0,5,$\widetilde{A}_{G_5}$,hybrid
R-HSA-937061,0.0011077569795969293,308.0,5,$\widetilde{A}_{G_5}$,hybrid
R-HSA-166166,0.0011077569795969276,309.0,5,$\widetilde{A}_{G_5}$,hybrid
R-HSA-1483255,0.001106804431698453,310.0,5,$\widetilde{A}_{G_5}$,hybrid
R-HSA-9663891,0.0011000854515621663,311.0,5,$\widetilde{A}_{G_5}$,hybrid
R-HSA-170968,0.0010882011780397516,312.0,5,$\widetilde{A}_{G_5}$,hybrid
R-HSA-157858,0.0010851021089019906,313.0,5,$\widetilde{A}_{G_5}$,hybrid
R-HSA-5673000,0.001083925593737418,314.0,5,$\widetilde{A}_{G_5}$,hybrid
R-HSA-9696264,0.0010831825680988818,315.0,5,$\widetilde{A}_{G_5}$,hybrid
R-HSA-5218859,0.0010831562585523365,316.0,5,$\widetilde{A}_{G_5}$,hybrid
R-HSA-6802948,0.0010812438264318418,317.0,5,$\widetilde{A}_{G_5}$,hybrid
R-HSA-5357905,0.0010790768596351398,318.0,5,$\widetilde{A}_{G_5}$,hybrid
R-HSA-1980143,0.0010789486045026885,319.0,5,$\widetilde{A}_{G_5}$,hybrid
R-HSA-9706369,0.001077138223243224,320.0,5,$\widetilde{A}_{G_5}$,hybrid
R-HSA-450341,0.0010763435542991615,321.0,5,$\widetilde{A}_{G_5}$,hybrid
R-HSA-9635486,0.0010748309420850629,322.0,5,$\widetilde{A}_{G_5}$,hybrid
R-HSA-382556,0.0010704798713009388,323.0,5,$\widetilde{A}_{G_5}$,hybrid
R-HSA-390466,0.0010699601737231875,324.0,5,$\widetilde{A}_{G_5}$,hybrid
R-HSA-5655862,0.001067655822364677,325.0,5,$\widetilde{A}_{G_5}$,hybrid
R-HSA-5578749,0.0010670159819205084,326.0,5,$\widetilde{A}_{G_5}$,hybrid
R-HSA-6804116,0.0010667468051433222,327.0,5,$\widetilde{A}_{G_5}$,hybrid
R-HSA-9604323,0.0010646260705965784,328.0,5,$\widetilde{A}_{G_5}$,hybrid
R-HSA-9656223,0.0010628342839408248,329.0,5,$\widetilde{A}_{G_5}$,hybrid
R-HSA-169893,0.0010626046873957662,330.0,5,$\widetilde{A}_{G_5}$,hybrid
R-HSA-110320,0.001060408238495747,331.0,5,$\widetilde{A}_{G_5}$,hybrid
R-HSA-450408,0.001058541474326009,332.0,5,$\widetilde{A}_{G_5}$,hybrid
R-HSA-1839117,0.0010577828130910983,333.0,5,$\widetilde{A}_{G_5}$,hybrid
R-HSA-202733,0.0010567273148203494,334.0,5,$\widetilde{A}_{G_5}$,hybrid
R-HSA-168638,0.0010565675822063311,335.0,5,$\widetilde{A}_{G_5}$,hybrid
R-HSA-211000,0.001056106992380753,336.0,5,$\widetilde{A}_{G_5}$,hybrid
R-HSA-73772,0.0010560071236751574,337.0,5,$\widetilde{A}_{G_5}$,hybrid
R-HSA-5140745,0.0010558418390910797,338.0,5,$\widetilde{A}_{G_5}$,hybrid
R-HSA-199418,0.00105536805962411,339.0,5,$\widetilde{A}_{G_5}$,hybrid
R-HSA-982772,0.001054875368038592,340.0,5,$\widetilde{A}_{G_5}$,hybrid
R-HSA-190828,0.0010530040031869405,341.0,5,$\widetilde{A}_{G_5}$,hybrid
R-HSA-375165,0.0010523322701454735,342.0,5,$\widetilde{A}_{G_5}$,hybrid
R-HSA-162658,0.0010510049726929608,343.0,5,$\widetilde{A}_{G_5}$,hybrid
R-HSA-1442490,0.0010498793739830978,344.0,5,$\widetilde{A}_{G_5}$,hybrid
R-HSA-5656121,0.0010479612653607714,345.0,5,$\widetilde{A}_{G_5}$,hybrid
R-HSA-69190,0.001044187522439768,346.0,5,$\widetilde{A}_{G_5}$,hybrid
R-HSA-9013508,0.0010433838596708653,347.0,5,$\widetilde{A}_{G_5}$,hybrid
R-HSA-5674135,0.0010430280529499466,348.0,5,$\widetilde{A}_{G_5}$,hybrid
R-HSA-8852276,0.0010332281323504344,349.0,5,$\widetilde{A}_{G_5}$,hybrid
R-HSA-1839124,0.0010299370926744903,350.0,5,$\widetilde{A}_{G_5}$,hybrid
R-HSA-8854050,0.001028999853599983,351.0,5,$\widetilde{A}_{G_5}$,hybrid
R-HSA-9664422,0.0010271780092216127,352.0,5,$\widetilde{A}_{G_5}$,hybrid
R-HSA-9664417,0.001027178009221612,353.0,5,$\widetilde{A}_{G_5}$,hybrid
R-HSA-9664407,0.0010271780092216119,354.0,5,$\widetilde{A}_{G_5}$,hybrid
R-HSA-5358565,0.0010259685663582892,355.0,5,$\widetilde{A}_{G_5}$,hybrid
R-HSA-2871837,0.0010240555842946913,356.0,5,$\widetilde{A}_{G_5}$,hybrid
R-HSA-9662360,0.0010236064579900916,357.0,5,$\widetilde{A}_{G_5}$,hybrid
R-HSA-8964616,0.0010234436064209844,358.0,5,$\widetilde{A}_{G_5}$,hybrid
R-HSA-180585,0.00102324818402421,359.0,5,$\widetilde{A}_{G_5}$,hybrid
R-HSA-9614399,0.0010211014743387486,360.0,5,$\widetilde{A}_{G_5}$,hybrid
R-HSA-8863678,0.001020309939981779,361.5,5,$\widetilde{A}_{G_5}$,hybrid
R-HSA-8862803,0.001020309939981779,361.5,5,$\widetilde{A}_{G_5}$,hybrid
R-HSA-6802955,0.0010190167867303085,363.5,5,$\widetilde{A}_{G_5}$,hybrid
R-HSA-9649948,0.0010190167867303085,363.5,5,$\widetilde{A}_{G_5}$,hybrid
R-HSA-6802946,0.0010190167867303078,365.5,5,$\widetilde{A}_{G_5}$,hybrid
R-HSA-6802949,0.0010190167867303078,365.5,5,$\widetilde{A}_{G_5}$,hybrid
R-HSA-418990,0.0010180759571278644,367.0,5,$\widetilde{A}_{G_5}$,hybrid
R-HSA-350054,0.0010166658160447135,368.0,5,$\widetilde{A}_{G_5}$,hybrid
R-HSA-349425,0.001014138252399469,369.0,5,$\widetilde{A}_{G_5}$,hybrid
R-HSA-169911,0.0010135884591529756,370.5,5,$\widetilde{A}_{G_5}$,hybrid
R-HSA-211733,0.0010135884591529756,370.5,5,$\widetilde{A}_{G_5}$,hybrid
R-HSA-445144,0.0010134813572134028,372.0,5,$\widetilde{A}_{G_5}$,hybrid
R-HSA-8863795,0.0010133130206563012,373.0,5,$\widetilde{A}_{G_5}$,hybrid
R-HSA-5675221,0.0010112538516271678,374.0,5,$\widetilde{A}_{G_5}$,hybrid
R-HSA-69610,0.001009609808703915,375.0,5,$\widetilde{A}_{G_5}$,hybrid
R-HSA-69613,0.0010096098087039149,376.0,5,$\widetilde{A}_{G_5}$,hybrid
R-HSA-69601,0.0010096098087039145,377.0,5,$\widetilde{A}_{G_5}$,hybrid
R-HSA-9615017,0.0010090574988099177,378.0,5,$\widetilde{A}_{G_5}$,hybrid
R-HSA-9697154,0.0010075491577780913,379.0,5,$\widetilde{A}_{G_5}$,hybrid
R-HSA-9005895,0.0010075491577780909,380.5,5,$\widetilde{A}_{G_5}$,hybrid
R-HSA-9005891,0.0010075491577780909,380.5,5,$\widetilde{A}_{G_5}$,hybrid
R-HSA-9675151,0.0010075491577780907,382.0,5,$\widetilde{A}_{G_5}$,hybrid
R-HSA-180534,0.0010072539513162153,383.0,5,$\widetilde{A}_{G_5}$,hybrid
R-HSA-392451,0.001007243814820066,384.0,5,$\widetilde{A}_{G_5}$,hybrid
R-HSA-8941858,0.0010062165617707934,385.0,5,$\widetilde{A}_{G_5}$,hybrid
R-HSA-9659379,0.0010058715734002472,386.0,5,$\widetilde{A}_{G_5}$,hybrid
R-HSA-5610785,0.0010057993891324612,387.0,5,$\widetilde{A}_{G_5}$,hybrid
R-HSA-9006927,0.0010038291718990357,388.0,5,$\widetilde{A}_{G_5}$,hybrid
R-HSA-8848021,0.001003829171899035,389.0,5,$\widetilde{A}_{G_5}$,hybrid
R-HSA-75815,0.0010030386522023684,390.0,5,$\widetilde{A}_{G_5}$,hybrid
R-HSA-174113,0.001002334026669287,391.0,5,$\widetilde{A}_{G_5}$,hybrid
R-HSA-1236978,0.0010007761399875774,392.0,5,$\widetilde{A}_{G_5}$,hybrid
R-HSA-399954,0.001000487714080163,393.0,5,$\widetilde{A}_{G_5}$,hybrid
R-HSA-2586552,0.0009999569272638776,394.0,5,$\widetilde{A}_{G_5}$,hybrid
R-HSA-2029482,0.0009991895922705257,395.0,5,$\widetilde{A}_{G_5}$,hybrid
R-HSA-8932339,0.0009988582623859583,396.0,5,$\widetilde{A}_{G_5}$,hybrid
R-HSA-8983432,0.0009934280689866124,397.0,5,$\widetilde{A}_{G_5}$,hybrid
R-HSA-5250941,0.0009933109721448467,398.0,5,$\widetilde{A}_{G_5}$,hybrid
R-HSA-68949,0.000989958413902208,399.0,5,$\widetilde{A}_{G_5}$,hybrid
R-HSA-5610783,0.0009888176183554167,400.0,5,$\widetilde{A}_{G_5}$,hybrid
R-HSA-1358803,0.0009855830693161335,401.0,5,$\widetilde{A}_{G_5}$,hybrid
R-HSA-5601884,0.0009825112481008209,402.0,5,$\widetilde{A}_{G_5}$,hybrid
R-HSA-391251,0.0009818651507698386,403.0,5,$\widetilde{A}_{G_5}$,hybrid
R-HSA-4419969,0.000980993677532509,404.0,5,$\widetilde{A}_{G_5}$,hybrid
R-HSA-5676590,0.000980509691190111,405.0,5,$\widetilde{A}_{G_5}$,hybrid
R-HSA-68867,0.000980284452790749,406.0,5,$\widetilde{A}_{G_5}$,hybrid
R-HSA-2173796,0.0009798335992133313,407.0,5,$\widetilde{A}_{G_5}$,hybrid
R-HSA-177504,0.000978293251814874,408.0,5,$\widetilde{A}_{G_5}$,hybrid
R-HSA-5610780,0.000978036479573697,409.0,5,$\widetilde{A}_{G_5}$,hybrid
R-HSA-5607761,0.000977736680399038,410.0,5,$\widetilde{A}_{G_5}$,hybrid
R-HSA-6807004,0.0009760396558667002,411.0,5,$\widetilde{A}_{G_5}$,hybrid
R-HSA-1810476,0.0009752423229311824,412.0,5,$\widetilde{A}_{G_5}$,hybrid
R-HSA-9683701,0.0009750805034879068,413.0,5,$\widetilde{A}_{G_5}$,hybrid
R-HSA-9617629,0.0009738078908311226,414.0,5,$\widetilde{A}_{G_5}$,hybrid
R-HSA-5358346,0.0009734941412217641,415.0,5,$\widetilde{A}_{G_5}$,hybrid
R-HSA-68962,0.0009726980173231457,416.0,5,$\widetilde{A}_{G_5}$,hybrid
R-HSA-68827,0.0009715486756070487,417.0,5,$\widetilde{A}_{G_5}$,hybrid
R-HSA-163560,0.0009713716384020772,418.0,5,$\widetilde{A}_{G_5}$,hybrid
R-HSA-372708,0.0009699279145090556,419.0,5,$\widetilde{A}_{G_5}$,hybrid
R-HSA-4641258,0.0009694069048305071,420.0,5,$\widetilde{A}_{G_5}$,hybrid
R-HSA-69541,0.0009686764733734097,421.0,5,$\widetilde{A}_{G_5}$,hybrid
R-HSA-9609736,0.0009680234262127585,422.0,5,$\widetilde{A}_{G_5}$,hybrid
R-HSA-6803529,0.0009672297173113839,423.0,5,$\widetilde{A}_{G_5}$,hybrid
R-HSA-9678108,0.0009657454115178587,424.0,5,$\widetilde{A}_{G_5}$,hybrid
R-HSA-5358606,0.0009648805510251673,425.0,5,$\widetilde{A}_{G_5}$,hybrid
R-HSA-8878159,0.0009648423154848097,426.0,5,$\widetilde{A}_{G_5}$,hybrid
R-HSA-187577,0.0009640364722033881,427.0,5,$\widetilde{A}_{G_5}$,hybrid
R-HSA-427413,0.0009632581048660722,428.0,5,$\widetilde{A}_{G_5}$,hybrid
R-HSA-8854691,0.0009626873428703168,429.0,5,$\widetilde{A}_{G_5}$,hybrid
R-HSA-936964,0.0009626126506381798,430.0,5,$\widetilde{A}_{G_5}$,hybrid
R-HSA-933541,0.0009604293322988194,431.0,5,$\widetilde{A}_{G_5}$,hybrid
R-HSA-69002,0.0009601583105350304,432.0,5,$\widetilde{A}_{G_5}$,hybrid
R-HSA-5358508,0.0009601179780434332,433.0,5,$\widetilde{A}_{G_5}$,hybrid
R-HSA-6804758,0.0009598374950776911,434.0,5,$\widetilde{A}_{G_5}$,hybrid
R-HSA-70326,0.0009572950089439594,435.0,5,$\widetilde{A}_{G_5}$,hybrid
R-HSA-5658442,0.0009553558717051542,436.0,5,$\widetilde{A}_{G_5}$,hybrid
R-HSA-5627123,0.0009491887761964342,437.0,5,$\widetilde{A}_{G_5}$,hybrid
R-HSA-5693616,0.000948923540184344,438.0,5,$\widetilde{A}_{G_5}$,hybrid
R-HSA-936440,0.0009476482368404612,439.0,5,$\widetilde{A}_{G_5}$,hybrid
R-HSA-432142,0.0009468889201358899,440.0,5,$\widetilde{A}_{G_5}$,hybrid
R-HSA-3214847,0.0009453861523144349,441.0,5,$\widetilde{A}_{G_5}$,hybrid
R-HSA-975144,0.000945276848774791,442.0,5,$\widetilde{A}_{G_5}$,hybrid
R-HSA-937039,0.0009452768487747909,443.0,5,$\widetilde{A}_{G_5}$,hybrid
R-HSA-9707587,0.0009451167236704661,444.0,5,$\widetilde{A}_{G_5}$,hybrid
R-HSA-6802952,0.0009440965795724526,445.0,5,$\widetilde{A}_{G_5}$,hybrid
R-HSA-5387390,0.0009436215632981162,446.5,5,$\widetilde{A}_{G_5}$,hybrid
R-HSA-5362768,0.0009436215632981162,446.5,5,$\widetilde{A}_{G_5}$,hybrid
R-HSA-912694,0.0009424179313971021,448.0,5,$\widetilde{A}_{G_5}$,hybrid
R-HSA-1538133,0.0009423811135102755,449.0,5,$\widetilde{A}_{G_5}$,hybrid
R-HSA-8934903,0.0009380530916580156,450.0,5,$\widetilde{A}_{G_5}$,hybrid
R-HSA-75893,0.0009370188905931757,451.0,5,$\widetilde{A}_{G_5}$,hybrid
R-HSA-442742,0.0009365186234441699,452.0,5,$\widetilde{A}_{G_5}$,hybrid
R-HSA-5602498,0.0009365054708776277,453.0,5,$\widetilde{A}_{G_5}$,hybrid
R-HSA-5099900,0.0009357625498398033,454.0,5,$\widetilde{A}_{G_5}$,hybrid
R-HSA-6809371,0.0009345869111922929,455.0,5,$\widetilde{A}_{G_5}$,hybrid
R-HSA-6805567,0.0009345869111922926,456.0,5,$\widetilde{A}_{G_5}$,hybrid
R-HSA-9006936,0.0009317009407686804,457.0,5,$\widetilde{A}_{G_5}$,hybrid
R-HSA-6811434,0.0009307312916305978,458.0,5,$\widetilde{A}_{G_5}$,hybrid
R-HSA-9020702,0.0009300143444813427,459.0,5,$\widetilde{A}_{G_5}$,hybrid
R-HSA-5687128,0.0009296279788338246,460.0,5,$\widetilde{A}_{G_5}$,hybrid
R-HSA-170834,0.0009269207161022768,461.0,5,$\widetilde{A}_{G_5}$,hybrid
R-HSA-9013694,0.0009260640974032466,462.0,5,$\widetilde{A}_{G_5}$,hybrid
R-HSA-1362277,0.0009256134902042693,463.0,5,$\widetilde{A}_{G_5}$,hybrid
R-HSA-4641257,0.0009233325241253421,464.0,5,$\widetilde{A}_{G_5}$,hybrid
R-HSA-5603041,0.0009220162243268877,465.0,5,$\widetilde{A}_{G_5}$,hybrid
R-HSA-1169091,0.000921887845465715,466.0,5,$\widetilde{A}_{G_5}$,hybrid
R-HSA-8948751,0.0009210920121323895,467.0,5,$\widetilde{A}_{G_5}$,hybrid
R-HSA-373752,0.0009192233925983055,468.0,5,$\widetilde{A}_{G_5}$,hybrid
R-HSA-2173789,0.0009174196239475639,469.0,5,$\widetilde{A}_{G_5}$,hybrid
R-HSA-1606322,0.000909900710351192,470.0,5,$\widetilde{A}_{G_5}$,hybrid
R-HSA-205043,0.0009094664611094571,471.0,5,$\widetilde{A}_{G_5}$,hybrid
R-HSA-2022090,0.0009074613319865668,472.0,5,$\widetilde{A}_{G_5}$,hybrid
R-HSA-190873,0.0009072081539063262,473.0,5,$\widetilde{A}_{G_5}$,hybrid
R-HSA-9619483,0.0009068339998208723,474.0,5,$\widetilde{A}_{G_5}$,hybrid
R-HSA-69563,0.0009067536975926113,475.0,5,$\widetilde{A}_{G_5}$,hybrid
R-HSA-69580,0.0009067536975926109,476.0,5,$\widetilde{A}_{G_5}$,hybrid
R-HSA-6804757,0.0009050293680043483,477.0,5,$\widetilde{A}_{G_5}$,hybrid
R-HSA-6806003,0.0009050293680043481,478.0,5,$\widetilde{A}_{G_5}$,hybrid
R-HSA-450531,0.0009041215730730122,479.0,5,$\widetilde{A}_{G_5}$,hybrid
R-HSA-2470946,0.0009039218032326491,480.0,5,$\widetilde{A}_{G_5}$,hybrid
R-HSA-5602358,0.0009027654174686701,481.0,5,$\widetilde{A}_{G_5}$,hybrid
R-HSA-5260271,0.0009027654174686698,482.0,5,$\widetilde{A}_{G_5}$,hybrid
R-HSA-438064,0.0009025039036457161,483.0,5,$\widetilde{A}_{G_5}$,hybrid
R-HSA-110314,0.0009021273066350456,484.0,5,$\widetilde{A}_{G_5}$,hybrid
R-HSA-8851708,0.0009014283755256279,485.0,5,$\widetilde{A}_{G_5}$,hybrid
R-HSA-2468052,0.0009013898514157749,486.0,5,$\widetilde{A}_{G_5}$,hybrid
R-HSA-381070,0.0009007906039207159,487.0,5,$\widetilde{A}_{G_5}$,hybrid
R-HSA-2173788,0.00089979436317739,488.0,5,$\widetilde{A}_{G_5}$,hybrid
R-HSA-164952,0.0008976513338402353,489.0,5,$\widetilde{A}_{G_5}$,hybrid
R-HSA-69615,0.0008950339794357124,490.0,5,$\widetilde{A}_{G_5}$,hybrid
R-HSA-196025,0.0008938984924495158,491.0,5,$\widetilde{A}_{G_5}$,hybrid
R-HSA-202131,0.0008931296057306712,492.0,5,$\widetilde{A}_{G_5}$,hybrid
R-HSA-450321,0.0008930452484379451,493.0,5,$\widetilde{A}_{G_5}$,hybrid
R-HSA-381676,0.0008915870526715211,494.0,5,$\widetilde{A}_{G_5}$,hybrid
R-HSA-9705462,0.0008899035623089667,495.0,5,$\widetilde{A}_{G_5}$,hybrid
R-HSA-9679191,0.0008894582190292172,496.0,5,$\widetilde{A}_{G_5}$,hybrid
R-HSA-442982,0.0008888233901794202,497.0,5,$\widetilde{A}_{G_5}$,hybrid
R-HSA-422356,0.000886604508965053,498.0,5,$\widetilde{A}_{G_5}$,hybrid
R-HSA-350562,0.0008864356693015547,499.0,5,$\widetilde{A}_{G_5}$,hybrid
R-HSA-5689603,0.0008846795406167902,500.0,5,$\widetilde{A}_{G_5}$,hybrid
R-HSA-5621480,0.0008803906622647898,501.0,5,$\widetilde{A}_{G_5}$,hybrid
R-HSA-69202,0.0008801979281641592,502.0,5,$\widetilde{A}_{G_5}$,hybrid
R-HSA-389977,0.000880162753009619,503.0,5,$\widetilde{A}_{G_5}$,hybrid
R-HSA-445095,0.0008786362359469261,504.0,5,$\widetilde{A}_{G_5}$,hybrid
R-HSA-9662361,0.0008767687288436087,505.0,5,$\widetilde{A}_{G_5}$,hybrid
R-HSA-9615933,0.0008765286816641623,506.0,5,$\widetilde{A}_{G_5}$,hybrid
R-HSA-5607764,0.0008747853209700189,507.0,5,$\widetilde{A}_{G_5}$,hybrid
R-HSA-437239,0.0008744384010744229,508.0,5,$\widetilde{A}_{G_5}$,hybrid
R-HSA-445989,0.0008735305283852644,509.0,5,$\widetilde{A}_{G_5}$,hybrid
R-HSA-1168372,0.0008730992321902345,510.0,5,$\widetilde{A}_{G_5}$,hybrid
R-HSA-9020956,0.0008728053340039945,511.0,5,$\widetilde{A}_{G_5}$,hybrid
R-HSA-5686938,0.000872469072850485,512.0,5,$\widetilde{A}_{G_5}$,hybrid
R-HSA-9013420,0.0008723966914505802,513.0,5,$\widetilde{A}_{G_5}$,hybrid
R-HSA-3371453,0.0008715199275528793,514.0,5,$\widetilde{A}_{G_5}$,hybrid
R-HSA-1500931,0.000871108119700173,515.0,5,$\widetilde{A}_{G_5}$,hybrid
R-HSA-397795,0.0008709707743927321,516.0,5,$\widetilde{A}_{G_5}$,hybrid
R-HSA-2465910,0.0008705576055661159,517.0,5,$\widetilde{A}_{G_5}$,hybrid
R-HSA-163359,0.0008693834066453093,518.0,5,$\widetilde{A}_{G_5}$,hybrid
R-HSA-3371556,0.0008690317671027752,519.0,5,$\widetilde{A}_{G_5}$,hybrid
R-HSA-69656,0.0008684973806765469,520.0,5,$\widetilde{A}_{G_5}$,hybrid
R-HSA-9614085,0.0008665624676655265,521.0,5,$\widetilde{A}_{G_5}$,hybrid
R-HSA-3769402,0.0008656980068166234,522.0,5,$\widetilde{A}_{G_5}$,hybrid
R-HSA-1592389,0.0008645551226492001,523.0,5,$\widetilde{A}_{G_5}$,hybrid
R-HSA-5693579,0.0008622532992946691,524.0,5,$\widetilde{A}_{G_5}$,hybrid
R-HSA-195253,0.0008621602974269909,525.0,5,$\widetilde{A}_{G_5}$,hybrid
R-HSA-210744,0.0008616803678921878,526.0,5,$\widetilde{A}_{G_5}$,hybrid
R-HSA-442755,0.0008610532542212603,527.0,5,$\widetilde{A}_{G_5}$,hybrid
R-HSA-3928662,0.0008608595827457732,528.0,5,$\widetilde{A}_{G_5}$,hybrid
R-HSA-392518,0.0008606429930563254,529.0,5,$\widetilde{A}_{G_5}$,hybrid
R-HSA-9694516,0.0008577428037721958,530.0,5,$\widetilde{A}_{G_5}$,hybrid
R-HSA-4608870,0.0008570223336813574,531.0,5,$\widetilde{A}_{G_5}$,hybrid
R-HSA-176408,0.0008565751579046509,532.0,5,$\widetilde{A}_{G_5}$,hybrid
R-HSA-8866427,0.0008565166347791991,533.0,5,$\widetilde{A}_{G_5}$,hybrid
R-HSA-6802957,0.0008557659239833146,534.0,5,$\widetilde{A}_{G_5}$,hybrid
R-HSA-5218920,0.0008541711259695334,535.0,5,$\widetilde{A}_{G_5}$,hybrid
R-HSA-4086400,0.0008524844283100927,536.0,5,$\widetilde{A}_{G_5}$,hybrid
R-HSA-171007,0.0008514122046257288,537.0,5,$\widetilde{A}_{G_5}$,hybrid
R-HSA-9013424,0.0008511625969895193,538.0,5,$\widetilde{A}_{G_5}$,hybrid
R-HSA-5693554,0.0008506733038277348,539.0,5,$\widetilde{A}_{G_5}$,hybrid
R-HSA-174143,0.0008506675133038555,540.5,5,$\widetilde{A}_{G_5}$,hybrid
R-HSA-453276,0.0008506675133038555,540.5,5,$\widetilde{A}_{G_5}$,hybrid
R-HSA-180746,0.0008502930711042383,542.0,5,$\widetilde{A}_{G_5}$,hybrid
R-HSA-456926,0.0008497904919007965,543.0,5,$\widetilde{A}_{G_5}$,hybrid
R-HSA-351202,0.0008489897124972565,544.0,5,$\widetilde{A}_{G_5}$,hybrid
R-HSA-4755510,0.0008478598570085806,545.0,5,$\widetilde{A}_{G_5}$,hybrid
R-HSA-179419,0.0008477784911410142,546.0,5,$\widetilde{A}_{G_5}$,hybrid
R-HSA-9013406,0.0008477630326290053,547.0,5,$\widetilde{A}_{G_5}$,hybrid
R-HSA-177243,0.0008475140693272285,548.0,5,$\widetilde{A}_{G_5}$,hybrid
R-HSA-174084,0.0008472429660752484,549.0,5,$\widetilde{A}_{G_5}$,hybrid
R-HSA-392851,0.0008451284184250501,550.0,5,$\widetilde{A}_{G_5}$,hybrid
R-HSA-418346,0.000844835473871426,551.0,5,$\widetilde{A}_{G_5}$,hybrid
R-HSA-69052,0.0008442516548740069,552.0,5,$\widetilde{A}_{G_5}$,hybrid
R-HSA-168271,0.0008432936522933885,553.0,5,$\widetilde{A}_{G_5}$,hybrid
R-HSA-432040,0.0008423934062201518,554.5,5,$\widetilde{A}_{G_5}$,hybrid
R-HSA-445717,0.0008423934062201518,554.5,5,$\widetilde{A}_{G_5}$,hybrid
R-HSA-5610787,0.0008423765259221097,556.0,5,$\widetilde{A}_{G_5}$,hybrid
R-HSA-176814,0.0008418390234561779,557.0,5,$\widetilde{A}_{G_5}$,hybrid
R-HSA-392170,0.0008399440586633808,558.0,5,$\widetilde{A}_{G_5}$,hybrid
R-HSA-8875878,0.0008394277329603343,559.0,5,$\widetilde{A}_{G_5}$,hybrid
R-HSA-174184,0.0008392003290722002,560.0,5,$\widetilde{A}_{G_5}$,hybrid
R-HSA-450294,0.0008386492412373459,561.0,5,$\widetilde{A}_{G_5}$,hybrid
R-HSA-2995410,0.0008385301783617342,562.0,5,$\widetilde{A}_{G_5}$,hybrid
R-HSA-2173791,0.0008384344604581247,563.0,5,$\widetilde{A}_{G_5}$,hybrid
R-HSA-168276,0.0008365421714352868,564.0,5,$\widetilde{A}_{G_5}$,hybrid
R-HSA-176409,0.000835661008278129,565.0,5,$\widetilde{A}_{G_5}$,hybrid
R-HSA-174178,0.0008355659997677298,566.0,5,$\widetilde{A}_{G_5}$,hybrid
R-HSA-112409,0.000834860011409751,567.0,5,$\widetilde{A}_{G_5}$,hybrid
R-HSA-5685938,0.0008342765823417324,568.0,5,$\widetilde{A}_{G_5}$,hybrid
R-HSA-202670,0.0008339504384898758,569.0,5,$\widetilde{A}_{G_5}$,hybrid
R-HSA-3232118,0.0008332804452467667,570.0,5,$\widetilde{A}_{G_5}$,hybrid
R-HSA-6784531,0.0008326135571887585,571.0,5,$\widetilde{A}_{G_5}$,hybrid
R-HSA-448424,0.000832339353275965,572.0,5,$\widetilde{A}_{G_5}$,hybrid
R-HSA-174154,0.0008318938621825688,573.0,5,$\widetilde{A}_{G_5}$,hybrid
R-HSA-5576891,0.0008318275696088993,574.0,5,$\widetilde{A}_{G_5}$,hybrid
R-HSA-165054,0.0008312322218764091,575.0,5,$\widetilde{A}_{G_5}$,hybrid
R-HSA-182971,0.0008309375829207066,576.0,5,$\widetilde{A}_{G_5}$,hybrid
R-HSA-3232142,0.000830203877307845,577.0,5,$\widetilde{A}_{G_5}$,hybrid
R-HSA-5689901,0.0008289482947801009,578.0,5,$\widetilde{A}_{G_5}$,hybrid
R-HSA-6804114,0.000828733938071567,579.0,5,$\widetilde{A}_{G_5}$,hybrid
R-HSA-8943724,0.0008268516044484035,580.0,5,$\widetilde{A}_{G_5}$,hybrid
R-HSA-170822,0.0008254385971523102,581.0,5,$\widetilde{A}_{G_5}$,hybrid
R-HSA-5619107,0.0008254385971523101,582.5,5,$\widetilde{A}_{G_5}$,hybrid
R-HSA-168325,0.0008254385971523101,582.5,5,$\widetilde{A}_{G_5}$,hybrid
R-HSA-73893,0.0008241149689095823,584.0,5,$\widetilde{A}_{G_5}$,hybrid
R-HSA-180910,0.0008239026523134768,585.0,5,$\widetilde{A}_{G_5}$,hybrid
R-HSA-176033,0.0008239026523134764,586.0,5,$\widetilde{A}_{G_5}$,hybrid
R-HSA-3928664,0.0008238374608909121,587.0,5,$\widetilde{A}_{G_5}$,hybrid
R-HSA-5632684,0.0008230225050693615,588.0,5,$\widetilde{A}_{G_5}$,hybrid
R-HSA-168333,0.000822602905275865,589.5,5,$\widetilde{A}_{G_5}$,hybrid
R-HSA-168274,0.000822602905275865,589.5,5,$\widetilde{A}_{G_5}$,hybrid
R-HSA-4085377,0.0008221720256444256,591.0,5,$\widetilde{A}_{G_5}$,hybrid
R-HSA-8953750,0.0008219978262398284,592.0,5,$\widetilde{A}_{G_5}$,hybrid
R-HSA-4615885,0.0008197756534741358,593.0,5,$\widetilde{A}_{G_5}$,hybrid
R-HSA-6783589,0.0008197722593209708,594.0,5,$\widetilde{A}_{G_5}$,hybrid
R-HSA-111465,0.0008196469436410048,595.0,5,$\widetilde{A}_{G_5}$,hybrid
R-HSA-5620971,0.0008167428567158514,596.0,5,$\widetilde{A}_{G_5}$,hybrid
R-HSA-9013404,0.0008157859857554314,597.0,5,$\widetilde{A}_{G_5}$,hybrid
R-HSA-438066,0.0008140284548702735,598.0,5,$\widetilde{A}_{G_5}$,hybrid
R-HSA-9664433,0.000813859638054522,599.0,5,$\widetilde{A}_{G_5}$,hybrid
R-HSA-9662851,0.0008138596380545219,600.0,5,$\widetilde{A}_{G_5}$,hybrid
R-HSA-975138,0.0008125444765454152,601.0,5,$\widetilde{A}_{G_5}$,hybrid
R-HSA-3928663,0.0008122867782920963,602.0,5,$\widetilde{A}_{G_5}$,hybrid
R-HSA-9634638,0.0008115825517492315,603.0,5,$\widetilde{A}_{G_5}$,hybrid
R-HSA-5656169,0.000811274876718206,604.0,5,$\widetilde{A}_{G_5}$,hybrid
R-HSA-975155,0.000807534189032446,605.5,5,$\widetilde{A}_{G_5}$,hybrid
R-HSA-168138,0.000807534189032446,605.5,5,$\widetilde{A}_{G_5}$,hybrid
R-HSA-168181,0.0008075341890324458,607.0,5,$\widetilde{A}_{G_5}$,hybrid
R-HSA-5358752,0.0008073465332196728,608.0,5,$\widetilde{A}_{G_5}$,hybrid
R-HSA-4839743,0.0008073465332196726,609.5,5,$\widetilde{A}_{G_5}$,hybrid
R-HSA-5358749,0.0008073465332196726,609.5,5,$\widetilde{A}_{G_5}$,hybrid
R-HSA-5358747,0.0008073465332196725,611.5,5,$\widetilde{A}_{G_5}$,hybrid
R-HSA-5358751,0.0008073465332196725,611.5,5,$\widetilde{A}_{G_5}$,hybrid
R-HSA-5339716,0.0008073465332196719,613.0,5,$\widetilde{A}_{G_5}$,hybrid
R-HSA-2132295,0.0008070435737717019,614.0,5,$\widetilde{A}_{G_5}$,hybrid
R-HSA-186712,0.0008048998248298039,615.0,5,$\widetilde{A}_{G_5}$,hybrid
R-HSA-8964315,0.0008043823140885235,616.0,5,$\widetilde{A}_{G_5}$,hybrid
R-HSA-75153,0.0008041793226043753,617.0,5,$\widetilde{A}_{G_5}$,hybrid
R-HSA-70171,0.0008041151574122846,618.0,5,$\widetilde{A}_{G_5}$,hybrid
R-HSA-198753,0.0008039411239581142,619.0,5,$\widetilde{A}_{G_5}$,hybrid
R-HSA-373760,0.0008037088022511878,620.0,5,$\widetilde{A}_{G_5}$,hybrid
R-HSA-69017,0.0008029059991445012,621.0,5,$\widetilde{A}_{G_5}$,hybrid
R-HSA-450302,0.0008027397932638503,622.0,5,$\widetilde{A}_{G_5}$,hybrid
R-HSA-202040,0.000802400617805349,623.0,5,$\widetilde{A}_{G_5}$,hybrid
R-HSA-114452,0.0008015451783393824,624.0,5,$\widetilde{A}_{G_5}$,hybrid
R-HSA-5696397,0.0007992170318855603,625.0,5,$\widetilde{A}_{G_5}$,hybrid
R-HSA-933542,0.0007988590963863388,626.0,5,$\widetilde{A}_{G_5}$,hybrid
R-HSA-8856688,0.0007987654738480463,627.0,5,$\widetilde{A}_{G_5}$,hybrid
R-HSA-8984722,0.0007971474326026379,628.0,5,$\widetilde{A}_{G_5}$,hybrid
R-HSA-264870,0.0007939684378997948,629.0,5,$\widetilde{A}_{G_5}$,hybrid
R-HSA-416476,0.0007938673548626399,630.0,5,$\widetilde{A}_{G_5}$,hybrid
R-HSA-69091,0.0007934669581642434,631.5,5,$\widetilde{A}_{G_5}$,hybrid
R-HSA-69109,0.0007934669581642434,631.5,5,$\widetilde{A}_{G_5}$,hybrid
R-HSA-420092,0.0007928593044459572,633.0,5,$\widetilde{A}_{G_5}$,hybrid
R-HSA-3301854,0.0007899685709762594,634.0,5,$\widetilde{A}_{G_5}$,hybrid
R-HSA-6790901,0.0007894332143412323,635.0,5,$\widetilde{A}_{G_5}$,hybrid
R-HSA-181438,0.0007888460856893859,636.0,5,$\widetilde{A}_{G_5}$,hybrid
R-HSA-168179,0.0007888460856893858,637.0,5,$\widetilde{A}_{G_5}$,hybrid
R-HSA-2122948,0.0007877427712147701,638.0,5,$\widetilde{A}_{G_5}$,hybrid
R-HSA-9668328,0.000786994550189375,639.0,5,$\widetilde{A}_{G_5}$,hybrid
R-HSA-9694635,0.0007856912093390352,640.0,5,$\widetilde{A}_{G_5}$,hybrid
R-HSA-5619102,0.0007855391756728204,641.0,5,$\widetilde{A}_{G_5}$,hybrid
R-HSA-110313,0.0007836291492253428,642.0,5,$\widetilde{A}_{G_5}$,hybrid
R-HSA-1483257,0.0007834473029267985,643.0,5,$\widetilde{A}_{G_5}$,hybrid
R-HSA-111932,0.0007787295916050983,644.0,5,$\widetilde{A}_{G_5}$,hybrid
R-HSA-450282,0.0007786434561517628,645.0,5,$\widetilde{A}_{G_5}$,hybrid
R-HSA-5467348,0.0007778415880285999,646.5,5,$\widetilde{A}_{G_5}$,hybrid
R-HSA-5467340,0.0007778415880285999,646.5,5,$\widetilde{A}_{G_5}$,hybrid
R-HSA-4839748,0.0007778415880285998,648.0,5,$\widetilde{A}_{G_5}$,hybrid
R-HSA-5467337,0.0007778415880285997,649.5,5,$\widetilde{A}_{G_5}$,hybrid
R-HSA-4839744,0.0007778415880285997,649.5,5,$\widetilde{A}_{G_5}$,hybrid
R-HSA-4839735,0.0007778415880285996,651.0,5,$\widetilde{A}_{G_5}$,hybrid
R-HSA-400042,0.0007762729442417258,652.0,5,$\widetilde{A}_{G_5}$,hybrid
R-HSA-5663213,0.0007758434965523319,653.0,5,$\widetilde{A}_{G_5}$,hybrid
R-HSA-5627117,0.000775558827227849,654.0,5,$\widetilde{A}_{G_5}$,hybrid
R-HSA-164938,0.0007737855881943081,655.0,5,$\widetilde{A}_{G_5}$,hybrid
R-HSA-977443,0.0007718496447250752,656.0,5,$\widetilde{A}_{G_5}$,hybrid
R-HSA-991365,0.0007718496447250747,657.5,5,$\widetilde{A}_{G_5}$,hybrid
R-HSA-977444,0.0007718496447250747,657.5,5,$\widetilde{A}_{G_5}$,hybrid
R-HSA-2980766,0.0007707270284705074,659.0,5,$\widetilde{A}_{G_5}$,hybrid
R-HSA-72165,0.0007693663316522517,660.0,5,$\widetilde{A}_{G_5}$,hybrid
R-HSA-975871,0.0007679031705669093,661.0,5,$\widetilde{A}_{G_5}$,hybrid
R-HSA-168176,0.0007679031705669092,662.0,5,$\widetilde{A}_{G_5}$,hybrid
R-HSA-168142,0.0007679031705669088,663.0,5,$\widetilde{A}_{G_5}$,hybrid
R-HSA-418592,0.0007654752295084996,664.0,5,$\widetilde{A}_{G_5}$,hybrid
R-HSA-5696394,0.0007647721095207271,665.0,5,$\widetilde{A}_{G_5}$,hybrid
R-HSA-373755,0.0007633329140039101,666.0,5,$\widetilde{A}_{G_5}$,hybrid
R-HSA-3899300,0.0007632399742546292,667.0,5,$\widetilde{A}_{G_5}$,hybrid
R-HSA-8964038,0.0007625111275177056,668.0,5,$\widetilde{A}_{G_5}$,hybrid
R-HSA-5651801,0.0007607387111437429,669.0,5,$\widetilde{A}_{G_5}$,hybrid
R-HSA-1236975,0.0007600659030475314,670.0,5,$\widetilde{A}_{G_5}$,hybrid
R-HSA-428930,0.0007591052173266948,671.0,5,$\widetilde{A}_{G_5}$,hybrid
R-HSA-400253,0.0007528537629398824,672.0,5,$\widetilde{A}_{G_5}$,hybrid
R-HSA-918233,0.0007528444140021898,673.0,5,$\widetilde{A}_{G_5}$,hybrid
R-HSA-4570464,0.0007523200877704705,674.0,5,$\widetilde{A}_{G_5}$,hybrid
R-HSA-6799198,0.0007516310599896686,675.0,5,$\widetilde{A}_{G_5}$,hybrid
R-HSA-174437,0.0007486111823167238,676.0,5,$\widetilde{A}_{G_5}$,hybrid
R-HSA-8874081,0.0007485946702209194,677.0,5,$\widetilde{A}_{G_5}$,hybrid
R-HSA-500792,0.0007445131849001843,678.0,5,$\widetilde{A}_{G_5}$,hybrid
R-HSA-69166,0.0007440083396302574,679.0,5,$\widetilde{A}_{G_5}$,hybrid
R-HSA-167242,0.0007439069838030417,680.0,5,$\widetilde{A}_{G_5}$,hybrid
R-HSA-5339562,0.000743557608491141,681.0,5,$\widetilde{A}_{G_5}$,hybrid
R-HSA-168188,0.0007428350792384179,682.0,5,$\widetilde{A}_{G_5}$,hybrid
R-HSA-166058,0.0007428350792384178,683.0,5,$\widetilde{A}_{G_5}$,hybrid
R-HSA-8941856,0.0007426076550316651,684.0,5,$\widetilde{A}_{G_5}$,hybrid
R-HSA-933543,0.0007423697857265641,685.0,5,$\widetilde{A}_{G_5}$,hybrid
R-HSA-445355,0.0007423444384613493,686.0,5,$\widetilde{A}_{G_5}$,hybrid
R-HSA-194441,0.0007404956115744966,687.5,5,$\widetilde{A}_{G_5}$,hybrid
R-HSA-191859,0.0007404956115744966,687.5,5,$\widetilde{A}_{G_5}$,hybrid
R-HSA-1296071,0.0007395896737284408,689.5,5,$\widetilde{A}_{G_5}$,hybrid
R-HSA-1296065,0.0007395896737284408,689.5,5,$\widetilde{A}_{G_5}$,hybrid
R-HSA-1296059,0.0007395896737284407,691.5,5,$\widetilde{A}_{G_5}$,hybrid
R-HSA-1296041,0.0007395896737284407,691.5,5,$\widetilde{A}_{G_5}$,hybrid
R-HSA-997272,0.0007395896737284406,693.0,5,$\widetilde{A}_{G_5}$,hybrid
R-HSA-983231,0.0007390511793937737,694.0,5,$\widetilde{A}_{G_5}$,hybrid
R-HSA-9620244,0.0007387164902836084,695.0,5,$\widetilde{A}_{G_5}$,hybrid
R-HSA-171319,0.0007376679437549972,696.0,5,$\widetilde{A}_{G_5}$,hybrid
R-HSA-1834949,0.0007367508235032003,697.0,5,$\widetilde{A}_{G_5}$,hybrid
R-HSA-9617324,0.0007363195575303502,698.0,5,$\widetilde{A}_{G_5}$,hybrid
R-HSA-110373,0.0007362018445878504,699.0,5,$\widetilde{A}_{G_5}$,hybrid
R-HSA-77595,0.0007361828777748506,700.0,5,$\widetilde{A}_{G_5}$,hybrid
R-HSA-163685,0.0007342903598590848,701.0,5,$\widetilde{A}_{G_5}$,hybrid
R-HSA-69186,0.0007320828806394588,702.0,5,$\widetilde{A}_{G_5}$,hybrid
R-HSA-163210,0.0007312272836888166,703.0,5,$\widetilde{A}_{G_5}$,hybrid
R-HSA-429958,0.0007312106198969664,704.0,5,$\widetilde{A}_{G_5}$,hybrid
R-HSA-69273,0.0007311322610483251,705.0,5,$\widetilde{A}_{G_5}$,hybrid
R-HSA-69236,0.0007302969817495589,706.0,5,$\widetilde{A}_{G_5}$,hybrid
R-HSA-69231,0.0007302969817495586,707.0,5,$\widetilde{A}_{G_5}$,hybrid
R-HSA-5218900,0.0007293369498978162,709.0,5,$\widetilde{A}_{G_5}$,hybrid
R-HSA-69416,0.0007293369498978162,709.0,5,$\widetilde{A}_{G_5}$,hybrid
R-HSA-3371378,0.0007293369498978162,709.0,5,$\widetilde{A}_{G_5}$,hybrid
R-HSA-421270,0.0007289740696333584,711.0,5,$\widetilde{A}_{G_5}$,hybrid
R-HSA-1236974,0.0007271883769005507,712.0,5,$\widetilde{A}_{G_5}$,hybrid
R-HSA-9673324,0.000726256277321573,713.0,5,$\widetilde{A}_{G_5}$,hybrid
R-HSA-9664420,0.0007262562773215726,714.0,5,$\widetilde{A}_{G_5}$,hybrid
R-HSA-167238,0.0007260564311753615,715.0,5,$\widetilde{A}_{G_5}$,hybrid
R-HSA-167243,0.0007260564311753614,716.0,5,$\widetilde{A}_{G_5}$,hybrid
R-HSA-114608,0.0007249406861693486,717.0,5,$\widetilde{A}_{G_5}$,hybrid
R-HSA-1489509,0.0007242082041602428,718.0,5,$\widetilde{A}_{G_5}$,hybrid
R-HSA-909733,0.0007240013019018208,719.0,5,$\widetilde{A}_{G_5}$,hybrid
R-HSA-198323,0.0007231761320913838,720.0,5,$\widetilde{A}_{G_5}$,hybrid
R-HSA-9709957,0.0007227964133508348,721.0,5,$\widetilde{A}_{G_5}$,hybrid
R-HSA-196299,0.0007215923314823001,722.0,5,$\widetilde{A}_{G_5}$,hybrid
R-HSA-1445148,0.0007211973589564075,723.0,5,$\widetilde{A}_{G_5}$,hybrid
R-HSA-203927,0.0007197953692768718,724.0,5,$\widetilde{A}_{G_5}$,hybrid
R-HSA-8876725,0.0007195017322029701,725.0,5,$\widetilde{A}_{G_5}$,hybrid
R-HSA-8856825,0.0007135464563258608,726.0,5,$\widetilde{A}_{G_5}$,hybrid
R-HSA-2682334,0.0007120819919345167,727.0,5,$\widetilde{A}_{G_5}$,hybrid
R-HSA-611105,0.0007108705976967286,728.0,5,$\widetilde{A}_{G_5}$,hybrid
R-HSA-72187,0.0007087183902776535,729.0,5,$\widetilde{A}_{G_5}$,hybrid
R-HSA-140534,0.0007084050466545657,730.0,5,$\widetilde{A}_{G_5}$,hybrid
R-HSA-8979227,0.000708329973581324,731.0,5,$\widetilde{A}_{G_5}$,hybrid
R-HSA-380994,0.0007076666860220738,732.0,5,$\widetilde{A}_{G_5}$,hybrid
R-HSA-5696400,0.0007075107523138911,733.0,5,$\widetilde{A}_{G_5}$,hybrid
R-HSA-500657,0.0007074830338811571,734.5,5,$\widetilde{A}_{G_5}$,hybrid
R-HSA-418217,0.0007074830338811571,734.5,5,$\widetilde{A}_{G_5}$,hybrid
R-HSA-451326,0.000707483033881157,736.0,5,$\widetilde{A}_{G_5}$,hybrid
R-HSA-69183,0.000707426035306648,737.0,5,$\widetilde{A}_{G_5}$,hybrid
R-HSA-1169408,0.0007053984061916751,738.0,5,$\widetilde{A}_{G_5}$,hybrid
R-HSA-442720,0.0007044826493120315,739.0,5,$\widetilde{A}_{G_5}$,hybrid
R-HSA-373076,0.0007035285819780015,740.0,5,$\widetilde{A}_{G_5}$,hybrid
R-HSA-1169410,0.0007027493300704587,741.0,5,$\widetilde{A}_{G_5}$,hybrid
R-HSA-5693568,0.000700083533104895,742.0,5,$\widetilde{A}_{G_5}$,hybrid
R-HSA-6811436,0.0006975980484452733,743.0,5,$\widetilde{A}_{G_5}$,hybrid
R-HSA-167290,0.0006967496909946414,744.0,5,$\widetilde{A}_{G_5}$,hybrid
R-HSA-167287,0.0006967496909946412,745.0,5,$\widetilde{A}_{G_5}$,hybrid
R-HSA-9617828,0.0006946325833661475,746.0,5,$\widetilde{A}_{G_5}$,hybrid
R-HSA-5685942,0.0006917682017081422,747.0,5,$\widetilde{A}_{G_5}$,hybrid
R-HSA-418555,0.0006916316909743765,748.0,5,$\widetilde{A}_{G_5}$,hybrid
R-HSA-72202,0.0006913483105776825,749.0,5,$\widetilde{A}_{G_5}$,hybrid
R-HSA-397014,0.0006900642818256195,750.0,5,$\widetilde{A}_{G_5}$,hybrid
R-HSA-109606,0.000689157368450344,751.0,5,$\widetilde{A}_{G_5}$,hybrid
R-HSA-9013408,0.0006891031068512347,752.0,5,$\widetilde{A}_{G_5}$,hybrid
R-HSA-6782210,0.0006885015152957178,753.0,5,$\widetilde{A}_{G_5}$,hybrid
R-HSA-113501,0.0006883996555168186,754.0,5,$\widetilde{A}_{G_5}$,hybrid
R-HSA-5696395,0.0006874982565230065,755.0,5,$\widetilde{A}_{G_5}$,hybrid
R-HSA-3928665,0.0006863573398829912,756.0,5,$\widetilde{A}_{G_5}$,hybrid
R-HSA-159236,0.0006856775909457062,757.0,5,$\widetilde{A}_{G_5}$,hybrid
R-HSA-8957322,0.0006832867920581131,758.0,5,$\widetilde{A}_{G_5}$,hybrid
R-HSA-6804756,0.0006822691779000767,759.0,5,$\widetilde{A}_{G_5}$,hybrid
R-HSA-6781823,0.0006821172659131467,760.0,5,$\widetilde{A}_{G_5}$,hybrid
R-HSA-9694548,0.000678736353981784,761.0,5,$\widetilde{A}_{G_5}$,hybrid
R-HSA-70268,0.000678329749910037,762.0,5,$\widetilde{A}_{G_5}$,hybrid
R-HSA-4641265,0.0006771353024952175,763.0,5,$\widetilde{A}_{G_5}$,hybrid
R-HSA-4655427,0.0006768069098771947,764.0,5,$\widetilde{A}_{G_5}$,hybrid
R-HSA-204005,0.000676661746713548,765.0,5,$\widetilde{A}_{G_5}$,hybrid
R-HSA-8939243,0.0006764060125488105,766.0,5,$\widetilde{A}_{G_5}$,hybrid
R-HSA-113510,0.0006762015232429806,767.0,5,$\widetilde{A}_{G_5}$,hybrid
R-HSA-2565942,0.000676099554836817,768.0,5,$\widetilde{A}_{G_5}$,hybrid
R-HSA-6804759,0.0006754567582126605,769.0,5,$\widetilde{A}_{G_5}$,hybrid
R-HSA-3108214,0.0006748480355201836,770.0,5,$\widetilde{A}_{G_5}$,hybrid
R-HSA-73856,0.0006726111486456547,771.0,5,$\widetilde{A}_{G_5}$,hybrid
R-HSA-174414,0.0006723317775850379,772.0,5,$\widetilde{A}_{G_5}$,hybrid
R-HSA-450604,0.0006703506707649171,773.0,5,$\widetilde{A}_{G_5}$,hybrid
R-HSA-111367,0.00066788578554911,774.0,5,$\widetilde{A}_{G_5}$,hybrid
R-HSA-8949613,0.0006669811128344876,775.0,5,$\widetilde{A}_{G_5}$,hybrid
R-HSA-5693537,0.0006669566607828393,776.0,5,$\widetilde{A}_{G_5}$,hybrid
R-HSA-176412,0.0006649905128403437,777.0,5,$\widetilde{A}_{G_5}$,hybrid
R-HSA-6781827,0.0006635326333797923,778.0,5,$\widetilde{A}_{G_5}$,hybrid
R-HSA-9674555,0.0006633575022423002,779.0,5,$\widetilde{A}_{G_5}$,hybrid
R-HSA-72086,0.0006619828602759727,780.0,5,$\widetilde{A}_{G_5}$,hybrid
R-HSA-6782135,0.0006618543720801012,781.0,5,$\widetilde{A}_{G_5}$,hybrid
R-HSA-198725,0.000661121255319721,782.0,5,$\widetilde{A}_{G_5}$,hybrid
R-HSA-76005,0.0006574517338387528,783.0,5,$\widetilde{A}_{G_5}$,hybrid
R-HSA-450513,0.0006571041829630116,784.0,5,$\widetilde{A}_{G_5}$,hybrid
R-HSA-72306,0.000656901421274462,785.0,5,$\widetilde{A}_{G_5}$,hybrid
R-HSA-418597,0.0006568805058045925,786.0,5,$\widetilde{A}_{G_5}$,hybrid
R-HSA-210991,0.0006563376332126174,787.0,5,$\widetilde{A}_{G_5}$,hybrid
R-HSA-5389840,0.0006539602149294967,788.0,5,$\widetilde{A}_{G_5}$,hybrid
R-HSA-877300,0.0006502482688914188,789.0,5,$\widetilde{A}_{G_5}$,hybrid
R-HSA-532668,0.0006487551276713278,790.0,5,$\widetilde{A}_{G_5}$,hybrid
R-HSA-9013423,0.0006478583707951242,791.0,5,$\widetilde{A}_{G_5}$,hybrid
R-HSA-380259,0.0006467610478146285,792.5,5,$\widetilde{A}_{G_5}$,hybrid
R-HSA-380284,0.0006467610478146285,792.5,5,$\widetilde{A}_{G_5}$,hybrid
R-HSA-380320,0.0006467081837865656,794.0,5,$\widetilde{A}_{G_5}$,hybrid
R-HSA-8854518,0.0006438647528248073,795.0,5,$\widetilde{A}_{G_5}$,hybrid
R-HSA-446353,0.0006435105657130975,796.0,5,$\widetilde{A}_{G_5}$,hybrid
R-HSA-9013405,0.000641887864749748,797.0,5,$\widetilde{A}_{G_5}$,hybrid
R-HSA-5696399,0.0006406875556627795,798.0,5,$\widetilde{A}_{G_5}$,hybrid
R-HSA-180786,0.0006405530719393803,799.0,5,$\widetilde{A}_{G_5}$,hybrid
R-HSA-9707616,0.0006400619727095896,800.0,5,$\widetilde{A}_{G_5}$,hybrid
R-HSA-1502540,0.0006398809936435099,801.0,5,$\widetilde{A}_{G_5}$,hybrid
R-HSA-9609523,0.0006389478309841034,802.0,5,$\widetilde{A}_{G_5}$,hybrid
R-HSA-6783310,0.0006381099299522582,803.0,5,$\widetilde{A}_{G_5}$,hybrid
R-HSA-77075,0.0006358550631358963,804.0,5,$\widetilde{A}_{G_5}$,hybrid
R-HSA-167160,0.000635855063135896,805.0,5,$\widetilde{A}_{G_5}$,hybrid
R-HSA-6796648,0.0006357369713599033,806.0,5,$\widetilde{A}_{G_5}$,hybrid
R-HSA-141405,0.0006342836571147242,807.5,5,$\widetilde{A}_{G_5}$,hybrid
R-HSA-141430,0.0006342836571147242,807.5,5,$\widetilde{A}_{G_5}$,hybrid
R-HSA-73762,0.0006330352451971889,809.0,5,$\widetilde{A}_{G_5}$,hybrid
R-HSA-429947,0.0006323184417645531,810.0,5,$\widetilde{A}_{G_5}$,hybrid
R-HSA-5368286,0.0006320415597541398,811.0,5,$\widetilde{A}_{G_5}$,hybrid
R-HSA-5419276,0.0006306369241746663,812.0,5,$\widetilde{A}_{G_5}$,hybrid
R-HSA-5674400,0.0006303037066520804,813.0,5,$\widetilde{A}_{G_5}$,hybrid
R-HSA-2028269,0.0006302895467507223,814.0,5,$\widetilde{A}_{G_5}$,hybrid
R-HSA-3215018,0.000629339989280975,815.0,5,$\widetilde{A}_{G_5}$,hybrid
R-HSA-5368287,0.0006291027595282277,816.0,5,$\widetilde{A}_{G_5}$,hybrid
R-HSA-428157,0.0006286967634135447,817.0,5,$\widetilde{A}_{G_5}$,hybrid
R-HSA-2187338,0.0006286618751944206,818.0,5,$\widetilde{A}_{G_5}$,hybrid
R-HSA-180024,0.0006284276139653796,819.0,5,$\widetilde{A}_{G_5}$,hybrid
R-HSA-4641262,0.0006283369371556203,820.0,5,$\widetilde{A}_{G_5}$,hybrid
R-HSA-1483206,0.0006277661200765737,821.0,5,$\widetilde{A}_{G_5}$,hybrid
R-HSA-77588,0.0006265039760982879,822.0,5,$\widetilde{A}_{G_5}$,hybrid
R-HSA-8876198,0.0006261351337904951,823.0,5,$\widetilde{A}_{G_5}$,hybrid
R-HSA-6791312,0.0006245518431291729,824.0,5,$\widetilde{A}_{G_5}$,hybrid
R-HSA-167246,0.0006211297807732175,825.0,5,$\widetilde{A}_{G_5}$,hybrid
R-HSA-167200,0.0006211297807732173,826.0,5,$\widetilde{A}_{G_5}$,hybrid
R-HSA-167169,0.0006211297807732172,827.0,5,$\widetilde{A}_{G_5}$,hybrid
R-HSA-111931,0.0006186223182187958,828.0,5,$\widetilde{A}_{G_5}$,hybrid
R-HSA-399956,0.0006182166401389404,829.0,5,$\widetilde{A}_{G_5}$,hybrid
R-HSA-5620916,0.0006179913627758058,830.0,5,$\widetilde{A}_{G_5}$,hybrid
R-HSA-174411,0.0006176345711900614,831.0,5,$\widetilde{A}_{G_5}$,hybrid
R-HSA-450385,0.0006158726855663205,832.0,5,$\widetilde{A}_{G_5}$,hybrid
R-HSA-156711,0.0006152539497159271,833.0,5,$\widetilde{A}_{G_5}$,hybrid
R-HSA-264876,0.0006152167327965924,834.0,5,$\widetilde{A}_{G_5}$,hybrid
R-HSA-75067,0.0006139915808751541,835.0,5,$\widetilde{A}_{G_5}$,hybrid
R-HSA-176407,0.000613252532373118,836.0,5,$\widetilde{A}_{G_5}$,hybrid
R-HSA-8949215,0.0006132109082661109,837.0,5,$\widetilde{A}_{G_5}$,hybrid
R-HSA-9660821,0.0006130945638189978,838.0,5,$\widetilde{A}_{G_5}$,hybrid
R-HSA-6807878,0.0006117329714234237,839.0,5,$\widetilde{A}_{G_5}$,hybrid
R-HSA-174048,0.0006070804012105721,840.0,5,$\widetilde{A}_{G_5}$,hybrid
R-HSA-167158,0.0006063750626489556,841.5,5,$\widetilde{A}_{G_5}$,hybrid
R-HSA-113418,0.0006063750626489556,841.5,5,$\widetilde{A}_{G_5}$,hybrid
R-HSA-167152,0.0006056771191032478,843.0,5,$\widetilde{A}_{G_5}$,hybrid
R-HSA-917977,0.0006054137899216308,844.0,5,$\widetilde{A}_{G_5}$,hybrid
R-HSA-9659787,0.000605175134123374,845.0,5,$\widetilde{A}_{G_5}$,hybrid
R-HSA-9661069,0.0006051751341233738,846.0,5,$\widetilde{A}_{G_5}$,hybrid
R-HSA-1980145,0.0006037514060014674,847.0,5,$\widetilde{A}_{G_5}$,hybrid
R-HSA-8957275,0.0006029171626547227,848.0,5,$\widetilde{A}_{G_5}$,hybrid
R-HSA-416572,0.0006003361553661019,849.0,5,$\widetilde{A}_{G_5}$,hybrid
R-HSA-400685,0.0005990854666897668,850.0,5,$\widetilde{A}_{G_5}$,hybrid
R-HSA-5357769,0.0005984924199617657,851.0,5,$\widetilde{A}_{G_5}$,hybrid
R-HSA-2979096,0.0005980030124925055,852.0,5,$\widetilde{A}_{G_5}$,hybrid
R-HSA-112382,0.0005974297850825496,853.0,5,$\widetilde{A}_{G_5}$,hybrid
R-HSA-75955,0.0005974297850825493,854.0,5,$\widetilde{A}_{G_5}$,hybrid
R-HSA-2129379,0.0005948208030198527,855.0,5,$\widetilde{A}_{G_5}$,hybrid
R-HSA-380287,0.0005944417678540374,856.0,5,$\widetilde{A}_{G_5}$,hybrid
R-HSA-380270,0.0005944417678540373,857.0,5,$\widetilde{A}_{G_5}$,hybrid
R-HSA-111996,0.0005941383199076456,858.0,5,$\widetilde{A}_{G_5}$,hybrid
R-HSA-4791275,0.0005935617830902999,859.0,5,$\widetilde{A}_{G_5}$,hybrid
R-HSA-111997,0.0005886965518596053,860.5,5,$\widetilde{A}_{G_5}$,hybrid
R-HSA-111933,0.0005886965518596053,860.5,5,$\widetilde{A}_{G_5}$,hybrid
R-HSA-1268020,0.0005868652600507134,862.0,5,$\widetilde{A}_{G_5}$,hybrid
R-HSA-174417,0.0005852119284959331,863.0,5,$\widetilde{A}_{G_5}$,hybrid
R-HSA-901042,0.0005849813835754956,864.0,5,$\widetilde{A}_{G_5}$,hybrid
R-HSA-9614657,0.0005845413368806682,865.0,5,$\widetilde{A}_{G_5}$,hybrid
R-HSA-73933,0.0005843860047578145,866.0,5,$\widetilde{A}_{G_5}$,hybrid
R-HSA-9687136,0.0005833819025532075,867.0,5,$\widetilde{A}_{G_5}$,hybrid
R-HSA-399955,0.0005829995458271105,868.0,5,$\widetilde{A}_{G_5}$,hybrid
R-HSA-9031628,0.0005825767342713245,869.0,5,$\widetilde{A}_{G_5}$,hybrid
R-HSA-71403,0.0005817225589117977,870.0,5,$\widetilde{A}_{G_5}$,hybrid
R-HSA-1362300,0.0005787879105276131,871.0,5,$\widetilde{A}_{G_5}$,hybrid
R-HSA-1566948,0.0005780884001694936,872.0,5,$\widetilde{A}_{G_5}$,hybrid
R-HSA-9648025,0.000576659607117473,873.0,5,$\widetilde{A}_{G_5}$,hybrid
R-HSA-111885,0.0005765094581271903,874.0,5,$\widetilde{A}_{G_5}$,hybrid
R-HSA-162588,0.000576077927241188,875.0,5,$\widetilde{A}_{G_5}$,hybrid
R-HSA-1368082,0.0005754135858863817,876.0,5,$\widetilde{A}_{G_5}$,hybrid
R-HSA-8964043,0.0005744393430178453,877.0,5,$\widetilde{A}_{G_5}$,hybrid
R-HSA-381042,0.0005700833122784277,878.0,5,$\widetilde{A}_{G_5}$,hybrid
R-HSA-917937,0.0005670237172294586,879.0,5,$\widetilde{A}_{G_5}$,hybrid
R-HSA-211859,0.0005633345419658243,880.0,5,$\widetilde{A}_{G_5}$,hybrid
R-HSA-211945,0.000563334541965824,881.0,5,$\widetilde{A}_{G_5}$,hybrid
R-HSA-179409,0.0005613944679899149,882.0,5,$\widetilde{A}_{G_5}$,hybrid
R-HSA-8873719,0.0005603141576231622,883.0,5,$\widetilde{A}_{G_5}$,hybrid
R-HSA-429914,0.0005601506254823663,884.0,5,$\widetilde{A}_{G_5}$,hybrid
R-HSA-141444,0.0005597600784388512,885.0,5,$\widetilde{A}_{G_5}$,hybrid
R-HSA-141424,0.000559760078438851,886.0,5,$\widetilde{A}_{G_5}$,hybrid
R-HSA-2559585,0.0005568543849889017,887.0,5,$\widetilde{A}_{G_5}$,hybrid
R-HSA-193648,0.0005541291350405477,888.0,5,$\widetilde{A}_{G_5}$,hybrid
R-HSA-399719,0.0005498921821542459,889.0,5,$\widetilde{A}_{G_5}$,hybrid
R-HSA-399721,0.0005498921821542457,890.0,5,$\widetilde{A}_{G_5}$,hybrid
R-HSA-5628897,0.0005494271088490395,891.0,5,$\widetilde{A}_{G_5}$,hybrid
R-HSA-204998,0.0005447514029410065,892.0,5,$\widetilde{A}_{G_5}$,hybrid
R-HSA-6794361,0.0005445608285891225,893.0,5,$\widetilde{A}_{G_5}$,hybrid
R-HSA-71406,0.0005427089144752148,894.0,5,$\widetilde{A}_{G_5}$,hybrid
R-HSA-2980736,0.0005423959166518199,895.0,5,$\widetilde{A}_{G_5}$,hybrid
R-HSA-983170,0.0005421428108694389,896.0,5,$\widetilde{A}_{G_5}$,hybrid
R-HSA-9013700,0.0005416657168624293,897.0,5,$\widetilde{A}_{G_5}$,hybrid
R-HSA-69205,0.0005414189801012273,898.0,5,$\widetilde{A}_{G_5}$,hybrid
R-HSA-901032,0.0005414056003835954,899.0,5,$\widetilde{A}_{G_5}$,hybrid
R-HSA-112040,0.0005408988440450734,900.0,5,$\widetilde{A}_{G_5}$,hybrid
R-HSA-264642,0.0005396940179960663,903.0,5,$\widetilde{A}_{G_5}$,hybrid
R-HSA-212676,0.0005396940179960663,903.0,5,$\widetilde{A}_{G_5}$,hybrid
R-HSA-181430,0.0005396940179960663,903.0,5,$\widetilde{A}_{G_5}$,hybrid
R-HSA-181429,0.0005396940179960663,903.0,5,$\widetilde{A}_{G_5}$,hybrid
R-HSA-210500,0.0005396940179960663,903.0,5,$\widetilde{A}_{G_5}$,hybrid
R-HSA-446728,0.0005376409944225007,906.0,5,$\widetilde{A}_{G_5}$,hybrid
R-HSA-674695,0.0005371502239401968,907.0,5,$\widetilde{A}_{G_5}$,hybrid
R-HSA-193704,0.0005355155548168634,908.0,5,$\widetilde{A}_{G_5}$,hybrid
R-HSA-2173795,0.0005325483469664601,909.0,5,$\widetilde{A}_{G_5}$,hybrid
R-HSA-69618,0.0005320507040950167,910.0,5,$\widetilde{A}_{G_5}$,hybrid
R-HSA-1362409,0.0005305314244623817,911.0,5,$\widetilde{A}_{G_5}$,hybrid
R-HSA-3000178,0.0005297404735626892,912.0,5,$\widetilde{A}_{G_5}$,hybrid
R-HSA-193692,0.0005290072596820048,913.0,5,$\widetilde{A}_{G_5}$,hybrid
R-HSA-9013106,0.0005245633418089745,914.0,5,$\widetilde{A}_{G_5}$,hybrid
R-HSA-167172,0.0005238717497523685,915.0,5,$\widetilde{A}_{G_5}$,hybrid
R-HSA-9013026,0.0005237232122592513,916.0,5,$\widetilde{A}_{G_5}$,hybrid
R-HSA-381340,0.0005221281486819915,917.0,5,$\widetilde{A}_{G_5}$,hybrid
R-HSA-73863,0.0005220949640605965,918.0,5,$\widetilde{A}_{G_5}$,hybrid
R-HSA-373080,0.0005210271069067431,919.0,5,$\widetilde{A}_{G_5}$,hybrid
R-HSA-174824,0.0005184703054678181,920.0,5,$\widetilde{A}_{G_5}$,hybrid
R-HSA-112310,0.0005183098526589745,921.0,5,$\widetilde{A}_{G_5}$,hybrid
R-HSA-112043,0.0005143163042645323,922.0,5,$\widetilde{A}_{G_5}$,hybrid
R-HSA-167162,0.000513305307118382,924.0,5,$\widetilde{A}_{G_5}$,hybrid
R-HSA-167161,0.000513305307118382,924.0,5,$\widetilde{A}_{G_5}$,hybrid
R-HSA-76042,0.000513305307118382,924.0,5,$\widetilde{A}_{G_5}$,hybrid
R-HSA-75953,0.0005133053071183819,926.5,5,$\widetilde{A}_{G_5}$,hybrid
R-HSA-73776,0.0005133053071183819,926.5,5,$\widetilde{A}_{G_5}$,hybrid
R-HSA-73779,0.0005133053071183816,928.0,5,$\widetilde{A}_{G_5}$,hybrid
R-HSA-111471,0.0005078205724330628,929.0,5,$\widetilde{A}_{G_5}$,hybrid
R-HSA-2672351,0.0005074507572333515,930.0,5,$\widetilde{A}_{G_5}$,hybrid
R-HSA-76066,0.0005074366338000366,931.0,5,$\widetilde{A}_{G_5}$,hybrid
R-HSA-416482,0.00050741321854873,932.0,5,$\widetilde{A}_{G_5}$,hybrid
R-HSA-8949664,0.0005069567756785799,933.0,5,$\widetilde{A}_{G_5}$,hybrid
R-HSA-381033,0.0005037079813950889,934.0,5,$\widetilde{A}_{G_5}$,hybrid
R-HSA-6803204,0.0005020858286695928,935.0,5,$\widetilde{A}_{G_5}$,hybrid
R-HSA-5620912,0.0005002186478938455,936.0,5,$\widetilde{A}_{G_5}$,hybrid
R-HSA-8866652,0.0004989793344885965,937.0,5,$\widetilde{A}_{G_5}$,hybrid
R-HSA-196854,0.0004975101713080682,938.0,5,$\widetilde{A}_{G_5}$,hybrid
R-HSA-432720,0.0004919865745630659,939.0,5,$\widetilde{A}_{G_5}$,hybrid
R-HSA-917729,0.0004891768740735922,940.0,5,$\widetilde{A}_{G_5}$,hybrid
R-HSA-76061,0.0004890604815826063,941.0,5,$\widetilde{A}_{G_5}$,hybrid
R-HSA-73980,0.0004858941403919655,942.5,5,$\widetilde{A}_{G_5}$,hybrid
R-HSA-73780,0.0004858941403919655,942.5,5,$\widetilde{A}_{G_5}$,hybrid
R-HSA-432722,0.0004815314082070861,944.0,5,$\widetilde{A}_{G_5}$,hybrid
R-HSA-77387,0.00048150899982889357,945.0,5,$\widetilde{A}_{G_5}$,hybrid
R-HSA-5607763,0.00047721073264525045,946.0,5,$\widetilde{A}_{G_5}$,hybrid
R-HSA-9627069,0.0004758889902769618,947.0,5,$\widetilde{A}_{G_5}$,hybrid
R-HSA-111458,0.00047588899027696166,948.0,5,$\widetilde{A}_{G_5}$,hybrid
R-HSA-8986944,0.0004756674615581149,949.0,5,$\widetilde{A}_{G_5}$,hybrid
R-HSA-166208,0.0004693117224233651,950.0,5,$\widetilde{A}_{G_5}$,hybrid
R-HSA-1592230,0.00046801094919297036,951.0,5,$\widetilde{A}_{G_5}$,hybrid
R-HSA-525793,0.00046750763602505135,952.0,5,$\widetilde{A}_{G_5}$,hybrid
R-HSA-3000157,0.00046746044812063343,953.0,5,$\widetilde{A}_{G_5}$,hybrid
R-HSA-6807505,0.0004658259830414656,954.0,5,$\widetilde{A}_{G_5}$,hybrid
R-HSA-1655829,0.00046341958206659524,955.0,5,$\widetilde{A}_{G_5}$,hybrid
R-HSA-5620924,0.00046230923498581476,956.0,5,$\widetilde{A}_{G_5}$,hybrid
R-HSA-2426168,0.0004617211908003756,957.0,5,$\widetilde{A}_{G_5}$,hybrid
R-HSA-1222556,0.00046158122971958827,958.0,5,$\widetilde{A}_{G_5}$,hybrid
R-HSA-165159,0.0004603882527860968,959.0,5,$\widetilde{A}_{G_5}$,hybrid
R-HSA-5362517,0.0004585538750108754,960.0,5,$\widetilde{A}_{G_5}$,hybrid
R-HSA-164940,0.00045772078216356076,961.0,5,$\widetilde{A}_{G_5}$,hybrid
R-HSA-389661,0.0004572466876666034,962.0,5,$\widetilde{A}_{G_5}$,hybrid
R-HSA-199992,0.0004515410143133668,963.0,5,$\widetilde{A}_{G_5}$,hybrid
R-HSA-174490,0.0004510938664545934,965.0,5,$\widetilde{A}_{G_5}$,hybrid
R-HSA-175474,0.0004510938664545934,965.0,5,$\widetilde{A}_{G_5}$,hybrid
R-HSA-174495,0.0004510938664545934,965.0,5,$\widetilde{A}_{G_5}$,hybrid
R-HSA-400206,0.00044866123363106896,967.0,5,$\widetilde{A}_{G_5}$,hybrid
R-HSA-9022692,0.0004483417730214501,968.0,5,$\widetilde{A}_{G_5}$,hybrid
R-HSA-430039,0.00044675043271410076,969.0,5,$\widetilde{A}_{G_5}$,hybrid
R-HSA-381426,0.00044111592715798776,970.0,5,$\widetilde{A}_{G_5}$,hybrid
R-HSA-1989781,0.00043917844434606507,971.0,5,$\widetilde{A}_{G_5}$,hybrid
R-HSA-6794362,0.0004378578834411258,972.0,5,$\widetilde{A}_{G_5}$,hybrid
R-HSA-983712,0.0004375505477071314,973.0,5,$\widetilde{A}_{G_5}$,hybrid
R-HSA-111461,0.0004368341407571457,974.0,5,$\widetilde{A}_{G_5}$,hybrid
R-HSA-1368108,0.00043663103815128523,975.0,5,$\widetilde{A}_{G_5}$,hybrid
R-HSA-8852135,0.00043578917145581364,976.0,5,$\widetilde{A}_{G_5}$,hybrid
R-HSA-9603798,0.00043574272340570093,977.0,5,$\widetilde{A}_{G_5}$,hybrid
R-HSA-2151201,0.00043465507543722265,978.0,5,$\widetilde{A}_{G_5}$,hybrid
R-HSA-3000170,0.00043456418762847365,979.0,5,$\widetilde{A}_{G_5}$,hybrid
R-HSA-159231,0.0004278232090056394,980.0,5,$\widetilde{A}_{G_5}$,hybrid
R-HSA-5635838,0.0004253054449527539,981.0,5,$\widetilde{A}_{G_5}$,hybrid
R-HSA-380972,0.0004240669193980754,982.0,5,$\widetilde{A}_{G_5}$,hybrid
R-HSA-8866654,0.0004227924731941704,983.0,5,$\widetilde{A}_{G_5}$,hybrid
R-HSA-3299685,0.00042104056650659697,984.0,5,$\widetilde{A}_{G_5}$,hybrid
R-HSA-159234,0.0004199568555285812,985.0,5,$\widetilde{A}_{G_5}$,hybrid
R-HSA-8853884,0.0004191023233104292,986.0,5,$\widetilde{A}_{G_5}$,hybrid
R-HSA-159227,0.00041852864341401753,987.0,5,$\widetilde{A}_{G_5}$,hybrid
R-HSA-5578775,0.00041784431665115225,988.0,5,$\widetilde{A}_{G_5}$,hybrid
R-HSA-6804115,0.0004136897574968557,989.0,5,$\widetilde{A}_{G_5}$,hybrid
R-HSA-3238698,0.00041310993125147566,990.0,5,$\widetilde{A}_{G_5}$,hybrid
R-HSA-159230,0.0004090382256888575,991.0,5,$\widetilde{A}_{G_5}$,hybrid
R-HSA-6788467,0.00040764089582265685,992.0,5,$\widetilde{A}_{G_5}$,hybrid
R-HSA-74158,0.00040342774070689815,993.0,5,$\widetilde{A}_{G_5}$,hybrid
R-HSA-76046,0.00040342774070689804,994.5,5,$\widetilde{A}_{G_5}$,hybrid
R-HSA-749476,0.00040342774070689804,994.5,5,$\widetilde{A}_{G_5}$,hybrid
R-HSA-216083,0.00040327228071669445,996.0,5,$\widetilde{A}_{G_5}$,hybrid
R-HSA-388844,0.00039518133545958745,997.0,5,$\widetilde{A}_{G_5}$,hybrid
R-HSA-8854214,0.0003921313458509616,998.0,5,$\widetilde{A}_{G_5}$,hybrid
R-HSA-3000171,0.00038636513004817183,999.0,5,$\widetilde{A}_{G_5}$,hybrid
R-HSA-5620920,0.0003838365639168957,1000.0,5,$\widetilde{A}_{G_5}$,hybrid
R-HSA-5633008,0.0003813964377964342,1001.0,5,$\widetilde{A}_{G_5}$,hybrid
R-HSA-5694530,0.00037940779881486924,1002.0,5,$\widetilde{A}_{G_5}$,hybrid
R-HSA-9675126,0.00036787064263191986,1003.0,5,$\widetilde{A}_{G_5}$,hybrid
R-HSA-76071,0.0003598529324993846,1004.0,5,$\widetilde{A}_{G_5}$,hybrid
R-HSA-8982491,0.00035730806981980144,1005.0,5,$\widetilde{A}_{G_5}$,hybrid
R-HSA-5173105,0.0003518684347119087,1006.0,5,$\widetilde{A}_{G_5}$,hybrid
R-HSA-4086398,0.00034487318128624273,1007.0,5,$\widetilde{A}_{G_5}$,hybrid
R-HSA-9687139,0.00033231140638614035,1008.0,5,$\widetilde{A}_{G_5}$,hybrid
R-HSA-9029569,0.0003249877907522397,1009.0,5,$\widetilde{A}_{G_5}$,hybrid
R-HSA-3772470,0.0003232903072137683,1010.0,5,$\widetilde{A}_{G_5}$,hybrid
R-HSA-2022377,0.00030049190919190184,1011.0,5,$\widetilde{A}_{G_5}$,hybrid
R-HSA-9639288,0.0002991037320668046,1012.0,5,$\widetilde{A}_{G_5}$,hybrid
R-HSA-70221,0.0002980533755689069,1013.0,5,$\widetilde{A}_{G_5}$,hybrid
R-HSA-9024446,0.00029303704669684995,1014.0,5,$\widetilde{A}_{G_5}$,hybrid
R-HSA-201451,0.0002914421431173383,1015.0,5,$\widetilde{A}_{G_5}$,hybrid
R-HSA-9033241,0.0002790910547744137,1016.0,5,$\widetilde{A}_{G_5}$,hybrid
R-HSA-6811438,0.000278493614703767,1017.0,5,$\widetilde{A}_{G_5}$,hybrid
R-HSA-5668914,0.0002656057289934926,1018.0,5,$\widetilde{A}_{G_5}$,hybrid
R-HSA-3781865,0.0002513821424964674,1019.0,5,$\widetilde{A}_{G_5}$,hybrid
R-HSA-425407,0.00024784455764749046,1020.0,5,$\widetilde{A}_{G_5}$,hybrid
R-HSA-1630316,0.00020757564975457322,1021.0,5,$\widetilde{A}_{G_5}$,hybrid
R-HSA-163841,0.00018873958403817673,1022.0,5,$\widetilde{A}_{G_5}$,hybrid
R-HSA-6811440,0.00013244870992678155,1023.0,5,$\widetilde{A}_{G_5}$,hybrid
R-HSA-5620922,7.692758170533274e-05,1024.0,5,$\widetilde{A}_{G_5}$,hybrid
