entity,score,rank,graphlet,graphlet_adj,score_method
R-HSA-5637812,0.00304598036768791,1.0,6,$\widetilde{A}_{G_6}$,hybrid
R-HSA-5637810,0.0030459803676879094,2.0,6,$\widetilde{A}_{G_6}$,hybrid
R-HSA-2029481,0.0029376046565898193,3.0,6,$\widetilde{A}_{G_6}$,hybrid
R-HSA-1236382,0.00285519628537152,4.0,6,$\widetilde{A}_{G_6}$,hybrid
R-HSA-5637815,0.0028551962853715198,5.0,6,$\widetilde{A}_{G_6}$,hybrid
R-HSA-389948,0.0028074682017350176,6.0,6,$\widetilde{A}_{G_6}$,hybrid
R-HSA-9665348,0.002791192872709262,7.0,6,$\widetilde{A}_{G_6}$,hybrid
R-HSA-5654699,0.002643504555144965,8.0,6,$\widetilde{A}_{G_6}$,hybrid
R-HSA-9634285,0.0026049037434748112,9.0,6,$\widetilde{A}_{G_6}$,hybrid
R-HSA-2730905,0.0025552047044648534,10.0,6,$\widetilde{A}_{G_6}$,hybrid
R-HSA-202427,0.0025399879801266054,11.0,6,$\widetilde{A}_{G_6}$,hybrid
R-HSA-1643713,0.00246211717791128,12.0,6,$\widetilde{A}_{G_6}$,hybrid
R-HSA-1963642,0.0024487575973444887,13.0,6,$\widetilde{A}_{G_6}$,hybrid
R-HSA-180336,0.0024291849767726086,14.0,6,$\widetilde{A}_{G_6}$,hybrid
R-HSA-8853334,0.0024273894509506525,15.0,6,$\widetilde{A}_{G_6}$,hybrid
R-HSA-5655291,0.002424876062790068,16.0,6,$\widetilde{A}_{G_6}$,hybrid
R-HSA-912631,0.002406003323379829,17.0,6,$\widetilde{A}_{G_6}$,hybrid
R-HSA-9673767,0.0023987831262892965,18.0,6,$\widetilde{A}_{G_6}$,hybrid
R-HSA-9673770,0.002398783126289296,19.0,6,$\widetilde{A}_{G_6}$,hybrid
R-HSA-5654716,0.002386010819107129,20.0,6,$\widetilde{A}_{G_6}$,hybrid
R-HSA-5654695,0.002342502426162563,21.0,6,$\widetilde{A}_{G_6}$,hybrid
R-HSA-9664565,0.00234049757930314,22.0,6,$\widetilde{A}_{G_6}$,hybrid
R-HSA-5654688,0.002333501458719894,23.0,6,$\widetilde{A}_{G_6}$,hybrid
R-HSA-180292,0.0023143426053744203,24.0,6,$\widetilde{A}_{G_6}$,hybrid
R-HSA-1295596,0.0022856408189903497,25.0,6,$\widetilde{A}_{G_6}$,hybrid
R-HSA-1227990,0.0022667581874964726,26.0,6,$\widetilde{A}_{G_6}$,hybrid
R-HSA-9703648,0.0022295763413394134,27.0,6,$\widetilde{A}_{G_6}$,hybrid
R-HSA-5654696,0.0022276192661006044,28.0,6,$\widetilde{A}_{G_6}$,hybrid
R-HSA-354192,0.0022276020964852776,29.0,6,$\widetilde{A}_{G_6}$,hybrid
R-HSA-9665686,0.0022156162964318714,30.0,6,$\widetilde{A}_{G_6}$,hybrid
R-HSA-389359,0.002211795055510931,31.0,6,$\widetilde{A}_{G_6}$,hybrid
R-HSA-1963640,0.0022087375028741695,32.0,6,$\widetilde{A}_{G_6}$,hybrid
R-HSA-5654689,0.0022052950620436323,33.0,6,$\widetilde{A}_{G_6}$,hybrid
R-HSA-5654743,0.0022002788208134597,34.0,6,$\widetilde{A}_{G_6}$,hybrid
R-HSA-5654733,0.002183164938176251,35.0,6,$\widetilde{A}_{G_6}$,hybrid
R-HSA-512988,0.002178654586670556,36.0,6,$\widetilde{A}_{G_6}$,hybrid
R-HSA-210993,0.00217261206466858,37.0,6,$\widetilde{A}_{G_6}$,hybrid
R-HSA-5654727,0.0021725446534223113,38.0,6,$\widetilde{A}_{G_6}$,hybrid
R-HSA-5654708,0.0021629603557166525,39.0,6,$\widetilde{A}_{G_6}$,hybrid
R-HSA-354194,0.0021571411095450965,40.0,6,$\widetilde{A}_{G_6}$,hybrid
R-HSA-1250347,0.002152491931585338,41.0,6,$\widetilde{A}_{G_6}$,hybrid
R-HSA-76009,0.002152043246543185,42.0,6,$\widetilde{A}_{G_6}$,hybrid
R-HSA-2424491,0.002146310906633969,43.0,6,$\widetilde{A}_{G_6}$,hybrid
R-HSA-9034015,0.002132040590177012,44.0,6,$\widetilde{A}_{G_6}$,hybrid
R-HSA-8864260,0.0021308685866544656,45.0,6,$\widetilde{A}_{G_6}$,hybrid
R-HSA-975163,0.002126701720218777,46.0,6,$\widetilde{A}_{G_6}$,hybrid
R-HSA-8851805,0.0021252208179432233,47.0,6,$\widetilde{A}_{G_6}$,hybrid
R-HSA-9669938,0.0021180735840348346,48.5,6,$\widetilde{A}_{G_6}$,hybrid
R-HSA-9670439,0.0021180735840348346,48.5,6,$\widetilde{A}_{G_6}$,hybrid
R-HSA-5654712,0.002114936631959173,50.0,6,$\widetilde{A}_{G_6}$,hybrid
R-HSA-1251985,0.002111311330000284,51.0,6,$\widetilde{A}_{G_6}$,hybrid
R-HSA-5654726,0.0021039387711678523,52.0,6,$\widetilde{A}_{G_6}$,hybrid
R-HSA-5654741,0.0021031159547276424,53.0,6,$\widetilde{A}_{G_6}$,hybrid
R-HSA-1660499,0.0020960300739289776,54.0,6,$\widetilde{A}_{G_6}$,hybrid
R-HSA-5655332,0.0020843581251139896,55.5,6,$\widetilde{A}_{G_6}$,hybrid
R-HSA-8853338,0.0020843581251139896,55.5,6,$\widetilde{A}_{G_6}$,hybrid
R-HSA-2029485,0.00208296471108569,57.0,6,$\widetilde{A}_{G_6}$,hybrid
R-HSA-5654700,0.0020811028508386786,58.0,6,$\widetilde{A}_{G_6}$,hybrid
R-HSA-9027284,0.0020754676758010663,59.0,6,$\widetilde{A}_{G_6}$,hybrid
R-HSA-5654738,0.002075408839417192,60.0,6,$\widetilde{A}_{G_6}$,hybrid
R-HSA-9028731,0.0020736687106512326,61.0,6,$\widetilde{A}_{G_6}$,hybrid
R-HSA-8876384,0.0020729513385990576,62.0,6,$\widetilde{A}_{G_6}$,hybrid
R-HSA-5654732,0.0020503911649356263,63.0,6,$\widetilde{A}_{G_6}$,hybrid
R-HSA-210990,0.0020499169391891203,64.0,6,$\widetilde{A}_{G_6}$,hybrid
R-HSA-912526,0.002049765195572608,65.0,6,$\widetilde{A}_{G_6}$,hybrid
R-HSA-9682385,0.002035880094362015,66.0,6,$\widetilde{A}_{G_6}$,hybrid
R-HSA-5654687,0.0020244940010007047,67.0,6,$\widetilde{A}_{G_6}$,hybrid
R-HSA-3371511,0.002003998922997391,68.0,6,$\widetilde{A}_{G_6}$,hybrid
R-HSA-373753,0.002002910085365331,69.0,6,$\widetilde{A}_{G_6}$,hybrid
R-HSA-9006115,0.002002861285326475,70.0,6,$\widetilde{A}_{G_6}$,hybrid
R-HSA-9671555,0.001997300648672489,71.0,6,$\widetilde{A}_{G_6}$,hybrid
R-HSA-8875360,0.0019951301103436235,72.0,6,$\widetilde{A}_{G_6}$,hybrid
R-HSA-114604,0.0019801530836247353,73.0,6,$\widetilde{A}_{G_6}$,hybrid
R-HSA-5654693,0.001969583799752914,74.0,6,$\widetilde{A}_{G_6}$,hybrid
R-HSA-5621480,0.001968736749012631,75.0,6,$\widetilde{A}_{G_6}$,hybrid
R-HSA-202433,0.0019588541823724512,76.0,6,$\widetilde{A}_{G_6}$,hybrid
R-HSA-937072,0.0019527847509347052,77.0,6,$\widetilde{A}_{G_6}$,hybrid
R-HSA-9006335,0.001943545818860785,78.0,6,$\widetilde{A}_{G_6}$,hybrid
R-HSA-9674555,0.0019368009557501292,79.0,6,$\widetilde{A}_{G_6}$,hybrid
R-HSA-9607240,0.0019333641840273733,80.0,6,$\widetilde{A}_{G_6}$,hybrid
R-HSA-1236394,0.0019332373350262181,81.0,6,$\widetilde{A}_{G_6}$,hybrid
R-HSA-190236,0.0019208680794304957,82.0,6,$\widetilde{A}_{G_6}$,hybrid
R-HSA-209560,0.0019198758815291734,83.0,6,$\widetilde{A}_{G_6}$,hybrid
R-HSA-983695,0.0019183928726155162,84.0,6,$\widetilde{A}_{G_6}$,hybrid
R-HSA-9027276,0.0019159769589474972,85.0,6,$\widetilde{A}_{G_6}$,hybrid
R-HSA-8939902,0.0019141174664067996,86.0,6,$\widetilde{A}_{G_6}$,hybrid
R-HSA-1170546,0.0019030111703151826,87.0,6,$\widetilde{A}_{G_6}$,hybrid
R-HSA-5654736,0.0018948131586576191,88.0,6,$\widetilde{A}_{G_6}$,hybrid
R-HSA-5654706,0.0018921977215941807,89.0,6,$\widetilde{A}_{G_6}$,hybrid
R-HSA-5625900,0.0018882713190022302,90.0,6,$\widetilde{A}_{G_6}$,hybrid
R-HSA-2172127,0.0018624491537948282,91.0,6,$\widetilde{A}_{G_6}$,hybrid
R-HSA-1433559,0.0018361271659667446,92.0,6,$\widetilde{A}_{G_6}$,hybrid
R-HSA-1250196,0.0018247636228935053,93.0,6,$\widetilde{A}_{G_6}$,hybrid
R-HSA-186763,0.001822256167801799,94.0,6,$\widetilde{A}_{G_6}$,hybrid
R-HSA-881907,0.0018116674356508003,95.0,6,$\widetilde{A}_{G_6}$,hybrid
R-HSA-5689896,0.0017883748226176566,96.0,6,$\widetilde{A}_{G_6}$,hybrid
R-HSA-391160,0.001787567402926125,97.0,6,$\widetilde{A}_{G_6}$,hybrid
R-HSA-4090294,0.0017547268746500168,98.0,6,$\widetilde{A}_{G_6}$,hybrid
R-HSA-9703465,0.001752056954824566,99.0,6,$\widetilde{A}_{G_6}$,hybrid
R-HSA-389513,0.0017386301170220473,100.0,6,$\widetilde{A}_{G_6}$,hybrid
R-HSA-209543,0.001736066353704153,101.0,6,$\widetilde{A}_{G_6}$,hybrid
R-HSA-1059683,0.001734328953053839,102.0,6,$\widetilde{A}_{G_6}$,hybrid
R-HSA-2219530,0.0017333030277389317,103.0,6,$\widetilde{A}_{G_6}$,hybrid
R-HSA-8853659,0.0017320306581432659,104.0,6,$\widetilde{A}_{G_6}$,hybrid
R-HSA-2871796,0.001720611780534602,105.0,6,$\widetilde{A}_{G_6}$,hybrid
R-HSA-9020558,0.0017190720221086845,106.0,6,$\widetilde{A}_{G_6}$,hybrid
R-HSA-1227986,0.0017031026315629217,107.0,6,$\widetilde{A}_{G_6}$,hybrid
R-HSA-1433557,0.0016748304102891139,108.0,6,$\widetilde{A}_{G_6}$,hybrid
R-HSA-388841,0.0016681974690575792,109.0,6,$\widetilde{A}_{G_6}$,hybrid
R-HSA-6807004,0.0016535667575386993,110.0,6,$\widetilde{A}_{G_6}$,hybrid
R-HSA-74751,0.0016422728161491003,111.5,6,$\widetilde{A}_{G_6}$,hybrid
R-HSA-74752,0.0016422728161491003,111.5,6,$\widetilde{A}_{G_6}$,hybrid
R-HSA-451927,0.001632887591511959,113.0,6,$\widetilde{A}_{G_6}$,hybrid
R-HSA-2428924,0.0016269245041883177,114.0,6,$\widetilde{A}_{G_6}$,hybrid
R-HSA-2404192,0.001626924504188317,115.0,6,$\widetilde{A}_{G_6}$,hybrid
R-HSA-68884,0.0016181923966155996,116.0,6,$\widetilde{A}_{G_6}$,hybrid
R-HSA-112399,0.0016099177980177623,117.0,6,$\widetilde{A}_{G_6}$,hybrid
R-HSA-389357,0.0016093652191963312,118.0,6,$\widetilde{A}_{G_6}$,hybrid
R-HSA-9035034,0.0016019918648293397,119.0,6,$\widetilde{A}_{G_6}$,hybrid
R-HSA-8940973,0.0016003587742739371,120.0,6,$\widetilde{A}_{G_6}$,hybrid
R-HSA-937041,0.0015990108917010388,121.0,6,$\widetilde{A}_{G_6}$,hybrid
R-HSA-8875555,0.0015960213981060217,122.0,6,$\widetilde{A}_{G_6}$,hybrid
R-HSA-877312,0.0015902197686246127,123.0,6,$\widetilde{A}_{G_6}$,hybrid
R-HSA-167044,0.001589152573599354,124.0,6,$\widetilde{A}_{G_6}$,hybrid
R-HSA-1266695,0.001587011022827956,125.0,6,$\widetilde{A}_{G_6}$,hybrid
R-HSA-177929,0.0015829932718118686,126.0,6,$\widetilde{A}_{G_6}$,hybrid
R-HSA-372708,0.0015688337267212758,127.0,6,$\widetilde{A}_{G_6}$,hybrid
R-HSA-2428928,0.0015601958340080702,128.0,6,$\widetilde{A}_{G_6}$,hybrid
R-HSA-389356,0.0015570631504985494,129.0,6,$\widetilde{A}_{G_6}$,hybrid
R-HSA-2586552,0.0015433991272742998,130.0,6,$\widetilde{A}_{G_6}$,hybrid
R-HSA-8983432,0.0015213010003798883,131.0,6,$\widetilde{A}_{G_6}$,hybrid
R-HSA-3371568,0.0015209971601625066,132.0,6,$\widetilde{A}_{G_6}$,hybrid
R-HSA-2029480,0.0015167432108563806,133.0,6,$\widetilde{A}_{G_6}$,hybrid
R-HSA-193639,0.0015086245023792156,134.0,6,$\widetilde{A}_{G_6}$,hybrid
R-HSA-5655253,0.0015067383816109753,135.0,6,$\widetilde{A}_{G_6}$,hybrid
R-HSA-5676594,0.001506379189517729,136.0,6,$\widetilde{A}_{G_6}$,hybrid
R-HSA-166663,0.0014993845598380957,137.0,6,$\widetilde{A}_{G_6}$,hybrid
R-HSA-432142,0.001493763377586168,138.0,6,$\widetilde{A}_{G_6}$,hybrid
R-HSA-622312,0.0014911592611753454,139.0,6,$\widetilde{A}_{G_6}$,hybrid
R-HSA-844456,0.001484781795642283,140.0,6,$\widetilde{A}_{G_6}$,hybrid
R-HSA-109704,0.00148052896911551,141.0,6,$\widetilde{A}_{G_6}$,hybrid
R-HSA-5655302,0.0014734541088880391,142.0,6,$\widetilde{A}_{G_6}$,hybrid
R-HSA-9020956,0.0014665696656509233,143.0,6,$\widetilde{A}_{G_6}$,hybrid
R-HSA-187687,0.0014662973228318846,144.0,6,$\widetilde{A}_{G_6}$,hybrid
R-HSA-9009391,0.0014625322692278452,145.0,6,$\widetilde{A}_{G_6}$,hybrid
R-HSA-1839117,0.0014575839132871704,146.0,6,$\widetilde{A}_{G_6}$,hybrid
R-HSA-176974,0.001452822056664281,147.0,6,$\widetilde{A}_{G_6}$,hybrid
R-HSA-9613829,0.0014486848688589015,148.0,6,$\widetilde{A}_{G_6}$,hybrid
R-HSA-164952,0.0014363671214873356,149.0,6,$\widetilde{A}_{G_6}$,hybrid
R-HSA-166658,0.0014359612393346276,150.0,6,$\widetilde{A}_{G_6}$,hybrid
R-HSA-6806834,0.0014286496040064824,151.0,6,$\widetilde{A}_{G_6}$,hybrid
R-HSA-418885,0.0014211154899810632,152.0,6,$\widetilde{A}_{G_6}$,hybrid
R-HSA-186797,0.0014191140664537214,153.0,6,$\widetilde{A}_{G_6}$,hybrid
R-HSA-9664323,0.0014185413403697163,154.0,6,$\widetilde{A}_{G_6}$,hybrid
R-HSA-9664417,0.0014162467809347337,155.5,6,$\widetilde{A}_{G_6}$,hybrid
R-HSA-9664407,0.0014162467809347337,155.5,6,$\widetilde{A}_{G_6}$,hybrid
R-HSA-9664422,0.0014162467809347335,157.0,6,$\widetilde{A}_{G_6}$,hybrid
R-HSA-9660826,0.0014064881329784627,158.0,6,$\widetilde{A}_{G_6}$,hybrid
R-HSA-9664424,0.0014064881329784625,159.0,6,$\widetilde{A}_{G_6}$,hybrid
R-HSA-5602498,0.0014037809664404096,160.0,6,$\widetilde{A}_{G_6}$,hybrid
R-HSA-9020591,0.001401680983196259,161.0,6,$\widetilde{A}_{G_6}$,hybrid
R-HSA-982772,0.0013963878132607387,162.0,6,$\widetilde{A}_{G_6}$,hybrid
R-HSA-5603041,0.0013960478214351485,163.0,6,$\widetilde{A}_{G_6}$,hybrid
R-HSA-2029482,0.0013873822523839039,164.0,6,$\widetilde{A}_{G_6}$,hybrid
R-HSA-9705462,0.0013871015834565432,165.0,6,$\widetilde{A}_{G_6}$,hybrid
R-HSA-912694,0.0013870573839997852,166.0,6,$\widetilde{A}_{G_6}$,hybrid
R-HSA-8984722,0.0013843368123116863,167.0,6,$\widetilde{A}_{G_6}$,hybrid
R-HSA-390450,0.0013806706372884437,168.0,6,$\widetilde{A}_{G_6}$,hybrid
R-HSA-2219528,0.001380343342369941,169.0,6,$\widetilde{A}_{G_6}$,hybrid
R-HSA-6811558,0.0013753572323645803,170.0,6,$\widetilde{A}_{G_6}$,hybrid
R-HSA-2871809,0.0013701490371634062,171.0,6,$\widetilde{A}_{G_6}$,hybrid
R-HSA-9013418,0.0013601365660159698,172.0,6,$\widetilde{A}_{G_6}$,hybrid
R-HSA-392517,0.0013575928794584851,173.0,6,$\widetilde{A}_{G_6}$,hybrid
R-HSA-8941326,0.0013534503839271747,174.0,6,$\widetilde{A}_{G_6}$,hybrid
R-HSA-5686938,0.0013500264131893287,175.0,6,$\widetilde{A}_{G_6}$,hybrid
R-HSA-1226099,0.0013492039740077655,176.0,6,$\widetilde{A}_{G_6}$,hybrid
R-HSA-75035,0.0013380320133170667,177.0,6,$\widetilde{A}_{G_6}$,hybrid
R-HSA-1483255,0.0013360375526744266,178.0,6,$\widetilde{A}_{G_6}$,hybrid
R-HSA-1839124,0.0013293468509699773,179.0,6,$\widetilde{A}_{G_6}$,hybrid
R-HSA-3371571,0.0013248103288290456,180.0,6,$\widetilde{A}_{G_6}$,hybrid
R-HSA-5668541,0.0013231098168100207,181.0,6,$\widetilde{A}_{G_6}$,hybrid
R-HSA-8854691,0.0013201940915474348,182.0,6,$\widetilde{A}_{G_6}$,hybrid
R-HSA-428540,0.001316630960532695,183.0,6,$\widetilde{A}_{G_6}$,hybrid
R-HSA-447115,0.001309218716799906,184.0,6,$\widetilde{A}_{G_6}$,hybrid
R-HSA-912446,0.0013036674554544653,185.0,6,$\widetilde{A}_{G_6}$,hybrid
R-HSA-8934903,0.0013007406169201663,186.0,6,$\widetilde{A}_{G_6}$,hybrid
R-HSA-199418,0.0012971776050400515,187.0,6,$\widetilde{A}_{G_6}$,hybrid
R-HSA-6783783,0.001296947343806011,188.0,6,$\widetilde{A}_{G_6}$,hybrid
R-HSA-182971,0.0012963233301420975,189.0,6,$\widetilde{A}_{G_6}$,hybrid
R-HSA-936964,0.0012853405207912893,190.0,6,$\widetilde{A}_{G_6}$,hybrid
R-HSA-5601884,0.0012828296567144227,191.0,6,$\widetilde{A}_{G_6}$,hybrid
R-HSA-9013420,0.0012693880807460019,192.0,6,$\widetilde{A}_{G_6}$,hybrid
R-HSA-9706574,0.001265373042780133,193.0,6,$\widetilde{A}_{G_6}$,hybrid
R-HSA-168643,0.0012609593469074915,194.0,6,$\widetilde{A}_{G_6}$,hybrid
R-HSA-389960,0.0012608720578216358,195.0,6,$\widetilde{A}_{G_6}$,hybrid
R-HSA-427389,0.001254314909240933,196.0,6,$\widetilde{A}_{G_6}$,hybrid
R-HSA-983189,0.0012530821327277075,197.0,6,$\widetilde{A}_{G_6}$,hybrid
R-HSA-1500931,0.0012523953707303194,198.0,6,$\widetilde{A}_{G_6}$,hybrid
R-HSA-193648,0.0012510702120736355,199.0,6,$\widetilde{A}_{G_6}$,hybrid
R-HSA-8875878,0.0012474522041892302,200.0,6,$\widetilde{A}_{G_6}$,hybrid
R-HSA-5260271,0.0012395341567326195,201.0,6,$\widetilde{A}_{G_6}$,hybrid
R-HSA-5602358,0.0012395341567326189,202.0,6,$\widetilde{A}_{G_6}$,hybrid
R-HSA-6785631,0.0012376757643741503,203.0,6,$\widetilde{A}_{G_6}$,hybrid
R-HSA-375165,0.0012337189526494304,204.0,6,$\widetilde{A}_{G_6}$,hybrid
R-HSA-392451,0.0012330886790246182,205.0,6,$\widetilde{A}_{G_6}$,hybrid
R-HSA-9013695,0.0012316528103478652,206.0,6,$\widetilde{A}_{G_6}$,hybrid
R-HSA-4420097,0.001231392230197496,207.0,6,$\widetilde{A}_{G_6}$,hybrid
R-HSA-202424,0.0012305454665550845,208.0,6,$\widetilde{A}_{G_6}$,hybrid
R-HSA-168927,0.001228733977306039,209.0,6,$\widetilde{A}_{G_6}$,hybrid
R-HSA-140534,0.0012234266099244854,210.0,6,$\widetilde{A}_{G_6}$,hybrid
R-HSA-157858,0.0012222134145834429,211.0,6,$\widetilde{A}_{G_6}$,hybrid
R-HSA-5140745,0.0012210315213245628,212.0,6,$\widetilde{A}_{G_6}$,hybrid
R-HSA-5621575,0.0012204202320430884,213.0,6,$\widetilde{A}_{G_6}$,hybrid
R-HSA-5675482,0.0012122682374142984,214.0,6,$\widetilde{A}_{G_6}$,hybrid
R-HSA-5213460,0.001212268237414298,215.0,6,$\widetilde{A}_{G_6}$,hybrid
R-HSA-9696264,0.0012104479324090457,216.0,6,$\widetilde{A}_{G_6}$,hybrid
R-HSA-9012852,0.0012067153239343825,217.0,6,$\widetilde{A}_{G_6}$,hybrid
R-HSA-169893,0.0012008127903256954,218.0,6,$\widetilde{A}_{G_6}$,hybrid
R-HSA-9013422,0.0011973723546758253,219.0,6,$\widetilde{A}_{G_6}$,hybrid
R-HSA-977606,0.0011949316068257862,220.0,6,$\widetilde{A}_{G_6}$,hybrid
R-HSA-9619483,0.001194629717557899,221.0,6,$\widetilde{A}_{G_6}$,hybrid
R-HSA-177504,0.0011930764009498572,222.0,6,$\widetilde{A}_{G_6}$,hybrid
R-HSA-9013424,0.0011897520188488798,223.0,6,$\widetilde{A}_{G_6}$,hybrid
R-HSA-6785807,0.0011843209539201707,224.0,6,$\widetilde{A}_{G_6}$,hybrid
R-HSA-909733,0.0011786132391828064,225.0,6,$\widetilde{A}_{G_6}$,hybrid
R-HSA-1839126,0.0011721126464126796,226.0,6,$\widetilde{A}_{G_6}$,hybrid
R-HSA-6783589,0.001170490323635783,227.0,6,$\widetilde{A}_{G_6}$,hybrid
R-HSA-9646399,0.0011679371602882089,228.0,6,$\widetilde{A}_{G_6}$,hybrid
R-HSA-2894858,0.0011678085594199752,229.5,6,$\widetilde{A}_{G_6}$,hybrid
R-HSA-2644602,0.0011678085594199752,229.5,6,$\widetilde{A}_{G_6}$,hybrid
R-HSA-2894862,0.001167808559419975,231.0,6,$\widetilde{A}_{G_6}$,hybrid
R-HSA-2644606,0.0011678085594199748,232.0,6,$\widetilde{A}_{G_6}$,hybrid
R-HSA-2644603,0.0011678085594199745,233.0,6,$\widetilde{A}_{G_6}$,hybrid
R-HSA-8863795,0.0011612999337490806,234.0,6,$\widetilde{A}_{G_6}$,hybrid
R-HSA-9013507,0.0011589353940480941,235.0,6,$\widetilde{A}_{G_6}$,hybrid
R-HSA-422356,0.0011545613652510056,236.0,6,$\widetilde{A}_{G_6}$,hybrid
R-HSA-6804116,0.001154142547309138,237.0,6,$\widetilde{A}_{G_6}$,hybrid
R-HSA-202733,0.001152925278199119,238.0,6,$\widetilde{A}_{G_6}$,hybrid
R-HSA-390522,0.0011528199767532803,239.0,6,$\widetilde{A}_{G_6}$,hybrid
R-HSA-937039,0.0011505633742834695,240.0,6,$\widetilde{A}_{G_6}$,hybrid
R-HSA-975144,0.0011505633742834693,241.0,6,$\widetilde{A}_{G_6}$,hybrid
R-HSA-3371497,0.001146017643112304,242.0,6,$\widetilde{A}_{G_6}$,hybrid
R-HSA-397795,0.0011419556625878301,243.0,6,$\widetilde{A}_{G_6}$,hybrid
R-HSA-381038,0.0011419131553954249,244.0,6,$\widetilde{A}_{G_6}$,hybrid
R-HSA-5663213,0.0011397889762545463,245.0,6,$\widetilde{A}_{G_6}$,hybrid
R-HSA-8964616,0.0011340582028539744,246.0,6,$\widetilde{A}_{G_6}$,hybrid
R-HSA-111447,0.0011303152765262238,247.0,6,$\widetilde{A}_{G_6}$,hybrid
R-HSA-6802948,0.0011262093024124512,248.0,6,$\widetilde{A}_{G_6}$,hybrid
R-HSA-8849471,0.0011255122410193878,249.0,6,$\widetilde{A}_{G_6}$,hybrid
R-HSA-5218921,0.001124971842614851,250.0,6,$\widetilde{A}_{G_6}$,hybrid
R-HSA-9656223,0.0011227609057130748,251.0,6,$\widetilde{A}_{G_6}$,hybrid
R-HSA-9013408,0.0011207615021637492,252.0,6,$\widetilde{A}_{G_6}$,hybrid
R-HSA-5099900,0.001120344697372059,253.0,6,$\widetilde{A}_{G_6}$,hybrid
R-HSA-3928663,0.001120197178497556,254.0,6,$\widetilde{A}_{G_6}$,hybrid
R-HSA-383280,0.00111926376576867,255.0,6,$\widetilde{A}_{G_6}$,hybrid
R-HSA-5684264,0.0011192392136751311,256.0,6,$\widetilde{A}_{G_6}$,hybrid
R-HSA-9013404,0.0011181250008793818,257.0,6,$\widetilde{A}_{G_6}$,hybrid
R-HSA-202040,0.0011086851629646117,258.0,6,$\widetilde{A}_{G_6}$,hybrid
R-HSA-168638,0.001106986242433397,259.0,6,$\widetilde{A}_{G_6}$,hybrid
R-HSA-9013508,0.0011066346206821578,260.0,6,$\widetilde{A}_{G_6}$,hybrid
R-HSA-176187,0.0010994043631413152,261.0,6,$\widetilde{A}_{G_6}$,hybrid
R-HSA-2122947,0.0010980532469798382,262.0,6,$\widetilde{A}_{G_6}$,hybrid
R-HSA-6802946,0.001096108404227383,263.0,6,$\widetilde{A}_{G_6}$,hybrid
R-HSA-9649948,0.0010961084042273826,265.0,6,$\widetilde{A}_{G_6}$,hybrid
R-HSA-6802955,0.0010961084042273826,265.0,6,$\widetilde{A}_{G_6}$,hybrid
R-HSA-6802949,0.0010961084042273826,265.0,6,$\widetilde{A}_{G_6}$,hybrid
R-HSA-9614399,0.0010946796718653657,267.0,6,$\widetilde{A}_{G_6}$,hybrid
R-HSA-8866427,0.0010906610610221085,268.0,6,$\widetilde{A}_{G_6}$,hybrid
R-HSA-418592,0.0010905864918960622,269.0,6,$\widetilde{A}_{G_6}$,hybrid
R-HSA-5626467,0.001089621386663314,270.0,6,$\widetilde{A}_{G_6}$,hybrid
R-HSA-198933,0.0010888501764332902,271.0,6,$\widetilde{A}_{G_6}$,hybrid
R-HSA-5674135,0.001086967863591501,272.0,6,$\widetilde{A}_{G_6}$,hybrid
R-HSA-6804760,0.0010836474670791938,273.0,6,$\widetilde{A}_{G_6}$,hybrid
R-HSA-450321,0.001082535533850989,274.0,6,$\widetilde{A}_{G_6}$,hybrid
R-HSA-8874081,0.00107956180311573,275.0,6,$\widetilde{A}_{G_6}$,hybrid
R-HSA-9664433,0.0010779681171050356,276.0,6,$\widetilde{A}_{G_6}$,hybrid
R-HSA-9662851,0.0010779681171050354,277.0,6,$\widetilde{A}_{G_6}$,hybrid
R-HSA-5668599,0.0010767587752671306,278.0,6,$\widetilde{A}_{G_6}$,hybrid
R-HSA-445989,0.0010760013202530793,279.0,6,$\widetilde{A}_{G_6}$,hybrid
R-HSA-9013407,0.001074544027388745,280.0,6,$\widetilde{A}_{G_6}$,hybrid
R-HSA-9615017,0.001069696913758758,281.0,6,$\widetilde{A}_{G_6}$,hybrid
R-HSA-5357956,0.0010694143467090184,282.0,6,$\widetilde{A}_{G_6}$,hybrid
R-HSA-399954,0.0010684910187473272,283.0,6,$\widetilde{A}_{G_6}$,hybrid
R-HSA-170968,0.0010680563702632536,284.0,6,$\widetilde{A}_{G_6}$,hybrid
R-HSA-5357786,0.001059513828797731,285.0,6,$\widetilde{A}_{G_6}$,hybrid
R-HSA-6804758,0.0010579054352839355,286.0,6,$\widetilde{A}_{G_6}$,hybrid
R-HSA-350054,0.0010548691559678473,287.0,6,$\widetilde{A}_{G_6}$,hybrid
R-HSA-8848021,0.0010547256605144245,288.0,6,$\widetilde{A}_{G_6}$,hybrid
R-HSA-9006927,0.001054725660514424,289.0,6,$\widetilde{A}_{G_6}$,hybrid
R-HSA-70263,0.001053835224171421,290.0,6,$\widetilde{A}_{G_6}$,hybrid
R-HSA-9005895,0.0010534581845967194,291.0,6,$\widetilde{A}_{G_6}$,hybrid
R-HSA-9005891,0.0010534581845967187,292.0,6,$\widetilde{A}_{G_6}$,hybrid
R-HSA-9697154,0.0010534581845967185,293.5,6,$\widetilde{A}_{G_6}$,hybrid
R-HSA-9675151,0.0010534581845967185,293.5,6,$\widetilde{A}_{G_6}$,hybrid
R-HSA-190828,0.0010517678901999206,295.0,6,$\widetilde{A}_{G_6}$,hybrid
R-HSA-5673000,0.001050844835839876,296.0,6,$\widetilde{A}_{G_6}$,hybrid
R-HSA-2995383,0.0010485599717768004,297.0,6,$\widetilde{A}_{G_6}$,hybrid
R-HSA-428930,0.0010474018190702943,298.0,6,$\widetilde{A}_{G_6}$,hybrid
R-HSA-164938,0.0010463456848690442,299.0,6,$\widetilde{A}_{G_6}$,hybrid
R-HSA-163560,0.0010443573499767168,300.0,6,$\widetilde{A}_{G_6}$,hybrid
R-HSA-5678895,0.001040073693762282,301.0,6,$\widetilde{A}_{G_6}$,hybrid
R-HSA-5218859,0.0010398258213004817,302.0,6,$\widetilde{A}_{G_6}$,hybrid
R-HSA-3928662,0.0010366785446388569,303.0,6,$\widetilde{A}_{G_6}$,hybrid
R-HSA-163359,0.001035258923420459,304.0,6,$\widetilde{A}_{G_6}$,hybrid
R-HSA-389957,0.0010342589258006793,305.0,6,$\widetilde{A}_{G_6}$,hybrid
R-HSA-389958,0.0010324375158252761,306.0,6,$\widetilde{A}_{G_6}$,hybrid
R-HSA-210744,0.0010307947745378018,307.0,6,$\widetilde{A}_{G_6}$,hybrid
R-HSA-8852276,0.0010296087776208813,308.0,6,$\widetilde{A}_{G_6}$,hybrid
R-HSA-445144,0.0010292933389582848,309.0,6,$\widetilde{A}_{G_6}$,hybrid
R-HSA-9706369,0.0010277652682346887,310.0,6,$\widetilde{A}_{G_6}$,hybrid
R-HSA-5619084,0.0010248154420561336,311.0,6,$\widetilde{A}_{G_6}$,hybrid
R-HSA-5218920,0.0010227358632821262,312.0,6,$\widetilde{A}_{G_6}$,hybrid
R-HSA-977444,0.0010205714799295556,314.0,6,$\widetilde{A}_{G_6}$,hybrid
R-HSA-991365,0.0010205714799295556,314.0,6,$\widetilde{A}_{G_6}$,hybrid
R-HSA-977443,0.0010205714799295556,314.0,6,$\widetilde{A}_{G_6}$,hybrid
R-HSA-450408,0.001019387996536923,316.0,6,$\widetilde{A}_{G_6}$,hybrid
R-HSA-202131,0.0010192951358859493,317.0,6,$\widetilde{A}_{G_6}$,hybrid
R-HSA-110312,0.0010163953138502357,318.0,6,$\widetilde{A}_{G_6}$,hybrid
R-HSA-437239,0.0010146992793397024,319.0,6,$\widetilde{A}_{G_6}$,hybrid
R-HSA-5357769,0.0010144437346091837,320.0,6,$\widetilde{A}_{G_6}$,hybrid
R-HSA-9617629,0.001013021721044176,321.0,6,$\widetilde{A}_{G_6}$,hybrid
R-HSA-6814122,0.0010125083394748467,322.0,6,$\widetilde{A}_{G_6}$,hybrid
R-HSA-168273,0.0010101643285328477,323.0,6,$\widetilde{A}_{G_6}$,hybrid
R-HSA-3928664,0.0010099402519242187,324.0,6,$\widetilde{A}_{G_6}$,hybrid
R-HSA-3214815,0.0010060627077172616,325.0,6,$\widetilde{A}_{G_6}$,hybrid
R-HSA-156902,0.0010047964930524407,326.0,6,$\widetilde{A}_{G_6}$,hybrid
R-HSA-110320,0.0010008532413453227,327.0,6,$\widetilde{A}_{G_6}$,hybrid
R-HSA-2408557,0.0010004947664489256,328.0,6,$\widetilde{A}_{G_6}$,hybrid
R-HSA-1810476,0.0009999762294838873,329.0,6,$\widetilde{A}_{G_6}$,hybrid
R-HSA-381676,0.0009985313529469815,330.0,6,$\widetilde{A}_{G_6}$,hybrid
R-HSA-9604323,0.0009971757356811745,331.0,6,$\widetilde{A}_{G_6}$,hybrid
R-HSA-390471,0.0009963761743463516,332.0,6,$\widetilde{A}_{G_6}$,hybrid
R-HSA-68962,0.0009958298774850115,333.0,6,$\widetilde{A}_{G_6}$,hybrid
R-HSA-192823,0.0009956791555997,334.0,6,$\widetilde{A}_{G_6}$,hybrid
R-HSA-190873,0.0009935617181221457,335.0,6,$\widetilde{A}_{G_6}$,hybrid
R-HSA-196025,0.0009935462053141798,336.0,6,$\widetilde{A}_{G_6}$,hybrid
R-HSA-997272,0.0009931618030954254,337.5,6,$\widetilde{A}_{G_6}$,hybrid
R-HSA-1296041,0.0009931618030954254,337.5,6,$\widetilde{A}_{G_6}$,hybrid
R-HSA-1296059,0.0009931618030954252,339.0,6,$\widetilde{A}_{G_6}$,hybrid
R-HSA-399956,0.000992177487466412,340.0,6,$\widetilde{A}_{G_6}$,hybrid
R-HSA-166208,0.0009909456000538558,341.0,6,$\widetilde{A}_{G_6}$,hybrid
R-HSA-2408522,0.0009877585392593059,342.0,6,$\widetilde{A}_{G_6}$,hybrid
R-HSA-9710421,0.0009844944267340954,343.0,6,$\widetilde{A}_{G_6}$,hybrid
R-HSA-1980143,0.0009844264945722942,344.0,6,$\widetilde{A}_{G_6}$,hybrid
R-HSA-349425,0.0009829915752819908,345.0,6,$\widetilde{A}_{G_6}$,hybrid
R-HSA-156842,0.0009829324617224042,346.0,6,$\widetilde{A}_{G_6}$,hybrid
R-HSA-8950505,0.0009819330579163214,347.0,6,$\widetilde{A}_{G_6}$,hybrid
R-HSA-6799198,0.0009802166378989814,348.0,6,$\widetilde{A}_{G_6}$,hybrid
R-HSA-69473,0.0009789648666025427,349.0,6,$\widetilde{A}_{G_6}$,hybrid
R-HSA-450302,0.0009774629547559303,350.0,6,$\widetilde{A}_{G_6}$,hybrid
R-HSA-975956,0.0009744357690795525,351.0,6,$\widetilde{A}_{G_6}$,hybrid
R-HSA-3928665,0.0009728090262766421,352.0,6,$\widetilde{A}_{G_6}$,hybrid
R-HSA-9634638,0.000972666418701874,353.0,6,$\widetilde{A}_{G_6}$,hybrid
R-HSA-5358565,0.0009725839501565631,354.0,6,$\widetilde{A}_{G_6}$,hybrid
R-HSA-6802952,0.0009699849095014234,355.0,6,$\widetilde{A}_{G_6}$,hybrid
R-HSA-456926,0.000967750251186821,356.0,6,$\widetilde{A}_{G_6}$,hybrid
R-HSA-9013409,0.000966056496848971,357.0,6,$\widetilde{A}_{G_6}$,hybrid
R-HSA-8854050,0.0009654196029870179,358.0,6,$\widetilde{A}_{G_6}$,hybrid
R-HSA-9662360,0.0009651660933003115,359.0,6,$\widetilde{A}_{G_6}$,hybrid
R-HSA-5655862,0.0009649419927463318,360.0,6,$\widetilde{A}_{G_6}$,hybrid
R-HSA-72689,0.000963266362679272,361.0,6,$\widetilde{A}_{G_6}$,hybrid
R-HSA-373752,0.000962025877538554,362.0,6,$\widetilde{A}_{G_6}$,hybrid
R-HSA-1236978,0.0009600317044753709,363.0,6,$\widetilde{A}_{G_6}$,hybrid
R-HSA-5205647,0.0009588194432163141,364.0,6,$\widetilde{A}_{G_6}$,hybrid
R-HSA-445717,0.0009561183167824184,365.0,6,$\widetilde{A}_{G_6}$,hybrid
R-HSA-432040,0.0009561183167824182,366.0,6,$\widetilde{A}_{G_6}$,hybrid
R-HSA-392170,0.000955807641309715,367.0,6,$\widetilde{A}_{G_6}$,hybrid
R-HSA-72695,0.0009551635948946409,368.0,6,$\widetilde{A}_{G_6}$,hybrid
R-HSA-392851,0.0009549683709650542,369.0,6,$\widetilde{A}_{G_6}$,hybrid
R-HSA-205043,0.0009524086528057721,370.0,6,$\widetilde{A}_{G_6}$,hybrid
R-HSA-72764,0.0009523325306310242,371.0,6,$\widetilde{A}_{G_6}$,hybrid
R-HSA-156827,0.0009520894011856212,372.0,6,$\widetilde{A}_{G_6}$,hybrid
R-HSA-180534,0.0009511313709879415,373.0,6,$\widetilde{A}_{G_6}$,hybrid
R-HSA-418346,0.0009508808582872726,374.0,6,$\widetilde{A}_{G_6}$,hybrid
R-HSA-69541,0.000949359644986356,375.0,6,$\widetilde{A}_{G_6}$,hybrid
R-HSA-9659379,0.0009487457133477787,376.0,6,$\widetilde{A}_{G_6}$,hybrid
R-HSA-392518,0.0009465695140417227,377.0,6,$\widetilde{A}_{G_6}$,hybrid
R-HSA-6803529,0.000945935071274018,378.0,6,$\widetilde{A}_{G_6}$,hybrid
R-HSA-72649,0.0009452442076923611,379.0,6,$\widetilde{A}_{G_6}$,hybrid
R-HSA-169911,0.0009448005355961493,380.0,6,$\widetilde{A}_{G_6}$,hybrid
R-HSA-211733,0.0009448005355961484,381.0,6,$\widetilde{A}_{G_6}$,hybrid
R-HSA-2132295,0.0009441507692787344,382.0,6,$\widetilde{A}_{G_6}$,hybrid
R-HSA-180585,0.0009431935093017738,383.0,6,$\widetilde{A}_{G_6}$,hybrid
R-HSA-5205685,0.0009426372187454888,384.0,6,$\widetilde{A}_{G_6}$,hybrid
R-HSA-4419969,0.0009423244846504073,385.0,6,$\widetilde{A}_{G_6}$,hybrid
R-HSA-166166,0.0009423107716711181,386.0,6,$\widetilde{A}_{G_6}$,hybrid
R-HSA-937061,0.0009423107716711179,387.0,6,$\widetilde{A}_{G_6}$,hybrid
R-HSA-5334118,0.0009422481444505612,388.0,6,$\widetilde{A}_{G_6}$,hybrid
R-HSA-72706,0.0009404539856450118,389.0,6,$\widetilde{A}_{G_6}$,hybrid
R-HSA-8941858,0.0009402441451223931,390.0,6,$\widetilde{A}_{G_6}$,hybrid
R-HSA-5610785,0.0009397681631902215,391.0,6,$\widetilde{A}_{G_6}$,hybrid
R-HSA-5339716,0.0009396923722129872,392.5,6,$\widetilde{A}_{G_6}$,hybrid
R-HSA-4839743,0.0009396923722129872,392.5,6,$\widetilde{A}_{G_6}$,hybrid
R-HSA-5358752,0.0009396923722129871,394.5,6,$\widetilde{A}_{G_6}$,hybrid
R-HSA-5358751,0.0009396923722129871,394.5,6,$\widetilde{A}_{G_6}$,hybrid
R-HSA-5358747,0.0009396923722129869,396.0,6,$\widetilde{A}_{G_6}$,hybrid
R-HSA-5358749,0.0009396923722129862,397.0,6,$\widetilde{A}_{G_6}$,hybrid
R-HSA-8932339,0.000939053238826981,398.0,6,$\widetilde{A}_{G_6}$,hybrid
R-HSA-1296071,0.0009389072664681803,399.5,6,$\widetilde{A}_{G_6}$,hybrid
R-HSA-1296065,0.0009389072664681803,399.5,6,$\widetilde{A}_{G_6}$,hybrid
R-HSA-174113,0.0009387157698657967,401.0,6,$\widetilde{A}_{G_6}$,hybrid
R-HSA-420092,0.0009386242511382062,402.0,6,$\widetilde{A}_{G_6}$,hybrid
R-HSA-5358606,0.0009372654731232078,403.0,6,$\widetilde{A}_{G_6}$,hybrid
R-HSA-418990,0.0009360695077727212,404.0,6,$\widetilde{A}_{G_6}$,hybrid
R-HSA-75815,0.0009353681650157788,405.0,6,$\widetilde{A}_{G_6}$,hybrid
R-HSA-5676590,0.000934464527478486,406.0,6,$\widetilde{A}_{G_6}$,hybrid
R-HSA-1483257,0.0009341525146443216,407.0,6,$\widetilde{A}_{G_6}$,hybrid
R-HSA-69190,0.0009339782809915111,408.0,6,$\widetilde{A}_{G_6}$,hybrid
R-HSA-9022692,0.0009339335984365527,409.0,6,$\widetilde{A}_{G_6}$,hybrid
R-HSA-69601,0.000932614912065883,411.0,6,$\widetilde{A}_{G_6}$,hybrid
R-HSA-69613,0.000932614912065883,411.0,6,$\widetilde{A}_{G_6}$,hybrid
R-HSA-69610,0.000932614912065883,411.0,6,$\widetilde{A}_{G_6}$,hybrid
R-HSA-5607761,0.0009315431393352463,413.0,6,$\widetilde{A}_{G_6}$,hybrid
R-HSA-72662,0.000930311344516736,414.0,6,$\widetilde{A}_{G_6}$,hybrid
R-HSA-5656121,0.000929970649174947,415.0,6,$\widetilde{A}_{G_6}$,hybrid
R-HSA-438064,0.0009279292777967281,416.0,6,$\widetilde{A}_{G_6}$,hybrid
R-HSA-445095,0.0009273720021295531,417.0,6,$\widetilde{A}_{G_6}$,hybrid
R-HSA-72702,0.0009265613959735437,418.0,6,$\widetilde{A}_{G_6}$,hybrid
R-HSA-5357905,0.0009257452947726452,419.0,6,$\widetilde{A}_{G_6}$,hybrid
R-HSA-4641258,0.0009252964885817944,420.0,6,$\widetilde{A}_{G_6}$,hybrid
R-HSA-2871837,0.0009246274013797152,421.0,6,$\widetilde{A}_{G_6}$,hybrid
R-HSA-2470946,0.0009242472386608544,422.0,6,$\widetilde{A}_{G_6}$,hybrid
R-HSA-5610783,0.0009239595774460589,423.0,6,$\widetilde{A}_{G_6}$,hybrid
R-HSA-8964315,0.0009238894115928607,424.0,6,$\widetilde{A}_{G_6}$,hybrid
R-HSA-9013694,0.0009231143369487137,425.0,6,$\widetilde{A}_{G_6}$,hybrid
R-HSA-68949,0.0009226686455032317,426.0,6,$\widetilde{A}_{G_6}$,hybrid
R-HSA-9013423,0.0009218810642040581,427.0,6,$\widetilde{A}_{G_6}$,hybrid
R-HSA-9679191,0.000921234834120901,428.0,6,$\widetilde{A}_{G_6}$,hybrid
R-HSA-9663891,0.0009209728774799696,429.0,6,$\widetilde{A}_{G_6}$,hybrid
R-HSA-8862803,0.0009209142153394009,430.0,6,$\widetilde{A}_{G_6}$,hybrid
R-HSA-8863678,0.0009209142153394007,431.0,6,$\widetilde{A}_{G_6}$,hybrid
R-HSA-212300,0.0009174362666101232,432.0,6,$\widetilde{A}_{G_6}$,hybrid
R-HSA-73728,0.0009158076994320354,433.0,6,$\widetilde{A}_{G_6}$,hybrid
R-HSA-381070,0.0009157550958096642,434.0,6,$\widetilde{A}_{G_6}$,hybrid
R-HSA-5627123,0.0009156689665581757,435.0,6,$\widetilde{A}_{G_6}$,hybrid
R-HSA-1606322,0.0009154932429754825,436.0,6,$\widetilde{A}_{G_6}$,hybrid
R-HSA-1500620,0.0009152760095124049,437.0,6,$\widetilde{A}_{G_6}$,hybrid
R-HSA-1474165,0.0009152760095124045,438.0,6,$\widetilde{A}_{G_6}$,hybrid
R-HSA-69580,0.0009130602272885282,439.0,6,$\widetilde{A}_{G_6}$,hybrid
R-HSA-69563,0.0009130602272885281,440.0,6,$\widetilde{A}_{G_6}$,hybrid
R-HSA-8964038,0.0009116877333399438,441.0,6,$\widetilde{A}_{G_6}$,hybrid
R-HSA-9633012,0.0009109393816040743,442.0,6,$\widetilde{A}_{G_6}$,hybrid
R-HSA-6806003,0.0009107939564714234,443.0,6,$\widetilde{A}_{G_6}$,hybrid
R-HSA-6804757,0.0009107939564714231,444.0,6,$\widetilde{A}_{G_6}$,hybrid
R-HSA-5610780,0.0009104631143856682,445.0,6,$\widetilde{A}_{G_6}$,hybrid
R-HSA-9020702,0.0009102670865461188,446.0,6,$\widetilde{A}_{G_6}$,hybrid
R-HSA-5339562,0.0009100172063922085,447.0,6,$\widetilde{A}_{G_6}$,hybrid
R-HSA-5358508,0.0009096582134924857,448.0,6,$\widetilde{A}_{G_6}$,hybrid
R-HSA-975138,0.0009088801634620886,449.0,6,$\widetilde{A}_{G_6}$,hybrid
R-HSA-8941856,0.0009086839331051834,450.0,6,$\widetilde{A}_{G_6}$,hybrid
R-HSA-9707587,0.000908032823568195,451.0,6,$\widetilde{A}_{G_6}$,hybrid
R-HSA-187577,0.0009079798507841599,452.0,6,$\widetilde{A}_{G_6}$,hybrid
R-HSA-168181,0.0009073423347468607,453.5,6,$\widetilde{A}_{G_6}$,hybrid
R-HSA-975155,0.0009073423347468607,453.5,6,$\widetilde{A}_{G_6}$,hybrid
R-HSA-168138,0.0009073423347468603,455.0,6,$\widetilde{A}_{G_6}$,hybrid
R-HSA-2465910,0.0009047669778248263,456.0,6,$\widetilde{A}_{G_6}$,hybrid
R-HSA-390466,0.0009032592037055047,457.0,6,$\widetilde{A}_{G_6}$,hybrid
R-HSA-400042,0.0009023260208461288,458.0,6,$\widetilde{A}_{G_6}$,hybrid
R-HSA-8939236,0.000901857879290421,459.0,6,$\widetilde{A}_{G_6}$,hybrid
R-HSA-168179,0.0008996488501193501,460.0,6,$\widetilde{A}_{G_6}$,hybrid
R-HSA-181438,0.00089964885011935,461.0,6,$\widetilde{A}_{G_6}$,hybrid
R-HSA-5362768,0.0008991775131812995,462.0,6,$\widetilde{A}_{G_6}$,hybrid
R-HSA-201722,0.0008981144697517703,463.0,6,$\widetilde{A}_{G_6}$,hybrid
R-HSA-1799339,0.0008941479432300086,464.0,6,$\widetilde{A}_{G_6}$,hybrid
R-HSA-3371556,0.0008917499990614473,465.0,6,$\widetilde{A}_{G_6}$,hybrid
R-HSA-6804114,0.0008910295343487917,466.0,6,$\widetilde{A}_{G_6}$,hybrid
R-HSA-8856825,0.0008908450890646208,467.0,6,$\widetilde{A}_{G_6}$,hybrid
R-HSA-8943724,0.0008890903853085302,468.0,6,$\widetilde{A}_{G_6}$,hybrid
R-HSA-5658442,0.0008879279640168045,469.0,6,$\widetilde{A}_{G_6}$,hybrid
R-HSA-75893,0.0008868674906410012,470.0,6,$\widetilde{A}_{G_6}$,hybrid
R-HSA-5625740,0.0008867427061695784,471.0,6,$\widetilde{A}_{G_6}$,hybrid
R-HSA-8878159,0.0008863948438616937,472.0,6,$\widetilde{A}_{G_6}$,hybrid
R-HSA-416482,0.0008842039195208455,473.0,6,$\widetilde{A}_{G_6}$,hybrid
R-HSA-933541,0.0008838688084838428,474.0,6,$\widetilde{A}_{G_6}$,hybrid
R-HSA-5250913,0.0008835572393551976,475.0,6,$\widetilde{A}_{G_6}$,hybrid
R-HSA-5387390,0.0008830696032369332,476.0,6,$\widetilde{A}_{G_6}$,hybrid
R-HSA-442755,0.0008828668528730223,477.0,6,$\widetilde{A}_{G_6}$,hybrid
R-HSA-3232118,0.0008826639763887847,478.0,6,$\widetilde{A}_{G_6}$,hybrid
R-HSA-451326,0.0008804849474037403,480.0,6,$\widetilde{A}_{G_6}$,hybrid
R-HSA-500657,0.0008804849474037403,480.0,6,$\widetilde{A}_{G_6}$,hybrid
R-HSA-418217,0.0008804849474037403,480.0,6,$\widetilde{A}_{G_6}$,hybrid
R-HSA-69615,0.0008789996007563401,482.0,6,$\widetilde{A}_{G_6}$,hybrid
R-HSA-6802957,0.0008787401130680508,483.0,6,$\widetilde{A}_{G_6}$,hybrid
R-HSA-379716,0.0008785419765323357,484.0,6,$\widetilde{A}_{G_6}$,hybrid
R-HSA-2468052,0.000878533759884152,485.0,6,$\widetilde{A}_{G_6}$,hybrid
R-HSA-5687128,0.0008768747637780448,486.0,6,$\widetilde{A}_{G_6}$,hybrid
R-HSA-1169091,0.0008752563036450151,487.0,6,$\widetilde{A}_{G_6}$,hybrid
R-HSA-68867,0.0008749506946324367,488.0,6,$\widetilde{A}_{G_6}$,hybrid
R-HSA-2682334,0.0008741963898510885,489.0,6,$\widetilde{A}_{G_6}$,hybrid
R-HSA-382556,0.0008740236103532039,490.0,6,$\widetilde{A}_{G_6}$,hybrid
R-HSA-68827,0.0008732915284931136,491.0,6,$\widetilde{A}_{G_6}$,hybrid
R-HSA-9614085,0.0008732832565494801,492.0,6,$\widetilde{A}_{G_6}$,hybrid
R-HSA-5625886,0.0008705855734307693,493.0,6,$\widetilde{A}_{G_6}$,hybrid
R-HSA-3270619,0.0008699664616217835,494.0,6,$\widetilde{A}_{G_6}$,hybrid
R-HSA-399955,0.0008682872217048321,495.0,6,$\widetilde{A}_{G_6}$,hybrid
R-HSA-373760,0.0008676352504814215,496.0,6,$\widetilde{A}_{G_6}$,hybrid
R-HSA-114452,0.000867095577647257,497.0,6,$\widetilde{A}_{G_6}$,hybrid
R-HSA-8986944,0.0008660610117838222,498.0,6,$\widetilde{A}_{G_6}$,hybrid
R-HSA-450531,0.0008641596995084993,499.0,6,$\widetilde{A}_{G_6}$,hybrid
R-HSA-9615710,0.0008625619682351598,500.0,6,$\widetilde{A}_{G_6}$,hybrid
R-HSA-168188,0.0008608206670323749,501.0,6,$\widetilde{A}_{G_6}$,hybrid
R-HSA-166058,0.0008608206670323745,502.0,6,$\widetilde{A}_{G_6}$,hybrid
R-HSA-8851708,0.0008598379223200671,503.0,6,$\widetilde{A}_{G_6}$,hybrid
R-HSA-69002,0.0008596294146601854,504.0,6,$\widetilde{A}_{G_6}$,hybrid
R-HSA-5467337,0.0008591264899993941,505.0,6,$\widetilde{A}_{G_6}$,hybrid
R-HSA-4839748,0.000859126489999394,506.0,6,$\widetilde{A}_{G_6}$,hybrid
R-HSA-5467348,0.0008591264899993937,507.0,6,$\widetilde{A}_{G_6}$,hybrid
R-HSA-5467340,0.0008591264899993936,508.5,6,$\widetilde{A}_{G_6}$,hybrid
R-HSA-4839735,0.0008591264899993936,508.5,6,$\widetilde{A}_{G_6}$,hybrid
R-HSA-4839744,0.0008591264899993935,510.0,6,$\widetilde{A}_{G_6}$,hybrid
R-HSA-4641257,0.0008568347984392154,511.0,6,$\widetilde{A}_{G_6}$,hybrid
R-HSA-110314,0.0008523862715469166,512.0,6,$\widetilde{A}_{G_6}$,hybrid
R-HSA-9609736,0.0008520730278894999,513.0,6,$\widetilde{A}_{G_6}$,hybrid
R-HSA-350562,0.0008517659009460265,514.0,6,$\widetilde{A}_{G_6}$,hybrid
R-HSA-69166,0.0008512488426398227,515.0,6,$\widetilde{A}_{G_6}$,hybrid
R-HSA-2173789,0.0008505844301534079,516.0,6,$\widetilde{A}_{G_6}$,hybrid
R-HSA-351202,0.0008498863550291674,517.0,6,$\widetilde{A}_{G_6}$,hybrid
R-HSA-5358346,0.0008498262385169887,518.0,6,$\widetilde{A}_{G_6}$,hybrid
R-HSA-5693606,0.0008489358097534399,519.0,6,$\widetilde{A}_{G_6}$,hybrid
R-HSA-9662361,0.000846751897937298,520.0,6,$\widetilde{A}_{G_6}$,hybrid
R-HSA-5693565,0.0008462397575130236,521.0,6,$\widetilde{A}_{G_6}$,hybrid
R-HSA-3214842,0.000846081029693924,522.0,6,$\widetilde{A}_{G_6}$,hybrid
R-HSA-196299,0.0008457472274625022,523.0,6,$\widetilde{A}_{G_6}$,hybrid
R-HSA-6811434,0.0008454727787813887,524.0,6,$\widetilde{A}_{G_6}$,hybrid
R-HSA-5607764,0.0008449935051370877,525.0,6,$\widetilde{A}_{G_6}$,hybrid
R-HSA-379724,0.0008407453790848528,526.0,6,$\widetilde{A}_{G_6}$,hybrid
R-HSA-8953750,0.0008401997048539976,527.0,6,$\widetilde{A}_{G_6}$,hybrid
R-HSA-6811436,0.0008384433510398648,528.0,6,$\widetilde{A}_{G_6}$,hybrid
R-HSA-110331,0.0008378718850586343,530.0,6,$\widetilde{A}_{G_6}$,hybrid
R-HSA-110330,0.0008378718850586343,530.0,6,$\widetilde{A}_{G_6}$,hybrid
R-HSA-73927,0.0008378718850586343,530.0,6,$\widetilde{A}_{G_6}$,hybrid
R-HSA-391251,0.0008375406350415089,532.0,6,$\widetilde{A}_{G_6}$,hybrid
R-HSA-416476,0.0008367141098980234,533.0,6,$\widetilde{A}_{G_6}$,hybrid
R-HSA-195253,0.0008364773221359336,534.0,6,$\widetilde{A}_{G_6}$,hybrid
R-HSA-8948751,0.0008348710623195348,535.0,6,$\widetilde{A}_{G_6}$,hybrid
R-HSA-1234176,0.00083445884491257,536.0,6,$\widetilde{A}_{G_6}$,hybrid
R-HSA-5693616,0.0008296559377218319,537.0,6,$\widetilde{A}_{G_6}$,hybrid
R-HSA-389977,0.000828372130644788,538.0,6,$\widetilde{A}_{G_6}$,hybrid
R-HSA-373755,0.0008272842044854484,539.0,6,$\widetilde{A}_{G_6}$,hybrid
R-HSA-3371453,0.0008258777058359961,540.0,6,$\widetilde{A}_{G_6}$,hybrid
R-HSA-69236,0.0008229820592012496,541.0,6,$\widetilde{A}_{G_6}$,hybrid
R-HSA-69231,0.0008229820592012491,542.0,6,$\widetilde{A}_{G_6}$,hybrid
R-HSA-9609690,0.000821953372181206,543.0,6,$\widetilde{A}_{G_6}$,hybrid
R-HSA-9637690,0.0008213248091911341,544.0,6,$\widetilde{A}_{G_6}$,hybrid
R-HSA-69183,0.0008199785749214802,545.0,6,$\widetilde{A}_{G_6}$,hybrid
R-HSA-163685,0.0008199300516128943,546.0,6,$\widetilde{A}_{G_6}$,hybrid
R-HSA-4755510,0.0008194051362694175,547.0,6,$\widetilde{A}_{G_6}$,hybrid
R-HSA-168164,0.0008187591737668483,548.0,6,$\widetilde{A}_{G_6}$,hybrid
R-HSA-9683701,0.0008184528645835919,549.0,6,$\widetilde{A}_{G_6}$,hybrid
R-HSA-450341,0.0008184165129654113,550.0,6,$\widetilde{A}_{G_6}$,hybrid
R-HSA-165159,0.0008170542048442398,551.0,6,$\widetilde{A}_{G_6}$,hybrid
R-HSA-1234174,0.0008166651104097958,552.0,6,$\widetilde{A}_{G_6}$,hybrid
R-HSA-450294,0.0008162423781544835,553.0,6,$\widetilde{A}_{G_6}$,hybrid
R-HSA-5693554,0.0008147491164947655,554.0,6,$\widetilde{A}_{G_6}$,hybrid
R-HSA-2173795,0.0008138500998806084,555.0,6,$\widetilde{A}_{G_6}$,hybrid
R-HSA-264870,0.0008132619574378544,556.0,6,$\widetilde{A}_{G_6}$,hybrid
R-HSA-918233,0.0008124892204439178,557.0,6,$\widetilde{A}_{G_6}$,hybrid
R-HSA-202670,0.0008112968194325924,558.0,6,$\widetilde{A}_{G_6}$,hybrid
R-HSA-5620971,0.0008108525865061325,559.0,6,$\widetilde{A}_{G_6}$,hybrid
R-HSA-5218900,0.0008105960673915655,561.0,6,$\widetilde{A}_{G_6}$,hybrid
R-HSA-3371378,0.0008105960673915655,561.0,6,$\widetilde{A}_{G_6}$,hybrid
R-HSA-69416,0.0008105960673915655,561.0,6,$\widetilde{A}_{G_6}$,hybrid
R-HSA-1168372,0.0008066748626431836,563.0,6,$\widetilde{A}_{G_6}$,hybrid
R-HSA-448424,0.0008057312259115868,564.0,6,$\widetilde{A}_{G_6}$,hybrid
R-HSA-4086400,0.0008056507292331627,565.0,6,$\widetilde{A}_{G_6}$,hybrid
R-HSA-9660821,0.0008052477637466215,566.0,6,$\widetilde{A}_{G_6}$,hybrid
R-HSA-5632684,0.0008048236881473431,567.0,6,$\widetilde{A}_{G_6}$,hybrid
R-HSA-9617828,0.0008045304974905326,568.0,6,$\widetilde{A}_{G_6}$,hybrid
R-HSA-418597,0.0008043361357938096,569.0,6,$\widetilde{A}_{G_6}$,hybrid
R-HSA-174143,0.0008024946287791452,570.0,6,$\widetilde{A}_{G_6}$,hybrid
R-HSA-453276,0.000802494628779145,571.0,6,$\widetilde{A}_{G_6}$,hybrid
R-HSA-111465,0.0008024455275780436,572.0,6,$\widetilde{A}_{G_6}$,hybrid
R-HSA-176408,0.0008009326547647074,573.0,6,$\widetilde{A}_{G_6}$,hybrid
R-HSA-8979227,0.0008008081556420949,574.0,6,$\widetilde{A}_{G_6}$,hybrid
R-HSA-4608870,0.0007998680567228557,575.0,6,$\widetilde{A}_{G_6}$,hybrid
R-HSA-193692,0.0007979582820813133,576.0,6,$\widetilde{A}_{G_6}$,hybrid
R-HSA-8856688,0.0007971144210380049,577.0,6,$\widetilde{A}_{G_6}$,hybrid
R-HSA-168176,0.0007955229375166033,578.5,6,$\widetilde{A}_{G_6}$,hybrid
R-HSA-168142,0.0007955229375166033,578.5,6,$\widetilde{A}_{G_6}$,hybrid
R-HSA-975871,0.0007955229375166032,580.0,6,$\widetilde{A}_{G_6}$,hybrid
R-HSA-2173788,0.0007947663752800819,581.0,6,$\widetilde{A}_{G_6}$,hybrid
R-HSA-69202,0.0007947541376402908,582.0,6,$\widetilde{A}_{G_6}$,hybrid
R-HSA-933542,0.0007920949415006987,583.0,6,$\widetilde{A}_{G_6}$,hybrid
R-HSA-198323,0.0007913312316449489,584.0,6,$\widetilde{A}_{G_6}$,hybrid
R-HSA-9013405,0.00078926297979786,585.0,6,$\widetilde{A}_{G_6}$,hybrid
R-HSA-5627117,0.0007888871209850885,586.0,6,$\widetilde{A}_{G_6}$,hybrid
R-HSA-933543,0.0007879956702514003,587.0,6,$\widetilde{A}_{G_6}$,hybrid
R-HSA-69052,0.000787855459028332,588.0,6,$\widetilde{A}_{G_6}$,hybrid
R-HSA-1834941,0.0007875255380831164,589.0,6,$\widetilde{A}_{G_6}$,hybrid
R-HSA-2173796,0.000784776417412637,590.0,6,$\widetilde{A}_{G_6}$,hybrid
R-HSA-69656,0.0007841138068279642,591.0,6,$\widetilde{A}_{G_6}$,hybrid
R-HSA-3899300,0.0007839208984068834,592.0,6,$\widetilde{A}_{G_6}$,hybrid
R-HSA-5689603,0.0007837666207851107,593.0,6,$\widetilde{A}_{G_6}$,hybrid
R-HSA-9645723,0.0007834770828410503,594.0,6,$\widetilde{A}_{G_6}$,hybrid
R-HSA-110329,0.0007828295261450183,595.5,6,$\widetilde{A}_{G_6}$,hybrid
R-HSA-110328,0.0007828295261450183,595.5,6,$\widetilde{A}_{G_6}$,hybrid
R-HSA-73928,0.0007828295261450176,597.0,6,$\widetilde{A}_{G_6}$,hybrid
R-HSA-450385,0.0007827853336696096,598.0,6,$\widetilde{A}_{G_6}$,hybrid
R-HSA-9678108,0.0007811682237304007,599.0,6,$\widetilde{A}_{G_6}$,hybrid
R-HSA-75153,0.0007802028866551916,600.0,6,$\widetilde{A}_{G_6}$,hybrid
R-HSA-168928,0.0007797066982916896,601.0,6,$\widetilde{A}_{G_6}$,hybrid
R-HSA-6804759,0.0007791808927511306,602.0,6,$\widetilde{A}_{G_6}$,hybrid
R-HSA-9013406,0.0007785594126050564,603.0,6,$\widetilde{A}_{G_6}$,hybrid
R-HSA-3299685,0.0007766053769681442,604.0,6,$\widetilde{A}_{G_6}$,hybrid
R-HSA-179419,0.000776039327827759,605.0,6,$\widetilde{A}_{G_6}$,hybrid
R-HSA-983231,0.0007756500884921157,606.0,6,$\widetilde{A}_{G_6}$,hybrid
R-HSA-171306,0.0007751899111875863,607.0,6,$\widetilde{A}_{G_6}$,hybrid
R-HSA-2995410,0.0007749058692027839,608.0,6,$\widetilde{A}_{G_6}$,hybrid
R-HSA-174084,0.0007745554914349223,609.0,6,$\widetilde{A}_{G_6}$,hybrid
R-HSA-174437,0.0007740018727594191,610.0,6,$\widetilde{A}_{G_6}$,hybrid
R-HSA-6809371,0.0007716017849793533,611.0,6,$\widetilde{A}_{G_6}$,hybrid
R-HSA-6805567,0.0007716017849793531,612.0,6,$\widetilde{A}_{G_6}$,hybrid
R-HSA-9006936,0.0007700260460025543,613.0,6,$\widetilde{A}_{G_6}$,hybrid
R-HSA-1236975,0.0007692919533585711,614.0,6,$\widetilde{A}_{G_6}$,hybrid
R-HSA-164940,0.0007678760447562761,615.0,6,$\widetilde{A}_{G_6}$,hybrid
R-HSA-174178,0.0007672228799269411,616.0,6,$\widetilde{A}_{G_6}$,hybrid
R-HSA-9615933,0.0007663243928284923,617.0,6,$\widetilde{A}_{G_6}$,hybrid
R-HSA-186712,0.000766323287219121,618.0,6,$\widetilde{A}_{G_6}$,hybrid
R-HSA-174184,0.0007661332858385155,619.0,6,$\widetilde{A}_{G_6}$,hybrid
R-HSA-176814,0.0007660158375877314,620.0,6,$\widetilde{A}_{G_6}$,hybrid
R-HSA-380994,0.0007645362805254514,621.0,6,$\widetilde{A}_{G_6}$,hybrid
R-HSA-5675221,0.0007639201422956317,622.0,6,$\widetilde{A}_{G_6}$,hybrid
R-HSA-450513,0.0007634023710567998,623.0,6,$\widetilde{A}_{G_6}$,hybrid
R-HSA-176409,0.0007632217426216183,624.0,6,$\widetilde{A}_{G_6}$,hybrid
R-HSA-174154,0.0007628296787062928,625.0,6,$\widetilde{A}_{G_6}$,hybrid
R-HSA-180746,0.0007607382108987361,626.0,6,$\widetilde{A}_{G_6}$,hybrid
R-HSA-2559586,0.0007596068554228361,627.0,6,$\widetilde{A}_{G_6}$,hybrid
R-HSA-5689901,0.0007588730374865637,628.0,6,$\widetilde{A}_{G_6}$,hybrid
R-HSA-5693579,0.0007575695673940367,629.0,6,$\widetilde{A}_{G_6}$,hybrid
R-HSA-111932,0.0007570540108857262,630.0,6,$\widetilde{A}_{G_6}$,hybrid
R-HSA-5610787,0.0007556591453348696,631.0,6,$\widetilde{A}_{G_6}$,hybrid
R-HSA-611105,0.000754205319707237,632.0,6,$\widetilde{A}_{G_6}$,hybrid
R-HSA-9635486,0.0007533668744729075,633.0,6,$\widetilde{A}_{G_6}$,hybrid
R-HSA-3232142,0.0007528970436030624,634.0,6,$\widetilde{A}_{G_6}$,hybrid
R-HSA-3769402,0.0007524794229450566,635.0,6,$\widetilde{A}_{G_6}$,hybrid
R-HSA-5693607,0.0007522678579204503,636.0,6,$\widetilde{A}_{G_6}$,hybrid
R-HSA-1268020,0.0007517400519616057,637.0,6,$\widetilde{A}_{G_6}$,hybrid
R-HSA-5696397,0.0007510517948666506,638.0,6,$\widetilde{A}_{G_6}$,hybrid
R-HSA-6788467,0.0007500058026746881,639.0,6,$\widetilde{A}_{G_6}$,hybrid
R-HSA-170834,0.0007499014858379944,640.0,6,$\widetilde{A}_{G_6}$,hybrid
R-HSA-400253,0.0007489870082371048,641.0,6,$\widetilde{A}_{G_6}$,hybrid
R-HSA-69186,0.0007486977522488072,642.0,6,$\widetilde{A}_{G_6}$,hybrid
R-HSA-9620244,0.0007486010650650997,643.0,6,$\widetilde{A}_{G_6}$,hybrid
R-HSA-5656169,0.0007470463695601921,644.0,6,$\widetilde{A}_{G_6}$,hybrid
R-HSA-167242,0.0007468231932930543,645.0,6,$\widetilde{A}_{G_6}$,hybrid
R-HSA-162658,0.0007462845362357935,646.0,6,$\widetilde{A}_{G_6}$,hybrid
R-HSA-1445148,0.0007452368722548993,647.0,6,$\widetilde{A}_{G_6}$,hybrid
R-HSA-73929,0.0007450405836662361,648.0,6,$\widetilde{A}_{G_6}$,hybrid
R-HSA-69017,0.0007421751230690306,649.0,6,$\widetilde{A}_{G_6}$,hybrid
R-HSA-9673324,0.0007408989854261891,650.0,6,$\widetilde{A}_{G_6}$,hybrid
R-HSA-9664420,0.0007408989854261889,651.0,6,$\widetilde{A}_{G_6}$,hybrid
R-HSA-9029569,0.0007393735097128608,652.0,6,$\widetilde{A}_{G_6}$,hybrid
R-HSA-8853884,0.0007392440185846142,653.0,6,$\widetilde{A}_{G_6}$,hybrid
R-HSA-1912408,0.0007365560502190679,654.0,6,$\widetilde{A}_{G_6}$,hybrid
R-HSA-4655427,0.0007364545198377797,655.0,6,$\widetilde{A}_{G_6}$,hybrid
R-HSA-70326,0.0007358276107002057,656.0,6,$\widetilde{A}_{G_6}$,hybrid
R-HSA-1236974,0.0007347289894344539,657.0,6,$\widetilde{A}_{G_6}$,hybrid
R-HSA-450604,0.0007337612084086904,658.0,6,$\widetilde{A}_{G_6}$,hybrid
R-HSA-380972,0.0007336409027133733,659.0,6,$\widetilde{A}_{G_6}$,hybrid
R-HSA-159227,0.0007328619148570774,660.0,6,$\widetilde{A}_{G_6}$,hybrid
R-HSA-429958,0.0007328454691768748,661.0,6,$\widetilde{A}_{G_6}$,hybrid
R-HSA-174414,0.0007324814775261778,662.0,6,$\widetilde{A}_{G_6}$,hybrid
R-HSA-4615885,0.0007315161327570608,663.0,6,$\widetilde{A}_{G_6}$,hybrid
R-HSA-112409,0.0007314002003859207,664.0,6,$\widetilde{A}_{G_6}$,hybrid
R-HSA-171319,0.0007309216235499776,665.0,6,$\widetilde{A}_{G_6}$,hybrid
R-HSA-167243,0.0007305769701492689,666.5,6,$\widetilde{A}_{G_6}$,hybrid
R-HSA-167238,0.0007305769701492689,666.5,6,$\widetilde{A}_{G_6}$,hybrid
R-HSA-9616222,0.0007303236519686608,668.0,6,$\widetilde{A}_{G_6}$,hybrid
R-HSA-70171,0.0007296940187454085,669.0,6,$\widetilde{A}_{G_6}$,hybrid
R-HSA-69273,0.0007287137058052233,670.0,6,$\widetilde{A}_{G_6}$,hybrid
R-HSA-177243,0.0007279125081019178,671.0,6,$\widetilde{A}_{G_6}$,hybrid
R-HSA-2173793,0.0007274421139675435,672.0,6,$\widetilde{A}_{G_6}$,hybrid
R-HSA-5685938,0.0007270594360095212,673.0,6,$\widetilde{A}_{G_6}$,hybrid
R-HSA-113501,0.0007261636910630593,674.0,6,$\widetilde{A}_{G_6}$,hybrid
R-HSA-2187338,0.0007237112504278725,675.0,6,$\widetilde{A}_{G_6}$,hybrid
R-HSA-442742,0.0007233724805862244,676.0,6,$\widetilde{A}_{G_6}$,hybrid
R-HSA-442982,0.0007233610203196694,677.0,6,$\widetilde{A}_{G_6}$,hybrid
R-HSA-380284,0.0007223610464795626,678.0,6,$\widetilde{A}_{G_6}$,hybrid
R-HSA-380259,0.0007223610464795623,679.0,6,$\widetilde{A}_{G_6}$,hybrid
R-HSA-8876725,0.0007219694981817006,680.0,6,$\widetilde{A}_{G_6}$,hybrid
R-HSA-109606,0.000720741064117854,681.0,6,$\widetilde{A}_{G_6}$,hybrid
R-HSA-5674400,0.0007206172019633618,682.0,6,$\widetilde{A}_{G_6}$,hybrid
R-HSA-8854518,0.0007199413780228916,683.0,6,$\widetilde{A}_{G_6}$,hybrid
R-HSA-72165,0.0007197324543013077,684.0,6,$\widetilde{A}_{G_6}$,hybrid
R-HSA-5696394,0.0007195404104861013,685.0,6,$\widetilde{A}_{G_6}$,hybrid
R-HSA-5651801,0.0007179864957477726,686.0,6,$\widetilde{A}_{G_6}$,hybrid
R-HSA-159230,0.0007178011849231068,687.0,6,$\widetilde{A}_{G_6}$,hybrid
R-HSA-427359,0.0007162076353610527,688.0,6,$\widetilde{A}_{G_6}$,hybrid
R-HSA-4570464,0.0007157949020647361,689.0,6,$\widetilde{A}_{G_6}$,hybrid
R-HSA-445355,0.0007154769147279436,690.0,6,$\widetilde{A}_{G_6}$,hybrid
R-HSA-73893,0.0007151149080430702,691.0,6,$\widetilde{A}_{G_6}$,hybrid
R-HSA-5693571,0.0007141997585730094,692.0,6,$\widetilde{A}_{G_6}$,hybrid
R-HSA-2559585,0.0007140128081441875,693.0,6,$\widetilde{A}_{G_6}$,hybrid
R-HSA-4085377,0.0007123418969019749,694.0,6,$\widetilde{A}_{G_6}$,hybrid
R-HSA-110313,0.0007122146237178293,695.0,6,$\widetilde{A}_{G_6}$,hybrid
R-HSA-168271,0.0007110589261260597,696.0,6,$\widetilde{A}_{G_6}$,hybrid
R-HSA-168333,0.0007109946079747972,697.0,6,$\widetilde{A}_{G_6}$,hybrid
R-HSA-168274,0.0007109946079747962,698.0,6,$\widetilde{A}_{G_6}$,hybrid
R-HSA-2980766,0.0007094576356549413,699.0,6,$\widetilde{A}_{G_6}$,hybrid
R-HSA-2565942,0.0007091096643852492,700.0,6,$\widetilde{A}_{G_6}$,hybrid
R-HSA-1538133,0.0007080313943455635,701.0,6,$\widetilde{A}_{G_6}$,hybrid
R-HSA-1362277,0.0007071516567932443,702.0,6,$\widetilde{A}_{G_6}$,hybrid
R-HSA-3000178,0.0007069237486213003,703.0,6,$\widetilde{A}_{G_6}$,hybrid
R-HSA-165054,0.0007065470109786681,704.0,6,$\widetilde{A}_{G_6}$,hybrid
R-HSA-380320,0.0007057482931524961,705.0,6,$\widetilde{A}_{G_6}$,hybrid
R-HSA-936440,0.0007056435691222744,706.0,6,$\widetilde{A}_{G_6}$,hybrid
R-HSA-8964043,0.000705527915005025,707.0,6,$\widetilde{A}_{G_6}$,hybrid
R-HSA-167290,0.000705469144835917,708.0,6,$\widetilde{A}_{G_6}$,hybrid
R-HSA-167287,0.0007054691448359169,709.0,6,$\widetilde{A}_{G_6}$,hybrid
R-HSA-418555,0.0007047171460097259,710.0,6,$\widetilde{A}_{G_6}$,hybrid
R-HSA-168276,0.0007036055901122031,711.0,6,$\widetilde{A}_{G_6}$,hybrid
R-HSA-6791312,0.000703404793127388,712.0,6,$\widetilde{A}_{G_6}$,hybrid
R-HSA-9614657,0.0007019562343665124,713.0,6,$\widetilde{A}_{G_6}$,hybrid
R-HSA-8939243,0.0007018586829311597,714.0,6,$\widetilde{A}_{G_6}$,hybrid
R-HSA-438066,0.0007001000871230638,715.0,6,$\widetilde{A}_{G_6}$,hybrid
R-HSA-4641262,0.0006992173418712065,716.0,6,$\widetilde{A}_{G_6}$,hybrid
R-HSA-1489509,0.0006985090279605196,717.0,6,$\widetilde{A}_{G_6}$,hybrid
R-HSA-9709957,0.0006974724257757839,718.0,6,$\widetilde{A}_{G_6}$,hybrid
R-HSA-112040,0.0006972387939180419,719.0,6,$\widetilde{A}_{G_6}$,hybrid
R-HSA-159231,0.0006971152402808824,720.0,6,$\widetilde{A}_{G_6}$,hybrid
R-HSA-6804756,0.0006968282545083439,721.0,6,$\widetilde{A}_{G_6}$,hybrid
R-HSA-176033,0.000696614468289652,722.5,6,$\widetilde{A}_{G_6}$,hybrid
R-HSA-180910,0.000696614468289652,722.5,6,$\widetilde{A}_{G_6}$,hybrid
R-HSA-9013026,0.0006948517748963939,724.0,6,$\widetilde{A}_{G_6}$,hybrid
R-HSA-73762,0.0006902007088152693,725.0,6,$\widetilde{A}_{G_6}$,hybrid
R-HSA-2559580,0.0006890679896924528,726.0,6,$\widetilde{A}_{G_6}$,hybrid
R-HSA-9659787,0.0006888998333087779,727.0,6,$\widetilde{A}_{G_6}$,hybrid
R-HSA-9661069,0.0006888998333087776,728.0,6,$\widetilde{A}_{G_6}$,hybrid
R-HSA-5619107,0.0006877110365359851,729.5,6,$\widetilde{A}_{G_6}$,hybrid
R-HSA-168325,0.0006877110365359851,729.5,6,$\widetilde{A}_{G_6}$,hybrid
R-HSA-170822,0.000687711036535985,731.0,6,$\widetilde{A}_{G_6}$,hybrid
R-HSA-5696395,0.0006865974588964063,732.0,6,$\widetilde{A}_{G_6}$,hybrid
R-HSA-9694516,0.0006852681779476615,733.0,6,$\widetilde{A}_{G_6}$,hybrid
R-HSA-159234,0.000685203477872429,734.0,6,$\widetilde{A}_{G_6}$,hybrid
R-HSA-6796648,0.0006844996155918624,735.0,6,$\widetilde{A}_{G_6}$,hybrid
R-HSA-9668328,0.000683770961117298,736.0,6,$\widetilde{A}_{G_6}$,hybrid
R-HSA-6781823,0.0006834325169733365,737.0,6,$\widetilde{A}_{G_6}$,hybrid
R-HSA-6782210,0.0006828259157107022,738.0,6,$\widetilde{A}_{G_6}$,hybrid
R-HSA-110373,0.0006812035455465451,739.0,6,$\widetilde{A}_{G_6}$,hybrid
R-HSA-9617324,0.0006810674897588405,740.0,6,$\widetilde{A}_{G_6}$,hybrid
R-HSA-5696400,0.0006805764685408687,741.0,6,$\widetilde{A}_{G_6}$,hybrid
R-HSA-159236,0.0006801217174208685,742.0,6,$\widetilde{A}_{G_6}$,hybrid
R-HSA-6784531,0.0006796404091298536,743.0,6,$\widetilde{A}_{G_6}$,hybrid
R-HSA-1834949,0.0006773501445011333,744.0,6,$\widetilde{A}_{G_6}$,hybrid
R-HSA-5619102,0.0006764911066353999,745.0,6,$\widetilde{A}_{G_6}$,hybrid
R-HSA-4641265,0.0006761876575312141,746.0,6,$\widetilde{A}_{G_6}$,hybrid
R-HSA-400685,0.0006752447286045956,747.0,6,$\widetilde{A}_{G_6}$,hybrid
R-HSA-421270,0.0006748829411503002,748.0,6,$\widetilde{A}_{G_6}$,hybrid
R-HSA-73854,0.0006740295125765964,749.0,6,$\widetilde{A}_{G_6}$,hybrid
R-HSA-1358803,0.0006739654594339462,750.0,6,$\widetilde{A}_{G_6}$,hybrid
R-HSA-171007,0.0006735343615103472,751.0,6,$\widetilde{A}_{G_6}$,hybrid
R-HSA-9024446,0.0006730124803943124,752.0,6,$\widetilde{A}_{G_6}$,hybrid
R-HSA-4641263,0.0006729834160841011,753.0,6,$\widetilde{A}_{G_6}$,hybrid
R-HSA-5628897,0.0006714468864260975,754.0,6,$\widetilde{A}_{G_6}$,hybrid
R-HSA-5619507,0.0006707578159647977,755.5,6,$\widetilde{A}_{G_6}$,hybrid
R-HSA-5617472,0.0006707578159647977,755.5,6,$\widetilde{A}_{G_6}$,hybrid
R-HSA-5693568,0.0006703563105221954,757.0,6,$\widetilde{A}_{G_6}$,hybrid
R-HSA-191859,0.0006686418383413104,758.0,6,$\widetilde{A}_{G_6}$,hybrid
R-HSA-194441,0.0006686418383413103,759.0,6,$\widetilde{A}_{G_6}$,hybrid
R-HSA-3108214,0.0006683815785687413,760.0,6,$\widetilde{A}_{G_6}$,hybrid
R-HSA-72187,0.0006683587205935686,761.0,6,$\widetilde{A}_{G_6}$,hybrid
R-HSA-204998,0.0006677666243135146,762.0,6,$\widetilde{A}_{G_6}$,hybrid
R-HSA-8936459,0.0006675294380335793,763.0,6,$\widetilde{A}_{G_6}$,hybrid
R-HSA-72086,0.0006670953327791,764.0,6,$\widetilde{A}_{G_6}$,hybrid
R-HSA-380287,0.0006670607997920251,765.0,6,$\widetilde{A}_{G_6}$,hybrid
R-HSA-380270,0.0006670607997920247,766.0,6,$\widetilde{A}_{G_6}$,hybrid
R-HSA-73864,0.0006667889324489696,767.0,6,$\widetilde{A}_{G_6}$,hybrid
R-HSA-1912422,0.000666618452599798,768.0,6,$\widetilde{A}_{G_6}$,hybrid
R-HSA-381119,0.0006662012423629256,769.0,6,$\widetilde{A}_{G_6}$,hybrid
R-HSA-4791275,0.0006660460824055362,770.0,6,$\widetilde{A}_{G_6}$,hybrid
R-HSA-2299718,0.0006653252998085421,771.0,6,$\widetilde{A}_{G_6}$,hybrid
R-HSA-1362300,0.0006640933665364146,772.0,6,$\widetilde{A}_{G_6}$,hybrid
R-HSA-114608,0.0006639611548085398,773.0,6,$\widetilde{A}_{G_6}$,hybrid
R-HSA-1368082,0.0006638570806736904,774.0,6,$\widetilde{A}_{G_6}$,hybrid
R-HSA-113510,0.0006636672408946055,775.0,6,$\widetilde{A}_{G_6}$,hybrid
R-HSA-72202,0.0006623822938026115,776.0,6,$\widetilde{A}_{G_6}$,hybrid
R-HSA-6782135,0.0006620499533453264,777.0,6,$\widetilde{A}_{G_6}$,hybrid
R-HSA-3301854,0.0006612615781467011,778.0,6,$\widetilde{A}_{G_6}$,hybrid
R-HSA-6790901,0.0006584684598201679,779.0,6,$\widetilde{A}_{G_6}$,hybrid
R-HSA-4551638,0.0006564741731987265,780.0,6,$\widetilde{A}_{G_6}$,hybrid
R-HSA-77075,0.0006552521339450635,781.0,6,$\widetilde{A}_{G_6}$,hybrid
R-HSA-167160,0.0006552521339450632,782.0,6,$\widetilde{A}_{G_6}$,hybrid
R-HSA-416572,0.0006548643372906917,783.0,6,$\widetilde{A}_{G_6}$,hybrid
R-HSA-77595,0.0006529245416289721,784.0,6,$\widetilde{A}_{G_6}$,hybrid
R-HSA-432720,0.000651956699268866,785.0,6,$\widetilde{A}_{G_6}$,hybrid
R-HSA-6781827,0.0006513698091637966,786.0,6,$\widetilde{A}_{G_6}$,hybrid
R-HSA-69091,0.0006499908971546957,787.0,6,$\widetilde{A}_{G_6}$,hybrid
R-HSA-69109,0.0006499908971546955,788.0,6,$\widetilde{A}_{G_6}$,hybrid
R-HSA-3214858,0.0006497879593768482,789.0,6,$\widetilde{A}_{G_6}$,hybrid
R-HSA-1221632,0.0006488499426649024,790.0,6,$\widetilde{A}_{G_6}$,hybrid
R-HSA-2122948,0.0006486003577555794,791.0,6,$\widetilde{A}_{G_6}$,hybrid
R-HSA-198753,0.0006484168109752383,792.0,6,$\widetilde{A}_{G_6}$,hybrid
R-HSA-73856,0.0006471927960486137,793.0,6,$\widetilde{A}_{G_6}$,hybrid
R-HSA-111885,0.0006461961756732844,794.0,6,$\widetilde{A}_{G_6}$,hybrid
R-HSA-210991,0.0006436315128087813,795.0,6,$\widetilde{A}_{G_6}$,hybrid
R-HSA-70268,0.0006400035466442046,796.0,6,$\widetilde{A}_{G_6}$,hybrid
R-HSA-5693537,0.0006396236796912944,797.0,6,$\widetilde{A}_{G_6}$,hybrid
R-HSA-5389840,0.0006392489271139977,798.0,6,$\widetilde{A}_{G_6}$,hybrid
R-HSA-203927,0.0006363054764948223,799.0,6,$\widetilde{A}_{G_6}$,hybrid
R-HSA-193704,0.0006351838477124792,800.0,6,$\widetilde{A}_{G_6}$,hybrid
R-HSA-167246,0.0006344033871887481,801.0,6,$\widetilde{A}_{G_6}$,hybrid
R-HSA-167169,0.000634403387188748,802.0,6,$\widetilde{A}_{G_6}$,hybrid
R-HSA-167200,0.0006344033871887479,803.0,6,$\widetilde{A}_{G_6}$,hybrid
R-HSA-5250924,0.0006340345900589657,804.0,6,$\widetilde{A}_{G_6}$,hybrid
R-HSA-180786,0.0006324459737842487,805.0,6,$\widetilde{A}_{G_6}$,hybrid
R-HSA-5419276,0.0006322908341230953,806.0,6,$\widetilde{A}_{G_6}$,hybrid
R-HSA-450282,0.0006315915681089356,807.0,6,$\widetilde{A}_{G_6}$,hybrid
R-HSA-5368286,0.000630484490732138,808.0,6,$\widetilde{A}_{G_6}$,hybrid
R-HSA-3214841,0.0006302231521623905,809.0,6,$\widetilde{A}_{G_6}$,hybrid
R-HSA-113418,0.0006299279768624275,810.0,6,$\widetilde{A}_{G_6}$,hybrid
R-HSA-167158,0.000629927976862427,811.0,6,$\widetilde{A}_{G_6}$,hybrid
R-HSA-9031628,0.0006294458561609474,812.0,6,$\widetilde{A}_{G_6}$,hybrid
R-HSA-69205,0.0006291931627021299,813.0,6,$\widetilde{A}_{G_6}$,hybrid
R-HSA-211859,0.000628037428880189,814.0,6,$\widetilde{A}_{G_6}$,hybrid
R-HSA-211945,0.0006280374288801889,815.0,6,$\widetilde{A}_{G_6}$,hybrid
R-HSA-111367,0.0006277540233720865,816.0,6,$\widetilde{A}_{G_6}$,hybrid
R-HSA-397014,0.0006273784709701062,817.0,6,$\widetilde{A}_{G_6}$,hybrid
R-HSA-2028269,0.0006271867495487539,818.0,6,$\widetilde{A}_{G_6}$,hybrid
R-HSA-381042,0.0006266226452133389,819.0,6,$\widetilde{A}_{G_6}$,hybrid
R-HSA-5696399,0.000626603023144361,820.0,6,$\widetilde{A}_{G_6}$,hybrid
R-HSA-2173791,0.0006257995499269268,821.0,6,$\widetilde{A}_{G_6}$,hybrid
R-HSA-112043,0.0006255116118970378,822.0,6,$\widetilde{A}_{G_6}$,hybrid
R-HSA-9013106,0.0006245557378149603,823.0,6,$\widetilde{A}_{G_6}$,hybrid
R-HSA-373080,0.0006229386101295408,824.0,6,$\widetilde{A}_{G_6}$,hybrid
R-HSA-176412,0.0006227609357011465,825.0,6,$\widetilde{A}_{G_6}$,hybrid
R-HSA-167152,0.0006220243624161924,826.0,6,$\widetilde{A}_{G_6}$,hybrid
R-HSA-6807878,0.0006217321917452932,827.0,6,$\widetilde{A}_{G_6}$,hybrid
R-HSA-180024,0.0006204088370321216,828.0,6,$\widetilde{A}_{G_6}$,hybrid
R-HSA-1566948,0.0006188023094527864,829.0,6,$\widetilde{A}_{G_6}$,hybrid
R-HSA-446353,0.0006184520940157682,830.0,6,$\widetilde{A}_{G_6}$,hybrid
R-HSA-6803204,0.0006179675209201669,831.0,6,$\widetilde{A}_{G_6}$,hybrid
R-HSA-3215018,0.0006176181040979128,832.0,6,$\widetilde{A}_{G_6}$,hybrid
R-HSA-76005,0.000617310508124719,833.0,6,$\widetilde{A}_{G_6}$,hybrid
R-HSA-5368287,0.0006163710977284625,834.0,6,$\widetilde{A}_{G_6}$,hybrid
R-HSA-2129379,0.0006151898207534842,835.0,6,$\widetilde{A}_{G_6}$,hybrid
R-HSA-419037,0.0006146664364215667,836.0,6,$\widetilde{A}_{G_6}$,hybrid
R-HSA-983170,0.0006115187193794734,837.0,6,$\widetilde{A}_{G_6}$,hybrid
R-HSA-198725,0.0006112113917765503,838.0,6,$\widetilde{A}_{G_6}$,hybrid
R-HSA-5685942,0.0006106740621422023,839.0,6,$\widetilde{A}_{G_6}$,hybrid
R-HSA-156711,0.0006094611153822447,840.0,6,$\widetilde{A}_{G_6}$,hybrid
R-HSA-75955,0.0006086559873891714,841.0,6,$\widetilde{A}_{G_6}$,hybrid
R-HSA-112382,0.0006086559873891713,842.0,6,$\widetilde{A}_{G_6}$,hybrid
R-HSA-9694635,0.0006082066064383364,843.0,6,$\widetilde{A}_{G_6}$,hybrid
R-HSA-429947,0.0006057644124563296,844.0,6,$\widetilde{A}_{G_6}$,hybrid
R-HSA-157579,0.0006035716949010702,845.0,6,$\widetilde{A}_{G_6}$,hybrid
R-HSA-399721,0.0006032139334191372,846.0,6,$\widetilde{A}_{G_6}$,hybrid
R-HSA-399719,0.000603213933419137,847.0,6,$\widetilde{A}_{G_6}$,hybrid
R-HSA-4086398,0.00060315600614492,848.0,6,$\widetilde{A}_{G_6}$,hybrid
R-HSA-1502540,0.0006009311690371415,849.0,6,$\widetilde{A}_{G_6}$,hybrid
R-HSA-1980145,0.0005989661870657491,850.0,6,$\widetilde{A}_{G_6}$,hybrid
R-HSA-141405,0.0005985669321786988,851.5,6,$\widetilde{A}_{G_6}$,hybrid
R-HSA-141430,0.0005985669321786988,851.5,6,$\widetilde{A}_{G_6}$,hybrid
R-HSA-8949215,0.000598122439282375,853.0,6,$\widetilde{A}_{G_6}$,hybrid
R-HSA-2980736,0.0005978773693574302,854.0,6,$\widetilde{A}_{G_6}$,hybrid
R-HSA-774815,0.0005973301245206295,855.5,6,$\widetilde{A}_{G_6}$,hybrid
R-HSA-606279,0.0005973301245206295,855.5,6,$\widetilde{A}_{G_6}$,hybrid
R-HSA-77588,0.0005964559485442609,857.0,6,$\widetilde{A}_{G_6}$,hybrid
R-HSA-429914,0.0005916782091535005,858.0,6,$\widetilde{A}_{G_6}$,hybrid
R-HSA-174417,0.0005896334656502546,859.0,6,$\widetilde{A}_{G_6}$,hybrid
R-HSA-9707616,0.0005884446694051437,860.0,6,$\widetilde{A}_{G_6}$,hybrid
R-HSA-75067,0.0005860195812737738,861.0,6,$\widetilde{A}_{G_6}$,hybrid
R-HSA-216083,0.0005837856789059347,862.0,6,$\widetilde{A}_{G_6}$,hybrid
R-HSA-75953,0.0005813946748471758,863.0,6,$\widetilde{A}_{G_6}$,hybrid
R-HSA-167162,0.0005813946748471756,864.0,6,$\widetilde{A}_{G_6}$,hybrid
R-HSA-167161,0.0005813946748471753,865.5,6,$\widetilde{A}_{G_6}$,hybrid
R-HSA-76042,0.0005813946748471753,865.5,6,$\widetilde{A}_{G_6}$,hybrid
R-HSA-73776,0.0005813946748471752,867.0,6,$\widetilde{A}_{G_6}$,hybrid
R-HSA-73779,0.000581394674847175,868.0,6,$\widetilde{A}_{G_6}$,hybrid
R-HSA-141444,0.0005811191563409247,869.5,6,$\widetilde{A}_{G_6}$,hybrid
R-HSA-141424,0.0005811191563409247,869.5,6,$\widetilde{A}_{G_6}$,hybrid
R-HSA-2559582,0.0005808916484674641,871.0,6,$\widetilde{A}_{G_6}$,hybrid
R-HSA-381340,0.0005804517454026676,872.0,6,$\widetilde{A}_{G_6}$,hybrid
R-HSA-877300,0.0005773697108963711,873.0,6,$\widetilde{A}_{G_6}$,hybrid
R-HSA-9648025,0.0005754666845143433,874.0,6,$\widetilde{A}_{G_6}$,hybrid
R-HSA-8957275,0.0005742280734243535,875.0,6,$\widetilde{A}_{G_6}$,hybrid
R-HSA-5620912,0.0005731104411085691,876.0,6,$\widetilde{A}_{G_6}$,hybrid
R-HSA-9670095,0.0005729908782293885,877.0,6,$\widetilde{A}_{G_6}$,hybrid
R-HSA-211000,0.0005691305641686951,878.0,6,$\widetilde{A}_{G_6}$,hybrid
R-HSA-6804115,0.0005686589616563681,879.0,6,$\widetilde{A}_{G_6}$,hybrid
R-HSA-176407,0.0005672690363362418,880.0,6,$\widetilde{A}_{G_6}$,hybrid
R-HSA-73884,0.0005671801130509221,881.0,6,$\widetilde{A}_{G_6}$,hybrid
R-HSA-674695,0.0005656626918186059,882.0,6,$\widetilde{A}_{G_6}$,hybrid
R-HSA-532668,0.000562224281470969,883.0,6,$\widetilde{A}_{G_6}$,hybrid
R-HSA-9687136,0.000561639605946323,884.0,6,$\widetilde{A}_{G_6}$,hybrid
R-HSA-167172,0.000560943506051248,885.0,6,$\widetilde{A}_{G_6}$,hybrid
R-HSA-174824,0.000560694434585063,886.0,6,$\widetilde{A}_{G_6}$,hybrid
R-HSA-6783310,0.0005606519506102829,887.0,6,$\widetilde{A}_{G_6}$,hybrid
R-HSA-163210,0.0005590463830875911,888.0,6,$\widetilde{A}_{G_6}$,hybrid
R-HSA-72306,0.0005586312779864006,889.0,6,$\widetilde{A}_{G_6}$,hybrid
R-HSA-73933,0.0005578123329761937,890.0,6,$\widetilde{A}_{G_6}$,hybrid
R-HSA-9675126,0.0005569478039910182,891.0,6,$\widetilde{A}_{G_6}$,hybrid
R-HSA-500792,0.0005565726432535731,892.0,6,$\widetilde{A}_{G_6}$,hybrid
R-HSA-430039,0.0005563371930556034,893.0,6,$\widetilde{A}_{G_6}$,hybrid
R-HSA-69618,0.0005562847295350142,894.0,6,$\widetilde{A}_{G_6}$,hybrid
R-HSA-2979096,0.0005550959961579063,895.0,6,$\widetilde{A}_{G_6}$,hybrid
R-HSA-9694548,0.0005533811198954106,896.0,6,$\widetilde{A}_{G_6}$,hybrid
R-HSA-8949613,0.0005531326651343149,897.0,6,$\widetilde{A}_{G_6}$,hybrid
R-HSA-8949664,0.0005510368311905796,898.0,6,$\widetilde{A}_{G_6}$,hybrid
R-HSA-432722,0.0005500887545550219,899.0,6,$\widetilde{A}_{G_6}$,hybrid
R-HSA-264876,0.0005480041893740329,900.0,6,$\widetilde{A}_{G_6}$,hybrid
R-HSA-9687139,0.0005463117592889399,901.0,6,$\widetilde{A}_{G_6}$,hybrid
R-HSA-381033,0.0005459742821612522,902.0,6,$\widetilde{A}_{G_6}$,hybrid
R-HSA-5362517,0.0005433476016427104,903.0,6,$\widetilde{A}_{G_6}$,hybrid
R-HSA-9013700,0.0005432495622419983,904.0,6,$\widetilde{A}_{G_6}$,hybrid
R-HSA-2426168,0.0005381740830668896,905.0,6,$\widetilde{A}_{G_6}$,hybrid
R-HSA-71403,0.0005377887266922646,906.0,6,$\widetilde{A}_{G_6}$,hybrid
R-HSA-111996,0.0005362078182976431,907.0,6,$\widetilde{A}_{G_6}$,hybrid
R-HSA-446728,0.0005360785164037503,908.0,6,$\widetilde{A}_{G_6}$,hybrid
R-HSA-5250941,0.0005311799866667423,909.0,6,$\widetilde{A}_{G_6}$,hybrid
R-HSA-174411,0.0005311296783328015,910.0,6,$\widetilde{A}_{G_6}$,hybrid
R-HSA-9609523,0.0005298938518913097,911.0,6,$\widetilde{A}_{G_6}$,hybrid
R-HSA-201451,0.0005298718890996521,912.0,6,$\widetilde{A}_{G_6}$,hybrid
R-HSA-204005,0.0005298150795392223,913.0,6,$\widetilde{A}_{G_6}$,hybrid
R-HSA-8866654,0.0005283877471093421,914.0,6,$\widetilde{A}_{G_6}$,hybrid
R-HSA-5578749,0.0005264625862216456,915.0,6,$\widetilde{A}_{G_6}$,hybrid
R-HSA-6807505,0.00052555541603387,916.0,6,$\widetilde{A}_{G_6}$,hybrid
R-HSA-977225,0.000524620067337268,917.0,6,$\widetilde{A}_{G_6}$,hybrid
R-HSA-111997,0.0005216498514464652,918.5,6,$\widetilde{A}_{G_6}$,hybrid
R-HSA-111933,0.0005216498514464652,918.5,6,$\widetilde{A}_{G_6}$,hybrid
R-HSA-111471,0.0005203249097741299,920.0,6,$\widetilde{A}_{G_6}$,hybrid
R-HSA-1483206,0.0005197174611141643,921.0,6,$\widetilde{A}_{G_6}$,hybrid
R-HSA-427413,0.0005111435345962857,922.0,6,$\widetilde{A}_{G_6}$,hybrid
R-HSA-6794361,0.0005111072200166329,923.0,6,$\widetilde{A}_{G_6}$,hybrid
R-HSA-3000171,0.0005109449674872366,924.0,6,$\widetilde{A}_{G_6}$,hybrid
R-HSA-3238698,0.0005108077707062429,925.0,6,$\widetilde{A}_{G_6}$,hybrid
R-HSA-917937,0.0005101929546258803,926.0,6,$\widetilde{A}_{G_6}$,hybrid
R-HSA-428157,0.0005086141260114395,927.0,6,$\widetilde{A}_{G_6}$,hybrid
R-HSA-8957322,0.0005083803305663869,928.0,6,$\widetilde{A}_{G_6}$,hybrid
R-HSA-525793,0.0005046235843570988,929.0,6,$\widetilde{A}_{G_6}$,hybrid
R-HSA-5620924,0.0005041882186175677,930.0,6,$\widetilde{A}_{G_6}$,hybrid
R-HSA-5576891,0.0005039761802851191,931.0,6,$\widetilde{A}_{G_6}$,hybrid
R-HSA-5694530,0.000502303702271454,932.0,6,$\widetilde{A}_{G_6}$,hybrid
R-HSA-1655829,0.0005021316420609822,933.0,6,$\widetilde{A}_{G_6}$,hybrid
R-HSA-400206,0.0005017098699584882,934.0,6,$\widetilde{A}_{G_6}$,hybrid
R-HSA-199992,0.0004990824343670497,935.0,6,$\widetilde{A}_{G_6}$,hybrid
R-HSA-71406,0.0004990340059013389,936.0,6,$\widetilde{A}_{G_6}$,hybrid
R-HSA-73863,0.0004977873882125745,937.0,6,$\widetilde{A}_{G_6}$,hybrid
R-HSA-1650814,0.0004970412863364339,938.0,6,$\widetilde{A}_{G_6}$,hybrid
R-HSA-2672351,0.0004962682173761662,939.0,6,$\widetilde{A}_{G_6}$,hybrid
R-HSA-9648002,0.0004938100462942955,940.0,6,$\widetilde{A}_{G_6}$,hybrid
R-HSA-1989781,0.0004928411066705932,941.0,6,$\widetilde{A}_{G_6}$,hybrid
R-HSA-388844,0.000485129788372148,942.0,6,$\widetilde{A}_{G_6}$,hybrid
R-HSA-8852135,0.0004848883592073041,943.0,6,$\widetilde{A}_{G_6}$,hybrid
R-HSA-3214847,0.00048406895981888885,944.0,6,$\widetilde{A}_{G_6}$,hybrid
R-HSA-196854,0.0004785382014327414,945.0,6,$\widetilde{A}_{G_6}$,hybrid
R-HSA-1368108,0.00047333855478509646,946.0,6,$\widetilde{A}_{G_6}$,hybrid
R-HSA-901042,0.00047247511491153464,947.0,6,$\widetilde{A}_{G_6}$,hybrid
R-HSA-3000170,0.0004706903506379565,948.0,6,$\widetilde{A}_{G_6}$,hybrid
R-HSA-9627069,0.00046800799896506024,949.0,6,$\widetilde{A}_{G_6}$,hybrid
R-HSA-111458,0.0004680079989650602,950.0,6,$\widetilde{A}_{G_6}$,hybrid
R-HSA-1592230,0.000465373206773035,951.0,6,$\widetilde{A}_{G_6}$,hybrid
R-HSA-174048,0.00046069970059324354,952.0,6,$\widetilde{A}_{G_6}$,hybrid
R-HSA-442720,0.00045935425934156583,953.0,6,$\widetilde{A}_{G_6}$,hybrid
R-HSA-5635838,0.00045745914015785,954.0,6,$\widetilde{A}_{G_6}$,hybrid
R-HSA-1169410,0.00045597992282539034,955.0,6,$\widetilde{A}_{G_6}$,hybrid
R-HSA-1474290,0.0004555984055326139,956.0,6,$\widetilde{A}_{G_6}$,hybrid
R-HSA-73772,0.000455163088932214,957.0,6,$\widetilde{A}_{G_6}$,hybrid
R-HSA-901032,0.00045444490508291956,958.0,6,$\widetilde{A}_{G_6}$,hybrid
R-HSA-6794362,0.000451951908442077,959.0,6,$\widetilde{A}_{G_6}$,hybrid
R-HSA-1169408,0.00045141420604867847,960.0,6,$\widetilde{A}_{G_6}$,hybrid
R-HSA-373076,0.0004509037208123603,961.0,6,$\widetilde{A}_{G_6}$,hybrid
R-HSA-2151201,0.00045069950777050364,962.0,6,$\widetilde{A}_{G_6}$,hybrid
R-HSA-111461,0.00044995091713909813,963.0,6,$\widetilde{A}_{G_6}$,hybrid
R-HSA-5620916,0.00044815348793471576,964.0,6,$\widetilde{A}_{G_6}$,hybrid
R-HSA-179409,0.00044800542519366496,965.0,6,$\widetilde{A}_{G_6}$,hybrid
R-HSA-389661,0.0004463429687838839,966.0,6,$\widetilde{A}_{G_6}$,hybrid
R-HSA-5633008,0.0004448828691538768,967.0,6,$\widetilde{A}_{G_6}$,hybrid
R-HSA-8866652,0.0004447842349210145,968.0,6,$\widetilde{A}_{G_6}$,hybrid
R-HSA-381426,0.000440411888181589,969.0,6,$\widetilde{A}_{G_6}$,hybrid
R-HSA-73980,0.00043865394045193145,970.5,6,$\widetilde{A}_{G_6}$,hybrid
R-HSA-73780,0.00043865394045193145,970.5,6,$\widetilde{A}_{G_6}$,hybrid
R-HSA-76066,0.00043738566980360737,972.0,6,$\widetilde{A}_{G_6}$,hybrid
R-HSA-5578775,0.0004345476576587393,973.0,6,$\widetilde{A}_{G_6}$,hybrid
R-HSA-111931,0.0004309826313155765,974.0,6,$\widetilde{A}_{G_6}$,hybrid
R-HSA-162588,0.0004306941632278438,975.0,6,$\widetilde{A}_{G_6}$,hybrid
R-HSA-9610379,0.00043017228616727037,976.0,6,$\widetilde{A}_{G_6}$,hybrid
R-HSA-6811438,0.0004267476347035322,977.0,6,$\widetilde{A}_{G_6}$,hybrid
R-HSA-175474,0.0004246065496240851,979.0,6,$\widetilde{A}_{G_6}$,hybrid
R-HSA-174495,0.0004246065496240851,979.0,6,$\widetilde{A}_{G_6}$,hybrid
R-HSA-174490,0.0004246065496240851,979.0,6,$\widetilde{A}_{G_6}$,hybrid
R-HSA-76061,0.00042215062304470235,981.0,6,$\widetilde{A}_{G_6}$,hybrid
R-HSA-5607763,0.00041720814985889517,982.0,6,$\widetilde{A}_{G_6}$,hybrid
R-HSA-9639288,0.0004160236079013031,983.0,6,$\widetilde{A}_{G_6}$,hybrid
R-HSA-70221,0.00041125284294261114,984.0,6,$\widetilde{A}_{G_6}$,hybrid
R-HSA-1474228,0.0004008076823818197,985.0,6,$\widetilde{A}_{G_6}$,hybrid
R-HSA-8854214,0.00038748633690209204,986.0,6,$\widetilde{A}_{G_6}$,hybrid
R-HSA-917729,0.00037980574078816317,987.0,6,$\widetilde{A}_{G_6}$,hybrid
R-HSA-8948216,0.00037786335720884457,988.0,6,$\widetilde{A}_{G_6}$,hybrid
R-HSA-983712,0.00037460046675358457,989.0,6,$\widetilde{A}_{G_6}$,hybrid
R-HSA-2022090,0.00037346299566355494,990.0,6,$\widetilde{A}_{G_6}$,hybrid
R-HSA-2022377,0.00036588508549722804,991.0,6,$\widetilde{A}_{G_6}$,hybrid
R-HSA-8873719,0.0003592698415918052,992.0,6,$\widetilde{A}_{G_6}$,hybrid
R-HSA-6811440,0.00035475270914364193,993.0,6,$\widetilde{A}_{G_6}$,hybrid
R-HSA-74158,0.0003530783104669868,994.5,6,$\widetilde{A}_{G_6}$,hybrid
R-HSA-76046,0.0003530783104669868,994.5,6,$\widetilde{A}_{G_6}$,hybrid
R-HSA-749476,0.00035307831046698664,996.0,6,$\widetilde{A}_{G_6}$,hybrid
R-HSA-3000157,0.00034600283599465624,997.0,6,$\widetilde{A}_{G_6}$,hybrid
R-HSA-76071,0.00034057378799202503,998.0,6,$\widetilde{A}_{G_6}$,hybrid
R-HSA-1592389,0.0003310810490716177,999.0,6,$\widetilde{A}_{G_6}$,hybrid
R-HSA-8982491,0.0003245191861360808,1000.0,6,$\widetilde{A}_{G_6}$,hybrid
R-HSA-917977,0.0003192238008228389,1001.0,6,$\widetilde{A}_{G_6}$,hybrid
R-HSA-77387,0.0003123530919433853,1002.0,6,$\widetilde{A}_{G_6}$,hybrid
R-HSA-5620920,0.00031231231198972466,1003.0,6,$\widetilde{A}_{G_6}$,hybrid
R-HSA-8876198,0.0003095542188163294,1004.0,6,$\widetilde{A}_{G_6}$,hybrid
R-HSA-112310,0.0003053687102436241,1005.0,6,$\widetilde{A}_{G_6}$,hybrid
R-HSA-1222556,0.0003049292181916751,1006.0,6,$\widetilde{A}_{G_6}$,hybrid
R-HSA-210500,0.0003046265106392084,1009.0,6,$\widetilde{A}_{G_6}$,hybrid
R-HSA-181430,0.0003046265106392084,1009.0,6,$\widetilde{A}_{G_6}$,hybrid
R-HSA-264642,0.0003046265106392084,1009.0,6,$\widetilde{A}_{G_6}$,hybrid
R-HSA-181429,0.0003046265106392084,1009.0,6,$\widetilde{A}_{G_6}$,hybrid
R-HSA-212676,0.0003046265106392084,1009.0,6,$\widetilde{A}_{G_6}$,hybrid
R-HSA-1362409,0.0002994167561034515,1012.0,6,$\widetilde{A}_{G_6}$,hybrid
R-HSA-3781865,0.00028866557065712384,1013.0,6,$\widetilde{A}_{G_6}$,hybrid
R-HSA-5668914,0.00028757477193293,1014.0,6,$\widetilde{A}_{G_6}$,hybrid
R-HSA-3772470,0.0002849371174447757,1015.0,6,$\widetilde{A}_{G_6}$,hybrid
R-HSA-163125,0.00027935502539951405,1016.0,6,$\widetilde{A}_{G_6}$,hybrid
R-HSA-1442490,0.0002553451321982705,1017.0,6,$\widetilde{A}_{G_6}$,hybrid
R-HSA-1630316,0.0002470076164082334,1018.0,6,$\widetilde{A}_{G_6}$,hybrid
R-HSA-5173105,0.0002317852325013745,1019.0,6,$\widetilde{A}_{G_6}$,hybrid
R-HSA-9033241,0.0002244322013661881,1020.0,6,$\widetilde{A}_{G_6}$,hybrid
R-HSA-9603798,0.0002143054505473131,1021.0,6,$\widetilde{A}_{G_6}$,hybrid
R-HSA-425407,0.00019995395520361608,1022.0,6,$\widetilde{A}_{G_6}$,hybrid
R-HSA-163841,0.000187875436627321,1023.0,6,$\widetilde{A}_{G_6}$,hybrid
R-HSA-5620922,0.00010370398600317048,1024.0,6,$\widetilde{A}_{G_6}$,hybrid
