entity,score,rank,graphlet,graphlet_adj,score_method
R-HSA-166663,0.004933877144618256,1.0,0,$\widetilde{A}_{G_0}$,hybrid
R-HSA-5682910,0.0038384980072048483,2.0,0,$\widetilde{A}_{G_0}$,hybrid
R-HSA-389948,0.0037125455225301123,3.0,0,$\widetilde{A}_{G_0}$,hybrid
R-HSA-166658,0.003704563520175498,4.0,0,$\widetilde{A}_{G_0}$,hybrid
R-HSA-1170546,0.0035052534457646616,5.0,0,$\widetilde{A}_{G_0}$,hybrid
R-HSA-977606,0.0034039925551107722,6.0,0,$\widetilde{A}_{G_0}$,hybrid
R-HSA-9703648,0.0033918452346405905,7.0,0,$\widetilde{A}_{G_0}$,hybrid
R-HSA-5654716,0.003309768220726271,8.0,0,$\widetilde{A}_{G_0}$,hybrid
R-HSA-5655291,0.0032862018683460846,9.0,0,$\widetilde{A}_{G_0}$,hybrid
R-HSA-5654708,0.003281252140065123,10.0,0,$\widetilde{A}_{G_0}$,hybrid
R-HSA-8853338,0.0032636443123038065,11.5,0,$\widetilde{A}_{G_0}$,hybrid
R-HSA-5655332,0.0032636443123038065,11.5,0,$\widetilde{A}_{G_0}$,hybrid
R-HSA-8853334,0.003256018907676484,13.0,0,$\widetilde{A}_{G_0}$,hybrid
R-HSA-9020558,0.0032013503732671684,14.0,0,$\widetilde{A}_{G_0}$,hybrid
R-HSA-202427,0.0031422637828925266,15.0,0,$\widetilde{A}_{G_0}$,hybrid
R-HSA-9673767,0.002990548070385481,16.0,0,$\widetilde{A}_{G_0}$,hybrid
R-HSA-9673770,0.0029905480703854796,17.0,0,$\widetilde{A}_{G_0}$,hybrid
R-HSA-9028731,0.002954822084475144,18.0,0,$\widetilde{A}_{G_0}$,hybrid
R-HSA-2029481,0.0029396015723258334,19.0,0,$\widetilde{A}_{G_0}$,hybrid
R-HSA-2586552,0.0029285451631485765,20.0,0,$\widetilde{A}_{G_0}$,hybrid
R-HSA-5655253,0.002853730270425468,21.0,0,$\widetilde{A}_{G_0}$,hybrid
R-HSA-5654693,0.0028522197603787053,22.0,0,$\widetilde{A}_{G_0}$,hybrid
R-HSA-210993,0.0028324104676294795,23.0,0,$\widetilde{A}_{G_0}$,hybrid
R-HSA-5637810,0.0028291904550292696,24.5,0,$\widetilde{A}_{G_0}$,hybrid
R-HSA-5637812,0.0028291904550292696,24.5,0,$\widetilde{A}_{G_0}$,hybrid
R-HSA-9669938,0.0028063923339025428,26.0,0,$\widetilde{A}_{G_0}$,hybrid
R-HSA-9670439,0.0028063923339025423,27.0,0,$\widetilde{A}_{G_0}$,hybrid
R-HSA-6814122,0.0027872266375667597,28.0,0,$\widetilde{A}_{G_0}$,hybrid
R-HSA-9006335,0.0027794131331526743,29.0,0,$\widetilde{A}_{G_0}$,hybrid
R-HSA-5654687,0.0027455166418372577,30.0,0,$\widetilde{A}_{G_0}$,hybrid
R-HSA-451326,0.0026959467883841447,31.0,0,$\widetilde{A}_{G_0}$,hybrid
R-HSA-9027276,0.002668462171582644,32.0,0,$\widetilde{A}_{G_0}$,hybrid
R-HSA-8983432,0.0026488659463665748,33.0,0,$\widetilde{A}_{G_0}$,hybrid
R-HSA-9665348,0.00264419251432799,34.0,0,$\widetilde{A}_{G_0}$,hybrid
R-HSA-2730905,0.0026271501438037887,35.0,0,$\widetilde{A}_{G_0}$,hybrid
R-HSA-202433,0.002611510323970021,36.0,0,$\widetilde{A}_{G_0}$,hybrid
R-HSA-5654696,0.002593683185689544,37.0,0,$\widetilde{A}_{G_0}$,hybrid
R-HSA-9027284,0.0025619161947898934,38.0,0,$\widetilde{A}_{G_0}$,hybrid
R-HSA-445095,0.0025409795199014358,39.0,0,$\widetilde{A}_{G_0}$,hybrid
R-HSA-1236394,0.002516926167709434,40.0,0,$\widetilde{A}_{G_0}$,hybrid
R-HSA-9034015,0.0024941760024973394,41.0,0,$\widetilde{A}_{G_0}$,hybrid
R-HSA-418592,0.0024694521284562916,42.0,0,$\widetilde{A}_{G_0}$,hybrid
R-HSA-5637815,0.002465692712276638,43.5,0,$\widetilde{A}_{G_0}$,hybrid
R-HSA-1236382,0.002465692712276638,43.5,0,$\widetilde{A}_{G_0}$,hybrid
R-HSA-202040,0.0024520479984233845,45.0,0,$\widetilde{A}_{G_0}$,hybrid
R-HSA-975163,0.0024505027118321065,46.0,0,$\widetilde{A}_{G_0}$,hybrid
R-HSA-937072,0.002428989704587717,47.0,0,$\widetilde{A}_{G_0}$,hybrid
R-HSA-936964,0.002428650818126957,48.0,0,$\widetilde{A}_{G_0}$,hybrid
R-HSA-5654700,0.0024271651761087016,49.0,0,$\widetilde{A}_{G_0}$,hybrid
R-HSA-8854691,0.0024081648017711165,50.0,0,$\widetilde{A}_{G_0}$,hybrid
R-HSA-2424491,0.0023964917563673318,51.0,0,$\widetilde{A}_{G_0}$,hybrid
R-HSA-912526,0.002379618663160876,52.0,0,$\widetilde{A}_{G_0}$,hybrid
R-HSA-9703465,0.002368526719280775,53.0,0,$\widetilde{A}_{G_0}$,hybrid
R-HSA-1250347,0.002361680022467488,54.0,0,$\widetilde{A}_{G_0}$,hybrid
R-HSA-1226099,0.0023539389782132373,55.0,0,$\widetilde{A}_{G_0}$,hybrid
R-HSA-9634285,0.0023474273400428286,56.0,0,$\widetilde{A}_{G_0}$,hybrid
R-HSA-1295596,0.0023435914953586893,57.0,0,$\widetilde{A}_{G_0}$,hybrid
R-HSA-9671555,0.0023421893942407066,58.0,0,$\widetilde{A}_{G_0}$,hybrid
R-HSA-9006115,0.0023318227838107354,59.0,0,$\widetilde{A}_{G_0}$,hybrid
R-HSA-163359,0.002325907690956333,60.0,0,$\widetilde{A}_{G_0}$,hybrid
R-HSA-8948216,0.0023212251668155853,61.0,0,$\widetilde{A}_{G_0}$,hybrid
R-HSA-428930,0.0023207958525998163,62.0,0,$\widetilde{A}_{G_0}$,hybrid
R-HSA-5654732,0.002298738612248318,63.0,0,$\widetilde{A}_{G_0}$,hybrid
R-HSA-212676,0.0022908275230733395,66.0,0,$\widetilde{A}_{G_0}$,hybrid
R-HSA-210500,0.0022908275230733395,66.0,0,$\widetilde{A}_{G_0}$,hybrid
R-HSA-264642,0.0022908275230733395,66.0,0,$\widetilde{A}_{G_0}$,hybrid
R-HSA-181429,0.0022908275230733395,66.0,0,$\widetilde{A}_{G_0}$,hybrid
R-HSA-181430,0.0022908275230733395,66.0,0,$\widetilde{A}_{G_0}$,hybrid
R-HSA-5686938,0.0022753705043253225,69.0,0,$\widetilde{A}_{G_0}$,hybrid
R-HSA-5654733,0.002250599206815973,70.0,0,$\widetilde{A}_{G_0}$,hybrid
R-HSA-9664565,0.002238430159267101,71.0,0,$\widetilde{A}_{G_0}$,hybrid
R-HSA-375165,0.0022227544198618445,72.0,0,$\widetilde{A}_{G_0}$,hybrid
R-HSA-1643713,0.0022148557140146572,73.0,0,$\widetilde{A}_{G_0}$,hybrid
R-HSA-1502540,0.002210380467037953,74.0,0,$\widetilde{A}_{G_0}$,hybrid
R-HSA-5654741,0.0022102845821124952,75.0,0,$\widetilde{A}_{G_0}$,hybrid
R-HSA-186763,0.002208966158624534,76.0,0,$\widetilde{A}_{G_0}$,hybrid
R-HSA-5654743,0.002203467164580082,77.0,0,$\widetilde{A}_{G_0}$,hybrid
R-HSA-442982,0.002200955664106933,78.0,0,$\widetilde{A}_{G_0}$,hybrid
R-HSA-2022090,0.0021997139939349854,79.0,0,$\widetilde{A}_{G_0}$,hybrid
R-HSA-2172127,0.002196674456539739,80.0,0,$\widetilde{A}_{G_0}$,hybrid
R-HSA-180336,0.0021881749616897064,81.0,0,$\widetilde{A}_{G_0}$,hybrid
R-HSA-5602498,0.002186077836055257,82.0,0,$\widetilde{A}_{G_0}$,hybrid
R-HSA-4641263,0.0021820535434638974,83.0,0,$\widetilde{A}_{G_0}$,hybrid
R-HSA-1227990,0.002181941310795791,84.0,0,$\widetilde{A}_{G_0}$,hybrid
R-HSA-5654695,0.002174062178115181,85.0,0,$\widetilde{A}_{G_0}$,hybrid
R-HSA-5603041,0.0021730339783219755,86.0,0,$\widetilde{A}_{G_0}$,hybrid
R-HSA-6806834,0.002170881755105866,87.0,0,$\widetilde{A}_{G_0}$,hybrid
R-HSA-210990,0.0021682985961940676,88.0,0,$\widetilde{A}_{G_0}$,hybrid
R-HSA-392851,0.0021677131937830993,90.0,0,$\widetilde{A}_{G_0}$,hybrid
R-HSA-432040,0.0021677131937830993,90.0,0,$\widetilde{A}_{G_0}$,hybrid
R-HSA-445717,0.0021677131937830993,90.0,0,$\widetilde{A}_{G_0}$,hybrid
R-HSA-1059683,0.0021650835055797416,92.0,0,$\widetilde{A}_{G_0}$,hybrid
R-HSA-418217,0.00215702412011108,93.0,0,$\widetilde{A}_{G_0}$,hybrid
R-HSA-5654738,0.002155012743948217,94.0,0,$\widetilde{A}_{G_0}$,hybrid
R-HSA-140534,0.0021465037819603924,95.0,0,$\widetilde{A}_{G_0}$,hybrid
R-HSA-937041,0.0021438456686180885,96.0,0,$\widetilde{A}_{G_0}$,hybrid
R-HSA-982772,0.0021406526129895105,97.0,0,$\widetilde{A}_{G_0}$,hybrid
R-HSA-500657,0.00213298725990872,98.0,0,$\widetilde{A}_{G_0}$,hybrid
R-HSA-2029485,0.002131270035235478,99.0,0,$\widetilde{A}_{G_0}$,hybrid
R-HSA-388841,0.0021294172964040625,100.0,0,$\widetilde{A}_{G_0}$,hybrid
R-HSA-388844,0.0021126666869508036,101.0,0,$\widetilde{A}_{G_0}$,hybrid
R-HSA-392170,0.002102639089459258,102.0,0,$\widetilde{A}_{G_0}$,hybrid
R-HSA-451927,0.002099508511845328,103.0,0,$\widetilde{A}_{G_0}$,hybrid
R-HSA-5654726,0.0020974075144827397,104.0,0,$\widetilde{A}_{G_0}$,hybrid
R-HSA-418990,0.0020935111206418526,105.0,0,$\widetilde{A}_{G_0}$,hybrid
R-HSA-8964315,0.002092212182694456,106.0,0,$\widetilde{A}_{G_0}$,hybrid
R-HSA-1296071,0.0020867303346830783,107.0,0,$\widetilde{A}_{G_0}$,hybrid
R-HSA-1296065,0.002086730334683078,108.0,0,$\widetilde{A}_{G_0}$,hybrid
R-HSA-512988,0.0020834754840990317,109.0,0,$\widetilde{A}_{G_0}$,hybrid
R-HSA-392518,0.002069929315919176,110.0,0,$\widetilde{A}_{G_0}$,hybrid
R-HSA-997272,0.002064693761277247,112.0,0,$\widetilde{A}_{G_0}$,hybrid
R-HSA-1296059,0.002064693761277247,112.0,0,$\widetilde{A}_{G_0}$,hybrid
R-HSA-1296041,0.002064693761277247,112.0,0,$\widetilde{A}_{G_0}$,hybrid
R-HSA-8851805,0.002061035648057715,114.0,0,$\widetilde{A}_{G_0}$,hybrid
R-HSA-9682385,0.0020586115715524552,115.0,0,$\widetilde{A}_{G_0}$,hybrid
R-HSA-5655302,0.0020584552987945037,116.0,0,$\widetilde{A}_{G_0}$,hybrid
R-HSA-180292,0.0020515540983039667,117.0,0,$\widetilde{A}_{G_0}$,hybrid
R-HSA-8964616,0.00204838471031121,118.0,0,$\widetilde{A}_{G_0}$,hybrid
R-HSA-389359,0.002029449688190071,119.0,0,$\widetilde{A}_{G_0}$,hybrid
R-HSA-112310,0.002016777649170596,120.0,0,$\widetilde{A}_{G_0}$,hybrid
R-HSA-5654727,0.0020082127623257894,121.0,0,$\widetilde{A}_{G_0}$,hybrid
R-HSA-420092,0.002006049844202026,122.0,0,$\widetilde{A}_{G_0}$,hybrid
R-HSA-5654699,0.0019990628500039585,123.0,0,$\widetilde{A}_{G_0}$,hybrid
R-HSA-912631,0.0019980355419309467,124.0,0,$\widetilde{A}_{G_0}$,hybrid
R-HSA-1839117,0.001989440838130624,125.0,0,$\widetilde{A}_{G_0}$,hybrid
R-HSA-456926,0.0019894266186005227,126.0,0,$\widetilde{A}_{G_0}$,hybrid
R-HSA-1433557,0.0019860983617409913,127.0,0,$\widetilde{A}_{G_0}$,hybrid
R-HSA-190236,0.00198374576414646,128.0,0,$\widetilde{A}_{G_0}$,hybrid
R-HSA-1963642,0.0019717061173889676,129.0,0,$\widetilde{A}_{G_0}$,hybrid
R-HSA-9607240,0.0019703434766075584,130.0,0,$\widetilde{A}_{G_0}$,hybrid
R-HSA-1266695,0.001970326787635045,131.0,0,$\widetilde{A}_{G_0}$,hybrid
R-HSA-390450,0.001964965650120366,132.0,0,$\widetilde{A}_{G_0}$,hybrid
R-HSA-179812,0.001953399783206424,133.0,0,$\widetilde{A}_{G_0}$,hybrid
R-HSA-391160,0.0019219049713525757,134.0,0,$\widetilde{A}_{G_0}$,hybrid
R-HSA-5260271,0.001916477701041103,135.0,0,$\widetilde{A}_{G_0}$,hybrid
R-HSA-5602358,0.0019164777010411025,136.0,0,$\widetilde{A}_{G_0}$,hybrid
R-HSA-977443,0.0019141912909335596,137.5,0,$\widetilde{A}_{G_0}$,hybrid
R-HSA-991365,0.0019141912909335596,137.5,0,$\widetilde{A}_{G_0}$,hybrid
R-HSA-977444,0.0019141912909335593,139.0,0,$\widetilde{A}_{G_0}$,hybrid
R-HSA-912694,0.001910611891181552,140.0,0,$\widetilde{A}_{G_0}$,hybrid
R-HSA-400042,0.0019044821708620145,141.0,0,$\widetilde{A}_{G_0}$,hybrid
R-HSA-6788467,0.0018928749652127358,142.0,0,$\widetilde{A}_{G_0}$,hybrid
R-HSA-8853659,0.001876516735738796,143.0,0,$\widetilde{A}_{G_0}$,hybrid
R-HSA-5654736,0.0018705248058489138,144.0,0,$\widetilde{A}_{G_0}$,hybrid
R-HSA-9662360,0.0018393679600689438,145.0,0,$\widetilde{A}_{G_0}$,hybrid
R-HSA-9665686,0.0018184415638756877,146.0,0,$\widetilde{A}_{G_0}$,hybrid
R-HSA-9659379,0.0018074267085442762,147.0,0,$\widetilde{A}_{G_0}$,hybrid
R-HSA-1433559,0.0017973174317320662,148.0,0,$\widetilde{A}_{G_0}$,hybrid
R-HSA-114604,0.0017863300082412467,149.0,0,$\widetilde{A}_{G_0}$,hybrid
R-HSA-877312,0.0017781762194929377,150.0,0,$\widetilde{A}_{G_0}$,hybrid
R-HSA-881907,0.0017744778209860756,151.0,0,$\widetilde{A}_{G_0}$,hybrid
R-HSA-8984722,0.0017672712904626825,152.0,0,$\widetilde{A}_{G_0}$,hybrid
R-HSA-9020956,0.00176445108827267,153.0,0,$\widetilde{A}_{G_0}$,hybrid
R-HSA-112399,0.0017640289070008598,154.0,0,$\widetilde{A}_{G_0}$,hybrid
R-HSA-5357769,0.0017589544126093027,155.0,0,$\widetilde{A}_{G_0}$,hybrid
R-HSA-421270,0.0017554766311773282,156.0,0,$\widetilde{A}_{G_0}$,hybrid
R-HSA-74752,0.0017420240009961567,157.0,0,$\widetilde{A}_{G_0}$,hybrid
R-HSA-74751,0.0017420240009961563,158.0,0,$\widetilde{A}_{G_0}$,hybrid
R-HSA-6783589,0.001741941738221179,159.0,0,$\widetilde{A}_{G_0}$,hybrid
R-HSA-1963640,0.0017413983397639354,160.0,0,$\widetilde{A}_{G_0}$,hybrid
R-HSA-1839124,0.0017413811668545033,161.0,0,$\widetilde{A}_{G_0}$,hybrid
R-HSA-9674555,0.001740131183743387,162.0,0,$\widetilde{A}_{G_0}$,hybrid
R-HSA-186797,0.001739783021767079,163.0,0,$\widetilde{A}_{G_0}$,hybrid
R-HSA-2871796,0.0017321353746327505,164.0,0,$\widetilde{A}_{G_0}$,hybrid
R-HSA-442742,0.0017273456303510228,165.0,0,$\widetilde{A}_{G_0}$,hybrid
R-HSA-390466,0.0017256831914592235,166.0,0,$\widetilde{A}_{G_0}$,hybrid
R-HSA-983695,0.00171798865088547,167.0,0,$\widetilde{A}_{G_0}$,hybrid
R-HSA-174084,0.0017103914085265588,168.0,0,$\widetilde{A}_{G_0}$,hybrid
R-HSA-438066,0.0017081228089848384,169.0,0,$\widetilde{A}_{G_0}$,hybrid
R-HSA-2871809,0.001702859026987755,170.0,0,$\widetilde{A}_{G_0}$,hybrid
R-HSA-209543,0.0016926660382221156,171.0,0,$\widetilde{A}_{G_0}$,hybrid
R-HSA-2428924,0.001684130399486078,172.0,0,$\widetilde{A}_{G_0}$,hybrid
R-HSA-2404192,0.0016841303994860777,173.0,0,$\widetilde{A}_{G_0}$,hybrid
R-HSA-9009391,0.0016761513831338344,174.0,0,$\widetilde{A}_{G_0}$,hybrid
R-HSA-5173105,0.0016727301697770402,175.0,0,$\widetilde{A}_{G_0}$,hybrid
R-HSA-1474290,0.0016514562638216895,176.0,0,$\widetilde{A}_{G_0}$,hybrid
R-HSA-2428928,0.001637953320795829,177.0,0,$\widetilde{A}_{G_0}$,hybrid
R-HSA-198933,0.0016343416256460119,178.0,0,$\widetilde{A}_{G_0}$,hybrid
R-HSA-6811558,0.0016302933590893718,179.0,0,$\widetilde{A}_{G_0}$,hybrid
R-HSA-419037,0.001621374226097651,180.0,0,$\widetilde{A}_{G_0}$,hybrid
R-HSA-141405,0.0016198536025291812,181.5,0,$\widetilde{A}_{G_0}$,hybrid
R-HSA-141430,0.0016198536025291812,181.5,0,$\widetilde{A}_{G_0}$,hybrid
R-HSA-391251,0.0016190983940246855,183.0,0,$\widetilde{A}_{G_0}$,hybrid
R-HSA-373760,0.0016067105021544846,184.0,0,$\widetilde{A}_{G_0}$,hybrid
R-HSA-392451,0.0016015767894466263,185.0,0,$\widetilde{A}_{G_0}$,hybrid
R-HSA-1250196,0.0015983436830943223,186.0,0,$\widetilde{A}_{G_0}$,hybrid
R-HSA-9664323,0.0015886554123542007,187.0,0,$\widetilde{A}_{G_0}$,hybrid
R-HSA-164940,0.0015827861788630568,188.0,0,$\widetilde{A}_{G_0}$,hybrid
R-HSA-399719,0.0015668979638095901,189.5,0,$\widetilde{A}_{G_0}$,hybrid
R-HSA-399721,0.0015668979638095901,189.5,0,$\widetilde{A}_{G_0}$,hybrid
R-HSA-1442490,0.0015632088426420455,191.0,0,$\widetilde{A}_{G_0}$,hybrid
R-HSA-397795,0.0015538350903431604,192.0,0,$\widetilde{A}_{G_0}$,hybrid
R-HSA-354194,0.001553019963582458,193.0,0,$\widetilde{A}_{G_0}$,hybrid
R-HSA-9620244,0.0015464082666743607,194.0,0,$\widetilde{A}_{G_0}$,hybrid
R-HSA-69017,0.001543875477407028,195.0,0,$\widetilde{A}_{G_0}$,hybrid
R-HSA-8957275,0.0015429774566877417,196.0,0,$\widetilde{A}_{G_0}$,hybrid
R-HSA-389356,0.001534400460243493,197.0,0,$\widetilde{A}_{G_0}$,hybrid
R-HSA-174178,0.0015233056721967394,198.0,0,$\widetilde{A}_{G_0}$,hybrid
R-HSA-199418,0.0015184007563163028,199.0,0,$\widetilde{A}_{G_0}$,hybrid
R-HSA-193639,0.001515562728899832,200.0,0,$\widetilde{A}_{G_0}$,hybrid
R-HSA-176407,0.001512670014673319,201.0,0,$\widetilde{A}_{G_0}$,hybrid
R-HSA-209560,0.0015097791237626784,202.0,0,$\widetilde{A}_{G_0}$,hybrid
R-HSA-177929,0.0014988920966220872,203.0,0,$\widetilde{A}_{G_0}$,hybrid
R-HSA-176408,0.0014981524086489244,204.0,0,$\widetilde{A}_{G_0}$,hybrid
R-HSA-9705462,0.0014977331724555913,205.0,0,$\widetilde{A}_{G_0}$,hybrid
R-HSA-109704,0.0014782563142217685,206.0,0,$\widetilde{A}_{G_0}$,hybrid
R-HSA-1227986,0.0014714622905287237,207.0,0,$\widetilde{A}_{G_0}$,hybrid
R-HSA-179409,0.001467102278946956,208.0,0,$\widetilde{A}_{G_0}$,hybrid
R-HSA-9648002,0.0014631815734052166,209.0,0,$\widetilde{A}_{G_0}$,hybrid
R-HSA-389960,0.0014555778821351633,210.0,0,$\widetilde{A}_{G_0}$,hybrid
R-HSA-167044,0.0014506187241488868,211.0,0,$\widetilde{A}_{G_0}$,hybrid
R-HSA-9617324,0.0014422348789852283,212.0,0,$\widetilde{A}_{G_0}$,hybrid
R-HSA-181438,0.0014415947406113195,213.0,0,$\widetilde{A}_{G_0}$,hybrid
R-HSA-168179,0.0014415947406113193,214.0,0,$\widetilde{A}_{G_0}$,hybrid
R-HSA-373753,0.0014339417628700041,215.0,0,$\widetilde{A}_{G_0}$,hybrid
R-HSA-432142,0.0014307981399792654,216.0,0,$\widetilde{A}_{G_0}$,hybrid
R-HSA-174154,0.0014281277947097346,217.0,0,$\widetilde{A}_{G_0}$,hybrid
R-HSA-2151209,0.001420138540603692,218.0,0,$\widetilde{A}_{G_0}$,hybrid
R-HSA-1650814,0.0014187945627391698,219.0,0,$\widetilde{A}_{G_0}$,hybrid
R-HSA-176412,0.0014161652789419128,220.0,0,$\widetilde{A}_{G_0}$,hybrid
R-HSA-5694530,0.0014134160640023536,221.0,0,$\widetilde{A}_{G_0}$,hybrid
R-HSA-2219530,0.0014109583524020007,222.0,0,$\widetilde{A}_{G_0}$,hybrid
R-HSA-453276,0.0014070556983250579,223.5,0,$\widetilde{A}_{G_0}$,hybrid
R-HSA-174143,0.0014070556983250579,223.5,0,$\widetilde{A}_{G_0}$,hybrid
R-HSA-1592389,0.0014058958550152646,225.0,0,$\widetilde{A}_{G_0}$,hybrid
R-HSA-174184,0.0014047963223685145,226.0,0,$\widetilde{A}_{G_0}$,hybrid
R-HSA-179419,0.001395647226908662,227.0,0,$\widetilde{A}_{G_0}$,hybrid
R-HSA-446107,0.001391128066041106,228.0,0,$\widetilde{A}_{G_0}$,hybrid
R-HSA-422356,0.001382906874361022,229.0,0,$\widetilde{A}_{G_0}$,hybrid
R-HSA-2129379,0.0013803682108036088,230.0,0,$\widetilde{A}_{G_0}$,hybrid
R-HSA-354192,0.00137963818157624,231.0,0,$\widetilde{A}_{G_0}$,hybrid
R-HSA-76009,0.0013796381815762396,232.0,0,$\widetilde{A}_{G_0}$,hybrid
R-HSA-164952,0.0013776761617242778,233.0,0,$\widetilde{A}_{G_0}$,hybrid
R-HSA-176409,0.0013752039659261424,234.0,0,$\widetilde{A}_{G_0}$,hybrid
R-HSA-8875360,0.001368372214252136,235.0,0,$\widetilde{A}_{G_0}$,hybrid
R-HSA-176814,0.001359218027049691,236.0,0,$\widetilde{A}_{G_0}$,hybrid
R-HSA-8875555,0.001349818628440002,237.0,0,$\widetilde{A}_{G_0}$,hybrid
R-HSA-164938,0.001349732334258349,238.0,0,$\widetilde{A}_{G_0}$,hybrid
R-HSA-166058,0.0013475513875051198,239.0,0,$\widetilde{A}_{G_0}$,hybrid
R-HSA-168188,0.0013475513875051194,240.0,0,$\widetilde{A}_{G_0}$,hybrid
R-HSA-381676,0.0013467023060166293,241.0,0,$\widetilde{A}_{G_0}$,hybrid
R-HSA-418597,0.00134541892401868,242.0,0,$\widetilde{A}_{G_0}$,hybrid
R-HSA-933543,0.0013437304712080233,243.0,0,$\widetilde{A}_{G_0}$,hybrid
R-HSA-418885,0.0013376117125873598,244.0,0,$\widetilde{A}_{G_0}$,hybrid
R-HSA-216083,0.0013344237047308613,245.0,0,$\widetilde{A}_{G_0}$,hybrid
R-HSA-975144,0.0013245964092943995,246.5,0,$\widetilde{A}_{G_0}$,hybrid
R-HSA-937039,0.0013245964092943995,246.5,0,$\widetilde{A}_{G_0}$,hybrid
R-HSA-9706369,0.0013241573767436739,248.0,0,$\widetilde{A}_{G_0}$,hybrid
R-HSA-3772470,0.0013206426655427012,249.0,0,$\widetilde{A}_{G_0}$,hybrid
R-HSA-1566948,0.0013195459176134617,250.0,0,$\widetilde{A}_{G_0}$,hybrid
R-HSA-438064,0.0013113520645011273,251.0,0,$\widetilde{A}_{G_0}$,hybrid
R-HSA-168927,0.0012997063042558524,252.0,0,$\widetilde{A}_{G_0}$,hybrid
R-HSA-373076,0.0012887537720968386,253.0,0,$\widetilde{A}_{G_0}$,hybrid
R-HSA-9687136,0.001285057393568509,254.0,0,$\widetilde{A}_{G_0}$,hybrid
R-HSA-1474228,0.0012743470052268958,255.0,0,$\widetilde{A}_{G_0}$,hybrid
R-HSA-450321,0.0012728430696771467,256.0,0,$\widetilde{A}_{G_0}$,hybrid
R-HSA-1222556,0.001272715711988155,257.0,0,$\widetilde{A}_{G_0}$,hybrid
R-HSA-442755,0.0012672329103226283,258.0,0,$\widetilde{A}_{G_0}$,hybrid
R-HSA-69052,0.0012659398670113004,259.0,0,$\widetilde{A}_{G_0}$,hybrid
R-HSA-389513,0.0012605952991607018,260.0,0,$\widetilde{A}_{G_0}$,hybrid
R-HSA-8876384,0.0012420942343261527,261.0,0,$\widetilde{A}_{G_0}$,hybrid
R-HSA-9664433,0.0012409938365028823,262.5,0,$\widetilde{A}_{G_0}$,hybrid
R-HSA-9662851,0.0012409938365028823,262.5,0,$\widetilde{A}_{G_0}$,hybrid
R-HSA-445989,0.0012397506067640303,264.0,0,$\widetilde{A}_{G_0}$,hybrid
R-HSA-177504,0.0012387223467086842,265.0,0,$\widetilde{A}_{G_0}$,hybrid
R-HSA-77387,0.0012383076083995145,266.0,0,$\widetilde{A}_{G_0}$,hybrid
R-HSA-187687,0.0012363669966879106,267.0,0,$\widetilde{A}_{G_0}$,hybrid
R-HSA-9660821,0.0012306997135523275,268.0,0,$\widetilde{A}_{G_0}$,hybrid
R-HSA-5632684,0.0012221470742406289,269.0,0,$\widetilde{A}_{G_0}$,hybrid
R-HSA-6804115,0.001221808491717175,270.0,0,$\widetilde{A}_{G_0}$,hybrid
R-HSA-5140745,0.0012189547623550003,271.0,0,$\widetilde{A}_{G_0}$,hybrid
R-HSA-1810476,0.0012176972447409398,272.0,0,$\widetilde{A}_{G_0}$,hybrid
R-HSA-975138,0.0012174715103936801,273.0,0,$\widetilde{A}_{G_0}$,hybrid
R-HSA-168181,0.0012145204555269705,274.0,0,$\widetilde{A}_{G_0}$,hybrid
R-HSA-168138,0.00121452045552697,275.0,0,$\widetilde{A}_{G_0}$,hybrid
R-HSA-975155,0.0012145204555269698,276.0,0,$\widetilde{A}_{G_0}$,hybrid
R-HSA-9664417,0.0012133355644455234,278.0,0,$\widetilde{A}_{G_0}$,hybrid
R-HSA-9664407,0.0012133355644455234,278.0,0,$\widetilde{A}_{G_0}$,hybrid
R-HSA-9664422,0.0012133355644455234,278.0,0,$\widetilde{A}_{G_0}$,hybrid
R-HSA-418555,0.0012103836395530737,280.0,0,$\widetilde{A}_{G_0}$,hybrid
R-HSA-193648,0.0012102906900322405,281.0,0,$\widetilde{A}_{G_0}$,hybrid
R-HSA-2029480,0.0012085223161042754,282.0,0,$\widetilde{A}_{G_0}$,hybrid
R-HSA-2029482,0.001207220753351306,283.0,0,$\widetilde{A}_{G_0}$,hybrid
R-HSA-937061,0.001205909662869631,284.0,0,$\widetilde{A}_{G_0}$,hybrid
R-HSA-166166,0.0012059096628696305,285.0,0,$\widetilde{A}_{G_0}$,hybrid
R-HSA-69416,0.0012012850499682657,287.0,0,$\widetilde{A}_{G_0}$,hybrid
R-HSA-5218900,0.0012012850499682657,287.0,0,$\widetilde{A}_{G_0}$,hybrid
R-HSA-3371378,0.0012012850499682657,287.0,0,$\widetilde{A}_{G_0}$,hybrid
R-HSA-389957,0.0011977367773887877,289.0,0,$\widetilde{A}_{G_0}$,hybrid
R-HSA-6804756,0.0011901895471200666,290.0,0,$\widetilde{A}_{G_0}$,hybrid
R-HSA-2559582,0.0011871303466214215,291.0,0,$\widetilde{A}_{G_0}$,hybrid
R-HSA-389958,0.0011866759001864483,292.0,0,$\widetilde{A}_{G_0}$,hybrid
R-HSA-450302,0.0011771471672993123,293.0,0,$\widetilde{A}_{G_0}$,hybrid
R-HSA-6807004,0.0011765526542343156,294.0,0,$\widetilde{A}_{G_0}$,hybrid
R-HSA-1606322,0.0011759153870786257,295.0,0,$\widetilde{A}_{G_0}$,hybrid
R-HSA-170968,0.0011674840085417336,296.0,0,$\widetilde{A}_{G_0}$,hybrid
R-HSA-2132295,0.001156508085237098,297.0,0,$\widetilde{A}_{G_0}$,hybrid
R-HSA-163685,0.0011533593821007283,298.0,0,$\widetilde{A}_{G_0}$,hybrid
R-HSA-4791275,0.0011507349075479082,299.0,0,$\widetilde{A}_{G_0}$,hybrid
R-HSA-416476,0.0011430998693836554,300.0,0,$\widetilde{A}_{G_0}$,hybrid
R-HSA-8964038,0.0011413595944420251,301.0,0,$\widetilde{A}_{G_0}$,hybrid
R-HSA-5099900,0.0011408244514854815,302.0,0,$\widetilde{A}_{G_0}$,hybrid
R-HSA-5626467,0.001135691521803445,303.0,0,$\widetilde{A}_{G_0}$,hybrid
R-HSA-168176,0.0011288835158031636,304.5,0,$\widetilde{A}_{G_0}$,hybrid
R-HSA-975871,0.0011288835158031636,304.5,0,$\widetilde{A}_{G_0}$,hybrid
R-HSA-168142,0.0011288835158031634,306.0,0,$\widetilde{A}_{G_0}$,hybrid
R-HSA-174048,0.0011288381723882157,307.0,0,$\widetilde{A}_{G_0}$,hybrid
R-HSA-2559585,0.001125300587964619,308.0,0,$\widetilde{A}_{G_0}$,hybrid
R-HSA-373752,0.0011232446143131691,309.0,0,$\widetilde{A}_{G_0}$,hybrid
R-HSA-446728,0.001122469482862845,310.0,0,$\widetilde{A}_{G_0}$,hybrid
R-HSA-372708,0.0011221939455283692,311.0,0,$\widetilde{A}_{G_0}$,hybrid
R-HSA-2219528,0.0011114895333563714,312.0,0,$\widetilde{A}_{G_0}$,hybrid
R-HSA-169893,0.0010992251150621693,313.0,0,$\widetilde{A}_{G_0}$,hybrid
R-HSA-933541,0.0010982736771708605,314.0,0,$\widetilde{A}_{G_0}$,hybrid
R-HSA-9609736,0.0010899778353891435,315.0,0,$\widetilde{A}_{G_0}$,hybrid
R-HSA-75035,0.0010851766023301963,316.0,0,$\widetilde{A}_{G_0}$,hybrid
R-HSA-428540,0.0010823323748976274,317.0,0,$\widetilde{A}_{G_0}$,hybrid
R-HSA-2682334,0.0010808222745847826,318.0,0,$\widetilde{A}_{G_0}$,hybrid
R-HSA-69166,0.0010746348249043177,319.0,0,$\widetilde{A}_{G_0}$,hybrid
R-HSA-445144,0.0010734527441167891,320.0,0,$\widetilde{A}_{G_0}$,hybrid
R-HSA-168638,0.0010627235658393645,321.0,0,$\widetilde{A}_{G_0}$,hybrid
R-HSA-373080,0.0010625760577430204,322.0,0,$\widetilde{A}_{G_0}$,hybrid
R-HSA-9673324,0.0010605702881068555,323.5,0,$\widetilde{A}_{G_0}$,hybrid
R-HSA-9664420,0.0010605702881068555,323.5,0,$\widetilde{A}_{G_0}$,hybrid
R-HSA-389357,0.0010601092183409738,325.0,0,$\widetilde{A}_{G_0}$,hybrid
R-HSA-9663891,0.0010472573722004846,326.0,0,$\widetilde{A}_{G_0}$,hybrid
R-HSA-182971,0.0010379009531162513,327.0,0,$\widetilde{A}_{G_0}$,hybrid
R-HSA-201451,0.0010368488090630246,328.0,0,$\widetilde{A}_{G_0}$,hybrid
R-HSA-69183,0.0010295964225948795,329.0,0,$\widetilde{A}_{G_0}$,hybrid
R-HSA-202670,0.001027418079935606,330.0,0,$\widetilde{A}_{G_0}$,hybrid
R-HSA-9619483,0.0010264387624241342,331.0,0,$\widetilde{A}_{G_0}$,hybrid
R-HSA-5610787,0.001024441739736114,332.0,0,$\widetilde{A}_{G_0}$,hybrid
R-HSA-69231,0.001014300858925642,333.0,0,$\widetilde{A}_{G_0}$,hybrid
R-HSA-69236,0.0010143008589256412,334.0,0,$\widetilde{A}_{G_0}$,hybrid
R-HSA-5621575,0.001006190820105665,335.0,0,$\widetilde{A}_{G_0}$,hybrid
R-HSA-1445148,0.0010040249271278002,336.0,0,$\widetilde{A}_{G_0}$,hybrid
R-HSA-399954,0.0010036201225633304,337.0,0,$\widetilde{A}_{G_0}$,hybrid
R-HSA-1660499,0.0010021603089482138,338.0,0,$\widetilde{A}_{G_0}$,hybrid
R-HSA-399955,0.0010005811384384232,339.0,0,$\widetilde{A}_{G_0}$,hybrid
R-HSA-4641262,0.00099363641480304,340.0,0,$\widetilde{A}_{G_0}$,hybrid
R-HSA-2468052,0.0009930018458084173,341.0,0,$\widetilde{A}_{G_0}$,hybrid
R-HSA-3000178,0.0009905661275723442,342.0,0,$\widetilde{A}_{G_0}$,hybrid
R-HSA-447115,0.000985057892820865,343.0,0,$\widetilde{A}_{G_0}$,hybrid
R-HSA-9646399,0.0009843974283661125,344.0,0,$\widetilde{A}_{G_0}$,hybrid
R-HSA-450294,0.000981419183967824,345.0,0,$\widetilde{A}_{G_0}$,hybrid
R-HSA-4420097,0.000978708433332898,346.0,0,$\widetilde{A}_{G_0}$,hybrid
R-HSA-111885,0.0009732153584685591,347.0,0,$\widetilde{A}_{G_0}$,hybrid
R-HSA-168643,0.0009689799723332406,348.0,0,$\widetilde{A}_{G_0}$,hybrid
R-HSA-5218921,0.0009685421809959263,349.0,0,$\widetilde{A}_{G_0}$,hybrid
R-HSA-77075,0.0009674038952016116,350.0,0,$\widetilde{A}_{G_0}$,hybrid
R-HSA-167160,0.0009674038952016114,351.0,0,$\widetilde{A}_{G_0}$,hybrid
R-HSA-983170,0.0009660030012360234,352.0,0,$\widetilde{A}_{G_0}$,hybrid
R-HSA-917977,0.0009650272931006919,353.0,0,$\widetilde{A}_{G_0}$,hybrid
R-HSA-168164,0.0009648325397768119,354.0,0,$\widetilde{A}_{G_0}$,hybrid
R-HSA-933542,0.0009647065266649955,355.0,0,$\widetilde{A}_{G_0}$,hybrid
R-HSA-6785631,0.0009615154874587174,356.0,0,$\widetilde{A}_{G_0}$,hybrid
R-HSA-5635838,0.000958650343917701,357.0,0,$\widetilde{A}_{G_0}$,hybrid
R-HSA-202424,0.0009560644056011391,358.0,0,$\widetilde{A}_{G_0}$,hybrid
R-HSA-202733,0.0009533874668490453,359.0,0,$\widetilde{A}_{G_0}$,hybrid
R-HSA-6794361,0.0009521862321322539,360.0,0,$\widetilde{A}_{G_0}$,hybrid
R-HSA-8874081,0.0009505896863441112,361.0,0,$\widetilde{A}_{G_0}$,hybrid
R-HSA-445355,0.0009500276289353616,362.0,0,$\widetilde{A}_{G_0}$,hybrid
R-HSA-390471,0.0009490716902763341,363.0,0,$\widetilde{A}_{G_0}$,hybrid
R-HSA-448424,0.0009468191082315046,364.0,0,$\widetilde{A}_{G_0}$,hybrid
R-HSA-6783783,0.0009385325246389158,365.0,0,$\widetilde{A}_{G_0}$,hybrid
R-HSA-68884,0.0009379295858142701,366.0,0,$\widetilde{A}_{G_0}$,hybrid
R-HSA-1236974,0.0009374384936128355,367.0,0,$\widetilde{A}_{G_0}$,hybrid
R-HSA-9013026,0.0009342769752270972,368.0,0,$\widetilde{A}_{G_0}$,hybrid
R-HSA-5213460,0.0009260067981777632,369.0,0,$\widetilde{A}_{G_0}$,hybrid
R-HSA-5675482,0.0009260067981777631,370.0,0,$\widetilde{A}_{G_0}$,hybrid
R-HSA-72086,0.0009236356878112861,371.0,0,$\widetilde{A}_{G_0}$,hybrid
R-HSA-380972,0.0009236136357672201,372.0,0,$\widetilde{A}_{G_0}$,hybrid
R-HSA-416482,0.0009235592067275938,373.0,0,$\widetilde{A}_{G_0}$,hybrid
R-HSA-918233,0.0009218270530170319,374.0,0,$\widetilde{A}_{G_0}$,hybrid
R-HSA-193692,0.0009184187917526935,375.0,0,$\widetilde{A}_{G_0}$,hybrid
R-HSA-5357786,0.0009145122050592656,376.0,0,$\widetilde{A}_{G_0}$,hybrid
R-HSA-2995383,0.0009124634227423734,377.0,0,$\widetilde{A}_{G_0}$,hybrid
R-HSA-2173782,0.0009090464854716171,378.0,0,$\widetilde{A}_{G_0}$,hybrid
R-HSA-1500931,0.000906947545571926,379.0,0,$\widetilde{A}_{G_0}$,hybrid
R-HSA-5684264,0.000906043589773544,380.0,0,$\widetilde{A}_{G_0}$,hybrid
R-HSA-9656223,0.0009041550779424642,381.0,0,$\widetilde{A}_{G_0}$,hybrid
R-HSA-9013106,0.0008952337082965172,382.0,0,$\widetilde{A}_{G_0}$,hybrid
R-HSA-4839735,0.0008950254375945685,385.5,0,$\widetilde{A}_{G_0}$,hybrid
R-HSA-4839748,0.0008950254375945685,385.5,0,$\widetilde{A}_{G_0}$,hybrid
R-HSA-5467337,0.0008950254375945685,385.5,0,$\widetilde{A}_{G_0}$,hybrid
R-HSA-5467340,0.0008950254375945685,385.5,0,$\widetilde{A}_{G_0}$,hybrid
R-HSA-5467348,0.0008950254375945685,385.5,0,$\widetilde{A}_{G_0}$,hybrid
R-HSA-4839744,0.0008950254375945685,385.5,0,$\widetilde{A}_{G_0}$,hybrid
R-HSA-5576891,0.0008934887747565507,389.0,0,$\widetilde{A}_{G_0}$,hybrid
R-HSA-171007,0.0008932152752812335,390.0,0,$\widetilde{A}_{G_0}$,hybrid
R-HSA-9013700,0.0008911380392323089,391.0,0,$\widetilde{A}_{G_0}$,hybrid
R-HSA-432720,0.0008878777496440265,392.0,0,$\widetilde{A}_{G_0}$,hybrid
R-HSA-174495,0.0008815213224909484,394.0,0,$\widetilde{A}_{G_0}$,hybrid
R-HSA-175474,0.0008815213224909484,394.0,0,$\widetilde{A}_{G_0}$,hybrid
R-HSA-174490,0.0008815213224909484,394.0,0,$\widetilde{A}_{G_0}$,hybrid
R-HSA-1236975,0.000880454774190993,396.0,0,$\widetilde{A}_{G_0}$,hybrid
R-HSA-156711,0.0008745285998316093,397.0,0,$\widetilde{A}_{G_0}$,hybrid
R-HSA-9020702,0.0008727590208329738,398.0,0,$\widetilde{A}_{G_0}$,hybrid
R-HSA-5693554,0.0008669416248240636,399.0,0,$\widetilde{A}_{G_0}$,hybrid
R-HSA-6802946,0.0008669175298109007,400.5,0,$\widetilde{A}_{G_0}$,hybrid
R-HSA-6802949,0.0008669175298109007,400.5,0,$\widetilde{A}_{G_0}$,hybrid
R-HSA-9649948,0.0008669175298109005,402.5,0,$\widetilde{A}_{G_0}$,hybrid
R-HSA-6802955,0.0008669175298109005,402.5,0,$\widetilde{A}_{G_0}$,hybrid
R-HSA-5625900,0.0008603499823602586,404.0,0,$\widetilde{A}_{G_0}$,hybrid
R-HSA-5676594,0.0008597551800088731,405.0,0,$\widetilde{A}_{G_0}$,hybrid
R-HSA-8934903,0.0008586895528905258,406.0,0,$\widetilde{A}_{G_0}$,hybrid
R-HSA-399956,0.0008559135923251739,407.0,0,$\widetilde{A}_{G_0}$,hybrid
R-HSA-5357956,0.0008551053579629403,408.0,0,$\widetilde{A}_{G_0}$,hybrid
R-HSA-3000157,0.0008548300072571921,409.0,0,$\widetilde{A}_{G_0}$,hybrid
R-HSA-113418,0.0008480441053016178,410.0,0,$\widetilde{A}_{G_0}$,hybrid
R-HSA-167158,0.0008480441053016174,411.0,0,$\widetilde{A}_{G_0}$,hybrid
R-HSA-8849471,0.0008464790129190552,412.0,0,$\widetilde{A}_{G_0}$,hybrid
R-HSA-196025,0.0008464091011418629,413.0,0,$\widetilde{A}_{G_0}$,hybrid
R-HSA-4090294,0.0008447345800307625,414.0,0,$\widetilde{A}_{G_0}$,hybrid
R-HSA-3928664,0.0008445870130200238,415.0,0,$\widetilde{A}_{G_0}$,hybrid
R-HSA-4839743,0.0008440017447303758,418.5,0,$\widetilde{A}_{G_0}$,hybrid
R-HSA-5339716,0.0008440017447303758,418.5,0,$\widetilde{A}_{G_0}$,hybrid
R-HSA-5358747,0.0008440017447303758,418.5,0,$\widetilde{A}_{G_0}$,hybrid
R-HSA-5358749,0.0008440017447303758,418.5,0,$\widetilde{A}_{G_0}$,hybrid
R-HSA-5358752,0.0008440017447303758,418.5,0,$\widetilde{A}_{G_0}$,hybrid
R-HSA-5358751,0.0008440017447303758,418.5,0,$\widetilde{A}_{G_0}$,hybrid
R-HSA-5668914,0.000841938229760214,422.0,0,$\widetilde{A}_{G_0}$,hybrid
R-HSA-5357905,0.0008408785291690767,423.0,0,$\widetilde{A}_{G_0}$,hybrid
R-HSA-69186,0.0008406162263422975,424.0,0,$\widetilde{A}_{G_0}$,hybrid
R-HSA-6802952,0.0008371862344283052,425.0,0,$\widetilde{A}_{G_0}$,hybrid
R-HSA-204005,0.0008367800651683811,426.0,0,$\widetilde{A}_{G_0}$,hybrid
R-HSA-186712,0.0008302898866884111,427.0,0,$\widetilde{A}_{G_0}$,hybrid
R-HSA-9013404,0.0008295300860079923,428.0,0,$\widetilde{A}_{G_0}$,hybrid
R-HSA-6802948,0.0008278737598208009,429.0,0,$\widetilde{A}_{G_0}$,hybrid
R-HSA-383280,0.0008275149541573099,430.0,0,$\widetilde{A}_{G_0}$,hybrid
R-HSA-5362517,0.0008247551283834977,431.0,0,$\widetilde{A}_{G_0}$,hybrid
R-HSA-3928663,0.0008237043621661403,432.0,0,$\widetilde{A}_{G_0}$,hybrid
R-HSA-6804760,0.0008231000221781776,433.0,0,$\widetilde{A}_{G_0}$,hybrid
R-HSA-9013420,0.0008230247591890078,434.0,0,$\widetilde{A}_{G_0}$,hybrid
R-HSA-450341,0.0008228261318071924,435.0,0,$\widetilde{A}_{G_0}$,hybrid
R-HSA-9013408,0.0008176651226258905,436.0,0,$\widetilde{A}_{G_0}$,hybrid
R-HSA-111447,0.0008169454904145339,437.0,0,$\widetilde{A}_{G_0}$,hybrid
R-HSA-205043,0.0008104616680511918,438.0,0,$\widetilde{A}_{G_0}$,hybrid
R-HSA-5689896,0.0008073673410901799,439.0,0,$\widetilde{A}_{G_0}$,hybrid
R-HSA-389977,0.0008070642032102206,440.0,0,$\widetilde{A}_{G_0}$,hybrid
R-HSA-2465910,0.0008060322565747009,441.0,0,$\widetilde{A}_{G_0}$,hybrid
R-HSA-190873,0.0008056840134945428,442.0,0,$\widetilde{A}_{G_0}$,hybrid
R-HSA-9035034,0.0008023719888059019,443.0,0,$\widetilde{A}_{G_0}$,hybrid
R-HSA-9022692,0.0008009362632275577,444.0,0,$\widetilde{A}_{G_0}$,hybrid
R-HSA-112043,0.000796276631942375,445.0,0,$\widetilde{A}_{G_0}$,hybrid
R-HSA-69205,0.0007957746195828317,446.0,0,$\widetilde{A}_{G_0}$,hybrid
R-HSA-917937,0.0007952444417500415,447.0,0,$\widetilde{A}_{G_0}$,hybrid
R-HSA-9696264,0.0007936517269302331,448.0,0,$\widetilde{A}_{G_0}$,hybrid
R-HSA-9687139,0.0007899901867623328,449.0,0,$\widetilde{A}_{G_0}$,hybrid
R-HSA-1538133,0.0007898813796227991,450.0,0,$\widetilde{A}_{G_0}$,hybrid
R-HSA-418346,0.0007877714492298946,451.0,0,$\widetilde{A}_{G_0}$,hybrid
R-HSA-8986944,0.0007866414342723176,452.0,0,$\widetilde{A}_{G_0}$,hybrid
R-HSA-5358565,0.000786059470997601,453.0,0,$\widetilde{A}_{G_0}$,hybrid
R-HSA-9614399,0.0007850405700948075,454.0,0,$\widetilde{A}_{G_0}$,hybrid
R-HSA-5358606,0.0007805428256990879,455.0,0,$\widetilde{A}_{G_0}$,hybrid
R-HSA-1655829,0.0007777862995737101,456.0,0,$\widetilde{A}_{G_0}$,hybrid
R-HSA-8875878,0.0007766872559864656,457.0,0,$\widetilde{A}_{G_0}$,hybrid
R-HSA-112040,0.0007764451339355618,458.0,0,$\widetilde{A}_{G_0}$,hybrid
R-HSA-2173789,0.0007762279022768867,459.0,0,$\widetilde{A}_{G_0}$,hybrid
R-HSA-5674135,0.0007751047242101018,460.0,0,$\widetilde{A}_{G_0}$,hybrid
R-HSA-8950505,0.0007714889151243447,461.0,0,$\widetilde{A}_{G_0}$,hybrid
R-HSA-9709957,0.0007706021106030426,462.0,0,$\widetilde{A}_{G_0}$,hybrid
R-HSA-2151201,0.0007675699767303079,463.0,0,$\widetilde{A}_{G_0}$,hybrid
R-HSA-167200,0.0007672222008562532,465.0,0,$\widetilde{A}_{G_0}$,hybrid
R-HSA-167246,0.0007672222008562532,465.0,0,$\widetilde{A}_{G_0}$,hybrid
R-HSA-167169,0.0007672222008562532,465.0,0,$\widetilde{A}_{G_0}$,hybrid
R-HSA-3928662,0.0007659937083950676,467.0,0,$\widetilde{A}_{G_0}$,hybrid
R-HSA-381426,0.0007659603677354704,468.0,0,$\widetilde{A}_{G_0}$,hybrid
R-HSA-157858,0.0007647483295908434,469.0,0,$\widetilde{A}_{G_0}$,hybrid
R-HSA-75893,0.0007640271740357371,470.0,0,$\widetilde{A}_{G_0}$,hybrid
R-HSA-190828,0.0007601461253728331,471.0,0,$\widetilde{A}_{G_0}$,hybrid
R-HSA-70268,0.0007591244613330971,472.0,0,$\widetilde{A}_{G_0}$,hybrid
R-HSA-8864260,0.0007545377355166719,473.0,0,$\widetilde{A}_{G_0}$,hybrid
R-HSA-3238698,0.0007534932126002592,474.0,0,$\widetilde{A}_{G_0}$,hybrid
R-HSA-9634638,0.0007533202923012368,475.0,0,$\widetilde{A}_{G_0}$,hybrid
R-HSA-9013407,0.0007511233939822965,476.0,0,$\widetilde{A}_{G_0}$,hybrid
R-HSA-9637690,0.000751113843599978,477.0,0,$\widetilde{A}_{G_0}$,hybrid
R-HSA-5693616,0.0007510328976060925,478.0,0,$\widetilde{A}_{G_0}$,hybrid
R-HSA-5334118,0.0007485404055184034,479.0,0,$\widetilde{A}_{G_0}$,hybrid
R-HSA-9675126,0.0007483490764218732,480.0,0,$\widetilde{A}_{G_0}$,hybrid
R-HSA-196299,0.0007472681898801534,481.0,0,$\widetilde{A}_{G_0}$,hybrid
R-HSA-9020591,0.0007458263987395374,482.0,0,$\widetilde{A}_{G_0}$,hybrid
R-HSA-8863795,0.0007454892684323283,483.0,0,$\widetilde{A}_{G_0}$,hybrid
R-HSA-168928,0.0007452193234954674,484.0,0,$\widetilde{A}_{G_0}$,hybrid
R-HSA-5689901,0.0007449857476329471,485.0,0,$\widetilde{A}_{G_0}$,hybrid
R-HSA-5627123,0.0007446274329371758,486.0,0,$\widetilde{A}_{G_0}$,hybrid
R-HSA-167152,0.000742034761520493,487.0,0,$\widetilde{A}_{G_0}$,hybrid
R-HSA-68827,0.0007407892306798189,488.0,0,$\widetilde{A}_{G_0}$,hybrid
R-HSA-2470946,0.0007406329614314156,489.0,0,$\widetilde{A}_{G_0}$,hybrid
R-HSA-909733,0.0007405976865322297,490.0,0,$\widetilde{A}_{G_0}$,hybrid
R-HSA-8853884,0.0007393822745195287,491.0,0,$\widetilde{A}_{G_0}$,hybrid
R-HSA-68949,0.0007360293624167262,492.0,0,$\widetilde{A}_{G_0}$,hybrid
R-HSA-210744,0.0007329698267870775,493.0,0,$\widetilde{A}_{G_0}$,hybrid
R-HSA-9013508,0.0007322209198728897,494.0,0,$\widetilde{A}_{G_0}$,hybrid
R-HSA-1251985,0.0007293882467587198,495.0,0,$\widetilde{A}_{G_0}$,hybrid
R-HSA-5620971,0.0007251519284511537,496.0,0,$\widetilde{A}_{G_0}$,hybrid
R-HSA-5673000,0.0007232059881519305,497.0,0,$\widetilde{A}_{G_0}$,hybrid
R-HSA-8964043,0.0007230570721129914,498.0,0,$\widetilde{A}_{G_0}$,hybrid
R-HSA-6794362,0.0007217257607278215,499.0,0,$\widetilde{A}_{G_0}$,hybrid
R-HSA-5693579,0.0007206859931459308,500.0,0,$\widetilde{A}_{G_0}$,hybrid
R-HSA-5358508,0.0007186110558292893,501.0,0,$\widetilde{A}_{G_0}$,hybrid
R-HSA-8957322,0.0007173970375453555,502.0,0,$\widetilde{A}_{G_0}$,hybrid
R-HSA-5218920,0.0007161911228088633,503.0,0,$\widetilde{A}_{G_0}$,hybrid
R-HSA-9635486,0.0007150199406087182,504.0,0,$\widetilde{A}_{G_0}$,hybrid
R-HSA-198753,0.0007143071134368007,505.0,0,$\widetilde{A}_{G_0}$,hybrid
R-HSA-877300,0.0007142095420482929,506.0,0,$\widetilde{A}_{G_0}$,hybrid
R-HSA-429947,0.0007130300218912705,507.0,0,$\widetilde{A}_{G_0}$,hybrid
R-HSA-111932,0.0007107610130459124,508.0,0,$\widetilde{A}_{G_0}$,hybrid
R-HSA-6802957,0.0007089862807474379,509.0,0,$\widetilde{A}_{G_0}$,hybrid
R-HSA-165159,0.0007088714035923504,510.0,0,$\widetilde{A}_{G_0}$,hybrid
R-HSA-1358803,0.0007079011557122369,511.0,0,$\widetilde{A}_{G_0}$,hybrid
R-HSA-6799198,0.0007045530174457317,512.0,0,$\widetilde{A}_{G_0}$,hybrid
R-HSA-844456,0.0007042479981191809,513.0,0,$\widetilde{A}_{G_0}$,hybrid
R-HSA-5620922,0.0007034058858256866,514.0,0,$\widetilde{A}_{G_0}$,hybrid
R-HSA-5663213,0.0007007500516871931,515.0,0,$\widetilde{A}_{G_0}$,hybrid
R-HSA-9005891,0.0007003377035344511,517.5,0,$\widetilde{A}_{G_0}$,hybrid
R-HSA-9675151,0.0007003377035344511,517.5,0,$\widetilde{A}_{G_0}$,hybrid
R-HSA-9697154,0.0007003377035344511,517.5,0,$\widetilde{A}_{G_0}$,hybrid
R-HSA-9005895,0.0007003377035344511,517.5,0,$\widetilde{A}_{G_0}$,hybrid
R-HSA-1362300,0.0006996068484636061,520.0,0,$\widetilde{A}_{G_0}$,hybrid
R-HSA-437239,0.0006990373269276354,521.0,0,$\widetilde{A}_{G_0}$,hybrid
R-HSA-9013424,0.0006983020375791169,522.0,0,$\widetilde{A}_{G_0}$,hybrid
R-HSA-5601884,0.0006954655452422805,523.0,0,$\widetilde{A}_{G_0}$,hybrid
R-HSA-5696400,0.0006912850676951221,524.0,0,$\widetilde{A}_{G_0}$,hybrid
R-HSA-6782210,0.00069111558492307,525.0,0,$\widetilde{A}_{G_0}$,hybrid
R-HSA-187577,0.0006894702252146139,526.0,0,$\widetilde{A}_{G_0}$,hybrid
R-HSA-622312,0.0006845858936390568,527.0,0,$\widetilde{A}_{G_0}$,hybrid
R-HSA-8852276,0.00068440573893261,528.0,0,$\widetilde{A}_{G_0}$,hybrid
R-HSA-69002,0.000682054135024722,529.0,0,$\widetilde{A}_{G_0}$,hybrid
R-HSA-76042,0.0006767549079093351,531.0,0,$\widetilde{A}_{G_0}$,hybrid
R-HSA-75953,0.0006767549079093351,531.0,0,$\widetilde{A}_{G_0}$,hybrid
R-HSA-73779,0.0006767549079093351,531.0,0,$\widetilde{A}_{G_0}$,hybrid
R-HSA-73776,0.0006767549079093346,534.0,0,$\widetilde{A}_{G_0}$,hybrid
R-HSA-167161,0.0006767549079093346,534.0,0,$\widetilde{A}_{G_0}$,hybrid
R-HSA-167162,0.0006767549079093346,534.0,0,$\widetilde{A}_{G_0}$,hybrid
R-HSA-8856825,0.0006734724859844537,536.0,0,$\widetilde{A}_{G_0}$,hybrid
R-HSA-5693568,0.0006691963801608155,537.0,0,$\widetilde{A}_{G_0}$,hybrid
R-HSA-5205647,0.000668943615131436,538.0,0,$\widetilde{A}_{G_0}$,hybrid
R-HSA-9678108,0.0006675925201438071,539.0,0,$\widetilde{A}_{G_0}$,hybrid
R-HSA-3214842,0.0006671470886058196,540.0,0,$\widetilde{A}_{G_0}$,hybrid
R-HSA-8941856,0.0006661526740430377,541.0,0,$\widetilde{A}_{G_0}$,hybrid
R-HSA-6782135,0.0006631970550934785,542.0,0,$\widetilde{A}_{G_0}$,hybrid
R-HSA-176187,0.0006619850698203989,543.0,0,$\widetilde{A}_{G_0}$,hybrid
R-HSA-5668541,0.0006616832351589311,544.0,0,$\widetilde{A}_{G_0}$,hybrid
R-HSA-68867,0.0006603955679302183,545.0,0,$\widetilde{A}_{G_0}$,hybrid
R-HSA-69615,0.0006602182382159148,546.0,0,$\widetilde{A}_{G_0}$,hybrid
R-HSA-73728,0.0006595982276994152,547.0,0,$\widetilde{A}_{G_0}$,hybrid
R-HSA-9627069,0.0006579840622183185,548.5,0,$\widetilde{A}_{G_0}$,hybrid
R-HSA-111458,0.0006579840622183185,548.5,0,$\widetilde{A}_{G_0}$,hybrid
R-HSA-380994,0.0006579011942817178,550.0,0,$\widetilde{A}_{G_0}$,hybrid
R-HSA-8848021,0.0006565918857035692,551.0,0,$\widetilde{A}_{G_0}$,hybrid
R-HSA-9006927,0.000656591885703569,552.0,0,$\widetilde{A}_{G_0}$,hybrid
R-HSA-9639288,0.0006548059164833335,553.0,0,$\widetilde{A}_{G_0}$,hybrid
R-HSA-427413,0.0006540053562352658,554.0,0,$\widetilde{A}_{G_0}$,hybrid
R-HSA-174113,0.0006536514304771314,555.0,0,$\widetilde{A}_{G_0}$,hybrid
R-HSA-9013423,0.000649350230592027,556.0,0,$\widetilde{A}_{G_0}$,hybrid
R-HSA-70221,0.0006451408841841893,557.0,0,$\widetilde{A}_{G_0}$,hybrid
R-HSA-5668599,0.0006444803525295702,558.0,0,$\widetilde{A}_{G_0}$,hybrid
R-HSA-9613829,0.0006419165817451325,559.0,0,$\widetilde{A}_{G_0}$,hybrid
R-HSA-69613,0.0006405324542952798,561.0,0,$\widetilde{A}_{G_0}$,hybrid
R-HSA-69601,0.0006405324542952798,561.0,0,$\widetilde{A}_{G_0}$,hybrid
R-HSA-69610,0.0006405324542952798,561.0,0,$\widetilde{A}_{G_0}$,hybrid
R-HSA-9013405,0.000639554476285013,563.0,0,$\widetilde{A}_{G_0}$,hybrid
R-HSA-73780,0.0006380927205001248,564.0,0,$\widetilde{A}_{G_0}$,hybrid
R-HSA-73980,0.0006380927205001242,565.0,0,$\widetilde{A}_{G_0}$,hybrid
R-HSA-5693537,0.0006377212763334744,566.0,0,$\widetilde{A}_{G_0}$,hybrid
R-HSA-9013409,0.0006370714646116441,567.0,0,$\widetilde{A}_{G_0}$,hybrid
R-HSA-69202,0.0006337702379874486,568.0,0,$\widetilde{A}_{G_0}$,hybrid
R-HSA-69091,0.0006335171119175121,569.5,0,$\widetilde{A}_{G_0}$,hybrid
R-HSA-69109,0.0006335171119175121,569.5,0,$\widetilde{A}_{G_0}$,hybrid
R-HSA-1236978,0.0006297238677052756,571.0,0,$\widetilde{A}_{G_0}$,hybrid
R-HSA-9662361,0.0006285750439268557,572.0,0,$\widetilde{A}_{G_0}$,hybrid
R-HSA-6781827,0.000628097964845805,573.0,0,$\widetilde{A}_{G_0}$,hybrid
R-HSA-5250941,0.0006273381188994882,574.0,0,$\widetilde{A}_{G_0}$,hybrid
R-HSA-1368082,0.0006268435974571372,575.0,0,$\widetilde{A}_{G_0}$,hybrid
R-HSA-211733,0.0006260570512968645,576.0,0,$\widetilde{A}_{G_0}$,hybrid
R-HSA-169911,0.0006260570512968639,577.0,0,$\widetilde{A}_{G_0}$,hybrid
R-HSA-9603798,0.000625956050788022,578.0,0,$\widetilde{A}_{G_0}$,hybrid
R-HSA-69656,0.000624046475386369,579.0,0,$\widetilde{A}_{G_0}$,hybrid
R-HSA-8873719,0.0006232251316236717,580.0,0,$\widetilde{A}_{G_0}$,hybrid
R-HSA-73854,0.0006225561883110702,581.0,0,$\widetilde{A}_{G_0}$,hybrid
R-HSA-1980145,0.0006214940837525192,582.0,0,$\widetilde{A}_{G_0}$,hybrid
R-HSA-8851708,0.0006207516597214483,583.0,0,$\widetilde{A}_{G_0}$,hybrid
R-HSA-1839126,0.0006207516597214437,584.0,0,$\widetilde{A}_{G_0}$,hybrid
R-HSA-8854050,0.0006198084120313033,585.0,0,$\widetilde{A}_{G_0}$,hybrid
R-HSA-432722,0.0006176628024032018,586.0,0,$\widetilde{A}_{G_0}$,hybrid
R-HSA-73864,0.0006163183014315808,587.0,0,$\widetilde{A}_{G_0}$,hybrid
R-HSA-69563,0.0006160218981029874,588.5,0,$\widetilde{A}_{G_0}$,hybrid
R-HSA-69580,0.0006160218981029874,588.5,0,$\widetilde{A}_{G_0}$,hybrid
R-HSA-2995410,0.0006139551216537849,590.0,0,$\widetilde{A}_{G_0}$,hybrid
R-HSA-5675221,0.0006129986489639207,591.0,0,$\widetilde{A}_{G_0}$,hybrid
R-HSA-167172,0.0006111854301051577,592.0,0,$\widetilde{A}_{G_0}$,hybrid
R-HSA-180534,0.0006098448268543736,593.0,0,$\widetilde{A}_{G_0}$,hybrid
R-HSA-9013418,0.0006085542731792359,594.0,0,$\widetilde{A}_{G_0}$,hybrid
R-HSA-8940973,0.0006083609694067127,595.0,0,$\widetilde{A}_{G_0}$,hybrid
R-HSA-9659787,0.0006061609667533777,596.5,0,$\widetilde{A}_{G_0}$,hybrid
R-HSA-9661069,0.0006061609667533777,596.5,0,$\widetilde{A}_{G_0}$,hybrid
R-HSA-9604323,0.0006058409840929943,598.0,0,$\widetilde{A}_{G_0}$,hybrid
R-HSA-349425,0.000605627095728863,599.0,0,$\widetilde{A}_{G_0}$,hybrid
R-HSA-9013695,0.0006051885656255222,600.0,0,$\widetilde{A}_{G_0}$,hybrid
R-HSA-429958,0.0006047339219455763,601.0,0,$\widetilde{A}_{G_0}$,hybrid
R-HSA-162658,0.0006036149490682421,602.0,0,$\widetilde{A}_{G_0}$,hybrid
R-HSA-6796648,0.0006018974032701708,603.0,0,$\widetilde{A}_{G_0}$,hybrid
R-HSA-75815,0.0006015559723596866,604.0,0,$\widetilde{A}_{G_0}$,hybrid
R-HSA-75955,0.0005984803607898336,605.0,0,$\widetilde{A}_{G_0}$,hybrid
R-HSA-112382,0.0005984803607898335,606.0,0,$\widetilde{A}_{G_0}$,hybrid
R-HSA-68962,0.0005961789828304711,607.0,0,$\widetilde{A}_{G_0}$,hybrid
R-HSA-6811436,0.0005954915997050481,608.0,0,$\widetilde{A}_{G_0}$,hybrid
R-HSA-174417,0.000592584198962659,609.0,0,$\widetilde{A}_{G_0}$,hybrid
R-HSA-5678895,0.0005899468168483774,610.0,0,$\widetilde{A}_{G_0}$,hybrid
R-HSA-198323,0.0005875952572370018,611.0,0,$\widetilde{A}_{G_0}$,hybrid
R-HSA-5610785,0.0005863789451940784,612.0,0,$\widetilde{A}_{G_0}$,hybrid
R-HSA-5610783,0.0005863141901980789,613.0,0,$\widetilde{A}_{G_0}$,hybrid
R-HSA-8939902,0.0005863072821868837,614.0,0,$\widetilde{A}_{G_0}$,hybrid
R-HSA-9617629,0.000583536878990629,615.0,0,$\widetilde{A}_{G_0}$,hybrid
R-HSA-5676590,0.0005832566596391895,616.0,0,$\widetilde{A}_{G_0}$,hybrid
R-HSA-5610780,0.0005831721463045442,617.0,0,$\widetilde{A}_{G_0}$,hybrid
R-HSA-450408,0.0005820763488251444,618.0,0,$\widetilde{A}_{G_0}$,hybrid
R-HSA-9660826,0.0005812701968058622,619.5,0,$\widetilde{A}_{G_0}$,hybrid
R-HSA-9664424,0.0005812701968058622,619.5,0,$\widetilde{A}_{G_0}$,hybrid
R-HSA-73928,0.0005810943053606286,621.5,0,$\widetilde{A}_{G_0}$,hybrid
R-HSA-110328,0.0005810943053606286,621.5,0,$\widetilde{A}_{G_0}$,hybrid
R-HSA-110329,0.0005810943053606277,623.0,0,$\widetilde{A}_{G_0}$,hybrid
R-HSA-69190,0.0005808905874790822,624.0,0,$\widetilde{A}_{G_0}$,hybrid
R-HSA-180585,0.0005807783607839303,625.0,0,$\widetilde{A}_{G_0}$,hybrid
R-HSA-936440,0.0005794789804329604,626.0,0,$\widetilde{A}_{G_0}$,hybrid
R-HSA-8941858,0.0005780431513727108,627.0,0,$\widetilde{A}_{G_0}$,hybrid
R-HSA-5607761,0.0005776386650458082,628.0,0,$\widetilde{A}_{G_0}$,hybrid
R-HSA-111461,0.0005765062227999447,629.0,0,$\widetilde{A}_{G_0}$,hybrid
R-HSA-5696394,0.0005757425191982083,630.0,0,$\widetilde{A}_{G_0}$,hybrid
R-HSA-5685942,0.0005751407198037669,631.0,0,$\widetilde{A}_{G_0}$,hybrid
R-HSA-350054,0.000574592255936766,632.0,0,$\widetilde{A}_{G_0}$,hybrid
R-HSA-9615933,0.0005734927726453907,633.0,0,$\widetilde{A}_{G_0}$,hybrid
R-HSA-202131,0.0005734339380556419,634.0,0,$\widetilde{A}_{G_0}$,hybrid
R-HSA-69273,0.0005719749394281167,635.0,0,$\widetilde{A}_{G_0}$,hybrid
R-HSA-3769402,0.0005704446661485746,636.0,0,$\widetilde{A}_{G_0}$,hybrid
R-HSA-416572,0.0005700367154717724,637.0,0,$\widetilde{A}_{G_0}$,hybrid
R-HSA-5362768,0.0005691372835162464,638.0,0,$\widetilde{A}_{G_0}$,hybrid
R-HSA-3000171,0.0005690308598757693,639.0,0,$\widetilde{A}_{G_0}$,hybrid
R-HSA-5619084,0.0005678545585978848,640.0,0,$\widetilde{A}_{G_0}$,hybrid
R-HSA-983231,0.0005672912102762553,641.0,0,$\widetilde{A}_{G_0}$,hybrid
R-HSA-8941326,0.0005671445638734536,642.0,0,$\widetilde{A}_{G_0}$,hybrid
R-HSA-4641258,0.0005664432003651726,643.0,0,$\widetilde{A}_{G_0}$,hybrid
R-HSA-180024,0.0005661596152867297,644.0,0,$\widetilde{A}_{G_0}$,hybrid
R-HSA-69541,0.0005643439203529974,645.0,0,$\widetilde{A}_{G_0}$,hybrid
R-HSA-4641257,0.0005640952536486516,646.0,0,$\widetilde{A}_{G_0}$,hybrid
R-HSA-2871837,0.0005639161960904289,647.0,0,$\widetilde{A}_{G_0}$,hybrid
R-HSA-6804114,0.0005638077303308073,648.0,0,$\widetilde{A}_{G_0}$,hybrid
R-HSA-9615017,0.0005636695699451838,649.0,0,$\widetilde{A}_{G_0}$,hybrid
R-HSA-5674400,0.0005635491886103601,650.0,0,$\widetilde{A}_{G_0}$,hybrid
R-HSA-8943724,0.0005627059107163826,651.0,0,$\widetilde{A}_{G_0}$,hybrid
R-HSA-983189,0.0005620399703173417,652.0,0,$\widetilde{A}_{G_0}$,hybrid
R-HSA-5658442,0.0005616307731839188,653.0,0,$\widetilde{A}_{G_0}$,hybrid
R-HSA-170822,0.0005596108867238293,655.0,0,$\widetilde{A}_{G_0}$,hybrid
R-HSA-5619107,0.0005596108867238293,655.0,0,$\widetilde{A}_{G_0}$,hybrid
R-HSA-168325,0.0005596108867238293,655.0,0,$\widetilde{A}_{G_0}$,hybrid
R-HSA-8932339,0.0005580527379848683,657.0,0,$\widetilde{A}_{G_0}$,hybrid
R-HSA-5387390,0.0005577012088463818,658.0,0,$\widetilde{A}_{G_0}$,hybrid
R-HSA-350562,0.0005573552893655147,659.0,0,$\widetilde{A}_{G_0}$,hybrid
R-HSA-381038,0.0005571131258571505,660.0,0,$\widetilde{A}_{G_0}$,hybrid
R-HSA-3000170,0.0005565969635243157,661.0,0,$\widetilde{A}_{G_0}$,hybrid
R-HSA-9614085,0.0005565591542733167,662.0,0,$\widetilde{A}_{G_0}$,hybrid
R-HSA-390522,0.0005542255278836742,663.0,0,$\widetilde{A}_{G_0}$,hybrid
R-HSA-9706574,0.0005539541633035591,664.0,0,$\widetilde{A}_{G_0}$,hybrid
R-HSA-110331,0.0005526612175650807,666.5,0,$\widetilde{A}_{G_0}$,hybrid
R-HSA-73927,0.0005526612175650807,666.5,0,$\widetilde{A}_{G_0}$,hybrid
R-HSA-73929,0.0005526612175650807,666.5,0,$\widetilde{A}_{G_0}$,hybrid
R-HSA-110330,0.0005526612175650807,666.5,0,$\widetilde{A}_{G_0}$,hybrid
R-HSA-196854,0.0005516446750851935,669.0,0,$\widetilde{A}_{G_0}$,hybrid
R-HSA-351202,0.0005509040606941566,670.0,0,$\widetilde{A}_{G_0}$,hybrid
R-HSA-1483255,0.0005495690557701533,671.0,0,$\widetilde{A}_{G_0}$,hybrid
R-HSA-9615710,0.0005494365279601944,672.0,0,$\widetilde{A}_{G_0}$,hybrid
R-HSA-168274,0.0005491267613317193,673.5,0,$\widetilde{A}_{G_0}$,hybrid
R-HSA-168333,0.0005491267613317193,673.5,0,$\widetilde{A}_{G_0}$,hybrid
R-HSA-4655427,0.0005488961466378358,675.0,0,$\widetilde{A}_{G_0}$,hybrid
R-HSA-6781823,0.000547283708727581,676.0,0,$\widetilde{A}_{G_0}$,hybrid
R-HSA-2894858,0.0005467541197571354,677.5,0,$\widetilde{A}_{G_0}$,hybrid
R-HSA-2644606,0.0005467541197571354,677.5,0,$\widetilde{A}_{G_0}$,hybrid
R-HSA-2644602,0.0005467541197571353,679.0,0,$\widetilde{A}_{G_0}$,hybrid
R-HSA-2894862,0.0005467541197571352,680.5,0,$\widetilde{A}_{G_0}$,hybrid
R-HSA-2644603,0.0005467541197571352,680.5,0,$\widetilde{A}_{G_0}$,hybrid
R-HSA-3371556,0.0005465608497387114,682.0,0,$\widetilde{A}_{G_0}$,hybrid
R-HSA-6784531,0.000546510236384308,683.0,0,$\widetilde{A}_{G_0}$,hybrid
R-HSA-3270619,0.00054621897706321,684.0,0,$\widetilde{A}_{G_0}$,hybrid
R-HSA-112409,0.0005457310853264693,685.0,0,$\widetilde{A}_{G_0}$,hybrid
R-HSA-180910,0.0005442739731186006,686.5,0,$\widetilde{A}_{G_0}$,hybrid
R-HSA-176033,0.0005442739731186006,686.5,0,$\widetilde{A}_{G_0}$,hybrid
R-HSA-195253,0.0005440023188071623,688.0,0,$\widetilde{A}_{G_0}$,hybrid
R-HSA-168271,0.0005438638635624287,689.0,0,$\widetilde{A}_{G_0}$,hybrid
R-HSA-674695,0.0005430297446724366,690.0,0,$\widetilde{A}_{G_0}$,hybrid
R-HSA-917729,0.0005424574991441713,691.0,0,$\widetilde{A}_{G_0}$,hybrid
R-HSA-113501,0.0005423482915940082,692.0,0,$\widetilde{A}_{G_0}$,hybrid
R-HSA-450385,0.0005407381691670586,693.0,0,$\widetilde{A}_{G_0}$,hybrid
R-HSA-4755510,0.000538451980559015,694.0,0,$\widetilde{A}_{G_0}$,hybrid
R-HSA-450513,0.0005382934810463871,695.0,0,$\widetilde{A}_{G_0}$,hybrid
R-HSA-450604,0.0005381243964609932,696.0,0,$\widetilde{A}_{G_0}$,hybrid
R-HSA-9707587,0.0005369442541182462,697.0,0,$\widetilde{A}_{G_0}$,hybrid
R-HSA-4615885,0.0005369311873083521,698.0,0,$\widetilde{A}_{G_0}$,hybrid
R-HSA-5607764,0.0005363540688554452,699.0,0,$\widetilde{A}_{G_0}$,hybrid
R-HSA-114452,0.000536348504235587,700.0,0,$\widetilde{A}_{G_0}$,hybrid
R-HSA-6809371,0.0005354342298977425,701.0,0,$\widetilde{A}_{G_0}$,hybrid
R-HSA-6805567,0.0005354342298977424,702.0,0,$\widetilde{A}_{G_0}$,hybrid
R-HSA-1169091,0.0005350928264114389,703.0,0,$\widetilde{A}_{G_0}$,hybrid
R-HSA-180746,0.0005349640040197267,704.0,0,$\widetilde{A}_{G_0}$,hybrid
R-HSA-901032,0.0005343743911902582,705.0,0,$\widetilde{A}_{G_0}$,hybrid
R-HSA-5358346,0.0005332330593932231,706.0,0,$\widetilde{A}_{G_0}$,hybrid
R-HSA-199992,0.0005330529646466184,707.0,0,$\widetilde{A}_{G_0}$,hybrid
R-HSA-5619102,0.0005311443236117142,708.0,0,$\widetilde{A}_{G_0}$,hybrid
R-HSA-450282,0.0005309554962777411,709.0,0,$\widetilde{A}_{G_0}$,hybrid
R-HSA-3928665,0.000529995044157631,710.0,0,$\widetilde{A}_{G_0}$,hybrid
R-HSA-4570464,0.0005298458044324942,711.0,0,$\widetilde{A}_{G_0}$,hybrid
R-HSA-165054,0.000526903637482207,712.0,0,$\widetilde{A}_{G_0}$,hybrid
R-HSA-8866652,0.0005265596640268136,713.0,0,$\widetilde{A}_{G_0}$,hybrid
R-HSA-5625886,0.0005259749830336821,714.0,0,$\widetilde{A}_{G_0}$,hybrid
R-HSA-211859,0.0005253706427669927,715.5,0,$\widetilde{A}_{G_0}$,hybrid
R-HSA-211945,0.0005253706427669927,715.5,0,$\widetilde{A}_{G_0}$,hybrid
R-HSA-9013694,0.0005249515839072865,717.0,0,$\widetilde{A}_{G_0}$,hybrid
R-HSA-174414,0.0005244354396600426,718.0,0,$\widetilde{A}_{G_0}$,hybrid
R-HSA-9012852,0.0005243068635636285,719.0,0,$\widetilde{A}_{G_0}$,hybrid
R-HSA-2122947,0.0005210418210523666,720.0,0,$\widetilde{A}_{G_0}$,hybrid
R-HSA-70263,0.0005207881612847505,721.0,0,$\widetilde{A}_{G_0}$,hybrid
R-HSA-141444,0.0005205044777076402,722.5,0,$\widetilde{A}_{G_0}$,hybrid
R-HSA-141424,0.0005205044777076402,722.5,0,$\widetilde{A}_{G_0}$,hybrid
R-HSA-177243,0.0005202163310542764,724.0,0,$\widetilde{A}_{G_0}$,hybrid
R-HSA-2426168,0.000519206453031073,725.0,0,$\widetilde{A}_{G_0}$,hybrid
R-HSA-5685938,0.0005170184429798296,726.0,0,$\widetilde{A}_{G_0}$,hybrid
R-HSA-8982491,0.0005133641001068908,727.0,0,$\widetilde{A}_{G_0}$,hybrid
R-HSA-1168372,0.0005129707695147071,728.0,0,$\widetilde{A}_{G_0}$,hybrid
R-HSA-174824,0.0005123648589911987,729.0,0,$\widetilde{A}_{G_0}$,hybrid
R-HSA-4608870,0.000512359460989251,730.0,0,$\widetilde{A}_{G_0}$,hybrid
R-HSA-2565942,0.0005112760732052232,731.0,0,$\widetilde{A}_{G_0}$,hybrid
R-HSA-9668328,0.0005107751834960012,732.0,0,$\widetilde{A}_{G_0}$,hybrid
R-HSA-382556,0.0005097148423529787,733.0,0,$\widetilde{A}_{G_0}$,hybrid
R-HSA-9614657,0.000509435657719772,734.0,0,$\widetilde{A}_{G_0}$,hybrid
R-HSA-5696395,0.0005079323355328844,735.0,0,$\widetilde{A}_{G_0}$,hybrid
R-HSA-9679191,0.0005077573850628221,736.0,0,$\widetilde{A}_{G_0}$,hybrid
R-HSA-400685,0.0005074017221475344,737.0,0,$\widetilde{A}_{G_0}$,hybrid
R-HSA-9013422,0.0005073023884993946,738.0,0,$\widetilde{A}_{G_0}$,hybrid
R-HSA-2500257,0.0005056434637387708,739.0,0,$\widetilde{A}_{G_0}$,hybrid
R-HSA-6804759,0.0005043974326052092,740.0,0,$\widetilde{A}_{G_0}$,hybrid
R-HSA-9029569,0.0005028851118055378,741.0,0,$\widetilde{A}_{G_0}$,hybrid
R-HSA-1834941,0.0005021583937726798,742.0,0,$\widetilde{A}_{G_0}$,hybrid
R-HSA-9648025,0.0005017604966897531,743.0,0,$\widetilde{A}_{G_0}$,hybrid
R-HSA-72165,0.0005011771585894603,744.0,0,$\widetilde{A}_{G_0}$,hybrid
R-HSA-389661,0.0005008275466996912,745.0,0,$\widetilde{A}_{G_0}$,hybrid
R-HSA-163560,0.000499986547599533,746.0,0,$\widetilde{A}_{G_0}$,hybrid
R-HSA-4085377,0.0004997897847534265,747.0,0,$\widetilde{A}_{G_0}$,hybrid
R-HSA-5607763,0.0004992426653887439,748.0,0,$\widetilde{A}_{G_0}$,hybrid
R-HSA-1234176,0.0004981747237178905,749.0,0,$\widetilde{A}_{G_0}$,hybrid
R-HSA-166208,0.0004971036229552049,750.0,0,$\widetilde{A}_{G_0}$,hybrid
R-HSA-176974,0.0004963675607605876,751.0,0,$\widetilde{A}_{G_0}$,hybrid
R-HSA-167242,0.0004957529666160218,752.0,0,$\widetilde{A}_{G_0}$,hybrid
R-HSA-9609523,0.000495348681785751,753.0,0,$\widetilde{A}_{G_0}$,hybrid
R-HSA-1989781,0.0004947173259463141,754.0,0,$\widetilde{A}_{G_0}$,hybrid
R-HSA-159227,0.0004931709922710179,755.0,0,$\widetilde{A}_{G_0}$,hybrid
R-HSA-381340,0.0004927117706947881,756.0,0,$\widetilde{A}_{G_0}$,hybrid
R-HSA-110320,0.0004924089538847156,757.0,0,$\widetilde{A}_{G_0}$,hybrid
R-HSA-3371453,0.0004897647752529679,758.0,0,$\widetilde{A}_{G_0}$,hybrid
R-HSA-171306,0.0004885306348172654,759.0,0,$\widetilde{A}_{G_0}$,hybrid
R-HSA-450531,0.0004865578402118274,760.0,0,$\widetilde{A}_{G_0}$,hybrid
R-HSA-156902,0.0004854519758302273,761.0,0,$\widetilde{A}_{G_0}$,hybrid
R-HSA-5578775,0.0004854067064318411,762.0,0,$\widetilde{A}_{G_0}$,hybrid
R-HSA-2408557,0.00048384293741873764,763.0,0,$\widetilde{A}_{G_0}$,hybrid
R-HSA-9617828,0.00048361143064092255,764.0,0,$\widetilde{A}_{G_0}$,hybrid
R-HSA-1362277,0.0004831262673663401,765.0,0,$\widetilde{A}_{G_0}$,hybrid
R-HSA-76066,0.0004821810303501734,766.0,0,$\widetilde{A}_{G_0}$,hybrid
R-HSA-2173795,0.00048214427569865867,767.0,0,$\widetilde{A}_{G_0}$,hybrid
R-HSA-3301854,0.0004816261671783525,768.0,0,$\widetilde{A}_{G_0}$,hybrid
R-HSA-400206,0.000480239621980217,769.0,0,$\widetilde{A}_{G_0}$,hybrid
R-HSA-156842,0.0004801183296720319,770.0,0,$\widetilde{A}_{G_0}$,hybrid
R-HSA-159230,0.00047982451582225785,771.0,0,$\widetilde{A}_{G_0}$,hybrid
R-HSA-192823,0.0004791717936020922,772.0,0,$\widetilde{A}_{G_0}$,hybrid
R-HSA-381033,0.0004791123502691021,773.0,0,$\widetilde{A}_{G_0}$,hybrid
R-HSA-9024446,0.0004783384536865892,774.0,0,$\widetilde{A}_{G_0}$,hybrid
R-HSA-5620924,0.00047770060917936153,775.0,0,$\widetilde{A}_{G_0}$,hybrid
R-HSA-1368108,0.00047747461799269795,776.0,0,$\widetilde{A}_{G_0}$,hybrid
R-HSA-3299685,0.0004774576464292499,777.0,0,$\widetilde{A}_{G_0}$,hybrid
R-HSA-1234174,0.00047651755150926835,778.0,0,$\widetilde{A}_{G_0}$,hybrid
R-HSA-442720,0.00047603535369318334,779.0,0,$\widetilde{A}_{G_0}$,hybrid
R-HSA-168276,0.00047447943433289466,780.0,0,$\widetilde{A}_{G_0}$,hybrid
R-HSA-3232142,0.00047447537629110296,781.0,0,$\widetilde{A}_{G_0}$,hybrid
R-HSA-5627117,0.0004733276257282287,782.0,0,$\widetilde{A}_{G_0}$,hybrid
R-HSA-1980143,0.000473022620720538,783.0,0,$\widetilde{A}_{G_0}$,hybrid
R-HSA-3371511,0.00047286220452340906,784.0,0,$\widetilde{A}_{G_0}$,hybrid
R-HSA-76061,0.00047272677961821523,785.0,0,$\widetilde{A}_{G_0}$,hybrid
R-HSA-6803529,0.0004723644453626126,786.0,0,$\widetilde{A}_{G_0}$,hybrid
R-HSA-8953750,0.00047235516984680246,787.0,0,$\widetilde{A}_{G_0}$,hybrid
R-HSA-111471,0.0004723450361182443,788.0,0,$\widetilde{A}_{G_0}$,hybrid
R-HSA-9710421,0.00047209795145548476,789.0,0,$\widetilde{A}_{G_0}$,hybrid
R-HSA-8948751,0.00047181584843813897,790.0,0,$\widetilde{A}_{G_0}$,hybrid
R-HSA-9707616,0.0004713236955915978,791.0,0,$\widetilde{A}_{G_0}$,hybrid
R-HSA-69473,0.00047027235825055817,792.0,0,$\widetilde{A}_{G_0}$,hybrid
R-HSA-4086400,0.00046968793972502955,793.0,0,$\widetilde{A}_{G_0}$,hybrid
R-HSA-5339562,0.0004691275622967346,794.0,0,$\widetilde{A}_{G_0}$,hybrid
R-HSA-3371497,0.00046878246253256563,795.0,0,$\widetilde{A}_{G_0}$,hybrid
R-HSA-69618,0.0004685555761199438,796.0,0,$\widetilde{A}_{G_0}$,hybrid
R-HSA-5625970,0.00046663396520974724,797.0,0,$\widetilde{A}_{G_0}$,hybrid
R-HSA-2979096,0.00046516832347269027,798.0,0,$\widetilde{A}_{G_0}$,hybrid
R-HSA-5656121,0.00046465751943393775,799.0,0,$\widetilde{A}_{G_0}$,hybrid
R-HSA-611105,0.00046366814792019284,800.0,0,$\widetilde{A}_{G_0}$,hybrid
R-HSA-113510,0.00046346741138334174,801.0,0,$\widetilde{A}_{G_0}$,hybrid
R-HSA-193704,0.0004609267455725979,802.0,0,$\widetilde{A}_{G_0}$,hybrid
R-HSA-6791312,0.0004597474303671984,803.0,0,$\widetilde{A}_{G_0}$,hybrid
R-HSA-9013507,0.00045949650646093454,804.0,0,$\widetilde{A}_{G_0}$,hybrid
R-HSA-8876198,0.0004585591492307715,805.0,0,$\widetilde{A}_{G_0}$,hybrid
R-HSA-168273,0.00045831669933957134,806.0,0,$\widetilde{A}_{G_0}$,hybrid
R-HSA-975956,0.0004582574774791331,807.0,0,$\widetilde{A}_{G_0}$,hybrid
R-HSA-72764,0.00045778878256268803,808.0,0,$\widetilde{A}_{G_0}$,hybrid
R-HSA-5693567,0.00045758204778167044,809.0,0,$\widetilde{A}_{G_0}$,hybrid
R-HSA-9006936,0.000457268094509232,810.0,0,$\widetilde{A}_{G_0}$,hybrid
R-HSA-111996,0.0004570862774023721,811.0,0,$\widetilde{A}_{G_0}$,hybrid
R-HSA-8939236,0.0004570278878127788,812.0,0,$\widetilde{A}_{G_0}$,hybrid
R-HSA-5696399,0.00045489888383484534,813.0,0,$\widetilde{A}_{G_0}$,hybrid
R-HSA-72689,0.0004546048395320141,814.0,0,$\widetilde{A}_{G_0}$,hybrid
R-HSA-3232118,0.00045460405132979805,815.0,0,$\widetilde{A}_{G_0}$,hybrid
R-HSA-3371568,0.0004537880248491983,816.0,0,$\widetilde{A}_{G_0}$,hybrid
R-HSA-427359,0.00045162725370927187,817.0,0,$\widetilde{A}_{G_0}$,hybrid
R-HSA-5628897,0.00045127986128687197,818.0,0,$\widetilde{A}_{G_0}$,hybrid
R-HSA-2980766,0.00044976349077294203,819.0,0,$\widetilde{A}_{G_0}$,hybrid
R-HSA-8878159,0.000447177485376382,820.0,0,$\widetilde{A}_{G_0}$,hybrid
R-HSA-5689603,0.0004455287763215557,821.0,0,$\widetilde{A}_{G_0}$,hybrid
R-HSA-1169408,0.00044519915825119195,822.0,0,$\widetilde{A}_{G_0}$,hybrid
R-HSA-159231,0.00044180659424403125,823.0,0,$\widetilde{A}_{G_0}$,hybrid
R-HSA-111933,0.00044124230686869224,824.5,0,$\widetilde{A}_{G_0}$,hybrid
R-HSA-111997,0.00044124230686869224,824.5,0,$\widetilde{A}_{G_0}$,hybrid
R-HSA-2173788,0.0004409927260449623,826.0,0,$\widetilde{A}_{G_0}$,hybrid
R-HSA-3899300,0.0004409652002318069,827.0,0,$\widetilde{A}_{G_0}$,hybrid
R-HSA-380320,0.00043976128546284563,828.0,0,$\widetilde{A}_{G_0}$,hybrid
R-HSA-111931,0.00043972198280433196,829.0,0,$\widetilde{A}_{G_0}$,hybrid
R-HSA-156827,0.00043873562162019737,830.0,0,$\widetilde{A}_{G_0}$,hybrid
R-HSA-264870,0.000438310152797795,831.0,0,$\widetilde{A}_{G_0}$,hybrid
R-HSA-212300,0.00043751111056774145,832.0,0,$\widetilde{A}_{G_0}$,hybrid
R-HSA-109606,0.00043702045227923206,833.0,0,$\widetilde{A}_{G_0}$,hybrid
R-HSA-8862803,0.0004363071530424733,834.5,0,$\widetilde{A}_{G_0}$,hybrid
R-HSA-8863678,0.0004363071530424733,834.5,0,$\widetilde{A}_{G_0}$,hybrid
R-HSA-3371571,0.00043598667623888024,836.0,0,$\widetilde{A}_{G_0}$,hybrid
R-HSA-162588,0.0004355013288327385,837.0,0,$\widetilde{A}_{G_0}$,hybrid
R-HSA-72706,0.00043541900302169047,838.0,0,$\widetilde{A}_{G_0}$,hybrid
R-HSA-9633012,0.00043374136851708433,839.0,0,$\widetilde{A}_{G_0}$,hybrid
R-HSA-170834,0.000432824583266052,840.0,0,$\widetilde{A}_{G_0}$,hybrid
R-HSA-159234,0.0004322482477642626,841.0,0,$\widetilde{A}_{G_0}$,hybrid
R-HSA-9683701,0.0004317492783665675,842.0,0,$\widetilde{A}_{G_0}$,hybrid
R-HSA-70171,0.0004311577265373197,843.0,0,$\widetilde{A}_{G_0}$,hybrid
R-HSA-2299718,0.00042964178573835305,844.0,0,$\widetilde{A}_{G_0}$,hybrid
R-HSA-180786,0.00042896194918525996,845.0,0,$\widetilde{A}_{G_0}$,hybrid
R-HSA-72695,0.00042855986606771176,846.0,0,$\widetilde{A}_{G_0}$,hybrid
R-HSA-1169410,0.0004280408063191727,847.0,0,$\widetilde{A}_{G_0}$,hybrid
R-HSA-76071,0.000427250201165298,848.0,0,$\widetilde{A}_{G_0}$,hybrid
R-HSA-167238,0.0004261548030801175,849.5,0,$\widetilde{A}_{G_0}$,hybrid
R-HSA-167243,0.0004261548030801175,849.5,0,$\widetilde{A}_{G_0}$,hybrid
R-HSA-5693607,0.0004260500948348443,851.0,0,$\widetilde{A}_{G_0}$,hybrid
R-HSA-5687128,0.0004257969808990277,852.0,0,$\widetilde{A}_{G_0}$,hybrid
R-HSA-400253,0.00042566035829473894,853.0,0,$\widetilde{A}_{G_0}$,hybrid
R-HSA-901042,0.0004240895954980443,854.0,0,$\widetilde{A}_{G_0}$,hybrid
R-HSA-1799339,0.00042269763376265784,855.0,0,$\widetilde{A}_{G_0}$,hybrid
R-HSA-2559586,0.0004220622654486952,856.0,0,$\widetilde{A}_{G_0}$,hybrid
R-HSA-110314,0.00042070297336206484,857.0,0,$\widetilde{A}_{G_0}$,hybrid
R-HSA-72649,0.0004204514172066141,858.0,0,$\widetilde{A}_{G_0}$,hybrid
R-HSA-977225,0.0004192241196090747,859.0,0,$\widetilde{A}_{G_0}$,hybrid
R-HSA-2408522,0.0004181117245281221,860.0,0,$\widetilde{A}_{G_0}$,hybrid
R-HSA-8854518,0.00041728602372135615,861.0,0,$\widetilde{A}_{G_0}$,hybrid
R-HSA-76005,0.0004156543509707837,862.0,0,$\widetilde{A}_{G_0}$,hybrid
R-HSA-72702,0.0004146952132866763,863.0,0,$\widetilde{A}_{G_0}$,hybrid
R-HSA-174411,0.0004136652359304771,864.0,0,$\widetilde{A}_{G_0}$,hybrid
R-HSA-72662,0.0004133470107947155,865.0,0,$\widetilde{A}_{G_0}$,hybrid
R-HSA-171319,0.00041241790027580913,866.0,0,$\widetilde{A}_{G_0}$,hybrid
R-HSA-114608,0.0004107935374429013,867.0,0,$\widetilde{A}_{G_0}$,hybrid
R-HSA-4419969,0.0004107073162011103,868.0,0,$\widetilde{A}_{G_0}$,hybrid
R-HSA-9033241,0.0004080705536104288,869.0,0,$\widetilde{A}_{G_0}$,hybrid
R-HSA-167290,0.00040665277611584897,870.0,0,$\widetilde{A}_{G_0}$,hybrid
R-HSA-167287,0.0004066527761158487,871.0,0,$\widetilde{A}_{G_0}$,hybrid
R-HSA-8979227,0.0004064850268660489,872.0,0,$\widetilde{A}_{G_0}$,hybrid
R-HSA-157579,0.000405661172974492,873.0,0,$\widetilde{A}_{G_0}$,hybrid
R-HSA-1500620,0.00040501745951973273,874.5,0,$\widetilde{A}_{G_0}$,hybrid
R-HSA-1474165,0.00040501745951973273,874.5,0,$\widetilde{A}_{G_0}$,hybrid
R-HSA-70326,0.0004046440667421963,876.0,0,$\widetilde{A}_{G_0}$,hybrid
R-HSA-111367,0.00040432606462088746,877.0,0,$\widetilde{A}_{G_0}$,hybrid
R-HSA-2980736,0.0004025740183449696,878.0,0,$\widetilde{A}_{G_0}$,hybrid
R-HSA-72306,0.00040044810865375827,879.0,0,$\widetilde{A}_{G_0}$,hybrid
R-HSA-77595,0.0003998221970598817,880.0,0,$\widetilde{A}_{G_0}$,hybrid
R-HSA-9694548,0.00039981950729969605,881.0,0,$\widetilde{A}_{G_0}$,hybrid
R-HSA-525793,0.0003980802176429049,882.0,0,$\widetilde{A}_{G_0}$,hybrid
R-HSA-8876725,0.00039750708663605685,883.0,0,$\widetilde{A}_{G_0}$,hybrid
R-HSA-6783310,0.00039588060730524774,884.0,0,$\widetilde{A}_{G_0}$,hybrid
R-HSA-912446,0.0003950078700599636,885.0,0,$\widetilde{A}_{G_0}$,hybrid
R-HSA-1489509,0.0003948839159966895,886.0,0,$\widetilde{A}_{G_0}$,hybrid
R-HSA-5656169,0.00039451802795297073,887.0,0,$\widetilde{A}_{G_0}$,hybrid
R-HSA-4641265,0.00039224761529339764,888.0,0,$\widetilde{A}_{G_0}$,hybrid
R-HSA-2173791,0.0003914542522485322,889.0,0,$\widetilde{A}_{G_0}$,hybrid
R-HSA-6804758,0.00039110102489791395,890.0,0,$\widetilde{A}_{G_0}$,hybrid
R-HSA-71406,0.0003906688923151448,891.0,0,$\widetilde{A}_{G_0}$,hybrid
R-HSA-9670095,0.00038966118722423505,892.0,0,$\widetilde{A}_{G_0}$,hybrid
R-HSA-3108214,0.00038740059012865995,893.0,0,$\widetilde{A}_{G_0}$,hybrid
R-HSA-203927,0.0003864799417024873,894.0,0,$\widetilde{A}_{G_0}$,hybrid
R-HSA-210991,0.00038517952024494443,895.0,0,$\widetilde{A}_{G_0}$,hybrid
R-HSA-5651801,0.00038458113340140786,896.0,0,$\widetilde{A}_{G_0}$,hybrid
R-HSA-9616222,0.00038438564128827444,897.0,0,$\widetilde{A}_{G_0}$,hybrid
R-HSA-1912408,0.00038364082801232324,898.0,0,$\widetilde{A}_{G_0}$,hybrid
R-HSA-3214858,0.0003832794949428931,899.0,0,$\widetilde{A}_{G_0}$,hybrid
R-HSA-75153,0.0003830495040173993,900.0,0,$\widetilde{A}_{G_0}$,hybrid
R-HSA-1630316,0.00038293281829894005,901.0,0,$\widetilde{A}_{G_0}$,hybrid
R-HSA-73762,0.00038033919958948225,902.0,0,$\widetilde{A}_{G_0}$,hybrid
R-HSA-380284,0.0003803030272226274,903.5,0,$\widetilde{A}_{G_0}$,hybrid
R-HSA-380259,0.0003803030272226274,903.5,0,$\widetilde{A}_{G_0}$,hybrid
R-HSA-2028269,0.0003802232011759577,905.0,0,$\widetilde{A}_{G_0}$,hybrid
R-HSA-9619665,0.0003790860813831602,906.0,0,$\widetilde{A}_{G_0}$,hybrid
R-HSA-194441,0.00037827899837362836,907.5,0,$\widetilde{A}_{G_0}$,hybrid
R-HSA-191859,0.00037827899837362836,907.5,0,$\widetilde{A}_{G_0}$,hybrid
R-HSA-983712,0.00037610842494240006,909.0,0,$\widetilde{A}_{G_0}$,hybrid
R-HSA-774815,0.0003752543470564491,910.5,0,$\widetilde{A}_{G_0}$,hybrid
R-HSA-606279,0.0003752543470564491,910.5,0,$\widetilde{A}_{G_0}$,hybrid
R-HSA-174437,0.00037521316213161125,912.0,0,$\widetilde{A}_{G_0}$,hybrid
R-HSA-2122948,0.0003730214509743986,913.0,0,$\widetilde{A}_{G_0}$,hybrid
R-HSA-427389,0.0003721798337147381,914.0,0,$\widetilde{A}_{G_0}$,hybrid
R-HSA-77588,0.0003714707822322362,915.0,0,$\widetilde{A}_{G_0}$,hybrid
R-HSA-4086398,0.000371235521955094,916.0,0,$\widetilde{A}_{G_0}$,hybrid
R-HSA-163210,0.000371202172777399,917.0,0,$\widetilde{A}_{G_0}$,hybrid
R-HSA-749476,0.0003709083212005947,919.0,0,$\widetilde{A}_{G_0}$,hybrid
R-HSA-74158,0.0003709083212005947,919.0,0,$\widetilde{A}_{G_0}$,hybrid
R-HSA-76046,0.0003709083212005947,919.0,0,$\widetilde{A}_{G_0}$,hybrid
R-HSA-5205685,0.00036900428840675744,921.0,0,$\widetilde{A}_{G_0}$,hybrid
R-HSA-3214841,0.00036820355524939773,922.0,0,$\widetilde{A}_{G_0}$,hybrid
R-HSA-3215018,0.0003674944379969588,923.0,0,$\widetilde{A}_{G_0}$,hybrid
R-HSA-5696397,0.00036741824695358155,924.0,0,$\widetilde{A}_{G_0}$,hybrid
R-HSA-425407,0.00036586227455576636,925.0,0,$\widetilde{A}_{G_0}$,hybrid
R-HSA-381070,0.00036348197031727366,926.0,0,$\widetilde{A}_{G_0}$,hybrid
R-HSA-6806003,0.0003607877869593679,927.5,0,$\widetilde{A}_{G_0}$,hybrid
R-HSA-6804757,0.0003607877869593679,927.5,0,$\widetilde{A}_{G_0}$,hybrid
R-HSA-1483257,0.0003547159137025705,929.0,0,$\widetilde{A}_{G_0}$,hybrid
R-HSA-5693571,0.00035452626706123,930.0,0,$\widetilde{A}_{G_0}$,hybrid
R-HSA-198725,0.0003524493066224637,931.0,0,$\widetilde{A}_{G_0}$,hybrid
R-HSA-73863,0.00035142554129346013,932.0,0,$\widetilde{A}_{G_0}$,hybrid
R-HSA-379716,0.00034928494092406853,933.0,0,$\widetilde{A}_{G_0}$,hybrid
R-HSA-6811434,0.00034914958389502764,934.0,0,$\widetilde{A}_{G_0}$,hybrid
R-HSA-446353,0.00034889404722550577,935.0,0,$\widetilde{A}_{G_0}$,hybrid
R-HSA-1912422,0.0003486643263500308,936.0,0,$\widetilde{A}_{G_0}$,hybrid
R-HSA-5625740,0.00034847629539311753,937.0,0,$\widetilde{A}_{G_0}$,hybrid
R-HSA-1221632,0.00034559271626727014,938.0,0,$\widetilde{A}_{G_0}$,hybrid
R-HSA-110312,0.0003448423945086477,939.0,0,$\widetilde{A}_{G_0}$,hybrid
R-HSA-110313,0.00034402695510202225,940.0,0,$\widetilde{A}_{G_0}$,hybrid
R-HSA-2173796,0.0003422380699283414,941.0,0,$\widetilde{A}_{G_0}$,hybrid
R-HSA-379724,0.0003420532348900289,942.0,0,$\widetilde{A}_{G_0}$,hybrid
R-HSA-392517,0.00034113613329388685,943.0,0,$\widetilde{A}_{G_0}$,hybrid
R-HSA-110373,0.00034081973471884275,944.0,0,$\widetilde{A}_{G_0}$,hybrid
R-HSA-6807505,0.00033670119501342974,945.0,0,$\widetilde{A}_{G_0}$,hybrid
R-HSA-381042,0.0003362917984737409,946.0,0,$\widetilde{A}_{G_0}$,hybrid
R-HSA-5655862,0.00033588732504497823,947.0,0,$\widetilde{A}_{G_0}$,hybrid
R-HSA-5368286,0.00033152546127323325,948.0,0,$\widetilde{A}_{G_0}$,hybrid
R-HSA-5419276,0.0003312001983379616,949.0,0,$\widetilde{A}_{G_0}$,hybrid
R-HSA-380287,0.00032873869551207547,950.5,0,$\widetilde{A}_{G_0}$,hybrid
R-HSA-380270,0.00032873869551207547,950.5,0,$\widetilde{A}_{G_0}$,hybrid
R-HSA-5389840,0.00032864985113488515,952.0,0,$\widetilde{A}_{G_0}$,hybrid
R-HSA-8949613,0.0003284671905227781,953.0,0,$\widetilde{A}_{G_0}$,hybrid
R-HSA-2672351,0.0003284004977422607,954.0,0,$\widetilde{A}_{G_0}$,hybrid
R-HSA-73893,0.00032670242994026737,955.0,0,$\widetilde{A}_{G_0}$,hybrid
R-HSA-111465,0.00032550355384216163,956.0,0,$\widetilde{A}_{G_0}$,hybrid
R-HSA-204998,0.000320218176217155,957.0,0,$\widetilde{A}_{G_0}$,hybrid
R-HSA-2173793,0.00031931574397806495,958.0,0,$\widetilde{A}_{G_0}$,hybrid
R-HSA-73772,0.00031662071510768963,959.0,0,$\widetilde{A}_{G_0}$,hybrid
R-HSA-5368287,0.00031575122166944703,960.0,0,$\widetilde{A}_{G_0}$,hybrid
R-HSA-429914,0.0003142097782531865,961.0,0,$\widetilde{A}_{G_0}$,hybrid
R-HSA-5620920,0.00031334273590018626,962.0,0,$\widetilde{A}_{G_0}$,hybrid
R-HSA-428157,0.0003129617438414036,963.0,0,$\widetilde{A}_{G_0}$,hybrid
R-HSA-201722,0.000310852487006021,964.0,0,$\widetilde{A}_{G_0}$,hybrid
R-HSA-5250924,0.00030813439021090515,965.0,0,$\widetilde{A}_{G_0}$,hybrid
R-HSA-1834949,0.0003055862716048133,966.0,0,$\widetilde{A}_{G_0}$,hybrid
R-HSA-9694635,0.00030201192811305313,967.0,0,$\widetilde{A}_{G_0}$,hybrid
R-HSA-532668,0.00030180907244235436,968.0,0,$\widetilde{A}_{G_0}$,hybrid
R-HSA-5693565,0.0003003666461503306,969.0,0,$\widetilde{A}_{G_0}$,hybrid
R-HSA-8936459,0.00030006690024926975,970.0,0,$\widetilde{A}_{G_0}$,hybrid
R-HSA-5693606,0.0002965154769242366,971.0,0,$\widetilde{A}_{G_0}$,hybrid
R-HSA-8939243,0.00029620220499702643,972.0,0,$\widetilde{A}_{G_0}$,hybrid
R-HSA-9645723,0.0002927711080270463,973.0,0,$\widetilde{A}_{G_0}$,hybrid
R-HSA-381119,0.0002923375858412481,974.0,0,$\widetilde{A}_{G_0}$,hybrid
R-HSA-5617472,0.00028741291139850253,975.5,0,$\widetilde{A}_{G_0}$,hybrid
R-HSA-5619507,0.00028741291139850253,975.5,0,$\widetilde{A}_{G_0}$,hybrid
R-HSA-5620912,0.00028688002231536683,977.0,0,$\widetilde{A}_{G_0}$,hybrid
R-HSA-159236,0.00028589149369691894,978.0,0,$\widetilde{A}_{G_0}$,hybrid
R-HSA-3781865,0.0002854692104608414,979.0,0,$\widetilde{A}_{G_0}$,hybrid
R-HSA-6803204,0.0002821556963406087,980.0,0,$\widetilde{A}_{G_0}$,hybrid
R-HSA-9610379,0.0002816461266815873,981.0,0,$\widetilde{A}_{G_0}$,hybrid
R-HSA-3214815,0.0002794779476586922,982.0,0,$\widetilde{A}_{G_0}$,hybrid
R-HSA-72202,0.0002788784755950438,983.0,0,$\widetilde{A}_{G_0}$,hybrid
R-HSA-6790901,0.0002779315081265558,984.0,0,$\widetilde{A}_{G_0}$,hybrid
R-HSA-8854214,0.00027682199342897836,985.0,0,$\widetilde{A}_{G_0}$,hybrid
R-HSA-1592230,0.00027438400290960276,986.0,0,$\widetilde{A}_{G_0}$,hybrid
R-HSA-6807878,0.000274259014699503,987.0,0,$\widetilde{A}_{G_0}$,hybrid
R-HSA-430039,0.0002740160815715636,988.0,0,$\widetilde{A}_{G_0}$,hybrid
R-HSA-6811438,0.000273208782587476,989.0,0,$\widetilde{A}_{G_0}$,hybrid
R-HSA-5578749,0.0002731286514095798,990.0,0,$\widetilde{A}_{G_0}$,hybrid
R-HSA-211000,0.00027091646710399666,991.0,0,$\widetilde{A}_{G_0}$,hybrid
R-HSA-9013406,0.0002696791531625322,992.0,0,$\widetilde{A}_{G_0}$,hybrid
R-HSA-8856688,0.00026881015346639413,993.0,0,$\widetilde{A}_{G_0}$,hybrid
R-HSA-9031628,0.0002672401693563545,994.0,0,$\widetilde{A}_{G_0}$,hybrid
R-HSA-8949664,0.00026591916085742714,995.0,0,$\widetilde{A}_{G_0}$,hybrid
R-HSA-5250913,0.0002611588592342519,996.0,0,$\widetilde{A}_{G_0}$,hybrid
R-HSA-264876,0.000260854762385066,997.0,0,$\widetilde{A}_{G_0}$,hybrid
R-HSA-73933,0.00026007471492007654,998.0,0,$\widetilde{A}_{G_0}$,hybrid
R-HSA-4551638,0.00025877862280435164,999.0,0,$\widetilde{A}_{G_0}$,hybrid
R-HSA-9609690,0.0002484266179952734,1000.0,0,$\widetilde{A}_{G_0}$,hybrid
R-HSA-2559580,0.0002474710098613097,1001.0,0,$\widetilde{A}_{G_0}$,hybrid
R-HSA-72187,0.00024301666990477586,1002.0,0,$\widetilde{A}_{G_0}$,hybrid
R-HSA-3214847,0.00024128245327033058,1003.0,0,$\widetilde{A}_{G_0}$,hybrid
R-HSA-8866654,0.00023720832502136522,1004.0,0,$\widetilde{A}_{G_0}$,hybrid
R-HSA-5633008,0.0002356640538008402,1005.0,0,$\widetilde{A}_{G_0}$,hybrid
R-HSA-71403,0.00023419644672800435,1006.0,0,$\widetilde{A}_{G_0}$,hybrid
R-HSA-75067,0.0002336563442296032,1007.0,0,$\widetilde{A}_{G_0}$,hybrid
R-HSA-73884,0.00023072652883654807,1008.0,0,$\widetilde{A}_{G_0}$,hybrid
R-HSA-8949215,0.0002241654280538435,1009.0,0,$\widetilde{A}_{G_0}$,hybrid
R-HSA-1483206,0.000223344337303902,1010.0,0,$\widetilde{A}_{G_0}$,hybrid
R-HSA-163125,0.00022191761097654076,1011.0,0,$\widetilde{A}_{G_0}$,hybrid
R-HSA-1362409,0.0002201962070080196,1012.0,0,$\widetilde{A}_{G_0}$,hybrid
R-HSA-73856,0.00021027374455697643,1013.0,0,$\widetilde{A}_{G_0}$,hybrid
R-HSA-163841,0.00019251425186074916,1014.0,0,$\widetilde{A}_{G_0}$,hybrid
R-HSA-9694516,0.0001884459042946685,1015.0,0,$\widetilde{A}_{G_0}$,hybrid
R-HSA-5620916,0.00018728707480816103,1016.0,0,$\widetilde{A}_{G_0}$,hybrid
R-HSA-8852135,0.00017779454606843136,1017.0,0,$\widetilde{A}_{G_0}$,hybrid
R-HSA-373755,0.00015507414623680438,1018.0,0,$\widetilde{A}_{G_0}$,hybrid
R-HSA-5218859,0.00014460958559889928,1019.0,0,$\widetilde{A}_{G_0}$,hybrid
R-HSA-500792,0.000139168188528434,1020.0,0,$\widetilde{A}_{G_0}$,hybrid
R-HSA-1268020,0.0001340756419805781,1021.0,0,$\widetilde{A}_{G_0}$,hybrid
R-HSA-6811440,0.00011804209468407588,1022.0,0,$\widetilde{A}_{G_0}$,hybrid
R-HSA-6785807,7.879662542144142e-05,1023.0,0,$\widetilde{A}_{G_0}$,hybrid
