entity,score,rank,graphlet,graphlet_adj,score_method
R-HSA-5620912,0.020759099238550096,1.0,8,$\widetilde{A}_{G_8}$,hybrid
R-HSA-211000,0.019774994045521608,2.0,8,$\widetilde{A}_{G_8}$,hybrid
R-HSA-166663,0.007907032076053245,3.0,8,$\widetilde{A}_{G_8}$,hybrid
R-HSA-1362409,0.005721297937986592,4.0,8,$\widetilde{A}_{G_8}$,hybrid
R-HSA-390522,0.005645941430426295,5.0,8,$\widetilde{A}_{G_8}$,hybrid
R-HSA-389948,0.005598527782735717,6.0,8,$\widetilde{A}_{G_8}$,hybrid
R-HSA-1566948,0.004950628221078721,7.0,8,$\widetilde{A}_{G_8}$,hybrid
R-HSA-2129379,0.004893758060509467,8.0,8,$\widetilde{A}_{G_8}$,hybrid
R-HSA-166658,0.004760298634949015,9.0,8,$\widetilde{A}_{G_8}$,hybrid
R-HSA-202427,0.004754518214434058,10.0,8,$\widetilde{A}_{G_8}$,hybrid
R-HSA-5686938,0.0046419855387461,11.0,8,$\widetilde{A}_{G_8}$,hybrid
R-HSA-975163,0.004386609249286602,12.0,8,$\widetilde{A}_{G_8}$,hybrid
R-HSA-1296059,0.004251237471975818,15.0,8,$\widetilde{A}_{G_8}$,hybrid
R-HSA-1296065,0.004251237471975818,15.0,8,$\widetilde{A}_{G_8}$,hybrid
R-HSA-1296071,0.004251237471975818,15.0,8,$\widetilde{A}_{G_8}$,hybrid
R-HSA-997272,0.004251237471975818,15.0,8,$\widetilde{A}_{G_8}$,hybrid
R-HSA-1296041,0.004251237471975818,15.0,8,$\widetilde{A}_{G_8}$,hybrid
R-HSA-937072,0.004165987574428247,18.0,8,$\widetilde{A}_{G_8}$,hybrid
R-HSA-1222556,0.004156019953133396,19.0,8,$\widetilde{A}_{G_8}$,hybrid
R-HSA-977606,0.0041126188267779475,20.0,8,$\widetilde{A}_{G_8}$,hybrid
R-HSA-5602498,0.004006582255378207,21.0,8,$\widetilde{A}_{G_8}$,hybrid
R-HSA-936964,0.00395791074033636,22.0,8,$\widetilde{A}_{G_8}$,hybrid
R-HSA-77387,0.0039549197995400335,23.0,8,$\widetilde{A}_{G_8}$,hybrid
R-HSA-5603041,0.0037711187874009443,24.0,8,$\widetilde{A}_{G_8}$,hybrid
R-HSA-202040,0.0036670892313467353,25.0,8,$\widetilde{A}_{G_8}$,hybrid
R-HSA-418592,0.0036615367384655374,26.0,8,$\widetilde{A}_{G_8}$,hybrid
R-HSA-202433,0.003603688208134869,27.0,8,$\widetilde{A}_{G_8}$,hybrid
R-HSA-917977,0.0036013427254809045,28.0,8,$\widetilde{A}_{G_8}$,hybrid
R-HSA-991365,0.0034807772431356267,30.0,8,$\widetilde{A}_{G_8}$,hybrid
R-HSA-977444,0.0034807772431356267,30.0,8,$\widetilde{A}_{G_8}$,hybrid
R-HSA-977443,0.0034807772431356267,30.0,8,$\widetilde{A}_{G_8}$,hybrid
R-HSA-442982,0.0034272259111041686,32.0,8,$\widetilde{A}_{G_8}$,hybrid
R-HSA-140534,0.0033772773195969987,33.0,8,$\widetilde{A}_{G_8}$,hybrid
R-HSA-428930,0.0033653828761385793,34.0,8,$\widetilde{A}_{G_8}$,hybrid
R-HSA-5668599,0.0033546839553459515,35.0,8,$\widetilde{A}_{G_8}$,hybrid
R-HSA-2029481,0.00333085837399544,36.0,8,$\widetilde{A}_{G_8}$,hybrid
R-HSA-8948216,0.0032613110642136173,37.0,8,$\widetilde{A}_{G_8}$,hybrid
R-HSA-422356,0.0032549631393973223,38.0,8,$\widetilde{A}_{G_8}$,hybrid
R-HSA-438066,0.0031128737832301686,39.0,8,$\widetilde{A}_{G_8}$,hybrid
R-HSA-2424491,0.003068722303203976,40.0,8,$\widetilde{A}_{G_8}$,hybrid
R-HSA-5655253,0.003023660596981651,41.0,8,$\widetilde{A}_{G_8}$,hybrid
R-HSA-418346,0.002921953119341473,42.0,8,$\widetilde{A}_{G_8}$,hybrid
R-HSA-2172127,0.002841636404105258,43.0,8,$\widetilde{A}_{G_8}$,hybrid
R-HSA-917937,0.0028398509219944687,44.0,8,$\widetilde{A}_{G_8}$,hybrid
R-HSA-209560,0.002767874408515344,45.0,8,$\widetilde{A}_{G_8}$,hybrid
R-HSA-209543,0.0027633835561974005,46.0,8,$\widetilde{A}_{G_8}$,hybrid
R-HSA-1250347,0.002761728595217316,47.0,8,$\widetilde{A}_{G_8}$,hybrid
R-HSA-205043,0.0027594018264312,48.0,8,$\widetilde{A}_{G_8}$,hybrid
R-HSA-180336,0.0027333109349321747,49.0,8,$\widetilde{A}_{G_8}$,hybrid
R-HSA-5655291,0.0026812755110087756,50.0,8,$\widetilde{A}_{G_8}$,hybrid
R-HSA-9617324,0.0026685727453493453,51.0,8,$\widetilde{A}_{G_8}$,hybrid
R-HSA-5637812,0.002664986489964634,52.5,8,$\widetilde{A}_{G_8}$,hybrid
R-HSA-5637810,0.002664986489964634,52.5,8,$\widetilde{A}_{G_8}$,hybrid
R-HSA-112043,0.002664141953542428,54.0,8,$\widetilde{A}_{G_8}$,hybrid
R-HSA-2029485,0.0026551621692361763,55.0,8,$\widetilde{A}_{G_8}$,hybrid
R-HSA-392518,0.002594570211140856,56.0,8,$\widetilde{A}_{G_8}$,hybrid
R-HSA-9620244,0.0025840630310920857,57.0,8,$\widetilde{A}_{G_8}$,hybrid
R-HSA-5654708,0.002565270607828008,58.0,8,$\widetilde{A}_{G_8}$,hybrid
R-HSA-8853334,0.0025630140352399483,59.0,8,$\widetilde{A}_{G_8}$,hybrid
R-HSA-5654716,0.002533066697737336,60.0,8,$\widetilde{A}_{G_8}$,hybrid
R-HSA-5602358,0.0025157293778396077,61.0,8,$\widetilde{A}_{G_8}$,hybrid
R-HSA-5260271,0.0025157293778396072,62.0,8,$\widetilde{A}_{G_8}$,hybrid
R-HSA-8853338,0.002504143683025219,63.5,8,$\widetilde{A}_{G_8}$,hybrid
R-HSA-5655332,0.002504143683025219,63.5,8,$\widetilde{A}_{G_8}$,hybrid
R-HSA-1236394,0.002500518758836791,65.0,8,$\widetilde{A}_{G_8}$,hybrid
R-HSA-5357769,0.0024953219360743855,66.0,8,$\widetilde{A}_{G_8}$,hybrid
R-HSA-451326,0.0024806626193033857,67.0,8,$\widetilde{A}_{G_8}$,hybrid
R-HSA-500657,0.002480662619303385,68.5,8,$\widetilde{A}_{G_8}$,hybrid
R-HSA-418217,0.002480662619303385,68.5,8,$\widetilde{A}_{G_8}$,hybrid
R-HSA-193692,0.002473989723418246,70.0,8,$\widetilde{A}_{G_8}$,hybrid
R-HSA-210990,0.002469374938629612,71.0,8,$\widetilde{A}_{G_8}$,hybrid
R-HSA-114604,0.002456573796201342,72.0,8,$\widetilde{A}_{G_8}$,hybrid
R-HSA-112040,0.002454802116016394,73.0,8,$\widetilde{A}_{G_8}$,hybrid
R-HSA-1963642,0.00243683927083651,74.0,8,$\widetilde{A}_{G_8}$,hybrid
R-HSA-456926,0.0024215939580332774,75.0,8,$\widetilde{A}_{G_8}$,hybrid
R-HSA-937041,0.002419417705195854,76.0,8,$\widetilde{A}_{G_8}$,hybrid
R-HSA-2730905,0.0024175408708582966,77.0,8,$\widetilde{A}_{G_8}$,hybrid
R-HSA-9665348,0.002407499675299469,78.0,8,$\widetilde{A}_{G_8}$,hybrid
R-HSA-9664565,0.0023606368506040227,79.0,8,$\widetilde{A}_{G_8}$,hybrid
R-HSA-5654687,0.0023543603250033495,80.0,8,$\widetilde{A}_{G_8}$,hybrid
R-HSA-8983432,0.002332046891922953,81.0,8,$\widetilde{A}_{G_8}$,hybrid
R-HSA-193639,0.0023265496344869636,82.0,8,$\widetilde{A}_{G_8}$,hybrid
R-HSA-163685,0.0023243238650082778,83.0,8,$\widetilde{A}_{G_8}$,hybrid
R-HSA-2871796,0.002303736332122324,84.0,8,$\widetilde{A}_{G_8}$,hybrid
R-HSA-9673770,0.002303628246830552,85.0,8,$\widetilde{A}_{G_8}$,hybrid
R-HSA-9673767,0.002303628246830551,86.0,8,$\widetilde{A}_{G_8}$,hybrid
R-HSA-442742,0.0022951224708744433,87.0,8,$\widetilde{A}_{G_8}$,hybrid
R-HSA-1227990,0.002286499439348528,88.0,8,$\widetilde{A}_{G_8}$,hybrid
R-HSA-3299685,0.002285393646477577,89.0,8,$\widetilde{A}_{G_8}$,hybrid
R-HSA-354192,0.002275879734252723,90.0,8,$\widetilde{A}_{G_8}$,hybrid
R-HSA-1643713,0.0022698824450247722,91.0,8,$\widetilde{A}_{G_8}$,hybrid
R-HSA-388841,0.002260193616435369,92.0,8,$\widetilde{A}_{G_8}$,hybrid
R-HSA-2871809,0.0022597385156996543,93.0,8,$\widetilde{A}_{G_8}$,hybrid
R-HSA-389359,0.0022579036277184184,94.0,8,$\widetilde{A}_{G_8}$,hybrid
R-HSA-983695,0.002255734411578249,95.0,8,$\widetilde{A}_{G_8}$,hybrid
R-HSA-1963640,0.002252697803456271,96.0,8,$\widetilde{A}_{G_8}$,hybrid
R-HSA-9703648,0.002239304717685059,97.0,8,$\widetilde{A}_{G_8}$,hybrid
R-HSA-373752,0.002236883198460584,98.0,8,$\widetilde{A}_{G_8}$,hybrid
R-HSA-9665686,0.002225614980233853,99.0,8,$\widetilde{A}_{G_8}$,hybrid
R-HSA-113501,0.002225358750643644,100.0,8,$\widetilde{A}_{G_8}$,hybrid
R-HSA-201451,0.002224448846487304,101.0,8,$\widetilde{A}_{G_8}$,hybrid
R-HSA-5576891,0.002223912087799037,102.0,8,$\widetilde{A}_{G_8}$,hybrid
R-HSA-5637815,0.0022189838292437647,103.0,8,$\widetilde{A}_{G_8}$,hybrid
R-HSA-1236382,0.002218983829243764,104.0,8,$\widetilde{A}_{G_8}$,hybrid
R-HSA-5654696,0.0022155565278167196,105.0,8,$\widetilde{A}_{G_8}$,hybrid
R-HSA-9020558,0.002215274772365064,106.0,8,$\widetilde{A}_{G_8}$,hybrid
R-HSA-381426,0.002178368278882006,107.0,8,$\widetilde{A}_{G_8}$,hybrid
R-HSA-418990,0.0021732869898091296,108.0,8,$\widetilde{A}_{G_8}$,hybrid
R-HSA-9027284,0.002141191475587387,109.0,8,$\widetilde{A}_{G_8}$,hybrid
R-HSA-180292,0.002138991045990658,110.0,8,$\widetilde{A}_{G_8}$,hybrid
R-HSA-210993,0.0021386937326554278,111.0,8,$\widetilde{A}_{G_8}$,hybrid
R-HSA-5621480,0.0021340423522440057,112.0,8,$\widetilde{A}_{G_8}$,hybrid
R-HSA-9669938,0.0021272624632382698,113.5,8,$\widetilde{A}_{G_8}$,hybrid
R-HSA-9670439,0.0021272624632382698,113.5,8,$\widetilde{A}_{G_8}$,hybrid
R-HSA-912526,0.00212480960612503,115.0,8,$\widetilde{A}_{G_8}$,hybrid
R-HSA-76009,0.002124249925836007,116.0,8,$\widetilde{A}_{G_8}$,hybrid
R-HSA-5654689,0.0021181278034802403,117.0,8,$\widetilde{A}_{G_8}$,hybrid
R-HSA-5654699,0.002117028892560313,118.0,8,$\widetilde{A}_{G_8}$,hybrid
R-HSA-5654695,0.0021092597377082595,119.0,8,$\widetilde{A}_{G_8}$,hybrid
R-HSA-9034015,0.0021040691058335234,120.0,8,$\widetilde{A}_{G_8}$,hybrid
R-HSA-5654712,0.002101630309702584,121.0,8,$\widetilde{A}_{G_8}$,hybrid
R-HSA-354194,0.00210071876636629,122.0,8,$\widetilde{A}_{G_8}$,hybrid
R-HSA-163359,0.0020775804717761974,123.0,8,$\widetilde{A}_{G_8}$,hybrid
R-HSA-9006335,0.002063133861525169,124.0,8,$\widetilde{A}_{G_8}$,hybrid
R-HSA-5654688,0.002048376541575046,125.0,8,$\widetilde{A}_{G_8}$,hybrid
R-HSA-5654706,0.0020431161480795462,126.0,8,$\widetilde{A}_{G_8}$,hybrid
R-HSA-6814122,0.0020368902526908075,127.0,8,$\widetilde{A}_{G_8}$,hybrid
R-HSA-3000157,0.00202824073724483,128.0,8,$\widetilde{A}_{G_8}$,hybrid
R-HSA-9634285,0.0019786326789642105,129.0,8,$\widetilde{A}_{G_8}$,hybrid
R-HSA-1059683,0.001977800107155304,130.0,8,$\widetilde{A}_{G_8}$,hybrid
R-HSA-111885,0.0019390100466071267,131.0,8,$\widetilde{A}_{G_8}$,hybrid
R-HSA-9028731,0.001937206853809631,132.0,8,$\widetilde{A}_{G_8}$,hybrid
R-HSA-2672351,0.00188994700131442,133.0,8,$\widetilde{A}_{G_8}$,hybrid
R-HSA-438064,0.0018866866215302637,134.0,8,$\widetilde{A}_{G_8}$,hybrid
R-HSA-1433559,0.001886360245178874,135.0,8,$\widetilde{A}_{G_8}$,hybrid
R-HSA-912631,0.0018753567427200976,136.0,8,$\widetilde{A}_{G_8}$,hybrid
R-HSA-5654693,0.0018750369518166084,137.0,8,$\widetilde{A}_{G_8}$,hybrid
R-HSA-1810476,0.001874509139382196,138.0,8,$\widetilde{A}_{G_8}$,hybrid
R-HSA-9006115,0.0018694007393287976,139.0,8,$\widetilde{A}_{G_8}$,hybrid
R-HSA-69416,0.0018501446875803774,140.0,8,$\widetilde{A}_{G_8}$,hybrid
R-HSA-5218900,0.0018501446875803767,141.5,8,$\widetilde{A}_{G_8}$,hybrid
R-HSA-3371378,0.0018501446875803767,141.5,8,$\widetilde{A}_{G_8}$,hybrid
R-HSA-5654700,0.0018425874526001446,143.0,8,$\widetilde{A}_{G_8}$,hybrid
R-HSA-1250196,0.001836552694356961,144.0,8,$\widetilde{A}_{G_8}$,hybrid
R-HSA-933543,0.0018346825367092485,145.0,8,$\widetilde{A}_{G_8}$,hybrid
R-HSA-9671555,0.0018333952209485967,146.0,8,$\widetilde{A}_{G_8}$,hybrid
R-HSA-9027276,0.001822600148422744,147.0,8,$\widetilde{A}_{G_8}$,hybrid
R-HSA-8957275,0.001815376162343511,148.0,8,$\widetilde{A}_{G_8}$,hybrid
R-HSA-8984722,0.0018014353527734009,149.0,8,$\widetilde{A}_{G_8}$,hybrid
R-HSA-186763,0.0017959156837154622,150.0,8,$\widetilde{A}_{G_8}$,hybrid
R-HSA-5578775,0.0017804819377453453,151.0,8,$\widetilde{A}_{G_8}$,hybrid
R-HSA-8851805,0.0017648997186744822,152.0,8,$\widetilde{A}_{G_8}$,hybrid
R-HSA-442755,0.0017583470526557755,153.0,8,$\widetilde{A}_{G_8}$,hybrid
R-HSA-8874081,0.0017478437657860674,154.0,8,$\widetilde{A}_{G_8}$,hybrid
R-HSA-1606322,0.0017476979288413913,155.0,8,$\widetilde{A}_{G_8}$,hybrid
R-HSA-451927,0.0017460039251797124,156.0,8,$\widetilde{A}_{G_8}$,hybrid
R-HSA-420092,0.0017450291292468566,157.0,8,$\widetilde{A}_{G_8}$,hybrid
R-HSA-933541,0.0017384142590439816,158.0,8,$\widetilde{A}_{G_8}$,hybrid
R-HSA-5694530,0.001723904807088014,159.0,8,$\widetilde{A}_{G_8}$,hybrid
R-HSA-1266695,0.0017236445568382614,160.0,8,$\widetilde{A}_{G_8}$,hybrid
R-HSA-264876,0.0017193622441504795,161.0,8,$\widetilde{A}_{G_8}$,hybrid
R-HSA-164952,0.0017191902943173762,162.0,8,$\widetilde{A}_{G_8}$,hybrid
R-HSA-9020956,0.0017075658777981923,163.0,8,$\widetilde{A}_{G_8}$,hybrid
R-HSA-450321,0.0016843906881873468,164.0,8,$\widetilde{A}_{G_8}$,hybrid
R-HSA-9609736,0.001677067934588391,165.0,8,$\widetilde{A}_{G_8}$,hybrid
R-HSA-164938,0.0016713432492793828,166.0,8,$\widetilde{A}_{G_8}$,hybrid
R-HSA-2586552,0.0016577901498626734,167.0,8,$\widetilde{A}_{G_8}$,hybrid
R-HSA-1433557,0.00165062348450044,168.0,8,$\widetilde{A}_{G_8}$,hybrid
R-HSA-392517,0.001644078296568052,169.0,8,$\widetilde{A}_{G_8}$,hybrid
R-HSA-5625740,0.0016435836988519823,170.0,8,$\widetilde{A}_{G_8}$,hybrid
R-HSA-445989,0.0016345641731383396,171.0,8,$\widetilde{A}_{G_8}$,hybrid
R-HSA-9703465,0.0016299059242919785,172.0,8,$\widetilde{A}_{G_8}$,hybrid
R-HSA-8964315,0.0016237927198814468,173.0,8,$\widetilde{A}_{G_8}$,hybrid
R-HSA-9648002,0.0016194571845900138,174.0,8,$\widetilde{A}_{G_8}$,hybrid
R-HSA-5654743,0.001616379528061258,175.0,8,$\widetilde{A}_{G_8}$,hybrid
R-HSA-372708,0.0016151853462638092,176.0,8,$\widetilde{A}_{G_8}$,hybrid
R-HSA-512988,0.001613150874789296,177.0,8,$\widetilde{A}_{G_8}$,hybrid
R-HSA-6783589,0.0016130689323492992,178.0,8,$\widetilde{A}_{G_8}$,hybrid
R-HSA-164940,0.0016026944097062678,179.0,8,$\widetilde{A}_{G_8}$,hybrid
R-HSA-446728,0.0016009908086257814,180.0,8,$\widetilde{A}_{G_8}$,hybrid
R-HSA-5654741,0.0015891218137308143,181.0,8,$\widetilde{A}_{G_8}$,hybrid
R-HSA-1442490,0.001581369054561837,182.0,8,$\widetilde{A}_{G_8}$,hybrid
R-HSA-421270,0.001576954338045489,183.0,8,$\widetilde{A}_{G_8}$,hybrid
R-HSA-2022377,0.0015732848498317218,184.0,8,$\widetilde{A}_{G_8}$,hybrid
R-HSA-1592389,0.0015718073465247617,185.0,8,$\widetilde{A}_{G_8}$,hybrid
R-HSA-8854691,0.001571537558462337,186.0,8,$\widetilde{A}_{G_8}$,hybrid
R-HSA-8853659,0.0015502558896265618,187.0,8,$\widetilde{A}_{G_8}$,hybrid
R-HSA-177504,0.0015415462588616144,188.0,8,$\widetilde{A}_{G_8}$,hybrid
R-HSA-392851,0.0015411687417180798,189.0,8,$\widetilde{A}_{G_8}$,hybrid
R-HSA-975144,0.001539899461183803,190.0,8,$\widetilde{A}_{G_8}$,hybrid
R-HSA-937039,0.0015398994611838027,191.0,8,$\widetilde{A}_{G_8}$,hybrid
R-HSA-877312,0.001537050627025674,192.0,8,$\widetilde{A}_{G_8}$,hybrid
R-HSA-2219530,0.0015262790664061175,193.0,8,$\widetilde{A}_{G_8}$,hybrid
R-HSA-9660826,0.0015223798805303476,194.5,8,$\widetilde{A}_{G_8}$,hybrid
R-HSA-9664424,0.0015223798805303476,194.5,8,$\widetilde{A}_{G_8}$,hybrid
R-HSA-6788467,0.0015167059300092939,196.0,8,$\widetilde{A}_{G_8}$,hybrid
R-HSA-983712,0.001501948375530417,197.0,8,$\widetilde{A}_{G_8}$,hybrid
R-HSA-9013404,0.001500358361824932,198.0,8,$\widetilde{A}_{G_8}$,hybrid
R-HSA-399719,0.0014929959708951887,199.0,8,$\widetilde{A}_{G_8}$,hybrid
R-HSA-399721,0.0014929959708951876,200.0,8,$\widetilde{A}_{G_8}$,hybrid
R-HSA-450302,0.001483871991250536,201.0,8,$\widetilde{A}_{G_8}$,hybrid
R-HSA-112399,0.001482463253984211,202.0,8,$\widetilde{A}_{G_8}$,hybrid
R-HSA-373076,0.0014778661361861862,203.0,8,$\widetilde{A}_{G_8}$,hybrid
R-HSA-5655302,0.0014774138472524216,204.0,8,$\widetilde{A}_{G_8}$,hybrid
R-HSA-2404192,0.001476959224598124,205.0,8,$\widetilde{A}_{G_8}$,hybrid
R-HSA-2428924,0.0014769592245981234,206.0,8,$\widetilde{A}_{G_8}$,hybrid
R-HSA-391160,0.0014758478661557276,207.0,8,$\widetilde{A}_{G_8}$,hybrid
R-HSA-918233,0.001474976504180484,208.0,8,$\widetilde{A}_{G_8}$,hybrid
R-HSA-5218920,0.0014714470221114523,209.0,8,$\widetilde{A}_{G_8}$,hybrid
R-HSA-6783783,0.0014695140979676747,210.0,8,$\widetilde{A}_{G_8}$,hybrid
R-HSA-8875360,0.0014604852261448605,211.0,8,$\widetilde{A}_{G_8}$,hybrid
R-HSA-9607240,0.001458902186511407,212.0,8,$\widetilde{A}_{G_8}$,hybrid
R-HSA-2980736,0.001455996697709729,213.0,8,$\widetilde{A}_{G_8}$,hybrid
R-HSA-5654736,0.0014538469066248238,214.0,8,$\widetilde{A}_{G_8}$,hybrid
R-HSA-8866427,0.0014477897745125278,215.0,8,$\widetilde{A}_{G_8}$,hybrid
R-HSA-175474,0.0014391256483365859,216.5,8,$\widetilde{A}_{G_8}$,hybrid
R-HSA-174490,0.0014391256483365859,216.5,8,$\widetilde{A}_{G_8}$,hybrid
R-HSA-174495,0.0014391256483365857,218.0,8,$\widetilde{A}_{G_8}$,hybrid
R-HSA-1226099,0.0014297052749784522,219.0,8,$\widetilde{A}_{G_8}$,hybrid
R-HSA-186797,0.0014263270834087164,220.0,8,$\widetilde{A}_{G_8}$,hybrid
R-HSA-74752,0.001421085625960154,221.5,8,$\widetilde{A}_{G_8}$,hybrid
R-HSA-74751,0.001421085625960154,221.5,8,$\widetilde{A}_{G_8}$,hybrid
R-HSA-445717,0.0014063642594398418,223.5,8,$\widetilde{A}_{G_8}$,hybrid
R-HSA-432040,0.0014063642594398418,223.5,8,$\widetilde{A}_{G_8}$,hybrid
R-HSA-113510,0.0014008506742586061,225.0,8,$\widetilde{A}_{G_8}$,hybrid
R-HSA-2428928,0.00139956372137171,226.0,8,$\widetilde{A}_{G_8}$,hybrid
R-HSA-9013407,0.0013940372864832845,227.0,8,$\widetilde{A}_{G_8}$,hybrid
R-HSA-8875555,0.001379761684271066,228.0,8,$\widetilde{A}_{G_8}$,hybrid
R-HSA-933542,0.001368511382876419,229.0,8,$\widetilde{A}_{G_8}$,hybrid
R-HSA-1295596,0.0013607353722956195,230.0,8,$\widetilde{A}_{G_8}$,hybrid
R-HSA-392170,0.0013601791758084904,231.0,8,$\widetilde{A}_{G_8}$,hybrid
R-HSA-912694,0.0013594257654136624,232.0,8,$\widetilde{A}_{G_8}$,hybrid
R-HSA-4420097,0.0013565225818715503,233.0,8,$\widetilde{A}_{G_8}$,hybrid
R-HSA-109704,0.001348032437195739,234.0,8,$\widetilde{A}_{G_8}$,hybrid
R-HSA-170968,0.0013465429023859449,235.0,8,$\widetilde{A}_{G_8}$,hybrid
R-HSA-9639288,0.0013382568867448459,236.0,8,$\widetilde{A}_{G_8}$,hybrid
R-HSA-9682385,0.001337976882571109,237.0,8,$\widetilde{A}_{G_8}$,hybrid
R-HSA-6804115,0.0013339074548924953,238.0,8,$\widetilde{A}_{G_8}$,hybrid
R-HSA-168927,0.0013297245318421112,239.0,8,$\widetilde{A}_{G_8}$,hybrid
R-HSA-5654733,0.0013277251210698292,240.0,8,$\widetilde{A}_{G_8}$,hybrid
R-HSA-389356,0.0013273865374476607,241.0,8,$\widetilde{A}_{G_8}$,hybrid
R-HSA-1839117,0.0013267794911527731,242.0,8,$\widetilde{A}_{G_8}$,hybrid
R-HSA-416476,0.0013071883130110987,243.0,8,$\widetilde{A}_{G_8}$,hybrid
R-HSA-8964616,0.001302905475522224,244.0,8,$\widetilde{A}_{G_8}$,hybrid
R-HSA-400042,0.001299819661734043,245.0,8,$\widetilde{A}_{G_8}$,hybrid
R-HSA-5625900,0.0012907569632096348,246.0,8,$\widetilde{A}_{G_8}$,hybrid
R-HSA-167044,0.00127419157352351,247.0,8,$\widetilde{A}_{G_8}$,hybrid
R-HSA-1227986,0.0012607728111711806,248.0,8,$\widetilde{A}_{G_8}$,hybrid
R-HSA-168638,0.001248721597325662,249.0,8,$\widetilde{A}_{G_8}$,hybrid
R-HSA-2029482,0.001242241984130054,250.0,8,$\widetilde{A}_{G_8}$,hybrid
R-HSA-6794361,0.0012402966702029247,251.0,8,$\widetilde{A}_{G_8}$,hybrid
R-HSA-877300,0.0012316966957945006,252.0,8,$\widetilde{A}_{G_8}$,hybrid
R-HSA-5654727,0.0012274382373112416,253.0,8,$\widetilde{A}_{G_8}$,hybrid
R-HSA-111932,0.0012262365064160301,254.0,8,$\widetilde{A}_{G_8}$,hybrid
R-HSA-141405,0.001222427392003132,255.0,8,$\widetilde{A}_{G_8}$,hybrid
R-HSA-141430,0.0012224273920031312,256.0,8,$\widetilde{A}_{G_8}$,hybrid
R-HSA-5654732,0.0012176341902063455,257.0,8,$\widetilde{A}_{G_8}$,hybrid
R-HSA-5654726,0.0012143444105576474,258.0,8,$\widetilde{A}_{G_8}$,hybrid
R-HSA-9664407,0.0012138493046098822,259.0,8,$\widetilde{A}_{G_8}$,hybrid
R-HSA-9664417,0.001213849304609882,260.5,8,$\widetilde{A}_{G_8}$,hybrid
R-HSA-9664422,0.001213849304609882,260.5,8,$\widetilde{A}_{G_8}$,hybrid
R-HSA-5676594,0.0012125707972120347,262.0,8,$\widetilde{A}_{G_8}$,hybrid
R-HSA-5357786,0.00120939702915391,263.0,8,$\widetilde{A}_{G_8}$,hybrid
R-HSA-6807004,0.00120258458308303,264.0,8,$\widetilde{A}_{G_8}$,hybrid
R-HSA-177929,0.0012006951791401063,265.0,8,$\widetilde{A}_{G_8}$,hybrid
R-HSA-6785631,0.0011867927062453993,266.0,8,$\widetilde{A}_{G_8}$,hybrid
R-HSA-1839124,0.001183742686196249,267.0,8,$\widetilde{A}_{G_8}$,hybrid
R-HSA-881907,0.0011820383825677638,268.0,8,$\widetilde{A}_{G_8}$,hybrid
R-HSA-168138,0.0011698109140811685,270.0,8,$\widetilde{A}_{G_8}$,hybrid
R-HSA-168181,0.0011698109140811685,270.0,8,$\widetilde{A}_{G_8}$,hybrid
R-HSA-975155,0.0011698109140811685,270.0,8,$\widetilde{A}_{G_8}$,hybrid
R-HSA-2029480,0.0011657897648389643,272.0,8,$\widetilde{A}_{G_8}$,hybrid
R-HSA-9674555,0.0011640341981273533,273.0,8,$\widetilde{A}_{G_8}$,hybrid
R-HSA-975138,0.001158119134646586,274.0,8,$\widetilde{A}_{G_8}$,hybrid
R-HSA-416482,0.0011512777200796795,275.0,8,$\widetilde{A}_{G_8}$,hybrid
R-HSA-397795,0.0011442788440389202,276.0,8,$\widetilde{A}_{G_8}$,hybrid
R-HSA-168643,0.0011407155474779907,277.0,8,$\widetilde{A}_{G_8}$,hybrid
R-HSA-168188,0.0011384355195621049,278.0,8,$\widetilde{A}_{G_8}$,hybrid
R-HSA-166058,0.0011384355195621044,279.0,8,$\widetilde{A}_{G_8}$,hybrid
R-HSA-181438,0.00113581763084253,280.5,8,$\widetilde{A}_{G_8}$,hybrid
R-HSA-168179,0.00113581763084253,280.5,8,$\widetilde{A}_{G_8}$,hybrid
R-HSA-982772,0.0011272671040380117,282.0,8,$\widetilde{A}_{G_8}$,hybrid
R-HSA-937061,0.001119602312014409,283.0,8,$\widetilde{A}_{G_8}$,hybrid
R-HSA-166166,0.0011196023120144086,284.0,8,$\widetilde{A}_{G_8}$,hybrid
R-HSA-5620916,0.0011090982837990862,285.0,8,$\widetilde{A}_{G_8}$,hybrid
R-HSA-389513,0.0011065722343537303,286.0,8,$\widetilde{A}_{G_8}$,hybrid
R-HSA-373753,0.00110074316463041,287.0,8,$\widetilde{A}_{G_8}$,hybrid
R-HSA-8964038,0.0010999456109190523,288.0,8,$\widetilde{A}_{G_8}$,hybrid
R-HSA-9013700,0.0010912877686817984,289.0,8,$\widetilde{A}_{G_8}$,hybrid
R-HSA-1502540,0.0010871490328989628,290.0,8,$\widetilde{A}_{G_8}$,hybrid
R-HSA-163125,0.0010676945029732669,291.0,8,$\widetilde{A}_{G_8}$,hybrid
R-HSA-9662360,0.0010673987063223713,292.0,8,$\widetilde{A}_{G_8}$,hybrid
R-HSA-1170546,0.0010665882932335664,293.0,8,$\widetilde{A}_{G_8}$,hybrid
R-HSA-774815,0.0010611853256035412,294.0,8,$\widetilde{A}_{G_8}$,hybrid
R-HSA-606279,0.0010611853256035407,295.0,8,$\widetilde{A}_{G_8}$,hybrid
R-HSA-5140745,0.0010518814797785966,296.0,8,$\widetilde{A}_{G_8}$,hybrid
R-HSA-6811558,0.0010438705020907834,297.0,8,$\widetilde{A}_{G_8}$,hybrid
R-HSA-179409,0.0010431601525850093,298.0,8,$\widetilde{A}_{G_8}$,hybrid
R-HSA-5357956,0.0010318307789441658,299.0,8,$\widetilde{A}_{G_8}$,hybrid
R-HSA-5099900,0.0010311842924690191,300.0,8,$\widetilde{A}_{G_8}$,hybrid
R-HSA-1839126,0.0010284155348357284,301.0,8,$\widetilde{A}_{G_8}$,hybrid
R-HSA-9659379,0.0010254128649882974,302.0,8,$\widetilde{A}_{G_8}$,hybrid
R-HSA-9013408,0.0010135829001181845,303.0,8,$\widetilde{A}_{G_8}$,hybrid
R-HSA-157858,0.0010100866273997616,304.0,8,$\widetilde{A}_{G_8}$,hybrid
R-HSA-380994,0.001008278536323888,305.0,8,$\widetilde{A}_{G_8}$,hybrid
R-HSA-1500931,0.0010070477758024627,306.0,8,$\widetilde{A}_{G_8}$,hybrid
R-HSA-187687,0.001005527501789605,307.0,8,$\widetilde{A}_{G_8}$,hybrid
R-HSA-204005,0.0010050522364321187,308.0,8,$\widetilde{A}_{G_8}$,hybrid
R-HSA-5668541,0.0010038949361345694,309.0,8,$\widetilde{A}_{G_8}$,hybrid
R-HSA-397014,0.000998932009876949,310.0,8,$\widetilde{A}_{G_8}$,hybrid
R-HSA-168928,0.0009960441337829365,311.0,8,$\widetilde{A}_{G_8}$,hybrid
R-HSA-8876384,0.0009939191066140622,312.0,8,$\widetilde{A}_{G_8}$,hybrid
R-HSA-4755510,0.0009877695388569706,313.0,8,$\widetilde{A}_{G_8}$,hybrid
R-HSA-5627117,0.0009870701077059293,314.0,8,$\widetilde{A}_{G_8}$,hybrid
R-HSA-8849471,0.000986864566634101,315.0,8,$\widetilde{A}_{G_8}$,hybrid
R-HSA-169893,0.0009809710716714016,316.0,8,$\widetilde{A}_{G_8}$,hybrid
R-HSA-389357,0.0009796191559738503,317.0,8,$\widetilde{A}_{G_8}$,hybrid
R-HSA-8856825,0.00097884524520355,318.0,8,$\widetilde{A}_{G_8}$,hybrid
R-HSA-176407,0.0009739789210241732,319.0,8,$\widetilde{A}_{G_8}$,hybrid
R-HSA-9664420,0.0009691068975572061,320.5,8,$\widetilde{A}_{G_8}$,hybrid
R-HSA-9673324,0.0009691068975572061,320.5,8,$\widetilde{A}_{G_8}$,hybrid
R-HSA-447115,0.0009614726505944106,322.0,8,$\widetilde{A}_{G_8}$,hybrid
R-HSA-199418,0.0009580469874116614,323.0,8,$\widetilde{A}_{G_8}$,hybrid
R-HSA-2219528,0.0009463903483880504,324.0,8,$\widetilde{A}_{G_8}$,hybrid
R-HSA-3214842,0.0009347423003195698,325.0,8,$\widetilde{A}_{G_8}$,hybrid
R-HSA-428540,0.0009325223967754078,326.0,8,$\widetilde{A}_{G_8}$,hybrid
R-HSA-75893,0.0009304504224688154,327.0,8,$\widetilde{A}_{G_8}$,hybrid
R-HSA-5654738,0.000927439468110327,328.0,8,$\widetilde{A}_{G_8}$,hybrid
R-HSA-190236,0.0009256888297115791,329.0,8,$\widetilde{A}_{G_8}$,hybrid
R-HSA-202424,0.0009180123825910036,330.0,8,$\widetilde{A}_{G_8}$,hybrid
R-HSA-9020591,0.000916842514146229,331.0,8,$\widetilde{A}_{G_8}$,hybrid
R-HSA-193648,0.0009160041279490991,332.0,8,$\widetilde{A}_{G_8}$,hybrid
R-HSA-156711,0.0009159241827777389,333.0,8,$\widetilde{A}_{G_8}$,hybrid
R-HSA-5357905,0.0009153394846267494,334.0,8,$\widetilde{A}_{G_8}$,hybrid
R-HSA-5213460,0.0009149975194160907,335.0,8,$\widetilde{A}_{G_8}$,hybrid
R-HSA-5675482,0.0009149975194160905,336.0,8,$\widetilde{A}_{G_8}$,hybrid
R-HSA-9664323,0.0009132498200793059,337.0,8,$\widetilde{A}_{G_8}$,hybrid
R-HSA-418555,0.0009126153229903251,338.0,8,$\widetilde{A}_{G_8}$,hybrid
R-HSA-9613829,0.000908808036509686,339.0,8,$\widetilde{A}_{G_8}$,hybrid
R-HSA-8853884,0.0009085622737452751,340.0,8,$\widetilde{A}_{G_8}$,hybrid
R-HSA-8864260,0.0009081114097592355,341.0,8,$\widetilde{A}_{G_8}$,hybrid
R-HSA-373080,0.0009080543493776744,342.0,8,$\widetilde{A}_{G_8}$,hybrid
R-HSA-5633008,0.0009079254798416965,343.0,8,$\widetilde{A}_{G_8}$,hybrid
R-HSA-975871,0.0009076209966912563,344.0,8,$\widetilde{A}_{G_8}$,hybrid
R-HSA-168142,0.0009076209966912562,345.0,8,$\widetilde{A}_{G_8}$,hybrid
R-HSA-168176,0.0009076209966912559,346.0,8,$\widetilde{A}_{G_8}$,hybrid
R-HSA-9705462,0.0009055878775062379,347.0,8,$\widetilde{A}_{G_8}$,hybrid
R-HSA-5218921,0.0008998426689142122,348.0,8,$\widetilde{A}_{G_8}$,hybrid
R-HSA-5617472,0.0008994214533245108,349.0,8,$\widetilde{A}_{G_8}$,hybrid
R-HSA-5619507,0.0008994214533245107,350.0,8,$\widetilde{A}_{G_8}$,hybrid
R-HSA-429958,0.0008913886996907696,351.0,8,$\widetilde{A}_{G_8}$,hybrid
R-HSA-392451,0.0008895799944981389,352.0,8,$\widetilde{A}_{G_8}$,hybrid
R-HSA-418885,0.0008852377897713396,353.0,8,$\widetilde{A}_{G_8}$,hybrid
R-HSA-4090294,0.0008812002864391756,354.0,8,$\widetilde{A}_{G_8}$,hybrid
R-HSA-182971,0.0008734745770985259,355.0,8,$\widetilde{A}_{G_8}$,hybrid
R-HSA-4086398,0.000870470899962207,356.0,8,$\widetilde{A}_{G_8}$,hybrid
R-HSA-390466,0.0008699497694624071,357.0,8,$\widetilde{A}_{G_8}$,hybrid
R-HSA-6794362,0.0008670335963021069,358.0,8,$\widetilde{A}_{G_8}$,hybrid
R-HSA-202733,0.0008662794914578765,359.0,8,$\widetilde{A}_{G_8}$,hybrid
R-HSA-5627123,0.0008595188889268467,360.0,8,$\widetilde{A}_{G_8}$,hybrid
R-HSA-5362517,0.0008545590825803367,361.0,8,$\widetilde{A}_{G_8}$,hybrid
R-HSA-912446,0.0008530428953386764,362.0,8,$\widetilde{A}_{G_8}$,hybrid
R-HSA-416572,0.0008421870645094927,363.0,8,$\widetilde{A}_{G_8}$,hybrid
R-HSA-9687136,0.0008417095598668124,364.0,8,$\widetilde{A}_{G_8}$,hybrid
R-HSA-983170,0.0008402223669900354,365.0,8,$\widetilde{A}_{G_8}$,hybrid
R-HSA-196025,0.0008398515646946182,366.0,8,$\widetilde{A}_{G_8}$,hybrid
R-HSA-399955,0.0008389415187636066,367.0,8,$\widetilde{A}_{G_8}$,hybrid
R-HSA-5689896,0.0008378331778135913,368.0,8,$\widetilde{A}_{G_8}$,hybrid
R-HSA-9710421,0.0008376239880702106,369.0,8,$\widetilde{A}_{G_8}$,hybrid
R-HSA-1251985,0.0008371594165613342,370.0,8,$\widetilde{A}_{G_8}$,hybrid
R-HSA-418597,0.0008344262113807525,371.0,8,$\widetilde{A}_{G_8}$,hybrid
R-HSA-5334118,0.0008319634668872792,372.0,8,$\widetilde{A}_{G_8}$,hybrid
R-HSA-391251,0.0008301933171001746,373.0,8,$\widetilde{A}_{G_8}$,hybrid
R-HSA-380972,0.0008279722942278659,374.0,8,$\widetilde{A}_{G_8}$,hybrid
R-HSA-442720,0.0008188318806702979,375.0,8,$\widetilde{A}_{G_8}$,hybrid
R-HSA-3214815,0.0008151082265924886,376.0,8,$\widetilde{A}_{G_8}$,hybrid
R-HSA-176412,0.0008068967589479015,377.0,8,$\widetilde{A}_{G_8}$,hybrid
R-HSA-190873,0.0008057274344721535,378.0,8,$\widetilde{A}_{G_8}$,hybrid
R-HSA-168164,0.0008042585098274073,379.0,8,$\widetilde{A}_{G_8}$,hybrid
R-HSA-427389,0.0008023578962129347,380.0,8,$\widetilde{A}_{G_8}$,hybrid
R-HSA-204998,0.0007967039857701384,381.0,8,$\widetilde{A}_{G_8}$,hybrid
R-HSA-399954,0.0007928258160350898,382.0,8,$\widetilde{A}_{G_8}$,hybrid
R-HSA-917729,0.0007913667519890114,383.0,8,$\widetilde{A}_{G_8}$,hybrid
R-HSA-445355,0.0007913547755693527,384.0,8,$\widetilde{A}_{G_8}$,hybrid
R-HSA-9619483,0.000790271518801452,385.0,8,$\widetilde{A}_{G_8}$,hybrid
R-HSA-5625886,0.0007872857951555448,386.0,8,$\widetilde{A}_{G_8}$,hybrid
R-HSA-6811436,0.0007838328408402682,387.0,8,$\widetilde{A}_{G_8}$,hybrid
R-HSA-9706369,0.0007791824477292284,388.0,8,$\widetilde{A}_{G_8}$,hybrid
R-HSA-73728,0.0007787987118551271,389.0,8,$\widetilde{A}_{G_8}$,hybrid
R-HSA-450604,0.000772812436654898,390.0,8,$\widetilde{A}_{G_8}$,hybrid
R-HSA-450513,0.0007727712435673311,391.0,8,$\widetilde{A}_{G_8}$,hybrid
R-HSA-5620924,0.0007700524995591202,392.0,8,$\widetilde{A}_{G_8}$,hybrid
R-HSA-450385,0.0007696055225958914,393.0,8,$\widetilde{A}_{G_8}$,hybrid
R-HSA-8964043,0.0007673277867021412,394.0,8,$\widetilde{A}_{G_8}$,hybrid
R-HSA-429947,0.0007665827717670082,395.0,8,$\widetilde{A}_{G_8}$,hybrid
R-HSA-437239,0.0007610205708414039,396.0,8,$\widetilde{A}_{G_8}$,hybrid
R-HSA-6799198,0.0007609918233647843,397.0,8,$\widetilde{A}_{G_8}$,hybrid
R-HSA-432720,0.0007592383408920605,398.0,8,$\widetilde{A}_{G_8}$,hybrid
R-HSA-9013420,0.0007568185992350375,399.0,8,$\widetilde{A}_{G_8}$,hybrid
R-HSA-2979096,0.0007557707748126086,400.0,8,$\widetilde{A}_{G_8}$,hybrid
R-HSA-1236975,0.0007526767148164021,401.0,8,$\widetilde{A}_{G_8}$,hybrid
R-HSA-8939902,0.0007513771052525289,402.0,8,$\widetilde{A}_{G_8}$,hybrid
R-HSA-9009391,0.0007494768904885669,403.0,8,$\widetilde{A}_{G_8}$,hybrid
R-HSA-5684264,0.0007478804162952074,404.0,8,$\widetilde{A}_{G_8}$,hybrid
R-HSA-3928664,0.0007440347588428527,405.0,8,$\widetilde{A}_{G_8}$,hybrid
R-HSA-5673000,0.0007439915587164726,406.0,8,$\widetilde{A}_{G_8}$,hybrid
R-HSA-180534,0.0007419468466264295,407.0,8,$\widetilde{A}_{G_8}$,hybrid
R-HSA-9697154,0.0007394623352086609,409.5,8,$\widetilde{A}_{G_8}$,hybrid
R-HSA-9005895,0.0007394623352086609,409.5,8,$\widetilde{A}_{G_8}$,hybrid
R-HSA-9005891,0.0007394623352086609,409.5,8,$\widetilde{A}_{G_8}$,hybrid
R-HSA-9675151,0.0007394623352086609,409.5,8,$\widetilde{A}_{G_8}$,hybrid
R-HSA-400685,0.0007364397253835509,412.0,8,$\widetilde{A}_{G_8}$,hybrid
R-HSA-9615710,0.0007352432076152267,413.0,8,$\widetilde{A}_{G_8}$,hybrid
R-HSA-111931,0.000733335162168515,414.0,8,$\widetilde{A}_{G_8}$,hybrid
R-HSA-500792,0.0007328773489542187,415.0,8,$\widetilde{A}_{G_8}$,hybrid
R-HSA-5607763,0.0007239807145339429,416.0,8,$\widetilde{A}_{G_8}$,hybrid
R-HSA-174048,0.0007195832366683605,417.0,8,$\widetilde{A}_{G_8}$,hybrid
R-HSA-450294,0.0007172691052724919,418.0,8,$\widetilde{A}_{G_8}$,hybrid
R-HSA-9616222,0.0007147919666353813,419.0,8,$\widetilde{A}_{G_8}$,hybrid
R-HSA-69563,0.0007146199761907085,420.5,8,$\widetilde{A}_{G_8}$,hybrid
R-HSA-69580,0.0007146199761907085,420.5,8,$\widetilde{A}_{G_8}$,hybrid
R-HSA-1236974,0.0007134777089007082,422.0,8,$\widetilde{A}_{G_8}$,hybrid
R-HSA-2465910,0.0007106217099977598,423.0,8,$\widetilde{A}_{G_8}$,hybrid
R-HSA-6802948,0.0007094109320759649,424.0,8,$\widetilde{A}_{G_8}$,hybrid
R-HSA-8875878,0.0007078465567693176,425.0,8,$\widetilde{A}_{G_8}$,hybrid
R-HSA-212300,0.0007062952854105206,426.0,8,$\widetilde{A}_{G_8}$,hybrid
R-HSA-180585,0.0007054307086220797,427.0,8,$\widetilde{A}_{G_8}$,hybrid
R-HSA-1660499,0.0007042076873634579,428.0,8,$\widetilde{A}_{G_8}$,hybrid
R-HSA-181429,0.0007015132307902987,431.0,8,$\widetilde{A}_{G_8}$,hybrid
R-HSA-264642,0.0007015132307902987,431.0,8,$\widetilde{A}_{G_8}$,hybrid
R-HSA-210500,0.0007015132307902987,431.0,8,$\widetilde{A}_{G_8}$,hybrid
R-HSA-181430,0.0007015132307902987,431.0,8,$\widetilde{A}_{G_8}$,hybrid
R-HSA-212676,0.0007015132307902987,431.0,8,$\widetilde{A}_{G_8}$,hybrid
R-HSA-9013507,0.000701216470025447,434.0,8,$\widetilde{A}_{G_8}$,hybrid
R-HSA-9656223,0.0006988902694956117,435.0,8,$\widetilde{A}_{G_8}$,hybrid
R-HSA-448424,0.0006970575109318247,436.0,8,$\widetilde{A}_{G_8}$,hybrid
R-HSA-936440,0.000691815359772712,437.0,8,$\widetilde{A}_{G_8}$,hybrid
R-HSA-432142,0.0006901374253317592,438.0,8,$\widetilde{A}_{G_8}$,hybrid
R-HSA-2122947,0.000689333655924416,439.0,8,$\widetilde{A}_{G_8}$,hybrid
R-HSA-9013405,0.000689072929076376,440.0,8,$\widetilde{A}_{G_8}$,hybrid
R-HSA-427359,0.0006824212309144411,441.0,8,$\widetilde{A}_{G_8}$,hybrid
R-HSA-1236978,0.0006810504197989275,442.0,8,$\widetilde{A}_{G_8}$,hybrid
R-HSA-9604323,0.0006778751365151301,443.0,8,$\widetilde{A}_{G_8}$,hybrid
R-HSA-170834,0.0006767793996432458,444.0,8,$\widetilde{A}_{G_8}$,hybrid
R-HSA-5674135,0.0006767042449861281,445.0,8,$\widetilde{A}_{G_8}$,hybrid
R-HSA-2022090,0.0006723208556764737,446.0,8,$\widetilde{A}_{G_8}$,hybrid
R-HSA-9645723,0.0006710915777672575,447.0,8,$\widetilde{A}_{G_8}$,hybrid
R-HSA-3270619,0.0006708978193576563,448.0,8,$\widetilde{A}_{G_8}$,hybrid
R-HSA-3214841,0.000670498176805255,449.0,8,$\widetilde{A}_{G_8}$,hybrid
R-HSA-201722,0.0006675034037329025,450.0,8,$\widetilde{A}_{G_8}$,hybrid
R-HSA-69541,0.0006649982837189691,451.0,8,$\widetilde{A}_{G_8}$,hybrid
R-HSA-9006936,0.0006603999570218712,452.0,8,$\widetilde{A}_{G_8}$,hybrid
R-HSA-3371511,0.0006576787574479062,453.0,8,$\widetilde{A}_{G_8}$,hybrid
R-HSA-9706574,0.0006575818201366345,454.0,8,$\widetilde{A}_{G_8}$,hybrid
R-HSA-844456,0.0006553441838454399,455.0,8,$\widetilde{A}_{G_8}$,hybrid
R-HSA-8941858,0.0006551674458086144,456.0,8,$\widetilde{A}_{G_8}$,hybrid
R-HSA-171007,0.0006538145751615978,457.0,8,$\widetilde{A}_{G_8}$,hybrid
R-HSA-381340,0.0006526277025031164,458.0,8,$\widetilde{A}_{G_8}$,hybrid
R-HSA-622312,0.000652012375766903,459.0,8,$\widetilde{A}_{G_8}$,hybrid
R-HSA-1650814,0.0006507367797356597,460.0,8,$\widetilde{A}_{G_8}$,hybrid
R-HSA-381038,0.000650564534977662,461.0,8,$\widetilde{A}_{G_8}$,hybrid
R-HSA-6802946,0.0006494136918604646,462.0,8,$\widetilde{A}_{G_8}$,hybrid
R-HSA-9649948,0.0006494136918604642,463.0,8,$\widetilde{A}_{G_8}$,hybrid
R-HSA-6802949,0.0006494136918604639,464.5,8,$\widetilde{A}_{G_8}$,hybrid
R-HSA-6802955,0.0006494136918604639,464.5,8,$\widetilde{A}_{G_8}$,hybrid
R-HSA-5693554,0.0006472431015775626,466.0,8,$\widetilde{A}_{G_8}$,hybrid
R-HSA-5358565,0.0006447950700741638,467.0,8,$\widetilde{A}_{G_8}$,hybrid
R-HSA-168273,0.0006442495921054903,468.0,8,$\widetilde{A}_{G_8}$,hybrid
R-HSA-5610785,0.0006430686949957347,469.0,8,$\widetilde{A}_{G_8}$,hybrid
R-HSA-9013695,0.0006421354848214531,470.0,8,$\widetilde{A}_{G_8}$,hybrid
R-HSA-383280,0.0006401373054913081,471.0,8,$\widetilde{A}_{G_8}$,hybrid
R-HSA-5358606,0.0006399021860602895,472.0,8,$\widetilde{A}_{G_8}$,hybrid
R-HSA-3928663,0.0006390260884312999,473.0,8,$\widetilde{A}_{G_8}$,hybrid
R-HSA-6785807,0.0006371873586102667,474.0,8,$\widetilde{A}_{G_8}$,hybrid
R-HSA-9687139,0.0006367026986157916,475.0,8,$\widetilde{A}_{G_8}$,hybrid
R-HSA-9679191,0.0006344033327443962,476.0,8,$\widetilde{A}_{G_8}$,hybrid
R-HSA-169911,0.0006343794742153436,477.5,8,$\widetilde{A}_{G_8}$,hybrid
R-HSA-211733,0.0006343794742153436,477.5,8,$\widetilde{A}_{G_8}$,hybrid
R-HSA-8862803,0.000631071213603729,479.5,8,$\widetilde{A}_{G_8}$,hybrid
R-HSA-8863678,0.000631071213603729,479.5,8,$\widetilde{A}_{G_8}$,hybrid
R-HSA-69166,0.0006296694938872542,481.0,8,$\widetilde{A}_{G_8}$,hybrid
R-HSA-70268,0.0006285481217752663,482.0,8,$\widetilde{A}_{G_8}$,hybrid
R-HSA-5619084,0.0006277420722687182,483.0,8,$\widetilde{A}_{G_8}$,hybrid
R-HSA-5678895,0.0006277420722687178,484.0,8,$\widetilde{A}_{G_8}$,hybrid
R-HSA-69615,0.0006271404491564086,485.0,8,$\widetilde{A}_{G_8}$,hybrid
R-HSA-8940973,0.0006244589553519796,486.0,8,$\widetilde{A}_{G_8}$,hybrid
R-HSA-1834949,0.0006235157092570415,487.0,8,$\widetilde{A}_{G_8}$,hybrid
R-HSA-350562,0.0006231428633260156,488.0,8,$\widetilde{A}_{G_8}$,hybrid
R-HSA-5250913,0.0006217791659728104,489.0,8,$\widetilde{A}_{G_8}$,hybrid
R-HSA-9013694,0.0006215371169866535,490.0,8,$\widetilde{A}_{G_8}$,hybrid
R-HSA-1980145,0.0006208833691773415,491.0,8,$\widetilde{A}_{G_8}$,hybrid
R-HSA-432722,0.0006207666834103011,492.0,8,$\widetilde{A}_{G_8}$,hybrid
R-HSA-8936459,0.0006199377004084254,493.0,8,$\widetilde{A}_{G_8}$,hybrid
R-HSA-9696264,0.0006188921248115962,494.0,8,$\widetilde{A}_{G_8}$,hybrid
R-HSA-1368082,0.0006184490521073541,495.0,8,$\widetilde{A}_{G_8}$,hybrid
R-HSA-1912408,0.0006183067678057727,496.0,8,$\widetilde{A}_{G_8}$,hybrid
R-HSA-3214858,0.0006181597033057365,497.0,8,$\widetilde{A}_{G_8}$,hybrid
R-HSA-5689603,0.000617502264251226,498.0,8,$\widetilde{A}_{G_8}$,hybrid
R-HSA-5693571,0.0006127573674431452,499.0,8,$\widetilde{A}_{G_8}$,hybrid
R-HSA-9709957,0.0006115538059541935,500.0,8,$\widetilde{A}_{G_8}$,hybrid
R-HSA-351202,0.0006101708672042792,501.0,8,$\widetilde{A}_{G_8}$,hybrid
R-HSA-69183,0.0006098085055684561,502.0,8,$\widetilde{A}_{G_8}$,hybrid
R-HSA-4608870,0.000608645994191204,503.0,8,$\widetilde{A}_{G_8}$,hybrid
R-HSA-190828,0.0006054380177883493,504.0,8,$\widetilde{A}_{G_8}$,hybrid
R-HSA-349425,0.0006052344768847175,505.0,8,$\widetilde{A}_{G_8}$,hybrid
R-HSA-2871837,0.0006047547012005813,506.0,8,$\widetilde{A}_{G_8}$,hybrid
R-HSA-390450,0.0006041958630543361,507.0,8,$\widetilde{A}_{G_8}$,hybrid
R-HSA-193704,0.0006023048512569875,508.0,8,$\widetilde{A}_{G_8}$,hybrid
R-HSA-187577,0.0006006130834713587,509.0,8,$\widetilde{A}_{G_8}$,hybrid
R-HSA-112310,0.0005993188529679151,510.0,8,$\widetilde{A}_{G_8}$,hybrid
R-HSA-68827,0.0005985259302793793,511.0,8,$\widetilde{A}_{G_8}$,hybrid
R-HSA-75815,0.0005979026078196672,512.0,8,$\widetilde{A}_{G_8}$,hybrid
R-HSA-2299718,0.0005977388962083069,513.0,8,$\widetilde{A}_{G_8}$,hybrid
R-HSA-5693565,0.0005976925692716482,514.0,8,$\widetilde{A}_{G_8}$,hybrid
R-HSA-165159,0.000595096952140397,515.0,8,$\widetilde{A}_{G_8}$,hybrid
R-HSA-9675126,0.0005923657742964765,516.0,8,$\widetilde{A}_{G_8}$,hybrid
R-HSA-162588,0.0005905957770367135,517.0,8,$\widetilde{A}_{G_8}$,hybrid
R-HSA-1912422,0.0005884947491709145,518.0,8,$\widetilde{A}_{G_8}$,hybrid
R-HSA-210991,0.0005868676889287909,519.0,8,$\widetilde{A}_{G_8}$,hybrid
R-HSA-5663213,0.0005851859994274656,520.0,8,$\widetilde{A}_{G_8}$,hybrid
R-HSA-8854050,0.0005835982160967384,521.0,8,$\widetilde{A}_{G_8}$,hybrid
R-HSA-9020702,0.000583595400005792,522.0,8,$\widetilde{A}_{G_8}$,hybrid
R-HSA-5693606,0.0005830342765639128,523.0,8,$\widetilde{A}_{G_8}$,hybrid
R-HSA-382556,0.000582417614091465,524.0,8,$\widetilde{A}_{G_8}$,hybrid
R-HSA-5218859,0.0005813905440357654,525.0,8,$\widetilde{A}_{G_8}$,hybrid
R-HSA-5601884,0.0005811468230223748,526.0,8,$\widetilde{A}_{G_8}$,hybrid
R-HSA-5358508,0.0005802843709540463,527.0,8,$\widetilde{A}_{G_8}$,hybrid
R-HSA-9035034,0.0005800171329630252,528.0,8,$\widetilde{A}_{G_8}$,hybrid
R-HSA-3000170,0.0005796317469687146,529.0,8,$\widetilde{A}_{G_8}$,hybrid
R-HSA-174113,0.0005734575066845603,530.0,8,$\widetilde{A}_{G_8}$,hybrid
R-HSA-8863795,0.0005725799202610623,531.0,8,$\widetilde{A}_{G_8}$,hybrid
R-HSA-3000178,0.0005710651781558161,532.0,8,$\widetilde{A}_{G_8}$,hybrid
R-HSA-9634638,0.000570165341618589,533.0,8,$\widetilde{A}_{G_8}$,hybrid
R-HSA-450408,0.0005691557986436733,534.0,8,$\widetilde{A}_{G_8}$,hybrid
R-HSA-5387390,0.000567123892199586,535.0,8,$\widetilde{A}_{G_8}$,hybrid
R-HSA-5362768,0.0005671238921995849,536.0,8,$\widetilde{A}_{G_8}$,hybrid
R-HSA-1358803,0.0005646470254882056,537.0,8,$\widetilde{A}_{G_8}$,hybrid
R-HSA-6804116,0.0005639458518316481,538.0,8,$\widetilde{A}_{G_8}$,hybrid
R-HSA-5619102,0.0005635054693285367,539.0,8,$\widetilde{A}_{G_8}$,hybrid
R-HSA-111997,0.0005629024121536067,540.5,8,$\widetilde{A}_{G_8}$,hybrid
R-HSA-111933,0.0005629024121536067,540.5,8,$\widetilde{A}_{G_8}$,hybrid
R-HSA-4641257,0.0005628910842808883,542.0,8,$\widetilde{A}_{G_8}$,hybrid
R-HSA-1655829,0.000562487195700151,543.0,8,$\widetilde{A}_{G_8}$,hybrid
R-HSA-1362300,0.0005619601808288969,544.0,8,$\widetilde{A}_{G_8}$,hybrid
R-HSA-1169091,0.0005605778304466136,545.0,8,$\widetilde{A}_{G_8}$,hybrid
R-HSA-4641258,0.0005585532590212063,546.0,8,$\widetilde{A}_{G_8}$,hybrid
R-HSA-1500620,0.000558212516441873,547.0,8,$\widetilde{A}_{G_8}$,hybrid
R-HSA-1474165,0.0005582125164418729,548.0,8,$\widetilde{A}_{G_8}$,hybrid
R-HSA-8848021,0.000557915565706838,549.0,8,$\widetilde{A}_{G_8}$,hybrid
R-HSA-9006927,0.0005579155657068379,550.0,8,$\widetilde{A}_{G_8}$,hybrid
R-HSA-1234176,0.0005561643946662312,551.0,8,$\widetilde{A}_{G_8}$,hybrid
R-HSA-9635486,0.0005549929801390326,552.0,8,$\widetilde{A}_{G_8}$,hybrid
R-HSA-8851708,0.0005545809412179863,553.0,8,$\widetilde{A}_{G_8}$,hybrid
R-HSA-1989781,0.0005530107622533504,554.0,8,$\widetilde{A}_{G_8}$,hybrid
R-HSA-69190,0.0005498466868093256,555.0,8,$\widetilde{A}_{G_8}$,hybrid
R-HSA-8932339,0.0005495744866052457,556.0,8,$\widetilde{A}_{G_8}$,hybrid
R-HSA-73772,0.0005493564870908465,557.0,8,$\widetilde{A}_{G_8}$,hybrid
R-HSA-5358346,0.0005466749652081327,558.0,8,$\widetilde{A}_{G_8}$,hybrid
R-HSA-9646399,0.000546498238214486,559.0,8,$\widetilde{A}_{G_8}$,hybrid
R-HSA-9660821,0.0005443165568240182,560.0,8,$\widetilde{A}_{G_8}$,hybrid
R-HSA-176974,0.0005440606989332873,561.0,8,$\widetilde{A}_{G_8}$,hybrid
R-HSA-6791312,0.0005417924953726881,562.0,8,$\widetilde{A}_{G_8}$,hybrid
R-HSA-5676590,0.0005415200852357957,563.0,8,$\widetilde{A}_{G_8}$,hybrid
R-HSA-73854,0.0005409577579018881,564.0,8,$\widetilde{A}_{G_8}$,hybrid
R-HSA-5250924,0.0005389831398255079,565.0,8,$\widetilde{A}_{G_8}$,hybrid
R-HSA-202131,0.0005358602117794288,566.0,8,$\widetilde{A}_{G_8}$,hybrid
R-HSA-73884,0.000535631932968558,567.0,8,$\widetilde{A}_{G_8}$,hybrid
R-HSA-166208,0.0005352543089463649,568.0,8,$\widetilde{A}_{G_8}$,hybrid
R-HSA-73864,0.0005350521218999632,569.0,8,$\widetilde{A}_{G_8}$,hybrid
R-HSA-400206,0.0005346757331242087,570.0,8,$\widetilde{A}_{G_8}$,hybrid
R-HSA-5610783,0.0005343405469409189,571.0,8,$\widetilde{A}_{G_8}$,hybrid
R-HSA-6802952,0.0005342488570339568,572.0,8,$\widetilde{A}_{G_8}$,hybrid
R-HSA-9617629,0.000532993600011565,573.0,8,$\widetilde{A}_{G_8}$,hybrid
R-HSA-5607761,0.0005329341270725819,574.0,8,$\widetilde{A}_{G_8}$,hybrid
R-HSA-5610780,0.0005329249637685031,575.0,8,$\widetilde{A}_{G_8}$,hybrid
R-HSA-445144,0.0005325144287661746,576.0,8,$\widetilde{A}_{G_8}$,hybrid
R-HSA-69473,0.0005289616986339089,577.0,8,$\widetilde{A}_{G_8}$,hybrid
R-HSA-4086400,0.0005288695187068771,578.0,8,$\widetilde{A}_{G_8}$,hybrid
R-HSA-1834941,0.0005287703788874122,579.0,8,$\widetilde{A}_{G_8}$,hybrid
R-HSA-9637690,0.0005265171250872008,580.0,8,$\widetilde{A}_{G_8}$,hybrid
R-HSA-68962,0.0005251931340402198,581.0,8,$\widetilde{A}_{G_8}$,hybrid
R-HSA-77075,0.000523333066812901,582.5,8,$\widetilde{A}_{G_8}$,hybrid
R-HSA-167160,0.000523333066812901,582.5,8,$\widetilde{A}_{G_8}$,hybrid
R-HSA-2122948,0.0005232538165949104,584.0,8,$\widetilde{A}_{G_8}$,hybrid
R-HSA-5658442,0.000521181647507978,585.0,8,$\widetilde{A}_{G_8}$,hybrid
R-HSA-450341,0.0005189038406171905,586.0,8,$\widetilde{A}_{G_8}$,hybrid
R-HSA-69017,0.000516630488935272,587.0,8,$\widetilde{A}_{G_8}$,hybrid
R-HSA-5693568,0.000515472605410158,588.0,8,$\widetilde{A}_{G_8}$,hybrid
R-HSA-5339562,0.000514120907619602,589.0,8,$\widetilde{A}_{G_8}$,hybrid
R-HSA-3928665,0.0005131021451879808,590.0,8,$\widetilde{A}_{G_8}$,hybrid
R-HSA-68867,0.0005118272864960848,591.0,8,$\widetilde{A}_{G_8}$,hybrid
R-HSA-69610,0.0005114299384342408,592.0,8,$\widetilde{A}_{G_8}$,hybrid
R-HSA-69613,0.0005114299384342407,593.5,8,$\widetilde{A}_{G_8}$,hybrid
R-HSA-69601,0.0005114299384342407,593.5,8,$\widetilde{A}_{G_8}$,hybrid
R-HSA-75035,0.0005109829490274206,595.0,8,$\widetilde{A}_{G_8}$,hybrid
R-HSA-611105,0.0005094131567871614,596.0,8,$\widetilde{A}_{G_8}$,hybrid
R-HSA-1234174,0.0005048093056414847,597.0,8,$\widetilde{A}_{G_8}$,hybrid
R-HSA-3232118,0.0005047787244845702,598.0,8,$\widetilde{A}_{G_8}$,hybrid
R-HSA-5651801,0.0005013745110416335,599.0,8,$\widetilde{A}_{G_8}$,hybrid
R-HSA-9615017,0.0005000038022808306,600.0,8,$\widetilde{A}_{G_8}$,hybrid
R-HSA-68884,0.0004956095780528301,601.0,8,$\widetilde{A}_{G_8}$,hybrid
R-HSA-72086,0.0004953523276492769,602.0,8,$\widetilde{A}_{G_8}$,hybrid
R-HSA-9670095,0.00049497450495843,603.0,8,$\widetilde{A}_{G_8}$,hybrid
R-HSA-5696397,0.0004931098207188179,604.0,8,$\widetilde{A}_{G_8}$,hybrid
R-HSA-176187,0.0004911798543472286,605.0,8,$\widetilde{A}_{G_8}$,hybrid
R-HSA-9013026,0.000490912395300931,606.0,8,$\widetilde{A}_{G_8}$,hybrid
R-HSA-69091,0.0004907035187379766,607.5,8,$\widetilde{A}_{G_8}$,hybrid
R-HSA-69109,0.0004907035187379766,607.5,8,$\widetilde{A}_{G_8}$,hybrid
R-HSA-3371568,0.0004899491980194207,609.0,8,$\widetilde{A}_{G_8}$,hybrid
R-HSA-9022692,0.0004895263085261033,610.0,8,$\widetilde{A}_{G_8}$,hybrid
R-HSA-9707587,0.0004884191123741147,611.0,8,$\widetilde{A}_{G_8}$,hybrid
R-HSA-381042,0.00048623818417336477,612.0,8,$\widetilde{A}_{G_8}$,hybrid
R-HSA-174084,0.0004859299008311288,613.0,8,$\widetilde{A}_{G_8}$,hybrid
R-HSA-9615933,0.0004857291284505288,614.0,8,$\widetilde{A}_{G_8}$,hybrid
R-HSA-1474290,0.00048560405705947894,615.0,8,$\widetilde{A}_{G_8}$,hybrid
R-HSA-110373,0.0004850757677455587,616.0,8,$\widetilde{A}_{G_8}$,hybrid
R-HSA-111996,0.00048273206805987033,617.0,8,$\widetilde{A}_{G_8}$,hybrid
R-HSA-5607764,0.00048008268977145827,618.0,8,$\widetilde{A}_{G_8}$,hybrid
R-HSA-5250941,0.00047949303692338866,619.0,8,$\widetilde{A}_{G_8}$,hybrid
R-HSA-2559580,0.0004792153821662031,620.0,8,$\widetilde{A}_{G_8}$,hybrid
R-HSA-69002,0.0004786542060785146,621.0,8,$\widetilde{A}_{G_8}$,hybrid
R-HSA-427413,0.0004785793650065746,622.0,8,$\widetilde{A}_{G_8}$,hybrid
R-HSA-5693537,0.00047825389644618995,623.0,8,$\widetilde{A}_{G_8}$,hybrid
R-HSA-5626467,0.00047674424986169506,624.0,8,$\widetilde{A}_{G_8}$,hybrid
R-HSA-174154,0.00047525534605320877,625.0,8,$\widetilde{A}_{G_8}$,hybrid
R-HSA-69186,0.0004744063402483132,626.0,8,$\widetilde{A}_{G_8}$,hybrid
R-HSA-73762,0.00047048096474336864,627.0,8,$\widetilde{A}_{G_8}$,hybrid
R-HSA-8852276,0.00047011694445570534,628.0,8,$\widetilde{A}_{G_8}$,hybrid
R-HSA-171306,0.0004660651003586605,629.0,8,$\widetilde{A}_{G_8}$,hybrid
R-HSA-113418,0.000464723684394025,630.5,8,$\widetilde{A}_{G_8}$,hybrid
R-HSA-167158,0.000464723684394025,630.5,8,$\widetilde{A}_{G_8}$,hybrid
R-HSA-1168372,0.00046432308081078823,632.0,8,$\widetilde{A}_{G_8}$,hybrid
R-HSA-167242,0.00046257046631947125,633.0,8,$\widetilde{A}_{G_8}$,hybrid
R-HSA-179419,0.0004619468488980987,634.0,8,$\widetilde{A}_{G_8}$,hybrid
R-HSA-8878159,0.0004612877139627225,635.0,8,$\widetilde{A}_{G_8}$,hybrid
R-HSA-110314,0.0004596849626152115,636.0,8,$\widetilde{A}_{G_8}$,hybrid
R-HSA-399956,0.0004583887840668524,637.0,8,$\widetilde{A}_{G_8}$,hybrid
R-HSA-3899300,0.0004575972118674719,638.0,8,$\widetilde{A}_{G_8}$,hybrid
R-HSA-9013424,0.0004556727506065548,639.0,8,$\widetilde{A}_{G_8}$,hybrid
R-HSA-8948751,0.0004549587083186411,640.0,8,$\widetilde{A}_{G_8}$,hybrid
R-HSA-5693616,0.00045474907999580957,641.0,8,$\widetilde{A}_{G_8}$,hybrid
R-HSA-195253,0.00045350612050860614,642.0,8,$\widetilde{A}_{G_8}$,hybrid
R-HSA-114608,0.0004517085130158487,643.0,8,$\widetilde{A}_{G_8}$,hybrid
R-HSA-73927,0.0004501540663282524,644.0,8,$\widetilde{A}_{G_8}$,hybrid
R-HSA-110330,0.00045015406632825205,645.5,8,$\widetilde{A}_{G_8}$,hybrid
R-HSA-110331,0.00045015406632825205,645.5,8,$\widetilde{A}_{G_8}$,hybrid
R-HSA-6804760,0.00045010125533069366,647.0,8,$\widetilde{A}_{G_8}$,hybrid
R-HSA-375165,0.0004491102794992292,648.0,8,$\widetilde{A}_{G_8}$,hybrid
R-HSA-1221632,0.0004479414559166852,649.0,8,$\widetilde{A}_{G_8}$,hybrid
R-HSA-1362277,0.00044510862186226757,650.0,8,$\widetilde{A}_{G_8}$,hybrid
R-HSA-419037,0.0004446246223399212,651.0,8,$\widetilde{A}_{G_8}$,hybrid
R-HSA-5693607,0.00044406487758873566,652.0,8,$\widetilde{A}_{G_8}$,hybrid
R-HSA-176409,0.00044377109201598763,653.0,8,$\widetilde{A}_{G_8}$,hybrid
R-HSA-176814,0.00044132774525389775,654.0,8,$\widetilde{A}_{G_8}$,hybrid
R-HSA-174178,0.000438623652756709,655.0,8,$\widetilde{A}_{G_8}$,hybrid
R-HSA-174414,0.0004362255813385307,656.0,8,$\widetilde{A}_{G_8}$,hybrid
R-HSA-3371571,0.00043587894372701413,657.0,8,$\widetilde{A}_{G_8}$,hybrid
R-HSA-5578749,0.0004326630287568975,658.0,8,$\widetilde{A}_{G_8}$,hybrid
R-HSA-5619107,0.000431156202572389,659.0,8,$\widetilde{A}_{G_8}$,hybrid
R-HSA-170822,0.00043115620257238733,660.0,8,$\widetilde{A}_{G_8}$,hybrid
R-HSA-168325,0.00043115620257238587,661.0,8,$\widetilde{A}_{G_8}$,hybrid
R-HSA-8856688,0.0004297002293948241,662.0,8,$\widetilde{A}_{G_8}$,hybrid
R-HSA-2173793,0.00042820759661528024,663.0,8,$\widetilde{A}_{G_8}$,hybrid
R-HSA-8941326,0.00042726337135259244,664.0,8,$\widetilde{A}_{G_8}$,hybrid
R-HSA-110328,0.0004242952159493445,665.5,8,$\widetilde{A}_{G_8}$,hybrid
R-HSA-110329,0.0004242952159493445,665.5,8,$\widetilde{A}_{G_8}$,hybrid
R-HSA-73928,0.0004242952159493439,667.0,8,$\widetilde{A}_{G_8}$,hybrid
R-HSA-6806834,0.0004238761001028626,668.0,8,$\widetilde{A}_{G_8}$,hybrid
R-HSA-8957322,0.00042356905311250175,669.0,8,$\widetilde{A}_{G_8}$,hybrid
R-HSA-6803529,0.00042332732519117914,670.0,8,$\widetilde{A}_{G_8}$,hybrid
R-HSA-2132295,0.0004231101435977096,671.0,8,$\widetilde{A}_{G_8}$,hybrid
R-HSA-8939236,0.0004224736079588472,672.0,8,$\widetilde{A}_{G_8}$,hybrid
R-HSA-350054,0.0004208850089324888,673.0,8,$\widetilde{A}_{G_8}$,hybrid
R-HSA-168271,0.00042049150426918446,674.0,8,$\widetilde{A}_{G_8}$,hybrid
R-HSA-111458,0.00041750792151645544,675.5,8,$\widetilde{A}_{G_8}$,hybrid
R-HSA-9627069,0.00041750792151645544,675.5,8,$\widetilde{A}_{G_8}$,hybrid
R-HSA-180910,0.00041730444081229857,677.5,8,$\widetilde{A}_{G_8}$,hybrid
R-HSA-176033,0.00041730444081229857,677.5,8,$\widetilde{A}_{G_8}$,hybrid
R-HSA-6802957,0.00041589129233793765,679.0,8,$\widetilde{A}_{G_8}$,hybrid
R-HSA-2559585,0.0004155005435164617,680.0,8,$\widetilde{A}_{G_8}$,hybrid
R-HSA-3215018,0.00041544525005768096,681.0,8,$\widetilde{A}_{G_8}$,hybrid
R-HSA-168333,0.00041439068199031697,682.5,8,$\widetilde{A}_{G_8}$,hybrid
R-HSA-168274,0.00041439068199031697,682.5,8,$\widetilde{A}_{G_8}$,hybrid
R-HSA-9013418,0.0004133384929103059,684.0,8,$\widetilde{A}_{G_8}$,hybrid
R-HSA-180746,0.00041331959191822265,685.0,8,$\widetilde{A}_{G_8}$,hybrid
R-HSA-6804758,0.0004130436299607268,686.0,8,$\widetilde{A}_{G_8}$,hybrid
R-HSA-453276,0.00041231512114457783,687.5,8,$\widetilde{A}_{G_8}$,hybrid
R-HSA-174143,0.00041231512114457783,687.5,8,$\widetilde{A}_{G_8}$,hybrid
R-HSA-8986944,0.00041125604134419264,689.0,8,$\widetilde{A}_{G_8}$,hybrid
R-HSA-3928662,0.00040976526299496454,690.0,8,$\widetilde{A}_{G_8}$,hybrid
R-HSA-2173795,0.00040959051818405864,691.0,8,$\widetilde{A}_{G_8}$,hybrid
R-HSA-73980,0.00040922051577043864,692.0,8,$\widetilde{A}_{G_8}$,hybrid
R-HSA-73780,0.0004092205157704338,693.0,8,$\widetilde{A}_{G_8}$,hybrid
R-HSA-6784531,0.0004079089908060238,694.0,8,$\widetilde{A}_{G_8}$,hybrid
R-HSA-162658,0.00040773230428074595,695.0,8,$\widetilde{A}_{G_8}$,hybrid
R-HSA-5205685,0.0004065715077323969,696.0,8,$\widetilde{A}_{G_8}$,hybrid
R-HSA-70326,0.00040594506586635453,697.0,8,$\widetilde{A}_{G_8}$,hybrid
R-HSA-73929,0.00040439730270909637,698.0,8,$\widetilde{A}_{G_8}$,hybrid
R-HSA-2187338,0.0004018711914549996,699.0,8,$\widetilde{A}_{G_8}$,hybrid
R-HSA-167246,0.00040099849423561783,700.5,8,$\widetilde{A}_{G_8}$,hybrid
R-HSA-167200,0.00040099849423561783,700.5,8,$\widetilde{A}_{G_8}$,hybrid
R-HSA-167169,0.00040099849423561723,702.0,8,$\widetilde{A}_{G_8}$,hybrid
R-HSA-76042,0.0004008727749976271,703.5,8,$\widetilde{A}_{G_8}$,hybrid
R-HSA-75953,0.0004008727749976271,703.5,8,$\widetilde{A}_{G_8}$,hybrid
R-HSA-167162,0.000400872774997627,705.0,8,$\widetilde{A}_{G_8}$,hybrid
R-HSA-167161,0.00040087277499762687,707.0,8,$\widetilde{A}_{G_8}$,hybrid
R-HSA-73776,0.00040087277499762687,707.0,8,$\widetilde{A}_{G_8}$,hybrid
R-HSA-73779,0.00040087277499762687,707.0,8,$\widetilde{A}_{G_8}$,hybrid
R-HSA-4085377,0.00040040839630887997,709.0,8,$\widetilde{A}_{G_8}$,hybrid
R-HSA-381676,0.0003998362102847968,710.0,8,$\widetilde{A}_{G_8}$,hybrid
R-HSA-389661,0.00039738763218350576,711.0,8,$\widetilde{A}_{G_8}$,hybrid
R-HSA-167238,0.00039708365809065375,712.5,8,$\widetilde{A}_{G_8}$,hybrid
R-HSA-167243,0.00039708365809065375,712.5,8,$\widetilde{A}_{G_8}$,hybrid
R-HSA-176408,0.0003967468598422878,714.0,8,$\widetilde{A}_{G_8}$,hybrid
R-HSA-9664433,0.00039666748608412875,715.5,8,$\widetilde{A}_{G_8}$,hybrid
R-HSA-9662851,0.00039666748608412875,715.5,8,$\widetilde{A}_{G_8}$,hybrid
R-HSA-76005,0.00039608971324121616,717.0,8,$\widetilde{A}_{G_8}$,hybrid
R-HSA-9029569,0.0003955755690667797,718.0,8,$\widetilde{A}_{G_8}$,hybrid
R-HSA-909733,0.00039535959774957615,719.0,8,$\widetilde{A}_{G_8}$,hybrid
R-HSA-389960,0.00039495872831023005,720.0,8,$\widetilde{A}_{G_8}$,hybrid
R-HSA-69273,0.0003948533157749377,721.0,8,$\widetilde{A}_{G_8}$,hybrid
R-HSA-2173791,0.00039465109560847165,722.0,8,$\widetilde{A}_{G_8}$,hybrid
R-HSA-9617828,0.00039388258110947924,723.0,8,$\widetilde{A}_{G_8}$,hybrid
R-HSA-977225,0.0003932077046547271,724.0,8,$\widetilde{A}_{G_8}$,hybrid
R-HSA-70171,0.0003922321984561587,725.0,8,$\widetilde{A}_{G_8}$,hybrid
R-HSA-177243,0.00038968877026016236,726.0,8,$\widetilde{A}_{G_8}$,hybrid
R-HSA-5656169,0.00038868458305907485,727.0,8,$\widetilde{A}_{G_8}$,hybrid
R-HSA-167152,0.00038864840179113076,728.0,8,$\widetilde{A}_{G_8}$,hybrid
R-HSA-381070,0.0003882682431011754,729.0,8,$\widetilde{A}_{G_8}$,hybrid
R-HSA-2173789,0.00038745200710973645,730.0,8,$\widetilde{A}_{G_8}$,hybrid
R-HSA-983189,0.00038701280946054205,731.0,8,$\widetilde{A}_{G_8}$,hybrid
R-HSA-9609690,0.0003860239835499027,732.0,8,$\widetilde{A}_{G_8}$,hybrid
R-HSA-165054,0.00038410111044710635,733.0,8,$\widetilde{A}_{G_8}$,hybrid
R-HSA-5687128,0.00038366764509619665,734.0,8,$\widetilde{A}_{G_8}$,hybrid
R-HSA-3000171,0.0003836552570619473,735.0,8,$\widetilde{A}_{G_8}$,hybrid
R-HSA-9610379,0.000383375741424637,736.0,8,$\widetilde{A}_{G_8}$,hybrid
R-HSA-159227,0.0003829414676014399,737.0,8,$\widetilde{A}_{G_8}$,hybrid
R-HSA-390471,0.0003798556792647311,738.0,8,$\widetilde{A}_{G_8}$,hybrid
R-HSA-68949,0.00037985477367724597,739.0,8,$\widetilde{A}_{G_8}$,hybrid
R-HSA-167287,0.0003798005311954614,740.0,8,$\widetilde{A}_{G_8}$,hybrid
R-HSA-167290,0.00037980053119546,741.0,8,$\widetilde{A}_{G_8}$,hybrid
R-HSA-2173788,0.0003794772325737353,742.0,8,$\widetilde{A}_{G_8}$,hybrid
R-HSA-111461,0.00037924197679521486,743.0,8,$\widetilde{A}_{G_8}$,hybrid
R-HSA-5693579,0.00037921926294789856,744.0,8,$\widetilde{A}_{G_8}$,hybrid
R-HSA-9013423,0.00037852180753210796,745.0,8,$\widetilde{A}_{G_8}$,hybrid
R-HSA-5685942,0.00037806665732946975,746.0,8,$\widetilde{A}_{G_8}$,hybrid
R-HSA-6807878,0.00037651397447786996,747.0,8,$\widetilde{A}_{G_8}$,hybrid
R-HSA-69202,0.000374518329921908,748.0,8,$\widetilde{A}_{G_8}$,hybrid
R-HSA-5685938,0.0003744352877950525,749.0,8,$\widetilde{A}_{G_8}$,hybrid
R-HSA-9683701,0.00037441689075689064,750.0,8,$\widetilde{A}_{G_8}$,hybrid
R-HSA-3371497,0.00037204642418489707,751.0,8,$\widetilde{A}_{G_8}$,hybrid
R-HSA-159230,0.00037201430450529743,752.0,8,$\widetilde{A}_{G_8}$,hybrid
R-HSA-2559586,0.0003713603519747516,753.0,8,$\widetilde{A}_{G_8}$,hybrid
R-HSA-174184,0.0003694603953450999,754.0,8,$\widetilde{A}_{G_8}$,hybrid
R-HSA-1489509,0.00036907305691319885,755.0,8,$\widetilde{A}_{G_8}$,hybrid
R-HSA-450531,0.00036897388251520494,756.0,8,$\widetilde{A}_{G_8}$,hybrid
R-HSA-210744,0.000368127167779518,757.0,8,$\widetilde{A}_{G_8}$,hybrid
R-HSA-157579,0.0003681044185475811,758.0,8,$\widetilde{A}_{G_8}$,hybrid
R-HSA-4655427,0.0003675604203590613,759.0,8,$\widetilde{A}_{G_8}$,hybrid
R-HSA-69205,0.00036753461862701505,760.0,8,$\widetilde{A}_{G_8}$,hybrid
R-HSA-71406,0.00036602838577896684,761.0,8,$\widetilde{A}_{G_8}$,hybrid
R-HSA-69656,0.00036596628882667076,762.0,8,$\widetilde{A}_{G_8}$,hybrid
R-HSA-9663891,0.00036590562770193776,763.0,8,$\widetilde{A}_{G_8}$,hybrid
R-HSA-373755,0.00036223681877105805,764.0,8,$\widetilde{A}_{G_8}$,hybrid
R-HSA-5358752,0.00036188295951842305,767.5,8,$\widetilde{A}_{G_8}$,hybrid
R-HSA-5358751,0.00036188295951842305,767.5,8,$\widetilde{A}_{G_8}$,hybrid
R-HSA-5358749,0.00036188295951842305,767.5,8,$\widetilde{A}_{G_8}$,hybrid
R-HSA-5358747,0.00036188295951842305,767.5,8,$\widetilde{A}_{G_8}$,hybrid
R-HSA-5339716,0.00036188295951842305,767.5,8,$\widetilde{A}_{G_8}$,hybrid
R-HSA-4839743,0.00036188295951842305,767.5,8,$\widetilde{A}_{G_8}$,hybrid
R-HSA-73893,0.00036133051511729044,771.0,8,$\widetilde{A}_{G_8}$,hybrid
R-HSA-3232142,0.0003613213679441802,772.0,8,$\widetilde{A}_{G_8}$,hybrid
R-HSA-1483255,0.0003594801945449813,773.0,8,$\widetilde{A}_{G_8}$,hybrid
R-HSA-3301854,0.00035813417076189575,774.0,8,$\widetilde{A}_{G_8}$,hybrid
R-HSA-5628897,0.0003578714173638261,775.0,8,$\widetilde{A}_{G_8}$,hybrid
R-HSA-110313,0.0003572349926278467,776.0,8,$\widetilde{A}_{G_8}$,hybrid
R-HSA-2559582,0.00035704935163766356,777.0,8,$\widetilde{A}_{G_8}$,hybrid
R-HSA-1445148,0.00035593675116813247,778.0,8,$\widetilde{A}_{G_8}$,hybrid
R-HSA-168276,0.00035579903429400195,779.0,8,$\widetilde{A}_{G_8}$,hybrid
R-HSA-174437,0.00035555086660024225,780.0,8,$\widetilde{A}_{G_8}$,hybrid
R-HSA-9024446,0.0003545000056275932,781.0,8,$\widetilde{A}_{G_8}$,hybrid
R-HSA-6811438,0.00035149303808443993,782.0,8,$\widetilde{A}_{G_8}$,hybrid
R-HSA-156842,0.00035073158692934813,783.0,8,$\widetilde{A}_{G_8}$,hybrid
R-HSA-73933,0.0003501800346624068,784.0,8,$\widetilde{A}_{G_8}$,hybrid
R-HSA-141444,0.00035015708848651854,785.0,8,$\widetilde{A}_{G_8}$,hybrid
R-HSA-141424,0.0003501570884865178,786.0,8,$\widetilde{A}_{G_8}$,hybrid
R-HSA-1538133,0.00034901646101065,787.0,8,$\widetilde{A}_{G_8}$,hybrid
R-HSA-4839744,0.0003481899201296669,790.5,8,$\widetilde{A}_{G_8}$,hybrid
R-HSA-4839735,0.0003481899201296669,790.5,8,$\widetilde{A}_{G_8}$,hybrid
R-HSA-4839748,0.0003481899201296669,790.5,8,$\widetilde{A}_{G_8}$,hybrid
R-HSA-5467337,0.0003481899201296669,790.5,8,$\widetilde{A}_{G_8}$,hybrid
R-HSA-5467340,0.0003481899201296669,790.5,8,$\widetilde{A}_{G_8}$,hybrid
R-HSA-5467348,0.0003481899201296669,790.5,8,$\widetilde{A}_{G_8}$,hybrid
R-HSA-186712,0.00034544928579242565,794.0,8,$\widetilde{A}_{G_8}$,hybrid
R-HSA-5696400,0.0003440146372832414,795.0,8,$\widetilde{A}_{G_8}$,hybrid
R-HSA-9707616,0.0003424030356745269,796.0,8,$\widetilde{A}_{G_8}$,hybrid
R-HSA-9013106,0.00034174334390476527,797.0,8,$\widetilde{A}_{G_8}$,hybrid
R-HSA-202670,0.0003416823560803777,798.0,8,$\widetilde{A}_{G_8}$,hybrid
R-HSA-196299,0.0003392786851924973,799.0,8,$\widetilde{A}_{G_8}$,hybrid
R-HSA-110312,0.00033803178565688897,800.0,8,$\widetilde{A}_{G_8}$,hybrid
R-HSA-8876725,0.0003352916003097991,801.0,8,$\widetilde{A}_{G_8}$,hybrid
R-HSA-9013508,0.0003334805091874805,802.0,8,$\widetilde{A}_{G_8}$,hybrid
R-HSA-9678108,0.00033207536857259614,803.0,8,$\widetilde{A}_{G_8}$,hybrid
R-HSA-9614399,0.00033019623488552086,804.0,8,$\widetilde{A}_{G_8}$,hybrid
R-HSA-2408557,0.0003275327528354529,805.0,8,$\widetilde{A}_{G_8}$,hybrid
R-HSA-156902,0.00032739232134420626,806.0,8,$\widetilde{A}_{G_8}$,hybrid
R-HSA-6803204,0.0003271161659858681,807.0,8,$\widetilde{A}_{G_8}$,hybrid
R-HSA-2980766,0.0003267982857951201,808.0,8,$\widetilde{A}_{G_8}$,hybrid
R-HSA-72689,0.00032652412835544267,809.0,8,$\widetilde{A}_{G_8}$,hybrid
R-HSA-180024,0.0003262748528791442,810.0,8,$\widetilde{A}_{G_8}$,hybrid
R-HSA-192823,0.00032468918241480203,811.0,8,$\widetilde{A}_{G_8}$,hybrid
R-HSA-216083,0.00032378514134303335,812.0,8,$\widetilde{A}_{G_8}$,hybrid
R-HSA-110320,0.00032190181830354106,813.0,8,$\widetilde{A}_{G_8}$,hybrid
R-HSA-5655862,0.0003216936234100884,814.0,8,$\widetilde{A}_{G_8}$,hybrid
R-HSA-163560,0.00032148334817591915,815.0,8,$\widetilde{A}_{G_8}$,hybrid
R-HSA-72695,0.00032042322910763696,816.0,8,$\widetilde{A}_{G_8}$,hybrid
R-HSA-159231,0.00032023122069606996,817.0,8,$\widetilde{A}_{G_8}$,hybrid
R-HSA-156827,0.00031859777916401445,818.0,8,$\widetilde{A}_{G_8}$,hybrid
R-HSA-975956,0.00031755304731352917,819.0,8,$\widetilde{A}_{G_8}$,hybrid
R-HSA-5689901,0.00031661349164846845,820.0,8,$\widetilde{A}_{G_8}$,hybrid
R-HSA-2151201,0.0003165590525022643,821.0,8,$\widetilde{A}_{G_8}$,hybrid
R-HSA-69052,0.00031597651930530247,822.0,8,$\widetilde{A}_{G_8}$,hybrid
R-HSA-111471,0.00031466496856849904,823.0,8,$\widetilde{A}_{G_8}$,hybrid
R-HSA-9609523,0.00031425793917081075,824.0,8,$\widetilde{A}_{G_8}$,hybrid
R-HSA-72706,0.0003133555127149555,825.0,8,$\widetilde{A}_{G_8}$,hybrid
R-HSA-4615885,0.00031320547285168727,826.0,8,$\widetilde{A}_{G_8}$,hybrid
R-HSA-198323,0.00031266077647181076,827.0,8,$\widetilde{A}_{G_8}$,hybrid
R-HSA-159234,0.00031261710156681063,828.0,8,$\widetilde{A}_{G_8}$,hybrid
R-HSA-76071,0.00031144845420618224,829.0,8,$\widetilde{A}_{G_8}$,hybrid
R-HSA-4551638,0.00031080709506458557,830.0,8,$\widetilde{A}_{G_8}$,hybrid
R-HSA-8941856,0.0003104491863928652,831.0,8,$\widetilde{A}_{G_8}$,hybrid
R-HSA-4641265,0.0003100737475438243,832.0,8,$\widetilde{A}_{G_8}$,hybrid
R-HSA-72649,0.00030921697482524956,833.0,8,$\widetilde{A}_{G_8}$,hybrid
R-HSA-429914,0.00030918451162349894,834.0,8,$\widetilde{A}_{G_8}$,hybrid
R-HSA-198753,0.00030870843762066896,835.0,8,$\widetilde{A}_{G_8}$,hybrid
R-HSA-72764,0.0003078976583519158,836.0,8,$\widetilde{A}_{G_8}$,hybrid
R-HSA-389957,0.0003074711930859729,837.0,8,$\widetilde{A}_{G_8}$,hybrid
R-HSA-8953750,0.00030731782233789666,838.0,8,$\widetilde{A}_{G_8}$,hybrid
R-HSA-174411,0.0003071197798642959,839.0,8,$\widetilde{A}_{G_8}$,hybrid
R-HSA-112409,0.00030632630530001156,840.0,8,$\widetilde{A}_{G_8}$,hybrid
R-HSA-5696399,0.00030582323495146284,841.0,8,$\widetilde{A}_{G_8}$,hybrid
R-HSA-203927,0.0003057528173711027,842.0,8,$\widetilde{A}_{G_8}$,hybrid
R-HSA-174417,0.0003053994433016652,843.0,8,$\widetilde{A}_{G_8}$,hybrid
R-HSA-111447,0.00030507739286979925,844.0,8,$\widetilde{A}_{G_8}$,hybrid
R-HSA-5656121,0.00030418389935236615,845.0,8,$\widetilde{A}_{G_8}$,hybrid
R-HSA-199992,0.00030372874325619375,846.0,8,$\widetilde{A}_{G_8}$,hybrid
R-HSA-72662,0.0003034992613475361,847.0,8,$\widetilde{A}_{G_8}$,hybrid
R-HSA-9013409,0.0003019909755721844,848.0,8,$\widetilde{A}_{G_8}$,hybrid
R-HSA-389958,0.0003018721791382898,849.0,8,$\widetilde{A}_{G_8}$,hybrid
R-HSA-72702,0.00030001052099333454,850.0,8,$\widetilde{A}_{G_8}$,hybrid
R-HSA-2468052,0.00029790200212020105,851.0,8,$\widetilde{A}_{G_8}$,hybrid
R-HSA-8876198,0.0002976309217538329,852.0,8,$\widetilde{A}_{G_8}$,hybrid
R-HSA-196854,0.0002965975298555363,853.0,8,$\widetilde{A}_{G_8}$,hybrid
R-HSA-9633012,0.00029495817584663327,854.0,8,$\widetilde{A}_{G_8}$,hybrid
R-HSA-4570464,0.0002931386853667289,855.0,8,$\widetilde{A}_{G_8}$,hybrid
R-HSA-75955,0.0002927465145574656,856.0,8,$\widetilde{A}_{G_8}$,hybrid
R-HSA-112382,0.00029274651455746546,857.0,8,$\widetilde{A}_{G_8}$,hybrid
R-HSA-77595,0.00029143517516781503,858.0,8,$\widetilde{A}_{G_8}$,hybrid
R-HSA-6796648,0.0002910074535533128,859.0,8,$\widetilde{A}_{G_8}$,hybrid
R-HSA-9614657,0.0002899174944763071,860.0,8,$\widetilde{A}_{G_8}$,hybrid
R-HSA-381119,0.0002898287277591275,861.0,8,$\widetilde{A}_{G_8}$,hybrid
R-HSA-76066,0.0002889373683045701,862.0,8,$\widetilde{A}_{G_8}$,hybrid
R-HSA-5696394,0.0002877675359840108,863.0,8,$\widetilde{A}_{G_8}$,hybrid
R-HSA-2644606,0.00028675129951212557,865.5,8,$\widetilde{A}_{G_8}$,hybrid
R-HSA-2644603,0.00028675129951212557,865.5,8,$\widetilde{A}_{G_8}$,hybrid
R-HSA-2644602,0.00028675129951212557,865.5,8,$\widetilde{A}_{G_8}$,hybrid
R-HSA-2894862,0.00028675129951212557,865.5,8,$\widetilde{A}_{G_8}$,hybrid
R-HSA-2894858,0.00028675129951212535,868.0,8,$\widetilde{A}_{G_8}$,hybrid
R-HSA-9012852,0.0002853302923312775,869.0,8,$\widetilde{A}_{G_8}$,hybrid
R-HSA-72306,0.0002848336230468738,870.0,8,$\widetilde{A}_{G_8}$,hybrid
R-HSA-5419276,0.00028417333117682043,871.0,8,$\widetilde{A}_{G_8}$,hybrid
R-HSA-8982491,0.0002828509287935733,872.0,8,$\widetilde{A}_{G_8}$,hybrid
R-HSA-9648025,0.00028277316303315246,873.0,8,$\widetilde{A}_{G_8}$,hybrid
R-HSA-6804759,0.0002822034555919845,874.0,8,$\widetilde{A}_{G_8}$,hybrid
R-HSA-5368286,0.0002812266339469814,875.0,8,$\widetilde{A}_{G_8}$,hybrid
R-HSA-167172,0.0002803004303739721,876.0,8,$\widetilde{A}_{G_8}$,hybrid
R-HSA-3772470,0.00028028606416981457,877.0,8,$\widetilde{A}_{G_8}$,hybrid
R-HSA-69618,0.00027883077904998884,878.0,8,$\widetilde{A}_{G_8}$,hybrid
R-HSA-76061,0.00027820461983228114,879.0,8,$\widetilde{A}_{G_8}$,hybrid
R-HSA-5389840,0.00027661680121833856,880.0,8,$\widetilde{A}_{G_8}$,hybrid
R-HSA-9614085,0.000275710580874269,881.0,8,$\widetilde{A}_{G_8}$,hybrid
R-HSA-174824,0.00027533793843010035,882.0,8,$\widetilde{A}_{G_8}$,hybrid
R-HSA-9694516,0.0002746132271436884,883.0,8,$\widetilde{A}_{G_8}$,hybrid
R-HSA-264870,0.000274604832972727,884.0,8,$\widetilde{A}_{G_8}$,hybrid
R-HSA-2682334,0.00027125173198549936,885.0,8,$\widetilde{A}_{G_8}$,hybrid
R-HSA-2408522,0.00027057985051538486,886.0,8,$\widetilde{A}_{G_8}$,hybrid
R-HSA-1169410,0.00027036147307353276,887.0,8,$\widetilde{A}_{G_8}$,hybrid
R-HSA-9661069,0.00026902297694566624,888.5,8,$\widetilde{A}_{G_8}$,hybrid
R-HSA-9659787,0.00026902297694566624,888.5,8,$\widetilde{A}_{G_8}$,hybrid
R-HSA-5696395,0.00026790259922085543,890.0,8,$\widetilde{A}_{G_8}$,hybrid
R-HSA-6783310,0.0002678420286993274,891.0,8,$\widetilde{A}_{G_8}$,hybrid
R-HSA-5368287,0.0002675129722559487,892.0,8,$\widetilde{A}_{G_8}$,hybrid
R-HSA-8866654,0.0002672098974072058,893.0,8,$\widetilde{A}_{G_8}$,hybrid
R-HSA-2995383,0.00026694610751714276,894.0,8,$\widetilde{A}_{G_8}$,hybrid
R-HSA-1169408,0.00026655985505889395,895.0,8,$\widetilde{A}_{G_8}$,hybrid
R-HSA-5621575,0.00026562256115165794,896.0,8,$\widetilde{A}_{G_8}$,hybrid
R-HSA-8943724,0.00026262769191301417,897.0,8,$\widetilde{A}_{G_8}$,hybrid
R-HSA-70263,0.00025941557547742405,898.0,8,$\widetilde{A}_{G_8}$,hybrid
R-HSA-5620922,0.00025724727228472043,899.0,8,$\widetilde{A}_{G_8}$,hybrid
R-HSA-6782210,0.00025694242044996106,900.0,8,$\widetilde{A}_{G_8}$,hybrid
R-HSA-1799339,0.0002561257541411667,901.0,8,$\widetilde{A}_{G_8}$,hybrid
R-HSA-400253,0.00025567136315613164,902.0,8,$\widetilde{A}_{G_8}$,hybrid
R-HSA-8979227,0.000255651168776414,903.0,8,$\widetilde{A}_{G_8}$,hybrid
R-HSA-3214847,0.0002552026303183956,904.0,8,$\widetilde{A}_{G_8}$,hybrid
R-HSA-1483257,0.0002543445457687012,905.0,8,$\widetilde{A}_{G_8}$,hybrid
R-HSA-6804114,0.0002539129459577816,906.0,8,$\widetilde{A}_{G_8}$,hybrid
R-HSA-6782135,0.0002502055250407477,907.0,8,$\widetilde{A}_{G_8}$,hybrid
R-HSA-180786,0.00024997073892565257,908.0,8,$\widetilde{A}_{G_8}$,hybrid
R-HSA-9033241,0.000246511058958448,909.0,8,$\widetilde{A}_{G_8}$,hybrid
R-HSA-6804757,0.0002464541214264433,910.5,8,$\widetilde{A}_{G_8}$,hybrid
R-HSA-6806003,0.0002464541214264433,910.5,8,$\widetilde{A}_{G_8}$,hybrid
R-HSA-749476,0.00024245763560811382,912.0,8,$\widetilde{A}_{G_8}$,hybrid
R-HSA-76046,0.00024245763560811314,913.0,8,$\widetilde{A}_{G_8}$,hybrid
R-HSA-74158,0.00024245763560811238,914.0,8,$\widetilde{A}_{G_8}$,hybrid
R-HSA-6781823,0.00024113627756402824,915.0,8,$\widetilde{A}_{G_8}$,hybrid
R-HSA-9603798,0.0002386953903339899,916.0,8,$\widetilde{A}_{G_8}$,hybrid
R-HSA-194441,0.0002375297887611236,917.5,8,$\widetilde{A}_{G_8}$,hybrid
R-HSA-191859,0.0002375297887611236,917.5,8,$\widetilde{A}_{G_8}$,hybrid
R-HSA-6807505,0.00023675516181927663,919.0,8,$\widetilde{A}_{G_8}$,hybrid
R-HSA-380259,0.00023273465785911588,920.5,8,$\widetilde{A}_{G_8}$,hybrid
R-HSA-380284,0.00023273465785911588,920.5,8,$\widetilde{A}_{G_8}$,hybrid
R-HSA-1980143,0.00023227627121310691,922.0,8,$\widetilde{A}_{G_8}$,hybrid
R-HSA-373760,0.0002317980221804657,923.0,8,$\widetilde{A}_{G_8}$,hybrid
R-HSA-6809371,0.00023149386604537266,924.5,8,$\widetilde{A}_{G_8}$,hybrid
R-HSA-6805567,0.00023149386604537266,924.5,8,$\widetilde{A}_{G_8}$,hybrid
R-HSA-450282,0.00022997565299166768,926.0,8,$\widetilde{A}_{G_8}$,hybrid
R-HSA-211859,0.00022988139952206311,927.5,8,$\widetilde{A}_{G_8}$,hybrid
R-HSA-211945,0.00022988139952206311,927.5,8,$\widetilde{A}_{G_8}$,hybrid
R-HSA-674695,0.00022888518900670716,929.0,8,$\widetilde{A}_{G_8}$,hybrid
R-HSA-4791275,0.00022729987658166116,930.0,8,$\widetilde{A}_{G_8}$,hybrid
R-HSA-1474228,0.0002268410460429881,931.0,8,$\widetilde{A}_{G_8}$,hybrid
R-HSA-4641262,0.00022369290835606758,932.0,8,$\widetilde{A}_{G_8}$,hybrid
R-HSA-70221,0.000222349734954527,933.0,8,$\widetilde{A}_{G_8}$,hybrid
R-HSA-6781827,0.00022093077156209895,934.0,8,$\widetilde{A}_{G_8}$,hybrid
R-HSA-9694635,0.0002208091030921644,935.0,8,$\widetilde{A}_{G_8}$,hybrid
R-HSA-5674400,0.00021975868913692886,936.0,8,$\widetilde{A}_{G_8}$,hybrid
R-HSA-8854518,0.00021866775267826222,937.0,8,$\widetilde{A}_{G_8}$,hybrid
R-HSA-3371453,0.00021844033444646412,938.0,8,$\widetilde{A}_{G_8}$,hybrid
R-HSA-2470946,0.00021839963816284834,939.0,8,$\widetilde{A}_{G_8}$,hybrid
R-HSA-5620971,0.0002182789795647501,940.0,8,$\widetilde{A}_{G_8}$,hybrid
R-HSA-5675221,0.00021745780126874935,941.0,8,$\widetilde{A}_{G_8}$,hybrid
R-HSA-2995410,0.00021602083572762578,942.0,8,$\widetilde{A}_{G_8}$,hybrid
R-HSA-3238698,0.0002106037664822953,943.0,8,$\widetilde{A}_{G_8}$,hybrid
R-HSA-5173105,0.00020996848498833957,944.0,8,$\widetilde{A}_{G_8}$,hybrid
R-HSA-72165,0.00020847957390355003,945.0,8,$\widetilde{A}_{G_8}$,hybrid
R-HSA-3371556,0.00020821532661001135,946.0,8,$\widetilde{A}_{G_8}$,hybrid
R-HSA-8950505,0.00020594137157183495,947.0,8,$\widetilde{A}_{G_8}$,hybrid
R-HSA-1483206,0.00020436464018735293,948.0,8,$\widetilde{A}_{G_8}$,hybrid
R-HSA-75067,0.000202502088048604,949.0,8,$\widetilde{A}_{G_8}$,hybrid
R-HSA-1268020,0.00019965311631037859,950.0,8,$\widetilde{A}_{G_8}$,hybrid
R-HSA-5610787,0.00019886141562704403,951.0,8,$\widetilde{A}_{G_8}$,hybrid
R-HSA-3769402,0.0001960128471972366,952.0,8,$\widetilde{A}_{G_8}$,hybrid
R-HSA-389977,0.00019596468063143608,953.0,8,$\widetilde{A}_{G_8}$,hybrid
R-HSA-73863,0.00019386727709073915,954.0,8,$\widetilde{A}_{G_8}$,hybrid
R-HSA-525793,0.00019259138006178411,955.0,8,$\widetilde{A}_{G_8}$,hybrid
R-HSA-171319,0.00019225564482149368,956.0,8,$\widetilde{A}_{G_8}$,hybrid
R-HSA-379716,0.00019184238947208553,957.0,8,$\widetilde{A}_{G_8}$,hybrid
R-HSA-159236,0.00019061196060166848,958.0,8,$\widetilde{A}_{G_8}$,hybrid
R-HSA-9662361,0.00018994529546374872,959.0,8,$\widetilde{A}_{G_8}$,hybrid
R-HSA-8939243,0.00018921617106461107,960.0,8,$\widetilde{A}_{G_8}$,hybrid
R-HSA-4419969,0.00018889021990831813,961.0,8,$\widetilde{A}_{G_8}$,hybrid
R-HSA-9031628,0.00018762956911423724,962.0,8,$\widetilde{A}_{G_8}$,hybrid
R-HSA-163841,0.00018483861545981361,963.0,8,$\widetilde{A}_{G_8}$,hybrid
R-HSA-380270,0.0001831196290499098,964.5,8,$\widetilde{A}_{G_8}$,hybrid
R-HSA-380287,0.0001831196290499098,964.5,8,$\widetilde{A}_{G_8}$,hybrid
R-HSA-532668,0.00018258770359957862,966.0,8,$\widetilde{A}_{G_8}$,hybrid
R-HSA-198933,0.00018248610781769305,967.0,8,$\widetilde{A}_{G_8}$,hybrid
R-HSA-114452,0.00018023968152753062,968.0,8,$\widetilde{A}_{G_8}$,hybrid
R-HSA-379724,0.0001800805652503618,969.0,8,$\widetilde{A}_{G_8}$,hybrid
R-HSA-8852135,0.00017715770751318885,970.0,8,$\widetilde{A}_{G_8}$,hybrid
R-HSA-69236,0.00017687853734806255,971.0,8,$\widetilde{A}_{G_8}$,hybrid
R-HSA-69231,0.00017687853734806234,972.0,8,$\widetilde{A}_{G_8}$,hybrid
R-HSA-9013422,0.0001765419957891404,973.0,8,$\widetilde{A}_{G_8}$,hybrid
R-HSA-72202,0.00017081270161281296,974.0,8,$\widetilde{A}_{G_8}$,hybrid
R-HSA-6811440,0.0001701588446963115,975.0,8,$\widetilde{A}_{G_8}$,hybrid
R-HSA-380320,0.00016802501625125406,976.0,8,$\widetilde{A}_{G_8}$,hybrid
R-HSA-9668328,0.0001679313742656562,977.0,8,$\widetilde{A}_{G_8}$,hybrid
R-HSA-446353,0.00016764712006955948,978.0,8,$\widetilde{A}_{G_8}$,hybrid
R-HSA-1592230,0.00016729686716481464,979.0,8,$\widetilde{A}_{G_8}$,hybrid
R-HSA-2426168,0.00016647586999076386,980.0,8,$\widetilde{A}_{G_8}$,hybrid
R-HSA-4641263,0.00016613290751667863,981.0,8,$\widetilde{A}_{G_8}$,hybrid
R-HSA-198725,0.0001651634052138567,982.0,8,$\widetilde{A}_{G_8}$,hybrid
R-HSA-2565942,0.00016439685228728423,983.0,8,$\widetilde{A}_{G_8}$,hybrid
R-HSA-901042,0.00016348720398788217,984.0,8,$\widetilde{A}_{G_8}$,hybrid
R-HSA-1368108,0.00016251121336892225,985.0,8,$\widetilde{A}_{G_8}$,hybrid
R-HSA-6804756,0.00015899608645818854,986.0,8,$\widetilde{A}_{G_8}$,hybrid
R-HSA-2173796,0.00015542522665078337,987.0,8,$\widetilde{A}_{G_8}$,hybrid
R-HSA-901032,0.000153187365616756,988.0,8,$\widetilde{A}_{G_8}$,hybrid
R-HSA-6790901,0.00015248356888792765,989.0,8,$\widetilde{A}_{G_8}$,hybrid
R-HSA-3781865,0.00014847173087650432,990.0,8,$\widetilde{A}_{G_8}$,hybrid
R-HSA-163210,0.0001448021338846467,991.0,8,$\widetilde{A}_{G_8}$,hybrid
R-HSA-8934903,0.00014373539373234082,992.0,8,$\widetilde{A}_{G_8}$,hybrid
R-HSA-445095,0.00014052067019426672,993.0,8,$\widetilde{A}_{G_8}$,hybrid
R-HSA-72187,0.00013054521632894752,994.0,8,$\widetilde{A}_{G_8}$,hybrid
R-HSA-8949664,0.00012981006260696993,995.0,8,$\widetilde{A}_{G_8}$,hybrid
R-HSA-111367,0.0001284042682568911,996.0,8,$\widetilde{A}_{G_8}$,hybrid
R-HSA-6811434,0.0001276499894360923,997.0,8,$\widetilde{A}_{G_8}$,hybrid
R-HSA-381033,0.00012423261370166305,998.0,8,$\widetilde{A}_{G_8}$,hybrid
R-HSA-8949613,0.00011911299941398719,999.0,8,$\widetilde{A}_{G_8}$,hybrid
R-HSA-77588,0.0001180571301283246,1000.0,8,$\widetilde{A}_{G_8}$,hybrid
R-HSA-73856,0.00011782864267591925,1001.0,8,$\widetilde{A}_{G_8}$,hybrid
R-HSA-2028269,0.00011728862060311314,1002.0,8,$\widetilde{A}_{G_8}$,hybrid
R-HSA-5620920,0.00011498952797132579,1003.0,8,$\widetilde{A}_{G_8}$,hybrid
R-HSA-8949215,0.00011453352115260865,1004.0,8,$\widetilde{A}_{G_8}$,hybrid
R-HSA-109606,0.00011303680808353679,1005.0,8,$\widetilde{A}_{G_8}$,hybrid
R-HSA-111465,0.0001127737422232322,1006.0,8,$\widetilde{A}_{G_8}$,hybrid
R-HSA-9694548,0.00011203108643259322,1007.0,8,$\widetilde{A}_{G_8}$,hybrid
R-HSA-5205647,0.0001061593260072732,1008.0,8,$\widetilde{A}_{G_8}$,hybrid
R-HSA-71403,0.00010436260747608501,1009.0,8,$\widetilde{A}_{G_8}$,hybrid
R-HSA-8866652,0.00010149832983628756,1010.0,8,$\widetilde{A}_{G_8}$,hybrid
R-HSA-430039,8.808038559136127e-05,1011.0,8,$\widetilde{A}_{G_8}$,hybrid
R-HSA-75153,8.797483028312626e-05,1012.0,8,$\widetilde{A}_{G_8}$,hybrid
R-HSA-428157,8.588906091892361e-05,1013.0,8,$\widetilde{A}_{G_8}$,hybrid
R-HSA-983231,6.508165538080403e-05,1014.0,8,$\widetilde{A}_{G_8}$,hybrid
R-HSA-388844,6.501786662870745e-05,1015.0,8,$\widetilde{A}_{G_8}$,hybrid
R-HSA-5668914,5.75849145887457e-05,1016.0,8,$\widetilde{A}_{G_8}$,hybrid
R-HSA-9013406,4.519211767190857e-05,1017.0,8,$\widetilde{A}_{G_8}$,hybrid
R-HSA-8854214,4.293050805873595e-05,1018.0,8,$\widetilde{A}_{G_8}$,hybrid
R-HSA-1630316,3.929961899353413e-05,1019.0,8,$\widetilde{A}_{G_8}$,hybrid
R-HSA-8873719,3.396129839309704e-05,1020.0,8,$\widetilde{A}_{G_8}$,hybrid
R-HSA-425407,2.7569279423962226e-05,1021.0,8,$\widetilde{A}_{G_8}$,hybrid
R-HSA-3108214,9.872185044214907e-06,1022.0,8,$\widetilde{A}_{G_8}$,hybrid
R-HSA-5632684,2.190001274348178e-07,1023.0,8,$\widetilde{A}_{G_8}$,hybrid
R-HSA-5635838,1.6430054592286386e-07,1024.0,8,$\widetilde{A}_{G_8}$,hybrid
