entity,score,rank,graphlet,graphlet_adj,score_method
R-HSA-2424491,0.004560224127764063,1.0,5,$\widetilde{A}_{G_5}$,hybrid
R-HSA-4641263,0.0045169644435818085,2.0,5,$\widetilde{A}_{G_5}$,hybrid
R-HSA-2172127,0.00409730849108845,3.0,5,$\widetilde{A}_{G_5}$,hybrid
R-HSA-8864260,0.0037368076244882085,4.0,5,$\widetilde{A}_{G_5}$,hybrid
R-HSA-167044,0.0034992105352315787,5.0,5,$\widetilde{A}_{G_5}$,hybrid
R-HSA-170968,0.0031748276037823543,6.0,5,$\widetilde{A}_{G_5}$,hybrid
R-HSA-169893,0.003059459840821242,7.0,5,$\widetilde{A}_{G_5}$,hybrid
R-HSA-198933,0.003014014672366561,8.0,5,$\widetilde{A}_{G_5}$,hybrid
R-HSA-1643713,0.0027411599441102604,9.0,5,$\widetilde{A}_{G_5}$,hybrid
R-HSA-5637810,0.0026144270851978344,10.5,5,$\widetilde{A}_{G_5}$,hybrid
R-HSA-5637812,0.0026144270851978344,10.5,5,$\widetilde{A}_{G_5}$,hybrid
R-HSA-187687,0.002587049764368341,12.0,5,$\widetilde{A}_{G_5}$,hybrid
R-HSA-392451,0.0025660318527252106,13.0,5,$\widetilde{A}_{G_5}$,hybrid
R-HSA-5654708,0.002530350318041272,14.0,5,$\widetilde{A}_{G_5}$,hybrid
R-HSA-456926,0.0025233851303174074,15.0,5,$\widetilde{A}_{G_5}$,hybrid
R-HSA-177504,0.002465510646511718,16.0,5,$\widetilde{A}_{G_5}$,hybrid
R-HSA-389960,0.0024464113271587726,17.0,5,$\widetilde{A}_{G_5}$,hybrid
R-HSA-9665348,0.002440757703699223,18.0,5,$\widetilde{A}_{G_5}$,hybrid
R-HSA-8853338,0.002420304968380249,19.5,5,$\widetilde{A}_{G_5}$,hybrid
R-HSA-5655332,0.002420304968380249,19.5,5,$\widetilde{A}_{G_5}$,hybrid
R-HSA-180292,0.002411802796126264,21.0,5,$\widetilde{A}_{G_5}$,hybrid
R-HSA-8964616,0.0024052850296426612,22.0,5,$\widetilde{A}_{G_5}$,hybrid
R-HSA-5637815,0.002365608272087448,23.0,5,$\widetilde{A}_{G_5}$,hybrid
R-HSA-1236382,0.0023656082720874476,24.0,5,$\widetilde{A}_{G_5}$,hybrid
R-HSA-166663,0.0023505624288943884,25.0,5,$\widetilde{A}_{G_5}$,hybrid
R-HSA-983695,0.0023484218869447245,26.0,5,$\widetilde{A}_{G_5}$,hybrid
R-HSA-397795,0.0022527420845941323,27.0,5,$\widetilde{A}_{G_5}$,hybrid
R-HSA-1963640,0.0022403319804088686,28.0,5,$\widetilde{A}_{G_5}$,hybrid
R-HSA-5625900,0.0022258620416516182,29.0,5,$\widetilde{A}_{G_5}$,hybrid
R-HSA-5654687,0.0021773181182490613,30.0,5,$\widetilde{A}_{G_5}$,hybrid
R-HSA-2219530,0.0021540561410997683,31.0,5,$\widetilde{A}_{G_5}$,hybrid
R-HSA-5654716,0.002141894100065257,32.0,5,$\widetilde{A}_{G_5}$,hybrid
R-HSA-9665686,0.002120421090378565,33.0,5,$\widetilde{A}_{G_5}$,hybrid
R-HSA-392851,0.0021162921854796417,34.0,5,$\widetilde{A}_{G_5}$,hybrid
R-HSA-163359,0.0021161026064936634,35.0,5,$\widetilde{A}_{G_5}$,hybrid
R-HSA-381676,0.0021040323149371853,36.0,5,$\widetilde{A}_{G_5}$,hybrid
R-HSA-432040,0.0021021757105442376,37.5,5,$\widetilde{A}_{G_5}$,hybrid
R-HSA-445717,0.0021021757105442376,37.5,5,$\widetilde{A}_{G_5}$,hybrid
R-HSA-1250347,0.0020760783215413815,39.0,5,$\widetilde{A}_{G_5}$,hybrid
R-HSA-166658,0.002070752626746,40.0,5,$\widetilde{A}_{G_5}$,hybrid
R-HSA-2029481,0.0020331178713101153,41.0,5,$\widetilde{A}_{G_5}$,hybrid
R-HSA-9664565,0.0020254440495872865,42.0,5,$\widetilde{A}_{G_5}$,hybrid
R-HSA-8964315,0.0020174605935188053,43.0,5,$\widetilde{A}_{G_5}$,hybrid
R-HSA-418555,0.0020126490608575274,44.0,5,$\widetilde{A}_{G_5}$,hybrid
R-HSA-9009391,0.002011557362853093,45.0,5,$\widetilde{A}_{G_5}$,hybrid
R-HSA-1963642,0.002009175154969894,46.0,5,$\widetilde{A}_{G_5}$,hybrid
R-HSA-420092,0.0020080874786720915,47.0,5,$\widetilde{A}_{G_5}$,hybrid
R-HSA-392170,0.002004589926697674,48.0,5,$\widetilde{A}_{G_5}$,hybrid
R-HSA-392518,0.002004415435752244,49.0,5,$\widetilde{A}_{G_5}$,hybrid
R-HSA-3371511,0.0019955063745519326,50.0,5,$\widetilde{A}_{G_5}$,hybrid
R-HSA-5654693,0.0019913383223572694,51.0,5,$\widetilde{A}_{G_5}$,hybrid
R-HSA-9613829,0.0019801117048361193,52.0,5,$\widetilde{A}_{G_5}$,hybrid
R-HSA-1227990,0.0019724305152879792,53.0,5,$\widetilde{A}_{G_5}$,hybrid
R-HSA-9027284,0.0019692315196588764,54.0,5,$\widetilde{A}_{G_5}$,hybrid
R-HSA-3270619,0.0019637364643884697,55.0,5,$\widetilde{A}_{G_5}$,hybrid
R-HSA-390450,0.001955872947199366,56.0,5,$\widetilde{A}_{G_5}$,hybrid
R-HSA-202040,0.0019469775141959765,57.0,5,$\widetilde{A}_{G_5}$,hybrid
R-HSA-190828,0.0019427002676013088,58.0,5,$\widetilde{A}_{G_5}$,hybrid
R-HSA-70263,0.0019302368158609627,59.0,5,$\widetilde{A}_{G_5}$,hybrid
R-HSA-9006115,0.0019168374849935959,60.0,5,$\widetilde{A}_{G_5}$,hybrid
R-HSA-400042,0.0018935965904180838,61.0,5,$\widetilde{A}_{G_5}$,hybrid
R-HSA-4090294,0.00189248089298135,62.0,5,$\widetilde{A}_{G_5}$,hybrid
R-HSA-418592,0.0018892475774676678,63.0,5,$\widetilde{A}_{G_5}$,hybrid
R-HSA-422356,0.0018868565422716572,64.0,5,$\widetilde{A}_{G_5}$,hybrid
R-HSA-9634285,0.0018761699057887639,65.0,5,$\widetilde{A}_{G_5}$,hybrid
R-HSA-5655291,0.0018742055902263972,66.0,5,$\widetilde{A}_{G_5}$,hybrid
R-HSA-977606,0.0018705812709933433,67.0,5,$\widetilde{A}_{G_5}$,hybrid
R-HSA-75035,0.0018591585058662778,68.0,5,$\widetilde{A}_{G_5}$,hybrid
R-HSA-1250196,0.0018434907106653804,69.0,5,$\widetilde{A}_{G_5}$,hybrid
R-HSA-157858,0.0018306907164648417,70.0,5,$\widetilde{A}_{G_5}$,hybrid
R-HSA-383280,0.0018294760436549768,71.0,5,$\widetilde{A}_{G_5}$,hybrid
R-HSA-997272,0.0018277639544891592,73.5,5,$\widetilde{A}_{G_5}$,hybrid
R-HSA-1296041,0.0018277639544891592,73.5,5,$\widetilde{A}_{G_5}$,hybrid
R-HSA-1296065,0.0018277639544891592,73.5,5,$\widetilde{A}_{G_5}$,hybrid
R-HSA-1296059,0.0018277639544891592,73.5,5,$\widetilde{A}_{G_5}$,hybrid
R-HSA-381119,0.001817820851122195,76.0,5,$\widetilde{A}_{G_5}$,hybrid
R-HSA-6814122,0.001815997319435234,77.0,5,$\widetilde{A}_{G_5}$,hybrid
R-HSA-5626467,0.0018041198923837943,78.0,5,$\widetilde{A}_{G_5}$,hybrid
R-HSA-500657,0.0017835869322648846,79.0,5,$\widetilde{A}_{G_5}$,hybrid
R-HSA-418217,0.0017835869322648835,80.5,5,$\widetilde{A}_{G_5}$,hybrid
R-HSA-451326,0.0017835869322648835,80.5,5,$\widetilde{A}_{G_5}$,hybrid
R-HSA-5689896,0.0017767564066959005,82.0,5,$\widetilde{A}_{G_5}$,hybrid
R-HSA-163685,0.001774599346092407,83.0,5,$\widetilde{A}_{G_5}$,hybrid
R-HSA-1236394,0.0017703155801953652,84.0,5,$\widetilde{A}_{G_5}$,hybrid
R-HSA-5654732,0.0017662863590982337,85.0,5,$\widetilde{A}_{G_5}$,hybrid
R-HSA-977443,0.001739322915701101,87.0,5,$\widetilde{A}_{G_5}$,hybrid
R-HSA-977444,0.001739322915701101,87.0,5,$\widetilde{A}_{G_5}$,hybrid
R-HSA-991365,0.001739322915701101,87.0,5,$\widetilde{A}_{G_5}$,hybrid
R-HSA-389958,0.001736938498193248,89.0,5,$\widetilde{A}_{G_5}$,hybrid
R-HSA-5676594,0.0017355841602581393,90.0,5,$\widetilde{A}_{G_5}$,hybrid
R-HSA-428930,0.0017344591893369917,91.0,5,$\widetilde{A}_{G_5}$,hybrid
R-HSA-2219528,0.0017129136822366631,92.0,5,$\widetilde{A}_{G_5}$,hybrid
R-HSA-74749,0.001704583711199642,93.0,5,$\widetilde{A}_{G_5}$,hybrid
R-HSA-6811558,0.0017040574255795327,94.0,5,$\widetilde{A}_{G_5}$,hybrid
R-HSA-1296071,0.0017010700160334383,95.0,5,$\widetilde{A}_{G_5}$,hybrid
R-HSA-9660821,0.0016990753600845281,96.0,5,$\widetilde{A}_{G_5}$,hybrid
R-HSA-1251985,0.001697550785635474,97.0,5,$\widetilde{A}_{G_5}$,hybrid
R-HSA-68884,0.0016855068516539477,98.0,5,$\widetilde{A}_{G_5}$,hybrid
R-HSA-9020558,0.0016428451923200488,99.0,5,$\widetilde{A}_{G_5}$,hybrid
R-HSA-8939902,0.0016421986336745125,100.0,5,$\widetilde{A}_{G_5}$,hybrid
R-HSA-9034015,0.0016413201443510952,101.0,5,$\widetilde{A}_{G_5}$,hybrid
R-HSA-68962,0.0016252318846931397,102.0,5,$\widetilde{A}_{G_5}$,hybrid
R-HSA-1834941,0.0016248564884470689,103.0,5,$\widetilde{A}_{G_5}$,hybrid
R-HSA-5654741,0.0016243091654823513,104.0,5,$\widetilde{A}_{G_5}$,hybrid
R-HSA-912446,0.001611103143426007,105.0,5,$\widetilde{A}_{G_5}$,hybrid
R-HSA-418597,0.0016013218588637192,106.0,5,$\widetilde{A}_{G_5}$,hybrid
R-HSA-199418,0.0016008105120858588,107.0,5,$\widetilde{A}_{G_5}$,hybrid
R-HSA-111885,0.001598691933974881,108.0,5,$\widetilde{A}_{G_5}$,hybrid
R-HSA-5205685,0.0015982545819113185,109.0,5,$\widetilde{A}_{G_5}$,hybrid
R-HSA-354194,0.0015833072658129172,110.0,5,$\widetilde{A}_{G_5}$,hybrid
R-HSA-9013406,0.0015661350818617881,111.0,5,$\widetilde{A}_{G_5}$,hybrid
R-HSA-8851805,0.0015603317686243864,112.0,5,$\widetilde{A}_{G_5}$,hybrid
R-HSA-5654726,0.001558548110518415,113.0,5,$\widetilde{A}_{G_5}$,hybrid
R-HSA-5620971,0.0015513813937644248,114.0,5,$\widetilde{A}_{G_5}$,hybrid
R-HSA-9703648,0.0015478412065768115,115.0,5,$\widetilde{A}_{G_5}$,hybrid
R-HSA-9646399,0.0015464067385231465,116.0,5,$\widetilde{A}_{G_5}$,hybrid
R-HSA-1538133,0.0015458856179799499,117.0,5,$\widetilde{A}_{G_5}$,hybrid
R-HSA-9006335,0.0015391704328333556,118.0,5,$\widetilde{A}_{G_5}$,hybrid
R-HSA-176187,0.0015338954617269457,119.0,5,$\widetilde{A}_{G_5}$,hybrid
R-HSA-156842,0.0015277355340369903,120.0,5,$\widetilde{A}_{G_5}$,hybrid
R-HSA-68949,0.0015162904394543115,121.0,5,$\widetilde{A}_{G_5}$,hybrid
R-HSA-381038,0.0015118252458395094,122.0,5,$\widetilde{A}_{G_5}$,hybrid
R-HSA-3371568,0.0015102818447719497,123.0,5,$\widetilde{A}_{G_5}$,hybrid
R-HSA-3371571,0.001508223259813209,124.0,5,$\widetilde{A}_{G_5}$,hybrid
R-HSA-5654696,0.001502385381379298,125.0,5,$\widetilde{A}_{G_5}$,hybrid
R-HSA-390471,0.0014938079873159245,126.0,5,$\widetilde{A}_{G_5}$,hybrid
R-HSA-156902,0.0014910511382880368,127.0,5,$\widetilde{A}_{G_5}$,hybrid
R-HSA-389957,0.0014894000273205624,128.0,5,$\widetilde{A}_{G_5}$,hybrid
R-HSA-187037,0.0014805759943996987,129.0,5,$\widetilde{A}_{G_5}$,hybrid
R-HSA-1227986,0.0014794655035723994,130.0,5,$\widetilde{A}_{G_5}$,hybrid
R-HSA-2408557,0.0014789526505315808,131.0,5,$\widetilde{A}_{G_5}$,hybrid
R-HSA-69273,0.001473826619903887,132.0,5,$\widetilde{A}_{G_5}$,hybrid
R-HSA-192823,0.0014665070536633322,133.0,5,$\widetilde{A}_{G_5}$,hybrid
R-HSA-9664433,0.00146421614405688,134.5,5,$\widetilde{A}_{G_5}$,hybrid
R-HSA-9662851,0.00146421614405688,134.5,5,$\widetilde{A}_{G_5}$,hybrid
R-HSA-5675482,0.0014541648070331543,136.0,5,$\widetilde{A}_{G_5}$,hybrid
R-HSA-5213460,0.0014541648070331536,137.0,5,$\widetilde{A}_{G_5}$,hybrid
R-HSA-2730905,0.0014506172301240008,138.0,5,$\widetilde{A}_{G_5}$,hybrid
R-HSA-210993,0.001449483759960395,139.0,5,$\widetilde{A}_{G_5}$,hybrid
R-HSA-9615710,0.001449160387318305,140.0,5,$\widetilde{A}_{G_5}$,hybrid
R-HSA-9673767,0.0014475894175749113,141.5,5,$\widetilde{A}_{G_5}$,hybrid
R-HSA-9673770,0.0014475894175749113,141.5,5,$\widetilde{A}_{G_5}$,hybrid
R-HSA-9013418,0.0014405318296622004,143.0,5,$\widetilde{A}_{G_5}$,hybrid
R-HSA-8863795,0.0014331366274231824,144.0,5,$\widetilde{A}_{G_5}$,hybrid
R-HSA-5654743,0.0014113194236457483,145.0,5,$\widetilde{A}_{G_5}$,hybrid
R-HSA-182971,0.0014103331839261223,146.0,5,$\widetilde{A}_{G_5}$,hybrid
R-HSA-912526,0.0014098009271471378,147.0,5,$\widetilde{A}_{G_5}$,hybrid
R-HSA-3214842,0.001409569250642639,148.0,5,$\widetilde{A}_{G_5}$,hybrid
R-HSA-8852276,0.0014095058337661112,149.0,5,$\widetilde{A}_{G_5}$,hybrid
R-HSA-9678108,0.0014092766760815396,150.0,5,$\widetilde{A}_{G_5}$,hybrid
R-HSA-5205647,0.0014073358788519747,151.0,5,$\widetilde{A}_{G_5}$,hybrid
R-HSA-193639,0.0014059946008000465,152.0,5,$\widetilde{A}_{G_5}$,hybrid
R-HSA-2995383,0.00140455276626363,153.0,5,$\widetilde{A}_{G_5}$,hybrid
R-HSA-186763,0.0013994205828237094,154.0,5,$\widetilde{A}_{G_5}$,hybrid
R-HSA-72689,0.0013881083351190908,155.0,5,$\widetilde{A}_{G_5}$,hybrid
R-HSA-196025,0.001385710122229969,156.0,5,$\widetilde{A}_{G_5}$,hybrid
R-HSA-5693606,0.00137639677014921,157.0,5,$\widetilde{A}_{G_5}$,hybrid
R-HSA-5693571,0.0013755869354908946,158.0,5,$\widetilde{A}_{G_5}$,hybrid
R-HSA-8950505,0.0013747173984348083,159.0,5,$\widetilde{A}_{G_5}$,hybrid
R-HSA-373753,0.0013710369494734152,160.0,5,$\widetilde{A}_{G_5}$,hybrid
R-HSA-5693565,0.0013691937901414571,161.0,5,$\widetilde{A}_{G_5}$,hybrid
R-HSA-8940973,0.0013684643963230575,162.0,5,$\widetilde{A}_{G_5}$,hybrid
R-HSA-9619665,0.0013624190203024233,163.0,5,$\widetilde{A}_{G_5}$,hybrid
R-HSA-190873,0.0013584599413599301,164.0,5,$\widetilde{A}_{G_5}$,hybrid
R-HSA-912631,0.00135573461915552,165.0,5,$\widetilde{A}_{G_5}$,hybrid
R-HSA-9669938,0.001355318248073174,166.5,5,$\widetilde{A}_{G_5}$,hybrid
R-HSA-9670439,0.001355318248073174,166.5,5,$\widetilde{A}_{G_5}$,hybrid
R-HSA-1170546,0.0013545156020038634,168.0,5,$\widetilde{A}_{G_5}$,hybrid
R-HSA-2029485,0.0013544424490468786,169.0,5,$\widetilde{A}_{G_5}$,hybrid
R-HSA-418885,0.001352310782655087,170.0,5,$\widetilde{A}_{G_5}$,hybrid
R-HSA-8983432,0.0013492703597268322,171.0,5,$\widetilde{A}_{G_5}$,hybrid
R-HSA-5654736,0.0013456055912038126,172.0,5,$\widetilde{A}_{G_5}$,hybrid
R-HSA-372708,0.0013447022393401741,173.0,5,$\widetilde{A}_{G_5}$,hybrid
R-HSA-156827,0.0013425004028805162,174.0,5,$\widetilde{A}_{G_5}$,hybrid
R-HSA-5693607,0.0013394506492350306,175.0,5,$\widetilde{A}_{G_5}$,hybrid
R-HSA-9634638,0.0013376161765153865,176.0,5,$\widetilde{A}_{G_5}$,hybrid
R-HSA-69473,0.0013353771720798625,177.0,5,$\widetilde{A}_{G_5}$,hybrid
R-HSA-168273,0.0013344176142582335,178.0,5,$\widetilde{A}_{G_5}$,hybrid
R-HSA-5358565,0.00133275050993782,179.0,5,$\widetilde{A}_{G_5}$,hybrid
R-HSA-2559586,0.001332412853392176,180.0,5,$\widetilde{A}_{G_5}$,hybrid
R-HSA-69052,0.0013322031036979156,181.0,5,$\widetilde{A}_{G_5}$,hybrid
R-HSA-187577,0.0013319885010192418,182.0,5,$\widetilde{A}_{G_5}$,hybrid
R-HSA-72695,0.0013310129396837136,183.0,5,$\widetilde{A}_{G_5}$,hybrid
R-HSA-72706,0.0013287926523439693,184.0,5,$\widetilde{A}_{G_5}$,hybrid
R-HSA-427389,0.0013248998101450104,185.0,5,$\widetilde{A}_{G_5}$,hybrid
R-HSA-72649,0.0013236973215370266,186.0,5,$\widetilde{A}_{G_5}$,hybrid
R-HSA-6802948,0.0013228182990986286,187.0,5,$\widetilde{A}_{G_5}$,hybrid
R-HSA-9006927,0.001322456627075882,188.0,5,$\widetilde{A}_{G_5}$,hybrid
R-HSA-8848021,0.0013224566270758817,189.0,5,$\widetilde{A}_{G_5}$,hybrid
R-HSA-68867,0.0013193111448543242,190.0,5,$\widetilde{A}_{G_5}$,hybrid
R-HSA-9633012,0.0013175790195852047,191.0,5,$\widetilde{A}_{G_5}$,hybrid
R-HSA-69002,0.0013169488179173511,192.0,5,$\widetilde{A}_{G_5}$,hybrid
R-HSA-8939236,0.0013123660538506968,193.0,5,$\widetilde{A}_{G_5}$,hybrid
R-HSA-68827,0.0013071250734719236,194.0,5,$\widetilde{A}_{G_5}$,hybrid
R-HSA-1433559,0.0013067806445637472,195.0,5,$\widetilde{A}_{G_5}$,hybrid
R-HSA-975956,0.0013066301457475573,196.0,5,$\widetilde{A}_{G_5}$,hybrid
R-HSA-5334118,0.0013044607218170542,197.0,5,$\widetilde{A}_{G_5}$,hybrid
R-HSA-437239,0.0013007968172190452,198.0,5,$\widetilde{A}_{G_5}$,hybrid
R-HSA-72662,0.0013003134256881598,199.0,5,$\widetilde{A}_{G_5}$,hybrid
R-HSA-447115,0.0013002270476645645,200.0,5,$\widetilde{A}_{G_5}$,hybrid
R-HSA-72702,0.0012994207062383678,201.0,5,$\widetilde{A}_{G_5}$,hybrid
R-HSA-5684264,0.0012989738745554456,202.0,5,$\widetilde{A}_{G_5}$,hybrid
R-HSA-1295596,0.0012956555920386286,203.0,5,$\widetilde{A}_{G_5}$,hybrid
R-HSA-72764,0.0012918070046674453,204.0,5,$\widetilde{A}_{G_5}$,hybrid
R-HSA-2408522,0.0012895479453097108,205.0,5,$\widetilde{A}_{G_5}$,hybrid
R-HSA-1799339,0.0012855123928756352,206.0,5,$\widetilde{A}_{G_5}$,hybrid
R-HSA-1234174,0.0012835152752140638,207.0,5,$\widetilde{A}_{G_5}$,hybrid
R-HSA-110312,0.00127968182670695,208.0,5,$\widetilde{A}_{G_5}$,hybrid
R-HSA-983189,0.0012767141647791992,209.0,5,$\widetilde{A}_{G_5}$,hybrid
R-HSA-9013409,0.0012759053393431876,210.0,5,$\widetilde{A}_{G_5}$,hybrid
R-HSA-373080,0.0012745290309722796,211.0,5,$\widetilde{A}_{G_5}$,hybrid
R-HSA-5358606,0.001273337386235638,212.0,5,$\widetilde{A}_{G_5}$,hybrid
R-HSA-416482,0.0012726093616422399,213.0,5,$\widetilde{A}_{G_5}$,hybrid
R-HSA-1433557,0.0012709210366705105,214.0,5,$\widetilde{A}_{G_5}$,hybrid
R-HSA-8953750,0.0012705022782565042,215.0,5,$\widetilde{A}_{G_5}$,hybrid
R-HSA-5674135,0.0012702794312612479,216.0,5,$\widetilde{A}_{G_5}$,hybrid
R-HSA-5654699,0.0012639814786896124,217.0,5,$\widetilde{A}_{G_5}$,hybrid
R-HSA-881907,0.001263623374780881,218.0,5,$\widetilde{A}_{G_5}$,hybrid
R-HSA-168927,0.001261458186706439,219.0,5,$\widetilde{A}_{G_5}$,hybrid
R-HSA-9710421,0.0012593624982143747,220.0,5,$\widetilde{A}_{G_5}$,hybrid
R-HSA-1234176,0.0012585491528526033,221.0,5,$\widetilde{A}_{G_5}$,hybrid
R-HSA-9668328,0.001258222607513494,222.0,5,$\widetilde{A}_{G_5}$,hybrid
R-HSA-1266695,0.0012551587934837597,223.0,5,$\widetilde{A}_{G_5}$,hybrid
R-HSA-933541,0.0012542059809772963,224.0,5,$\widetilde{A}_{G_5}$,hybrid
R-HSA-162658,0.0012537599788811078,225.0,5,$\widetilde{A}_{G_5}$,hybrid
R-HSA-4655427,0.0012535797192869524,226.0,5,$\widetilde{A}_{G_5}$,hybrid
R-HSA-1059683,0.0012462416592218955,227.0,5,$\widetilde{A}_{G_5}$,hybrid
R-HSA-512988,0.00124581081118396,228.0,5,$\widetilde{A}_{G_5}$,hybrid
R-HSA-9671555,0.0012402749751326866,229.0,5,$\widetilde{A}_{G_5}$,hybrid
R-HSA-5654733,0.0012380174018262408,230.0,5,$\widetilde{A}_{G_5}$,hybrid
R-HSA-73893,0.0012349331632867293,231.0,5,$\widetilde{A}_{G_5}$,hybrid
R-HSA-5655302,0.0012327397526843535,232.0,5,$\widetilde{A}_{G_5}$,hybrid
R-HSA-5358508,0.0012322239365484006,233.0,5,$\widetilde{A}_{G_5}$,hybrid
R-HSA-110328,0.0012319195022198978,235.0,5,$\widetilde{A}_{G_5}$,hybrid
R-HSA-110329,0.0012319195022198978,235.0,5,$\widetilde{A}_{G_5}$,hybrid
R-HSA-73928,0.0012319195022198978,235.0,5,$\widetilde{A}_{G_5}$,hybrid
R-HSA-5358346,0.0012310531094068505,237.0,5,$\widetilde{A}_{G_5}$,hybrid
R-HSA-69563,0.0012270098370358164,238.0,5,$\widetilde{A}_{G_5}$,hybrid
R-HSA-69580,0.0012270098370358153,239.0,5,$\widetilde{A}_{G_5}$,hybrid
R-HSA-176974,0.001226241781664655,240.0,5,$\widetilde{A}_{G_5}$,hybrid
R-HSA-5678895,0.0012241107524080998,241.0,5,$\widetilde{A}_{G_5}$,hybrid
R-HSA-212300,0.0012231244671769025,242.0,5,$\widetilde{A}_{G_5}$,hybrid
R-HSA-5656169,0.0012190078445047596,243.0,5,$\widetilde{A}_{G_5}$,hybrid
R-HSA-5625886,0.0012159360568696318,244.0,5,$\widetilde{A}_{G_5}$,hybrid
R-HSA-9694516,0.0012102060984300546,245.0,5,$\widetilde{A}_{G_5}$,hybrid
R-HSA-3232118,0.0012071871928280107,246.0,5,$\widetilde{A}_{G_5}$,hybrid
R-HSA-73728,0.0012062953295767032,247.0,5,$\widetilde{A}_{G_5}$,hybrid
R-HSA-8876198,0.0012047286922645462,248.0,5,$\widetilde{A}_{G_5}$,hybrid
R-HSA-76009,0.0012039134257039532,249.0,5,$\widetilde{A}_{G_5}$,hybrid
R-HSA-110314,0.0012024593760606192,250.0,5,$\widetilde{A}_{G_5}$,hybrid
R-HSA-5655862,0.001201089976928034,251.0,5,$\widetilde{A}_{G_5}$,hybrid
R-HSA-389359,0.0011999018349738136,252.0,5,$\widetilde{A}_{G_5}$,hybrid
R-HSA-9637690,0.0011932158179446598,253.0,5,$\widetilde{A}_{G_5}$,hybrid
R-HSA-9614399,0.0011928365059093592,254.0,5,$\widetilde{A}_{G_5}$,hybrid
R-HSA-354192,0.0011924475262009974,255.0,5,$\widetilde{A}_{G_5}$,hybrid
R-HSA-69615,0.0011902319568589325,256.0,5,$\widetilde{A}_{G_5}$,hybrid
R-HSA-6785631,0.0011895622089273341,257.0,5,$\widetilde{A}_{G_5}$,hybrid
R-HSA-450408,0.0011858673628349912,258.0,5,$\widetilde{A}_{G_5}$,hybrid
R-HSA-5250913,0.0011846864337674782,259.0,5,$\widetilde{A}_{G_5}$,hybrid
R-HSA-6785807,0.0011845447503479212,260.0,5,$\widetilde{A}_{G_5}$,hybrid
R-HSA-5656121,0.0011833881232425666,261.0,5,$\widetilde{A}_{G_5}$,hybrid
R-HSA-171306,0.0011807679124034964,262.0,5,$\widetilde{A}_{G_5}$,hybrid
R-HSA-110330,0.0011797074713254788,263.0,5,$\widetilde{A}_{G_5}$,hybrid
R-HSA-73929,0.0011797074713254785,265.0,5,$\widetilde{A}_{G_5}$,hybrid
R-HSA-73927,0.0011797074713254785,265.0,5,$\widetilde{A}_{G_5}$,hybrid
R-HSA-110331,0.0011797074713254785,265.0,5,$\widetilde{A}_{G_5}$,hybrid
R-HSA-8853659,0.0011793838144332739,267.0,5,$\widetilde{A}_{G_5}$,hybrid
R-HSA-177929,0.0011791150893428225,268.0,5,$\widetilde{A}_{G_5}$,hybrid
R-HSA-110320,0.0011789242833989077,269.0,5,$\widetilde{A}_{G_5}$,hybrid
R-HSA-442982,0.0011780885986640802,270.0,5,$\widetilde{A}_{G_5}$,hybrid
R-HSA-210990,0.0011777304666017543,271.0,5,$\widetilde{A}_{G_5}$,hybrid
R-HSA-114604,0.0011773696138902168,272.0,5,$\widetilde{A}_{G_5}$,hybrid
R-HSA-2122947,0.0011755777869968203,273.0,5,$\widetilde{A}_{G_5}$,hybrid
R-HSA-418990,0.001174395466750122,274.0,5,$\widetilde{A}_{G_5}$,hybrid
R-HSA-5619084,0.0011737207464160998,275.0,5,$\widetilde{A}_{G_5}$,hybrid
R-HSA-381070,0.0011730457078058417,276.0,5,$\widetilde{A}_{G_5}$,hybrid
R-HSA-1474165,0.0011727320280093417,277.0,5,$\widetilde{A}_{G_5}$,hybrid
R-HSA-1500620,0.0011727320280093415,278.0,5,$\widetilde{A}_{G_5}$,hybrid
R-HSA-69017,0.0011721540251449125,279.0,5,$\widetilde{A}_{G_5}$,hybrid
R-HSA-390466,0.001170994541746195,280.0,5,$\widetilde{A}_{G_5}$,hybrid
R-HSA-9635486,0.001166554604351495,281.0,5,$\widetilde{A}_{G_5}$,hybrid
R-HSA-9703465,0.0011635056289662545,282.0,5,$\widetilde{A}_{G_5}$,hybrid
R-HSA-8878159,0.0011629193604285105,283.0,5,$\widetilde{A}_{G_5}$,hybrid
R-HSA-9661069,0.001154873683765033,284.0,5,$\widetilde{A}_{G_5}$,hybrid
R-HSA-9659787,0.0011548736837650327,285.0,5,$\widetilde{A}_{G_5}$,hybrid
R-HSA-163560,0.001150527060438507,286.0,5,$\widetilde{A}_{G_5}$,hybrid
R-HSA-5693567,0.0011490192707285791,287.0,5,$\widetilde{A}_{G_5}$,hybrid
R-HSA-5362768,0.0011468015892475893,288.0,5,$\widetilde{A}_{G_5}$,hybrid
R-HSA-5387390,0.0011468015892475887,289.0,5,$\widetilde{A}_{G_5}$,hybrid
R-HSA-9682385,0.001131453351351591,290.0,5,$\widetilde{A}_{G_5}$,hybrid
R-HSA-110313,0.001131012552971239,291.0,5,$\widetilde{A}_{G_5}$,hybrid
R-HSA-8964038,0.0011297354019402044,292.0,5,$\widetilde{A}_{G_5}$,hybrid
R-HSA-179419,0.001129192599366262,293.0,5,$\widetilde{A}_{G_5}$,hybrid
R-HSA-8932339,0.0011260672629009349,294.0,5,$\widetilde{A}_{G_5}$,hybrid
R-HSA-9013695,0.0011240972124953643,295.0,5,$\widetilde{A}_{G_5}$,hybrid
R-HSA-389977,0.0011221837331015572,296.0,5,$\widetilde{A}_{G_5}$,hybrid
R-HSA-5625740,0.001119868141162957,297.0,5,$\widetilde{A}_{G_5}$,hybrid
R-HSA-9035034,0.0011173128223897863,298.0,5,$\widetilde{A}_{G_5}$,hybrid
R-HSA-9664323,0.0011158201037858788,299.0,5,$\widetilde{A}_{G_5}$,hybrid
R-HSA-5357956,0.0011141048551869268,300.0,5,$\widetilde{A}_{G_5}$,hybrid
R-HSA-918233,0.0011135315196660533,301.0,5,$\widetilde{A}_{G_5}$,hybrid
R-HSA-2559580,0.0011126142450298775,302.0,5,$\widetilde{A}_{G_5}$,hybrid
R-HSA-5654738,0.0011110677753763565,303.0,5,$\widetilde{A}_{G_5}$,hybrid
R-HSA-9645723,0.001111060715186964,304.0,5,$\widetilde{A}_{G_5}$,hybrid
R-HSA-176408,0.001110887671790067,305.0,5,$\widetilde{A}_{G_5}$,hybrid
R-HSA-210500,0.0011098128985898067,306.5,5,$\widetilde{A}_{G_5}$,hybrid
R-HSA-264642,0.0011098128985898067,306.5,5,$\widetilde{A}_{G_5}$,hybrid
R-HSA-181430,0.0011098128985898065,309.0,5,$\widetilde{A}_{G_5}$,hybrid
R-HSA-212676,0.0011098128985898065,309.0,5,$\widetilde{A}_{G_5}$,hybrid
R-HSA-181429,0.0011098128985898065,309.0,5,$\widetilde{A}_{G_5}$,hybrid
R-HSA-174184,0.0011097224108137654,311.0,5,$\widetilde{A}_{G_5}$,hybrid
R-HSA-9619483,0.0011083573626937775,312.0,5,$\widetilde{A}_{G_5}$,hybrid
R-HSA-8941326,0.0011080359975286546,313.0,5,$\widetilde{A}_{G_5}$,hybrid
R-HSA-9013424,0.0011041355697428874,314.0,5,$\widetilde{A}_{G_5}$,hybrid
R-HSA-349425,0.0011029610433353533,315.0,5,$\widetilde{A}_{G_5}$,hybrid
R-HSA-5693554,0.001102257168912749,316.0,5,$\widetilde{A}_{G_5}$,hybrid
R-HSA-6804114,0.0011000866053477295,317.0,5,$\widetilde{A}_{G_5}$,hybrid
R-HSA-176409,0.001098514112052322,318.0,5,$\widetilde{A}_{G_5}$,hybrid
R-HSA-4615885,0.0010981341506839581,319.0,5,$\widetilde{A}_{G_5}$,hybrid
R-HSA-8876384,0.0010978477109581854,320.0,5,$\widetilde{A}_{G_5}$,hybrid
R-HSA-8875360,0.0010966745342827907,321.0,5,$\widetilde{A}_{G_5}$,hybrid
R-HSA-9609690,0.001095277719970754,322.0,5,$\widetilde{A}_{G_5}$,hybrid
R-HSA-8941858,0.001094831765543122,323.0,5,$\widetilde{A}_{G_5}$,hybrid
R-HSA-174113,0.0010933758960043516,324.0,5,$\widetilde{A}_{G_5}$,hybrid
R-HSA-4641258,0.001093284910538741,325.0,5,$\widetilde{A}_{G_5}$,hybrid
R-HSA-9656223,0.0010922132308118107,326.0,5,$\widetilde{A}_{G_5}$,hybrid
R-HSA-9616222,0.0010909730014163975,327.0,5,$\widetilde{A}_{G_5}$,hybrid
R-HSA-2871837,0.0010879599794144667,328.0,5,$\widetilde{A}_{G_5}$,hybrid
R-HSA-5658442,0.00108656339928021,329.0,5,$\widetilde{A}_{G_5}$,hybrid
R-HSA-391251,0.0010859995160140518,330.0,5,$\widetilde{A}_{G_5}$,hybrid
R-HSA-8849471,0.001085082913260632,331.0,5,$\widetilde{A}_{G_5}$,hybrid
R-HSA-211733,0.0010803191783179133,332.0,5,$\widetilde{A}_{G_5}$,hybrid
R-HSA-169911,0.001080319178317913,333.0,5,$\widetilde{A}_{G_5}$,hybrid
R-HSA-69541,0.001076815861172267,334.0,5,$\widetilde{A}_{G_5}$,hybrid
R-HSA-9707587,0.0010751449846116482,335.0,5,$\widetilde{A}_{G_5}$,hybrid
R-HSA-9607240,0.001072585513489245,336.0,5,$\widetilde{A}_{G_5}$,hybrid
R-HSA-75815,0.0010720583603163298,337.0,5,$\widetilde{A}_{G_5}$,hybrid
R-HSA-69202,0.001070233346869215,338.0,5,$\widetilde{A}_{G_5}$,hybrid
R-HSA-1358803,0.0010686015444703004,339.0,5,$\widetilde{A}_{G_5}$,hybrid
R-HSA-350562,0.0010675713487969991,340.0,5,$\widetilde{A}_{G_5}$,hybrid
R-HSA-1606322,0.0010671684221107273,341.0,5,$\widetilde{A}_{G_5}$,hybrid
R-HSA-5621575,0.0010653763383538903,342.0,5,$\widetilde{A}_{G_5}$,hybrid
R-HSA-2995410,0.0010652407011747193,343.0,5,$\widetilde{A}_{G_5}$,hybrid
R-HSA-5610785,0.0010643814531047988,344.0,5,$\widetilde{A}_{G_5}$,hybrid
R-HSA-5610783,0.0010640894676489307,345.0,5,$\widetilde{A}_{G_5}$,hybrid
R-HSA-389513,0.0010636275921675007,346.0,5,$\widetilde{A}_{G_5}$,hybrid
R-HSA-1221632,0.0010633085142437025,347.0,5,$\widetilde{A}_{G_5}$,hybrid
R-HSA-1236978,0.0010589109517710907,348.0,5,$\widetilde{A}_{G_5}$,hybrid
R-HSA-8943724,0.001058352038013485,349.0,5,$\widetilde{A}_{G_5}$,hybrid
R-HSA-5676590,0.0010563533018776933,350.0,5,$\widetilde{A}_{G_5}$,hybrid
R-HSA-201722,0.0010556985706330197,351.0,5,$\widetilde{A}_{G_5}$,hybrid
R-HSA-5607761,0.0010527900310601296,352.0,5,$\widetilde{A}_{G_5}$,hybrid
R-HSA-450531,0.001051874829040986,353.0,5,$\widetilde{A}_{G_5}$,hybrid
R-HSA-382556,0.0010513095060332516,354.0,5,$\widetilde{A}_{G_5}$,hybrid
R-HSA-69656,0.0010510946533515803,355.0,5,$\widetilde{A}_{G_5}$,hybrid
R-HSA-933543,0.0010504863692081794,356.0,5,$\widetilde{A}_{G_5}$,hybrid
R-HSA-70326,0.0010496402801040763,357.0,5,$\widetilde{A}_{G_5}$,hybrid
R-HSA-9683701,0.00104752407934904,358.0,5,$\widetilde{A}_{G_5}$,hybrid
R-HSA-74751,0.0010459716601073205,359.0,5,$\widetilde{A}_{G_5}$,hybrid
R-HSA-186712,0.0010452439646611662,360.0,5,$\widetilde{A}_{G_5}$,hybrid
R-HSA-8936459,0.0010443526096803163,361.0,5,$\widetilde{A}_{G_5}$,hybrid
R-HSA-6783783,0.001043876475795161,362.0,5,$\widetilde{A}_{G_5}$,hybrid
R-HSA-5610780,0.00104368074679277,363.0,5,$\widetilde{A}_{G_5}$,hybrid
R-HSA-111447,0.0010413231450165448,364.0,5,$\widetilde{A}_{G_5}$,hybrid
R-HSA-171319,0.0010410528453467798,365.0,5,$\widetilde{A}_{G_5}$,hybrid
R-HSA-9013422,0.0010369008961758001,366.0,5,$\widetilde{A}_{G_5}$,hybrid
R-HSA-190236,0.0010354285776055824,367.0,5,$\widetilde{A}_{G_5}$,hybrid
R-HSA-176814,0.0010349616289242422,368.0,5,$\widetilde{A}_{G_5}$,hybrid
R-HSA-9027276,0.0010348549677642188,369.0,5,$\widetilde{A}_{G_5}$,hybrid
R-HSA-8875555,0.001031707740685209,370.0,5,$\widetilde{A}_{G_5}$,hybrid
R-HSA-5218859,0.0010316665261112738,371.0,5,$\widetilde{A}_{G_5}$,hybrid
R-HSA-774815,0.0010282272373066507,372.5,5,$\widetilde{A}_{G_5}$,hybrid
R-HSA-606279,0.0010282272373066507,372.5,5,$\widetilde{A}_{G_5}$,hybrid
R-HSA-69613,0.001026350473664371,375.0,5,$\widetilde{A}_{G_5}$,hybrid
R-HSA-69610,0.001026350473664371,375.0,5,$\widetilde{A}_{G_5}$,hybrid
R-HSA-69601,0.001026350473664371,375.0,5,$\widetilde{A}_{G_5}$,hybrid
R-HSA-6804760,0.0010262856233143676,377.0,5,$\widetilde{A}_{G_5}$,hybrid
R-HSA-1912408,0.0010261828419895005,378.0,5,$\widetilde{A}_{G_5}$,hybrid
R-HSA-351202,0.0010256332390855714,379.0,5,$\widetilde{A}_{G_5}$,hybrid
R-HSA-937072,0.0010255064661895616,380.0,5,$\widetilde{A}_{G_5}$,hybrid
R-HSA-844456,0.0010246732874291203,381.0,5,$\widetilde{A}_{G_5}$,hybrid
R-HSA-2173789,0.0010243999025249973,382.0,5,$\widetilde{A}_{G_5}$,hybrid
R-HSA-9649948,0.0010239815135583245,383.0,5,$\widetilde{A}_{G_5}$,hybrid
R-HSA-6802949,0.0010239815135583243,384.0,5,$\widetilde{A}_{G_5}$,hybrid
R-HSA-6802946,0.001023981513558324,385.0,5,$\widetilde{A}_{G_5}$,hybrid
R-HSA-6802955,0.001023981513558323,386.0,5,$\widetilde{A}_{G_5}$,hybrid
R-HSA-379716,0.0010231927828729512,387.0,5,$\widetilde{A}_{G_5}$,hybrid
R-HSA-1839124,0.0010231458685668567,388.0,5,$\widetilde{A}_{G_5}$,hybrid
R-HSA-5357786,0.0010223396604185301,389.0,5,$\widetilde{A}_{G_5}$,hybrid
R-HSA-9663891,0.0010198377215965505,390.0,5,$\widetilde{A}_{G_5}$,hybrid
R-HSA-2428924,0.0010175944557290276,391.5,5,$\widetilde{A}_{G_5}$,hybrid
R-HSA-2404192,0.0010175944557290276,391.5,5,$\widetilde{A}_{G_5}$,hybrid
R-HSA-445095,0.0010153664896853571,393.0,5,$\widetilde{A}_{G_5}$,hybrid
R-HSA-202670,0.0010122192871939945,394.0,5,$\widetilde{A}_{G_5}$,hybrid
R-HSA-4551638,0.0010080483763824314,395.0,5,$\widetilde{A}_{G_5}$,hybrid
R-HSA-8948751,0.0010058083403957396,396.0,5,$\widetilde{A}_{G_5}$,hybrid
R-HSA-453276,0.0010048737669918729,397.5,5,$\widetilde{A}_{G_5}$,hybrid
R-HSA-174143,0.0010048737669918729,397.5,5,$\widetilde{A}_{G_5}$,hybrid
R-HSA-8863678,0.0010041334726384598,399.0,5,$\widetilde{A}_{G_5}$,hybrid
R-HSA-8862803,0.001004133472638459,400.0,5,$\widetilde{A}_{G_5}$,hybrid
R-HSA-5693568,0.0010039134839710403,401.0,5,$\widetilde{A}_{G_5}$,hybrid
R-HSA-162588,0.0010028519097656074,402.0,5,$\widetilde{A}_{G_5}$,hybrid
R-HSA-5576891,0.0010023549820467649,403.0,5,$\widetilde{A}_{G_5}$,hybrid
R-HSA-6804115,0.0009979556785904048,404.0,5,$\widetilde{A}_{G_5}$,hybrid
R-HSA-1912422,0.0009975549538446596,405.0,5,$\widetilde{A}_{G_5}$,hybrid
R-HSA-6803529,0.000996345461259431,406.0,5,$\widetilde{A}_{G_5}$,hybrid
R-HSA-9604323,0.0009959739947538971,407.0,5,$\widetilde{A}_{G_5}$,hybrid
R-HSA-3371556,0.0009959052293274117,408.0,5,$\widetilde{A}_{G_5}$,hybrid
R-HSA-3899300,0.000994485430180272,409.0,5,$\widetilde{A}_{G_5}$,hybrid
R-HSA-1980143,0.0009928649066993386,410.0,5,$\widetilde{A}_{G_5}$,hybrid
R-HSA-9662361,0.0009927120306952811,411.0,5,$\widetilde{A}_{G_5}$,hybrid
R-HSA-180534,0.0009922942115098885,412.0,5,$\widetilde{A}_{G_5}$,hybrid
R-HSA-2173788,0.0009889773597389206,413.0,5,$\widetilde{A}_{G_5}$,hybrid
R-HSA-9020591,0.0009884606966238572,414.0,5,$\widetilde{A}_{G_5}$,hybrid
R-HSA-3214815,0.0009872732715848292,415.0,5,$\widetilde{A}_{G_5}$,hybrid
R-HSA-391160,0.000986611422483084,416.0,5,$\widetilde{A}_{G_5}$,hybrid
R-HSA-174084,0.0009865726239532905,417.0,5,$\widetilde{A}_{G_5}$,hybrid
R-HSA-210744,0.0009863476925461056,418.0,5,$\widetilde{A}_{G_5}$,hybrid
R-HSA-2173793,0.0009861250652620898,419.0,5,$\widetilde{A}_{G_5}$,hybrid
R-HSA-5689603,0.0009856932558604708,420.0,5,$\widetilde{A}_{G_5}$,hybrid
R-HSA-6783589,0.000985039261099955,421.0,5,$\widetilde{A}_{G_5}$,hybrid
R-HSA-1362277,0.000984464898645111,422.0,5,$\widetilde{A}_{G_5}$,hybrid
R-HSA-975144,0.0009820791654289703,423.0,5,$\widetilde{A}_{G_5}$,hybrid
R-HSA-937039,0.00098207916542897,424.0,5,$\widetilde{A}_{G_5}$,hybrid
R-HSA-5687128,0.0009790548232673968,425.0,5,$\widetilde{A}_{G_5}$,hybrid
R-HSA-5607764,0.000978364147228232,426.0,5,$\widetilde{A}_{G_5}$,hybrid
R-HSA-4641257,0.0009782694510965403,427.0,5,$\widetilde{A}_{G_5}$,hybrid
R-HSA-5693579,0.0009769889076723162,428.0,5,$\widetilde{A}_{G_5}$,hybrid
R-HSA-157579,0.0009769688437530433,429.0,5,$\widetilde{A}_{G_5}$,hybrid
R-HSA-451927,0.0009763786456140702,430.0,5,$\widetilde{A}_{G_5}$,hybrid
R-HSA-5654695,0.0009738928672398903,431.0,5,$\widetilde{A}_{G_5}$,hybrid
R-HSA-388841,0.0009731171571386132,432.0,5,$\widetilde{A}_{G_5}$,hybrid
R-HSA-500792,0.0009704628389194444,433.0,5,$\widetilde{A}_{G_5}$,hybrid
R-HSA-1169091,0.0009677286803888071,434.0,5,$\widetilde{A}_{G_5}$,hybrid
R-HSA-427359,0.0009671659004468596,435.0,5,$\widetilde{A}_{G_5}$,hybrid
R-HSA-1181150,0.000965043684275478,436.0,5,$\widetilde{A}_{G_5}$,hybrid
R-HSA-9679191,0.0009644210873418655,437.0,5,$\widetilde{A}_{G_5}$,hybrid
R-HSA-69236,0.0009636236089599433,438.0,5,$\widetilde{A}_{G_5}$,hybrid
R-HSA-69231,0.0009636236089599426,439.0,5,$\widetilde{A}_{G_5}$,hybrid
R-HSA-8854050,0.0009622284367248956,440.0,5,$\widetilde{A}_{G_5}$,hybrid
R-HSA-174154,0.0009616156695941889,441.0,5,$\widetilde{A}_{G_5}$,hybrid
R-HSA-3371497,0.0009615639715387807,442.0,5,$\widetilde{A}_{G_5}$,hybrid
R-HSA-9020702,0.0009614958511164692,443.0,5,$\widetilde{A}_{G_5}$,hybrid
R-HSA-5627123,0.0009603635064233552,444.0,5,$\widetilde{A}_{G_5}$,hybrid
R-HSA-379724,0.0009599488029655059,445.0,5,$\widetilde{A}_{G_5}$,hybrid
R-HSA-5140745,0.0009543004594585637,446.0,5,$\widetilde{A}_{G_5}$,hybrid
R-HSA-2871796,0.0009533911352969971,447.0,5,$\widetilde{A}_{G_5}$,hybrid
R-HSA-5693537,0.0009524930198722096,448.0,5,$\widetilde{A}_{G_5}$,hybrid
R-HSA-389357,0.0009515134238304249,449.0,5,$\widetilde{A}_{G_5}$,hybrid
R-HSA-168638,0.0009511802333421689,450.0,5,$\widetilde{A}_{G_5}$,hybrid
R-HSA-170834,0.0009503100781077306,451.0,5,$\widetilde{A}_{G_5}$,hybrid
R-HSA-174178,0.0009499425385606944,452.0,5,$\widetilde{A}_{G_5}$,hybrid
R-HSA-5357905,0.0009499400610178723,453.0,5,$\widetilde{A}_{G_5}$,hybrid
R-HSA-5654727,0.0009479857226850478,454.0,5,$\widetilde{A}_{G_5}$,hybrid
R-HSA-3214858,0.0009470391614836065,455.0,5,$\widetilde{A}_{G_5}$,hybrid
R-HSA-69190,0.0009459138839190009,456.0,5,$\widetilde{A}_{G_5}$,hybrid
R-HSA-5673000,0.0009458895545318525,457.0,5,$\widetilde{A}_{G_5}$,hybrid
R-HSA-5619507,0.000945066758860592,458.0,5,$\widetilde{A}_{G_5}$,hybrid
R-HSA-5617472,0.0009450667588605917,459.0,5,$\widetilde{A}_{G_5}$,hybrid
R-HSA-6806003,0.0009427445641308653,460.0,5,$\widetilde{A}_{G_5}$,hybrid
R-HSA-6804757,0.0009427445641308643,461.0,5,$\widetilde{A}_{G_5}$,hybrid
R-HSA-8939243,0.0009424833392912972,462.0,5,$\widetilde{A}_{G_5}$,hybrid
R-HSA-9706574,0.0009412118181219586,463.0,5,$\widetilde{A}_{G_5}$,hybrid
R-HSA-9617629,0.0009387190145970046,464.0,5,$\widetilde{A}_{G_5}$,hybrid
R-HSA-9648002,0.0009372042794871146,465.0,5,$\widetilde{A}_{G_5}$,hybrid
R-HSA-1810476,0.0009345704816117429,466.0,5,$\widetilde{A}_{G_5}$,hybrid
R-HSA-5668541,0.0009342140043821397,467.0,5,$\widetilde{A}_{G_5}$,hybrid
R-HSA-389356,0.0009333797349246316,468.0,5,$\widetilde{A}_{G_5}$,hybrid
R-HSA-180585,0.0009333760088962212,469.0,5,$\widetilde{A}_{G_5}$,hybrid
R-HSA-6802952,0.0009314740244295009,470.0,5,$\widetilde{A}_{G_5}$,hybrid
R-HSA-9696264,0.000930408229696714,471.0,5,$\widetilde{A}_{G_5}$,hybrid
R-HSA-1168372,0.0009288653887968847,472.0,5,$\widetilde{A}_{G_5}$,hybrid
R-HSA-8873719,0.0009284902832798501,473.0,5,$\widetilde{A}_{G_5}$,hybrid
R-HSA-2029480,0.0009268954856064837,474.0,5,$\widetilde{A}_{G_5}$,hybrid
R-HSA-5693616,0.00092644558643881,475.0,5,$\widetilde{A}_{G_5}$,hybrid
R-HSA-2173796,0.0009262333628196104,476.0,5,$\widetilde{A}_{G_5}$,hybrid
R-HSA-174414,0.0009253171000589156,477.0,5,$\widetilde{A}_{G_5}$,hybrid
R-HSA-6806834,0.0009226965158722467,478.0,5,$\widetilde{A}_{G_5}$,hybrid
R-HSA-186797,0.0009190953921102517,479.0,5,$\widetilde{A}_{G_5}$,hybrid
R-HSA-438064,0.000918947545213408,480.0,5,$\widetilde{A}_{G_5}$,hybrid
R-HSA-9670095,0.000918428891852429,481.0,5,$\widetilde{A}_{G_5}$,hybrid
R-HSA-69205,0.0009181469785676667,482.0,5,$\widetilde{A}_{G_5}$,hybrid
R-HSA-205043,0.0009165411634298437,483.0,5,$\widetilde{A}_{G_5}$,hybrid
R-HSA-432720,0.0009164685476051509,484.0,5,$\widetilde{A}_{G_5}$,hybrid
R-HSA-389948,0.0009154762821211025,485.0,5,$\widetilde{A}_{G_5}$,hybrid
R-HSA-1834949,0.0009146300576035425,486.0,5,$\widetilde{A}_{G_5}$,hybrid
R-HSA-442755,0.0009132449601290793,487.0,5,$\widetilde{A}_{G_5}$,hybrid
R-HSA-202424,0.0009109960690427271,488.0,5,$\widetilde{A}_{G_5}$,hybrid
R-HSA-5602358,0.0009106409391273614,489.0,5,$\widetilde{A}_{G_5}$,hybrid
R-HSA-5260271,0.000910640939127361,490.0,5,$\widetilde{A}_{G_5}$,hybrid
R-HSA-5619115,0.0009102499501233639,491.0,5,$\widetilde{A}_{G_5}$,hybrid
R-HSA-350054,0.0009095704783607554,492.0,5,$\widetilde{A}_{G_5}$,hybrid
R-HSA-5654700,0.0009061927000669344,493.0,5,$\widetilde{A}_{G_5}$,hybrid
R-HSA-2559582,0.0009023451135546591,494.0,5,$\widetilde{A}_{G_5}$,hybrid
R-HSA-5696394,0.0009022876636627582,495.0,5,$\widetilde{A}_{G_5}$,hybrid
R-HSA-5339716,0.0009012504059429482,496.5,5,$\widetilde{A}_{G_5}$,hybrid
R-HSA-5358751,0.0009012504059429482,496.5,5,$\widetilde{A}_{G_5}$,hybrid
R-HSA-5358749,0.0009012504059429481,498.0,5,$\widetilde{A}_{G_5}$,hybrid
R-HSA-5358747,0.000901250405942948,499.5,5,$\widetilde{A}_{G_5}$,hybrid
R-HSA-4839743,0.000901250405942948,499.5,5,$\widetilde{A}_{G_5}$,hybrid
R-HSA-5358752,0.0009012504059429476,501.0,5,$\widetilde{A}_{G_5}$,hybrid
R-HSA-72165,0.0009008701343626242,502.0,5,$\widetilde{A}_{G_5}$,hybrid
R-HSA-180786,0.0008997640213123173,503.0,5,$\widetilde{A}_{G_5}$,hybrid
R-HSA-933542,0.0008992589547707037,504.0,5,$\widetilde{A}_{G_5}$,hybrid
R-HSA-3928663,0.000898167930087338,505.0,5,$\widetilde{A}_{G_5}$,hybrid
R-HSA-1839117,0.0008979286575450892,506.0,5,$\widetilde{A}_{G_5}$,hybrid
R-HSA-202131,0.0008973575464502387,507.0,5,$\widetilde{A}_{G_5}$,hybrid
R-HSA-4755510,0.0008960260426375629,508.0,5,$\widetilde{A}_{G_5}$,hybrid
R-HSA-3371453,0.0008947967477000076,509.0,5,$\widetilde{A}_{G_5}$,hybrid
R-HSA-9013420,0.0008860030953956543,510.0,5,$\widetilde{A}_{G_5}$,hybrid
R-HSA-917729,0.0008836146231036939,511.0,5,$\widetilde{A}_{G_5}$,hybrid
R-HSA-5250924,0.000882626650843133,512.0,5,$\widetilde{A}_{G_5}$,hybrid
R-HSA-5696395,0.0008823087866428388,513.0,5,$\widetilde{A}_{G_5}$,hybrid
R-HSA-164938,0.0008806043575169173,514.0,5,$\widetilde{A}_{G_5}$,hybrid
R-HSA-6811434,0.0008796088987274854,515.0,5,$\widetilde{A}_{G_5}$,hybrid
R-HSA-2299718,0.0008789781969669983,516.0,5,$\widetilde{A}_{G_5}$,hybrid
R-HSA-936964,0.0008788066770267707,517.0,5,$\widetilde{A}_{G_5}$,hybrid
R-HSA-5601884,0.0008765015737366461,518.0,5,$\widetilde{A}_{G_5}$,hybrid
R-HSA-2871809,0.0008755315999472129,519.0,5,$\widetilde{A}_{G_5}$,hybrid
R-HSA-9013508,0.0008734667079020704,520.0,5,$\widetilde{A}_{G_5}$,hybrid
R-HSA-4791275,0.0008722579489260006,521.0,5,$\widetilde{A}_{G_5}$,hybrid
R-HSA-2586552,0.0008672660751862743,522.0,5,$\widetilde{A}_{G_5}$,hybrid
R-HSA-202433,0.0008663325051640092,523.0,5,$\widetilde{A}_{G_5}$,hybrid
R-HSA-3214841,0.0008648263822276563,524.0,5,$\widetilde{A}_{G_5}$,hybrid
R-HSA-9013106,0.0008641767599335821,525.0,5,$\widetilde{A}_{G_5}$,hybrid
R-HSA-9694635,0.000862800174081376,526.0,5,$\widetilde{A}_{G_5}$,hybrid
R-HSA-174437,0.0008612072636539351,527.0,5,$\widetilde{A}_{G_5}$,hybrid
R-HSA-399721,0.0008595570721264015,528.0,5,$\widetilde{A}_{G_5}$,hybrid
R-HSA-399719,0.0008595570721264014,529.0,5,$\widetilde{A}_{G_5}$,hybrid
R-HSA-113510,0.0008580897890207711,530.0,5,$\widetilde{A}_{G_5}$,hybrid
R-HSA-5685942,0.0008569493410170339,531.0,5,$\widetilde{A}_{G_5}$,hybrid
R-HSA-4570464,0.0008568840796152565,532.0,5,$\widetilde{A}_{G_5}$,hybrid
R-HSA-375165,0.00085080689703536,533.0,5,$\widetilde{A}_{G_5}$,hybrid
R-HSA-2500257,0.0008503480872377123,534.0,5,$\widetilde{A}_{G_5}$,hybrid
R-HSA-5099900,0.0008500639282477114,535.0,5,$\widetilde{A}_{G_5}$,hybrid
R-HSA-5610787,0.0008489670609426315,536.0,5,$\widetilde{A}_{G_5}$,hybrid
R-HSA-6804758,0.0008488411584015652,537.0,5,$\widetilde{A}_{G_5}$,hybrid
R-HSA-5696397,0.0008480917062332344,538.0,5,$\widetilde{A}_{G_5}$,hybrid
R-HSA-450321,0.0008474197554955773,539.0,5,$\widetilde{A}_{G_5}$,hybrid
R-HSA-450302,0.0008434349953950072,540.0,5,$\widetilde{A}_{G_5}$,hybrid
R-HSA-112399,0.0008420450333010447,541.0,5,$\widetilde{A}_{G_5}$,hybrid
R-HSA-975163,0.0008382558825848392,542.0,5,$\widetilde{A}_{G_5}$,hybrid
R-HSA-112310,0.0008382334041493958,543.0,5,$\widetilde{A}_{G_5}$,hybrid
R-HSA-202427,0.0008375717408272441,544.0,5,$\widetilde{A}_{G_5}$,hybrid
R-HSA-8875878,0.0008368879874260922,545.0,5,$\widetilde{A}_{G_5}$,hybrid
R-HSA-73884,0.0008331733114495853,546.0,5,$\widetilde{A}_{G_5}$,hybrid
R-HSA-2644602,0.0008308677324381226,547.0,5,$\widetilde{A}_{G_5}$,hybrid
R-HSA-2894858,0.0008308677324381225,548.0,5,$\widetilde{A}_{G_5}$,hybrid
R-HSA-2894862,0.0008308677324381224,549.0,5,$\widetilde{A}_{G_5}$,hybrid
R-HSA-2644603,0.0008308677324381223,550.0,5,$\widetilde{A}_{G_5}$,hybrid
R-HSA-2644606,0.000830867732438122,551.0,5,$\widetilde{A}_{G_5}$,hybrid
R-HSA-1169410,0.0008290869106119376,552.0,5,$\widetilde{A}_{G_5}$,hybrid
R-HSA-418346,0.0008289615059878724,553.0,5,$\widetilde{A}_{G_5}$,hybrid
R-HSA-73854,0.0008273657329557216,554.0,5,$\widetilde{A}_{G_5}$,hybrid
R-HSA-8934903,0.0008239557472203479,555.0,5,$\widetilde{A}_{G_5}$,hybrid
R-HSA-109704,0.0008237862728510455,556.0,5,$\widetilde{A}_{G_5}$,hybrid
R-HSA-2029482,0.00082356725470632,557.0,5,$\widetilde{A}_{G_5}$,hybrid
R-HSA-202430,0.0008233956644624385,558.0,5,$\widetilde{A}_{G_5}$,hybrid
R-HSA-6791312,0.000822305703829698,559.0,5,$\widetilde{A}_{G_5}$,hybrid
R-HSA-9615933,0.000821564333484972,560.0,5,$\widetilde{A}_{G_5}$,hybrid
R-HSA-73864,0.0008215516297495229,561.0,5,$\widetilde{A}_{G_5}$,hybrid
R-HSA-5675221,0.0008211790901325272,562.0,5,$\widetilde{A}_{G_5}$,hybrid
R-HSA-9013026,0.0008188325291104527,563.0,5,$\widetilde{A}_{G_5}$,hybrid
R-HSA-5696400,0.000816915969857489,564.0,5,$\widetilde{A}_{G_5}$,hybrid
R-HSA-6807004,0.0008163929450332728,565.0,5,$\widetilde{A}_{G_5}$,hybrid
R-HSA-1169408,0.0008144578939221197,566.0,5,$\widetilde{A}_{G_5}$,hybrid
R-HSA-982772,0.000814334787528731,567.0,5,$\widetilde{A}_{G_5}$,hybrid
R-HSA-9675151,0.0008142862315987624,568.0,5,$\widetilde{A}_{G_5}$,hybrid
R-HSA-9005895,0.0008142862315987623,569.0,5,$\widetilde{A}_{G_5}$,hybrid
R-HSA-9697154,0.0008142862315987621,570.0,5,$\widetilde{A}_{G_5}$,hybrid
R-HSA-9005891,0.0008142862315987617,571.0,5,$\widetilde{A}_{G_5}$,hybrid
R-HSA-2470946,0.0008135208100604401,572.0,5,$\widetilde{A}_{G_5}$,hybrid
R-HSA-5218921,0.0008121798456791778,573.0,5,$\widetilde{A}_{G_5}$,hybrid
R-HSA-5632684,0.0008118363008843281,574.0,5,$\widetilde{A}_{G_5}$,hybrid
R-HSA-164952,0.00080994019660956,575.0,5,$\widetilde{A}_{G_5}$,hybrid
R-HSA-5651801,0.0008098568164472253,576.0,5,$\widetilde{A}_{G_5}$,hybrid
R-HSA-195253,0.0008096278756018997,577.0,5,$\widetilde{A}_{G_5}$,hybrid
R-HSA-2173791,0.0008065594723574609,578.0,5,$\widetilde{A}_{G_5}$,hybrid
R-HSA-196299,0.0008052107770964607,579.0,5,$\widetilde{A}_{G_5}$,hybrid
R-HSA-111367,0.0008047053486732721,580.0,5,$\widetilde{A}_{G_5}$,hybrid
R-HSA-8856825,0.0008034149168785269,581.0,5,$\widetilde{A}_{G_5}$,hybrid
R-HSA-5627117,0.0008028022370645716,582.0,5,$\widetilde{A}_{G_5}$,hybrid
R-HSA-9664422,0.0008025319538080021,583.5,5,$\widetilde{A}_{G_5}$,hybrid
R-HSA-9664417,0.0008025319538080021,583.5,5,$\widetilde{A}_{G_5}$,hybrid
R-HSA-9664407,0.000802531953808002,585.0,5,$\widetilde{A}_{G_5}$,hybrid
R-HSA-4608870,0.0008011800873982417,586.0,5,$\widetilde{A}_{G_5}$,hybrid
R-HSA-4839735,0.0008000764701243429,587.0,5,$\widetilde{A}_{G_5}$,hybrid
R-HSA-5467340,0.0008000764701243426,588.5,5,$\widetilde{A}_{G_5}$,hybrid
R-HSA-5467337,0.0008000764701243426,588.5,5,$\widetilde{A}_{G_5}$,hybrid
R-HSA-4839748,0.0008000764701243424,590.5,5,$\widetilde{A}_{G_5}$,hybrid
R-HSA-4839744,0.0008000764701243424,590.5,5,$\widetilde{A}_{G_5}$,hybrid
R-HSA-5467348,0.0008000764701243423,592.0,5,$\widetilde{A}_{G_5}$,hybrid
R-HSA-8979227,0.0007988826813117557,593.0,5,$\widetilde{A}_{G_5}$,hybrid
R-HSA-9706369,0.0007973376694175781,594.0,5,$\widetilde{A}_{G_5}$,hybrid
R-HSA-432142,0.0007971982366921426,595.0,5,$\widetilde{A}_{G_5}$,hybrid
R-HSA-8876725,0.0007962588774753593,596.0,5,$\widetilde{A}_{G_5}$,hybrid
R-HSA-450341,0.000796048173998583,597.0,5,$\widetilde{A}_{G_5}$,hybrid
R-HSA-72187,0.0007950307394343817,598.0,5,$\widetilde{A}_{G_5}$,hybrid
R-HSA-110373,0.0007934667196116961,599.0,5,$\widetilde{A}_{G_5}$,hybrid
R-HSA-9013407,0.0007934646141238793,600.0,5,$\widetilde{A}_{G_5}$,hybrid
R-HSA-177243,0.0007913867232857866,601.0,5,$\widetilde{A}_{G_5}$,hybrid
R-HSA-8851708,0.0007904310592493564,602.0,5,$\widetilde{A}_{G_5}$,hybrid
R-HSA-264870,0.000789951243597796,603.0,5,$\widetilde{A}_{G_5}$,hybrid
R-HSA-2132295,0.0007893947280466918,604.0,5,$\widetilde{A}_{G_5}$,hybrid
R-HSA-171007,0.0007878050901051045,605.0,5,$\widetilde{A}_{G_5}$,hybrid
R-HSA-6802957,0.0007875080734072837,606.0,5,$\widetilde{A}_{G_5}$,hybrid
R-HSA-5339562,0.0007874385148064903,607.0,5,$\widetilde{A}_{G_5}$,hybrid
R-HSA-69166,0.0007870858985171726,608.0,5,$\widetilde{A}_{G_5}$,hybrid
R-HSA-6790901,0.0007869047247174171,609.0,5,$\widetilde{A}_{G_5}$,hybrid
R-HSA-2465910,0.0007858989747663192,610.0,5,$\widetilde{A}_{G_5}$,hybrid
R-HSA-428540,0.0007857773568543582,611.0,5,$\widetilde{A}_{G_5}$,hybrid
R-HSA-399954,0.0007842100506197067,612.0,5,$\widetilde{A}_{G_5}$,hybrid
R-HSA-977225,0.0007825685732665447,613.0,5,$\widetilde{A}_{G_5}$,hybrid
R-HSA-6782210,0.0007823277578649131,614.0,5,$\widetilde{A}_{G_5}$,hybrid
R-HSA-4419969,0.0007810397847535693,615.0,5,$\widetilde{A}_{G_5}$,hybrid
R-HSA-73856,0.000779950437248454,616.0,5,$\widetilde{A}_{G_5}$,hybrid
R-HSA-70171,0.0007791058769552262,617.0,5,$\widetilde{A}_{G_5}$,hybrid
R-HSA-6781823,0.0007790891451782323,618.0,5,$\widetilde{A}_{G_5}$,hybrid
R-HSA-9615017,0.0007787778229932152,619.0,5,$\widetilde{A}_{G_5}$,hybrid
R-HSA-450604,0.0007764112786206978,620.0,5,$\widetilde{A}_{G_5}$,hybrid
R-HSA-6783310,0.0007760541347032689,621.0,5,$\widetilde{A}_{G_5}$,hybrid
R-HSA-416572,0.0007753942259211892,622.0,5,$\widetilde{A}_{G_5}$,hybrid
R-HSA-622312,0.0007733676587994209,623.0,5,$\widetilde{A}_{G_5}$,hybrid
R-HSA-9662360,0.0007721703645826908,624.0,5,$\widetilde{A}_{G_5}$,hybrid
R-HSA-69186,0.0007714968369597982,625.0,5,$\widetilde{A}_{G_5}$,hybrid
R-HSA-2428928,0.0007705856414571403,626.0,5,$\widetilde{A}_{G_5}$,hybrid
R-HSA-445355,0.0007686312507510872,627.0,5,$\widetilde{A}_{G_5}$,hybrid
R-HSA-5685938,0.0007678729384255611,628.0,5,$\widetilde{A}_{G_5}$,hybrid
R-HSA-400685,0.0007677611962024308,629.0,5,$\widetilde{A}_{G_5}$,hybrid
R-HSA-429947,0.0007661769579377949,630.0,5,$\widetilde{A}_{G_5}$,hybrid
R-HSA-5602498,0.0007658282814954686,631.0,5,$\widetilde{A}_{G_5}$,hybrid
R-HSA-877300,0.0007657336261756275,632.0,5,$\widetilde{A}_{G_5}$,hybrid
R-HSA-6796648,0.0007654700025932017,633.0,5,$\widetilde{A}_{G_5}$,hybrid
R-HSA-180746,0.0007631702996695934,634.0,5,$\widetilde{A}_{G_5}$,hybrid
R-HSA-1445148,0.0007629139302571179,635.0,5,$\widetilde{A}_{G_5}$,hybrid
R-HSA-112409,0.0007626729998355004,636.0,5,$\widetilde{A}_{G_5}$,hybrid
R-HSA-429958,0.0007620003691643022,637.0,5,$\widetilde{A}_{G_5}$,hybrid
R-HSA-2028269,0.0007609055975135223,638.0,5,$\widetilde{A}_{G_5}$,hybrid
R-HSA-5655253,0.0007606900721000897,639.0,5,$\widetilde{A}_{G_5}$,hybrid
R-HSA-6782135,0.0007594901990537503,640.0,5,$\widetilde{A}_{G_5}$,hybrid
R-HSA-877312,0.000759481164656712,641.0,5,$\widetilde{A}_{G_5}$,hybrid
R-HSA-9659379,0.0007568525116082441,642.0,5,$\widetilde{A}_{G_5}$,hybrid
R-HSA-416476,0.0007567126743609582,643.0,5,$\widetilde{A}_{G_5}$,hybrid
R-HSA-141430,0.000755496136247843,644.5,5,$\widetilde{A}_{G_5}$,hybrid
R-HSA-141405,0.000755496136247843,644.5,5,$\widetilde{A}_{G_5}$,hybrid
R-HSA-8856688,0.0007540951672422172,646.0,5,$\widetilde{A}_{G_5}$,hybrid
R-HSA-9617828,0.0007527908070971126,647.0,5,$\widetilde{A}_{G_5}$,hybrid
R-HSA-114452,0.000752419402000893,648.0,5,$\widetilde{A}_{G_5}$,hybrid
R-HSA-5603041,0.0007517186125671637,649.0,5,$\widetilde{A}_{G_5}$,hybrid
R-HSA-9614085,0.00075140742932257,650.0,5,$\widetilde{A}_{G_5}$,hybrid
R-HSA-5696399,0.000751050408892457,651.0,5,$\widetilde{A}_{G_5}$,hybrid
R-HSA-3232142,0.0007503844031175745,652.0,5,$\widetilde{A}_{G_5}$,hybrid
R-HSA-8984722,0.0007496923823685452,653.0,5,$\widetilde{A}_{G_5}$,hybrid
R-HSA-77588,0.0007492151207615747,654.0,5,$\widetilde{A}_{G_5}$,hybrid
R-HSA-4420097,0.0007491270435213932,655.0,5,$\widetilde{A}_{G_5}$,hybrid
R-HSA-165054,0.0007479380549763949,656.0,5,$\widetilde{A}_{G_5}$,hybrid
R-HSA-168164,0.0007457524411746659,657.0,5,$\widetilde{A}_{G_5}$,hybrid
R-HSA-77595,0.0007450160531123194,658.0,5,$\widetilde{A}_{G_5}$,hybrid
R-HSA-75893,0.0007447108327135497,659.0,5,$\widetilde{A}_{G_5}$,hybrid
R-HSA-73762,0.0007443895201181997,660.0,5,$\widetilde{A}_{G_5}$,hybrid
R-HSA-168928,0.0007440247234973972,661.0,5,$\widetilde{A}_{G_5}$,hybrid
R-HSA-8949215,0.0007434339252945831,662.0,5,$\widetilde{A}_{G_5}$,hybrid
R-HSA-69183,0.0007432910594233616,663.0,5,$\widetilde{A}_{G_5}$,hybrid
R-HSA-9013694,0.0007422377476729809,664.0,5,$\widetilde{A}_{G_5}$,hybrid
R-HSA-8941856,0.0007419509887546864,665.0,5,$\widetilde{A}_{G_5}$,hybrid
R-HSA-168274,0.0007403914935674071,666.0,5,$\widetilde{A}_{G_5}$,hybrid
R-HSA-168333,0.000740391493567407,667.0,5,$\widetilde{A}_{G_5}$,hybrid
R-HSA-176407,0.0007383131614614705,668.0,5,$\widetilde{A}_{G_5}$,hybrid
R-HSA-450294,0.0007374307909198594,669.0,5,$\widetilde{A}_{G_5}$,hybrid
R-HSA-9648025,0.0007368457379575193,670.0,5,$\widetilde{A}_{G_5}$,hybrid
R-HSA-9609523,0.0007361434370577745,671.0,5,$\widetilde{A}_{G_5}$,hybrid
R-HSA-5218920,0.000734892650531941,672.0,5,$\widetilde{A}_{G_5}$,hybrid
R-HSA-9620244,0.0007339136790482142,673.0,5,$\widetilde{A}_{G_5}$,hybrid
R-HSA-6781827,0.0007336688186536514,674.0,5,$\widetilde{A}_{G_5}$,hybrid
R-HSA-180024,0.0007330898407616603,675.0,5,$\widetilde{A}_{G_5}$,hybrid
R-HSA-442742,0.0007329571174412086,676.0,5,$\widetilde{A}_{G_5}$,hybrid
R-HSA-193648,0.0007325838224258671,677.0,5,$\widetilde{A}_{G_5}$,hybrid
R-HSA-428157,0.0007319573184616338,678.0,5,$\widetilde{A}_{G_5}$,hybrid
R-HSA-373752,0.0007301269685849021,679.0,5,$\widetilde{A}_{G_5}$,hybrid
R-HSA-111465,0.0007288038251074872,680.0,5,$\widetilde{A}_{G_5}$,hybrid
R-HSA-191859,0.0007271883801869813,681.0,5,$\widetilde{A}_{G_5}$,hybrid
R-HSA-194441,0.000727188380186981,682.0,5,$\widetilde{A}_{G_5}$,hybrid
R-HSA-2565942,0.0007268196802289003,683.0,5,$\widetilde{A}_{G_5}$,hybrid
R-HSA-203927,0.0007267942472287655,684.0,5,$\widetilde{A}_{G_5}$,hybrid
R-HSA-168271,0.000726432636984429,685.0,5,$\widetilde{A}_{G_5}$,hybrid
R-HSA-8854691,0.0007253090376064809,686.0,5,$\widetilde{A}_{G_5}$,hybrid
R-HSA-983231,0.0007247788982871324,687.0,5,$\widetilde{A}_{G_5}$,hybrid
R-HSA-75067,0.000723398642653622,688.0,5,$\widetilde{A}_{G_5}$,hybrid
R-HSA-168276,0.0007233960436500288,689.0,5,$\widetilde{A}_{G_5}$,hybrid
R-HSA-5686938,0.000719632717000233,690.0,5,$\widetilde{A}_{G_5}$,hybrid
R-HSA-174048,0.0007193562013231202,691.0,5,$\widetilde{A}_{G_5}$,hybrid
R-HSA-937061,0.0007187931275953481,692.0,5,$\widetilde{A}_{G_5}$,hybrid
R-HSA-166166,0.0007187931275953474,693.0,5,$\widetilde{A}_{G_5}$,hybrid
R-HSA-445144,0.0007183034109238158,694.0,5,$\widetilde{A}_{G_5}$,hybrid
R-HSA-4085377,0.0007167396116886292,695.0,5,$\widetilde{A}_{G_5}$,hybrid
R-HSA-9617324,0.0007146492192083102,696.0,5,$\widetilde{A}_{G_5}$,hybrid
R-HSA-4641265,0.0007139760609488521,697.0,5,$\widetilde{A}_{G_5}$,hybrid
R-HSA-1362300,0.0007129365543835526,698.0,5,$\widetilde{A}_{G_5}$,hybrid
R-HSA-450385,0.0007118872090955277,699.0,5,$\widetilde{A}_{G_5}$,hybrid
R-HSA-9709957,0.0007115914404910579,700.0,5,$\widetilde{A}_{G_5}$,hybrid
R-HSA-6784531,0.0007100909264295701,701.0,5,$\widetilde{A}_{G_5}$,hybrid
R-HSA-421270,0.0007095652190351289,702.0,5,$\widetilde{A}_{G_5}$,hybrid
R-HSA-1236974,0.0007085489914708007,703.0,5,$\widetilde{A}_{G_5}$,hybrid
R-HSA-4086400,0.0007083343661989322,704.0,5,$\widetilde{A}_{G_5}$,hybrid
R-HSA-198323,0.0007078407166150375,705.0,5,$\widetilde{A}_{G_5}$,hybrid
R-HSA-168643,0.0007065957901123494,706.0,5,$\widetilde{A}_{G_5}$,hybrid
R-HSA-445989,0.000706502630672552,707.0,5,$\widetilde{A}_{G_5}$,hybrid
R-HSA-111931,0.0007055242297313907,708.0,5,$\widetilde{A}_{G_5}$,hybrid
R-HSA-3928665,0.0007053186551605897,709.0,5,$\widetilde{A}_{G_5}$,hybrid
R-HSA-1236975,0.0007046742797185073,710.0,5,$\widetilde{A}_{G_5}$,hybrid
R-HSA-1500931,0.0007043614108759573,711.0,5,$\widetilde{A}_{G_5}$,hybrid
R-HSA-167243,0.0007032107594037023,712.0,5,$\widetilde{A}_{G_5}$,hybrid
R-HSA-167238,0.0007032107594037016,713.0,5,$\widetilde{A}_{G_5}$,hybrid
R-HSA-163210,0.0007030627731783092,714.0,5,$\widetilde{A}_{G_5}$,hybrid
R-HSA-9609736,0.0007020913718881067,715.0,5,$\widetilde{A}_{G_5}$,hybrid
R-HSA-1483206,0.000700446434078093,716.0,5,$\widetilde{A}_{G_5}$,hybrid
R-HSA-9687136,0.0006971352939625287,717.0,5,$\widetilde{A}_{G_5}$,hybrid
R-HSA-180910,0.0006966907225316142,718.0,5,$\widetilde{A}_{G_5}$,hybrid
R-HSA-176033,0.0006966907225316138,719.0,5,$\widetilde{A}_{G_5}$,hybrid
R-HSA-141424,0.0006958125984534197,720.0,5,$\widetilde{A}_{G_5}$,hybrid
R-HSA-141444,0.0006958125984534194,721.0,5,$\widetilde{A}_{G_5}$,hybrid
R-HSA-167290,0.0006947957565724765,722.0,5,$\widetilde{A}_{G_5}$,hybrid
R-HSA-167287,0.0006947957565724763,723.0,5,$\widetilde{A}_{G_5}$,hybrid
R-HSA-1226099,0.0006921018346917409,724.0,5,$\widetilde{A}_{G_5}$,hybrid
R-HSA-70268,0.0006912537917173544,725.0,5,$\widetilde{A}_{G_5}$,hybrid
R-HSA-170822,0.0006909200912005188,726.0,5,$\widetilde{A}_{G_5}$,hybrid
R-HSA-168325,0.0006909200912005186,727.0,5,$\widetilde{A}_{G_5}$,hybrid
R-HSA-5619107,0.0006909200912005184,728.0,5,$\widetilde{A}_{G_5}$,hybrid
R-HSA-3301854,0.0006903464858154137,729.0,5,$\widetilde{A}_{G_5}$,hybrid
R-HSA-450513,0.0006891183403766868,730.0,5,$\widetilde{A}_{G_5}$,hybrid
R-HSA-176412,0.000687134000856957,731.0,5,$\widetilde{A}_{G_5}$,hybrid
R-HSA-9694548,0.0006861200233235397,732.0,5,$\widetilde{A}_{G_5}$,hybrid
R-HSA-4641262,0.0006842259137831626,733.0,5,$\widetilde{A}_{G_5}$,hybrid
R-HSA-380994,0.0006837305835457892,734.0,5,$\widetilde{A}_{G_5}$,hybrid
R-HSA-6807878,0.00068229433798496,735.0,5,$\widetilde{A}_{G_5}$,hybrid
R-HSA-3928662,0.000681376543671471,736.0,5,$\widetilde{A}_{G_5}$,hybrid
R-HSA-8854518,0.0006813156742105611,737.0,5,$\widetilde{A}_{G_5}$,hybrid
R-HSA-3108214,0.000681262770118227,738.0,5,$\widetilde{A}_{G_5}$,hybrid
R-HSA-389661,0.0006766716452221294,739.0,5,$\widetilde{A}_{G_5}$,hybrid
R-HSA-432722,0.0006753302626785867,740.0,5,$\widetilde{A}_{G_5}$,hybrid
R-HSA-6811436,0.0006750450593601811,741.0,5,$\widetilde{A}_{G_5}$,hybrid
R-HSA-446353,0.0006739580446516163,742.0,5,$\widetilde{A}_{G_5}$,hybrid
R-HSA-912694,0.0006703560779041524,743.0,5,$\widetilde{A}_{G_5}$,hybrid
R-HSA-179409,0.0006699547954603721,744.0,5,$\widetilde{A}_{G_5}$,hybrid
R-HSA-9614657,0.000669526146814718,745.0,5,$\widetilde{A}_{G_5}$,hybrid
R-HSA-75153,0.0006689698730331671,746.0,5,$\widetilde{A}_{G_5}$,hybrid
R-HSA-5663213,0.000665560031321212,747.0,5,$\widetilde{A}_{G_5}$,hybrid
R-HSA-202733,0.0006653845839646082,748.0,5,$\widetilde{A}_{G_5}$,hybrid
R-HSA-9013507,0.0006631086468345222,749.0,5,$\widetilde{A}_{G_5}$,hybrid
R-HSA-174417,0.0006627737669413241,750.0,5,$\widetilde{A}_{G_5}$,hybrid
R-HSA-1660499,0.0006622798585737011,751.0,5,$\widetilde{A}_{G_5}$,hybrid
R-HSA-167242,0.0006621459173783586,752.0,5,$\widetilde{A}_{G_5}$,hybrid
R-HSA-69618,0.0006617993253008516,753.0,5,$\widetilde{A}_{G_5}$,hybrid
R-HSA-1489509,0.0006616478773716168,754.0,5,$\widetilde{A}_{G_5}$,hybrid
R-HSA-204005,0.0006612237277111345,755.0,5,$\widetilde{A}_{G_5}$,hybrid
R-HSA-3928664,0.0006597744234843718,756.0,5,$\widetilde{A}_{G_5}$,hybrid
R-HSA-140534,0.0006592489055846819,757.0,5,$\widetilde{A}_{G_5}$,hybrid
R-HSA-429914,0.0006591742294187531,758.0,5,$\widetilde{A}_{G_5}$,hybrid
R-HSA-532668,0.0006588804880176228,759.0,5,$\widetilde{A}_{G_5}$,hybrid
R-HSA-2980766,0.0006586188705151451,760.0,5,$\widetilde{A}_{G_5}$,hybrid
R-HSA-2122948,0.0006584200647596866,761.0,5,$\widetilde{A}_{G_5}$,hybrid
R-HSA-74752,0.0006559319591562918,762.0,5,$\widetilde{A}_{G_5}$,hybrid
R-HSA-8980692,0.0006547280056411209,763.0,5,$\widetilde{A}_{G_5}$,hybrid
R-HSA-5620916,0.0006528034068613902,764.0,5,$\widetilde{A}_{G_5}$,hybrid
R-HSA-167200,0.0006519554914893463,765.5,5,$\widetilde{A}_{G_5}$,hybrid
R-HSA-167246,0.0006519554914893463,765.5,5,$\widetilde{A}_{G_5}$,hybrid
R-HSA-167169,0.0006519554914893459,767.0,5,$\widetilde{A}_{G_5}$,hybrid
R-HSA-5668599,0.0006515712359563893,768.0,5,$\widetilde{A}_{G_5}$,hybrid
R-HSA-73772,0.000649433838576014,769.0,5,$\widetilde{A}_{G_5}$,hybrid
R-HSA-167152,0.0006486361382958809,770.0,5,$\widetilde{A}_{G_5}$,hybrid
R-HSA-5689901,0.0006483953137528187,771.0,5,$\widetilde{A}_{G_5}$,hybrid
R-HSA-9013404,0.0006427606402965158,772.0,5,$\widetilde{A}_{G_5}$,hybrid
R-HSA-917977,0.0006389743213570475,773.0,5,$\widetilde{A}_{G_5}$,hybrid
R-HSA-72202,0.0006376141479377619,774.0,5,$\widetilde{A}_{G_5}$,hybrid
R-HSA-6804756,0.0006356429352653345,775.0,5,$\widetilde{A}_{G_5}$,hybrid
R-HSA-6804759,0.0006351372387626214,776.0,5,$\widetilde{A}_{G_5}$,hybrid
R-HSA-9013408,0.0006349857516907864,777.0,5,$\widetilde{A}_{G_5}$,hybrid
R-HSA-8949664,0.000633872169431949,778.0,5,$\widetilde{A}_{G_5}$,hybrid
R-HSA-113501,0.0006325252242131905,779.0,5,$\widetilde{A}_{G_5}$,hybrid
R-HSA-9006936,0.0006321577332734889,780.0,5,$\widetilde{A}_{G_5}$,hybrid
R-HSA-264876,0.0006311214397078891,781.0,5,$\widetilde{A}_{G_5}$,hybrid
R-HSA-159236,0.0006308604726569568,782.0,5,$\widetilde{A}_{G_5}$,hybrid
R-HSA-2022090,0.0006307917144848119,783.0,5,$\widetilde{A}_{G_5}$,hybrid
R-HSA-112382,0.000630292544016523,784.0,5,$\widetilde{A}_{G_5}$,hybrid
R-HSA-75955,0.0006302925440165218,785.0,5,$\widetilde{A}_{G_5}$,hybrid
R-HSA-109606,0.0006274327572292635,786.0,5,$\widetilde{A}_{G_5}$,hybrid
R-HSA-72086,0.0006266729587014253,787.0,5,$\widetilde{A}_{G_5}$,hybrid
R-HSA-1368108,0.0006263857957942829,788.0,5,$\widetilde{A}_{G_5}$,hybrid
R-HSA-2682334,0.0006258140530096957,789.0,5,$\widetilde{A}_{G_5}$,hybrid
R-HSA-6811440,0.0006247124500484175,790.0,5,$\widetilde{A}_{G_5}$,hybrid
R-HSA-73933,0.0006243710372819342,791.0,5,$\widetilde{A}_{G_5}$,hybrid
R-HSA-5250941,0.000623895131614422,792.0,5,$\widetilde{A}_{G_5}$,hybrid
R-HSA-937041,0.0006222273147551948,793.0,5,$\widetilde{A}_{G_5}$,hybrid
R-HSA-71403,0.0006205433966127263,794.0,5,$\widetilde{A}_{G_5}$,hybrid
R-HSA-9022692,0.0006204627976640339,795.0,5,$\widetilde{A}_{G_5}$,hybrid
R-HSA-448424,0.0006201519939421093,796.0,5,$\widetilde{A}_{G_5}$,hybrid
R-HSA-5173105,0.0006182810160616107,797.0,5,$\widetilde{A}_{G_5}$,hybrid
R-HSA-380259,0.0006178989007889043,798.0,5,$\widetilde{A}_{G_5}$,hybrid
R-HSA-380284,0.0006178989007889039,799.0,5,$\widetilde{A}_{G_5}$,hybrid
R-HSA-5619102,0.0006157048569141645,800.0,5,$\widetilde{A}_{G_5}$,hybrid
R-HSA-5578749,0.0006156121431871209,801.0,5,$\widetilde{A}_{G_5}$,hybrid
R-HSA-8949613,0.0006133119925334823,802.0,5,$\widetilde{A}_{G_5}$,hybrid
R-HSA-9664424,0.000612914692561762,803.0,5,$\widetilde{A}_{G_5}$,hybrid
R-HSA-9660826,0.0006129146925617618,804.0,5,$\widetilde{A}_{G_5}$,hybrid
R-HSA-77075,0.000607414894385234,805.0,5,$\widetilde{A}_{G_5}$,hybrid
R-HSA-167160,0.0006074148943852334,806.0,5,$\widetilde{A}_{G_5}$,hybrid
R-HSA-399955,0.0006064849597732712,807.0,5,$\widetilde{A}_{G_5}$,hybrid
R-HSA-69109,0.0006060469445857234,808.0,5,$\widetilde{A}_{G_5}$,hybrid
R-HSA-69091,0.0006060469445857226,809.0,5,$\widetilde{A}_{G_5}$,hybrid
R-HSA-380320,0.000604871106231197,810.0,5,$\widetilde{A}_{G_5}$,hybrid
R-HSA-373760,0.0006046712494854958,811.0,5,$\widetilde{A}_{G_5}$,hybrid
R-HSA-5674400,0.0006039415689239067,812.0,5,$\widetilde{A}_{G_5}$,hybrid
R-HSA-392517,0.0006036140644141902,813.0,5,$\widetilde{A}_{G_5}$,hybrid
R-HSA-9012852,0.0006026688695426613,814.0,5,$\widetilde{A}_{G_5}$,hybrid
R-HSA-3215018,0.0006014343566276355,815.0,5,$\widetilde{A}_{G_5}$,hybrid
R-HSA-5389840,0.0005967642020320677,816.0,5,$\widetilde{A}_{G_5}$,hybrid
R-HSA-1222556,0.000595520447587251,817.0,5,$\widetilde{A}_{G_5}$,hybrid
R-HSA-199992,0.00059381297213886,818.0,5,$\widetilde{A}_{G_5}$,hybrid
R-HSA-167158,0.0005916079013047336,819.0,5,$\widetilde{A}_{G_5}$,hybrid
R-HSA-113418,0.0005916079013047334,820.0,5,$\widetilde{A}_{G_5}$,hybrid
R-HSA-381042,0.0005903063353157504,821.0,5,$\widetilde{A}_{G_5}$,hybrid
R-HSA-427413,0.0005898760439186107,822.0,5,$\widetilde{A}_{G_5}$,hybrid
R-HSA-72306,0.0005880820202027718,823.0,5,$\widetilde{A}_{G_5}$,hybrid
R-HSA-216083,0.0005845309950148838,824.0,5,$\widetilde{A}_{G_5}$,hybrid
R-HSA-2980736,0.0005810388059520506,825.0,5,$\widetilde{A}_{G_5}$,hybrid
R-HSA-5419276,0.0005807207944709608,826.0,5,$\widetilde{A}_{G_5}$,hybrid
R-HSA-198753,0.0005806097943042847,827.0,5,$\widetilde{A}_{G_5}$,hybrid
R-HSA-3769402,0.0005773913460786523,828.0,5,$\widetilde{A}_{G_5}$,hybrid
R-HSA-381340,0.0005767613776035471,829.0,5,$\widetilde{A}_{G_5}$,hybrid
R-HSA-114608,0.0005763675964815521,830.0,5,$\widetilde{A}_{G_5}$,hybrid
R-HSA-975138,0.0005762327354216933,831.0,5,$\widetilde{A}_{G_5}$,hybrid
R-HSA-168188,0.0005761490214971096,832.5,5,$\widetilde{A}_{G_5}$,hybrid
R-HSA-168179,0.0005761490214971096,832.5,5,$\widetilde{A}_{G_5}$,hybrid
R-HSA-181438,0.0005761490214971095,834.0,5,$\widetilde{A}_{G_5}$,hybrid
R-HSA-166058,0.0005761490214971094,835.0,5,$\widetilde{A}_{G_5}$,hybrid
R-HSA-9664420,0.0005743893069620626,836.0,5,$\widetilde{A}_{G_5}$,hybrid
R-HSA-9673324,0.0005743893069620622,837.0,5,$\widetilde{A}_{G_5}$,hybrid
R-HSA-3214847,0.0005742716086163931,838.0,5,$\widetilde{A}_{G_5}$,hybrid
R-HSA-975155,0.0005740503397835546,839.0,5,$\widetilde{A}_{G_5}$,hybrid
R-HSA-168181,0.0005740503397835542,840.5,5,$\widetilde{A}_{G_5}$,hybrid
R-HSA-168138,0.0005740503397835542,840.5,5,$\widetilde{A}_{G_5}$,hybrid
R-HSA-8964043,0.0005739166522744863,842.0,5,$\widetilde{A}_{G_5}$,hybrid
R-HSA-909733,0.0005731391892260302,843.0,5,$\widetilde{A}_{G_5}$,hybrid
R-HSA-2426168,0.0005722548438554202,844.0,5,$\widetilde{A}_{G_5}$,hybrid
R-HSA-5362517,0.0005683824244619141,845.0,5,$\widetilde{A}_{G_5}$,hybrid
R-HSA-1368082,0.0005676448584168802,846.0,5,$\widetilde{A}_{G_5}$,hybrid
R-HSA-399956,0.0005663514105244718,847.0,5,$\widetilde{A}_{G_5}$,hybrid
R-HSA-168142,0.0005612843421415321,848.0,5,$\widetilde{A}_{G_5}$,hybrid
R-HSA-168176,0.0005612843421415314,849.0,5,$\widetilde{A}_{G_5}$,hybrid
R-HSA-975871,0.0005612843421415313,850.0,5,$\widetilde{A}_{G_5}$,hybrid
R-HSA-380287,0.0005596709502304933,851.5,5,$\widetilde{A}_{G_5}$,hybrid
R-HSA-380270,0.0005596709502304933,851.5,5,$\widetilde{A}_{G_5}$,hybrid
R-HSA-165159,0.0005564639997525997,853.0,5,$\widetilde{A}_{G_5}$,hybrid
R-HSA-211000,0.0005536348461848617,854.0,5,$\widetilde{A}_{G_5}$,hybrid
R-HSA-111471,0.0005531738448146029,855.0,5,$\widetilde{A}_{G_5}$,hybrid
R-HSA-450282,0.0005520752708429777,856.0,5,$\widetilde{A}_{G_5}$,hybrid
R-HSA-442720,0.0005519654346528051,857.0,5,$\widetilde{A}_{G_5}$,hybrid
R-HSA-5368286,0.0005501298315517937,858.0,5,$\widetilde{A}_{G_5}$,hybrid
R-HSA-73863,0.0005485899280396231,859.0,5,$\widetilde{A}_{G_5}$,hybrid
R-HSA-9707616,0.0005479178165136918,860.0,5,$\widetilde{A}_{G_5}$,hybrid
R-HSA-400253,0.0005461189818685935,861.0,5,$\widetilde{A}_{G_5}$,hybrid
R-HSA-112040,0.000545988795809216,862.0,5,$\widetilde{A}_{G_5}$,hybrid
R-HSA-5368287,0.0005437970692060314,863.0,5,$\widetilde{A}_{G_5}$,hybrid
R-HSA-174411,0.0005432105610763939,864.0,5,$\widetilde{A}_{G_5}$,hybrid
R-HSA-419037,0.0005427208388682275,865.0,5,$\widetilde{A}_{G_5}$,hybrid
R-HSA-901042,0.0005426493101851537,866.0,5,$\widetilde{A}_{G_5}$,hybrid
R-HSA-5357769,0.000541378132462563,867.0,5,$\widetilde{A}_{G_5}$,hybrid
R-HSA-76005,0.0005402954145739306,868.0,5,$\widetilde{A}_{G_5}$,hybrid
R-HSA-71406,0.0005380741773996277,869.0,5,$\widetilde{A}_{G_5}$,hybrid
R-HSA-9013423,0.0005369743475629414,870.0,5,$\widetilde{A}_{G_5}$,hybrid
R-HSA-8866652,0.0005351688397520278,871.0,5,$\widetilde{A}_{G_5}$,hybrid
R-HSA-111996,0.0005316740341124548,872.0,5,$\widetilde{A}_{G_5}$,hybrid
R-HSA-166208,0.0005305048218244104,873.0,5,$\widetilde{A}_{G_5}$,hybrid
R-HSA-8986944,0.000528477220046636,874.0,5,$\widetilde{A}_{G_5}$,hybrid
R-HSA-2559585,0.0005276509782758376,875.0,5,$\widetilde{A}_{G_5}$,hybrid
R-HSA-936440,0.0005270281832215264,876.0,5,$\widetilde{A}_{G_5}$,hybrid
R-HSA-5633008,0.0005250373787081106,877.0,5,$\widetilde{A}_{G_5}$,hybrid
R-HSA-1839126,0.0005244406980903611,878.0,5,$\widetilde{A}_{G_5}$,hybrid
R-HSA-1268020,0.0005197313441689812,879.0,5,$\widetilde{A}_{G_5}$,hybrid
R-HSA-211945,0.0005185389472021516,880.5,5,$\widetilde{A}_{G_5}$,hybrid
R-HSA-211859,0.0005185389472021516,880.5,5,$\widetilde{A}_{G_5}$,hybrid
R-HSA-6794361,0.0005168939120447512,882.0,5,$\widetilde{A}_{G_5}$,hybrid
R-HSA-400206,0.0005167428075350775,883.0,5,$\widetilde{A}_{G_5}$,hybrid
R-HSA-674695,0.0005159774200291672,884.0,5,$\widetilde{A}_{G_5}$,hybrid
R-HSA-525793,0.000515974024179352,885.0,5,$\widetilde{A}_{G_5}$,hybrid
R-HSA-1650814,0.0005140973213109808,886.0,5,$\widetilde{A}_{G_5}$,hybrid
R-HSA-373755,0.0005136707628461377,887.0,5,$\widetilde{A}_{G_5}$,hybrid
R-HSA-6803204,0.0005128751573049436,888.0,5,$\widetilde{A}_{G_5}$,hybrid
R-HSA-6807505,0.0005105464395918302,889.0,5,$\widetilde{A}_{G_5}$,hybrid
R-HSA-1989781,0.0005101328936811112,890.0,5,$\widetilde{A}_{G_5}$,hybrid
R-HSA-9674555,0.0005089089279655194,891.0,5,$\widetilde{A}_{G_5}$,hybrid
R-HSA-6788467,0.0005046613607384106,892.0,5,$\widetilde{A}_{G_5}$,hybrid
R-HSA-2672351,0.0005043708104940642,893.0,5,$\widetilde{A}_{G_5}$,hybrid
R-HSA-381033,0.0005034789005612118,894.0,5,$\widetilde{A}_{G_5}$,hybrid
R-HSA-9013405,0.0005030694591353773,895.0,5,$\widetilde{A}_{G_5}$,hybrid
R-HSA-397014,0.0005029227957363671,896.0,5,$\widetilde{A}_{G_5}$,hybrid
R-HSA-1655829,0.0005019646176526809,897.0,5,$\widetilde{A}_{G_5}$,hybrid
R-HSA-1980145,0.0005015550177399827,898.0,5,$\widetilde{A}_{G_5}$,hybrid
R-HSA-1502540,0.0004977828355154579,899.0,5,$\widetilde{A}_{G_5}$,hybrid
R-HSA-2173795,0.0004977646520160477,900.0,5,$\widetilde{A}_{G_5}$,hybrid
R-HSA-167172,0.0004958886626075152,901.0,5,$\widetilde{A}_{G_5}$,hybrid
R-HSA-983170,0.0004943311828528659,902.0,5,$\widetilde{A}_{G_5}$,hybrid
R-HSA-901032,0.00048765724953316703,903.0,5,$\widetilde{A}_{G_5}$,hybrid
R-HSA-380972,0.00048619669385270055,904.0,5,$\widetilde{A}_{G_5}$,hybrid
R-HSA-5620912,0.0004855334696390562,905.0,5,$\widetilde{A}_{G_5}$,hybrid
R-HSA-8874081,0.0004854677083110902,906.0,5,$\widetilde{A}_{G_5}$,hybrid
R-HSA-5620924,0.0004819739201021366,907.0,5,$\widetilde{A}_{G_5}$,hybrid
R-HSA-5628897,0.0004816281025321809,908.0,5,$\widetilde{A}_{G_5}$,hybrid
R-HSA-1592230,0.00048065061803880346,909.0,5,$\widetilde{A}_{G_5}$,hybrid
R-HSA-430039,0.0004791988922203935,910.0,5,$\widetilde{A}_{G_5}$,hybrid
R-HSA-174824,0.0004773279514833346,911.0,5,$\widetilde{A}_{G_5}$,hybrid
R-HSA-112043,0.000471490804433535,912.0,5,$\widetilde{A}_{G_5}$,hybrid
R-HSA-5607763,0.00047080100939115275,913.0,5,$\widetilde{A}_{G_5}$,hybrid
R-HSA-9705462,0.0004617516284865619,914.0,5,$\widetilde{A}_{G_5}$,hybrid
R-HSA-8957275,0.0004588752799661029,915.0,5,$\widetilde{A}_{G_5}$,hybrid
R-HSA-8948216,0.00045761293176171914,916.0,5,$\widetilde{A}_{G_5}$,hybrid
R-HSA-917937,0.0004569992413612617,917.0,5,$\widetilde{A}_{G_5}$,hybrid
R-HSA-204998,0.0004518188628095362,918.0,5,$\widetilde{A}_{G_5}$,hybrid
R-HSA-175474,0.0004513143297200003,920.0,5,$\widetilde{A}_{G_5}$,hybrid
R-HSA-174490,0.0004513143297200003,920.0,5,$\widetilde{A}_{G_5}$,hybrid
R-HSA-174495,0.0004513143297200003,920.0,5,$\widetilde{A}_{G_5}$,hybrid
R-HSA-111933,0.00045128394485894496,922.0,5,$\widetilde{A}_{G_5}$,hybrid
R-HSA-111997,0.00045128394485894474,923.0,5,$\widetilde{A}_{G_5}$,hybrid
R-HSA-193704,0.00045035897642566665,924.0,5,$\widetilde{A}_{G_5}$,hybrid
R-HSA-196854,0.0004490144641477624,925.0,5,$\widetilde{A}_{G_5}$,hybrid
R-HSA-2151201,0.0004489037764982595,926.0,5,$\widetilde{A}_{G_5}$,hybrid
R-HSA-9610379,0.0004485694202981515,927.0,5,$\widetilde{A}_{G_5}$,hybrid
R-HSA-6794362,0.00044767187850004107,928.0,5,$\widetilde{A}_{G_5}$,hybrid
R-HSA-76042,0.0004453994298489919,929.0,5,$\widetilde{A}_{G_5}$,hybrid
R-HSA-167162,0.0004453994298489918,930.0,5,$\widetilde{A}_{G_5}$,hybrid
R-HSA-75953,0.00044539942984899144,931.0,5,$\widetilde{A}_{G_5}$,hybrid
R-HSA-73776,0.0004453994298489914,932.0,5,$\widetilde{A}_{G_5}$,hybrid
R-HSA-167161,0.0004453994298489912,933.0,5,$\widetilde{A}_{G_5}$,hybrid
R-HSA-73779,0.0004453994298489908,934.0,5,$\widetilde{A}_{G_5}$,hybrid
R-HSA-198725,0.0004428098461433938,935.0,5,$\widetilde{A}_{G_5}$,hybrid
R-HSA-5620920,0.00043779478372762455,936.0,5,$\widetilde{A}_{G_5}$,hybrid
R-HSA-2979096,0.000434166606220627,937.0,5,$\widetilde{A}_{G_5}$,hybrid
R-HSA-111458,0.0004285488623634169,938.0,5,$\widetilde{A}_{G_5}$,hybrid
R-HSA-9627069,0.00042854886236341663,939.0,5,$\widetilde{A}_{G_5}$,hybrid
R-HSA-446728,0.0004243103334997148,940.0,5,$\widetilde{A}_{G_5}$,hybrid
R-HSA-210991,0.0004240101554200296,941.0,5,$\widetilde{A}_{G_5}$,hybrid
R-HSA-1483255,0.000422280679817804,942.0,5,$\widetilde{A}_{G_5}$,hybrid
R-HSA-3000178,0.0004188181179281387,943.0,5,$\widetilde{A}_{G_5}$,hybrid
R-HSA-2129379,0.0004179673454459889,944.0,5,$\widetilde{A}_{G_5}$,hybrid
R-HSA-9603798,0.00041643130380276586,945.0,5,$\widetilde{A}_{G_5}$,hybrid
R-HSA-159227,0.00040511004524607547,946.0,5,$\widetilde{A}_{G_5}$,hybrid
R-HSA-5694530,0.00040236383803369093,947.0,5,$\widetilde{A}_{G_5}$,hybrid
R-HSA-159231,0.0004003093927397015,948.0,5,$\widetilde{A}_{G_5}$,hybrid
R-HSA-381426,0.00040021333932849007,949.0,5,$\widetilde{A}_{G_5}$,hybrid
R-HSA-388844,0.0003977211270016531,950.0,5,$\widetilde{A}_{G_5}$,hybrid
R-HSA-159230,0.0003972109564616235,951.0,5,$\widetilde{A}_{G_5}$,hybrid
R-HSA-76066,0.00039646140835897703,952.0,5,$\widetilde{A}_{G_5}$,hybrid
R-HSA-5635838,0.000394296805590343,953.0,5,$\widetilde{A}_{G_5}$,hybrid
R-HSA-159234,0.0003940066303482159,954.0,5,$\widetilde{A}_{G_5}$,hybrid
R-HSA-3000170,0.0003895843097986876,955.0,5,$\widetilde{A}_{G_5}$,hybrid
R-HSA-8957322,0.0003893623723408371,956.0,5,$\widetilde{A}_{G_5}$,hybrid
R-HSA-111461,0.00038488477724009216,957.0,5,$\widetilde{A}_{G_5}$,hybrid
R-HSA-76061,0.0003848457861106205,958.0,5,$\widetilde{A}_{G_5}$,hybrid
R-HSA-8854214,0.0003802890879899491,959.0,5,$\widetilde{A}_{G_5}$,hybrid
R-HSA-9013700,0.00037790198252973833,960.0,5,$\widetilde{A}_{G_5}$,hybrid
R-HSA-73780,0.00037538475020695427,961.0,5,$\widetilde{A}_{G_5}$,hybrid
R-HSA-73980,0.000375384750206954,962.0,5,$\widetilde{A}_{G_5}$,hybrid
R-HSA-5578775,0.0003735440106172233,963.0,5,$\widetilde{A}_{G_5}$,hybrid
R-HSA-983712,0.00037308020724749263,964.0,5,$\widetilde{A}_{G_5}$,hybrid
R-HSA-1483257,0.0003714022056646652,965.0,5,$\widetilde{A}_{G_5}$,hybrid
R-HSA-1566948,0.00036553263911158647,966.0,5,$\widetilde{A}_{G_5}$,hybrid
R-HSA-8982491,0.0003648236853356117,967.0,5,$\widetilde{A}_{G_5}$,hybrid
R-HSA-9031628,0.0003600185067719418,968.0,5,$\widetilde{A}_{G_5}$,hybrid
R-HSA-70221,0.000358592065267952,969.0,5,$\widetilde{A}_{G_5}$,hybrid
R-HSA-8853884,0.00035716249525648427,970.0,5,$\widetilde{A}_{G_5}$,hybrid
R-HSA-425407,0.0003552903169414403,971.0,5,$\widetilde{A}_{G_5}$,hybrid
R-HSA-9675126,0.00035294620025129155,972.0,5,$\widetilde{A}_{G_5}$,hybrid
R-HSA-8852135,0.00035242232159519944,973.0,5,$\widetilde{A}_{G_5}$,hybrid
R-HSA-3000171,0.0003465952629609927,974.0,5,$\widetilde{A}_{G_5}$,hybrid
R-HSA-4086398,0.0003438545883228839,975.0,5,$\widetilde{A}_{G_5}$,hybrid
R-HSA-1442490,0.00034384733971026826,976.0,5,$\widetilde{A}_{G_5}$,hybrid
R-HSA-611105,0.00034285965169591245,977.0,5,$\widetilde{A}_{G_5}$,hybrid
R-HSA-3781865,0.00033641724757572944,978.0,5,$\widetilde{A}_{G_5}$,hybrid
R-HSA-6799198,0.0003354328755781659,979.0,5,$\widetilde{A}_{G_5}$,hybrid
R-HSA-9687139,0.00033480720655416164,980.0,5,$\widetilde{A}_{G_5}$,hybrid
R-HSA-3299685,0.00033015881212865517,981.0,5,$\widetilde{A}_{G_5}$,hybrid
R-HSA-9029569,0.00032327473135556494,982.0,5,$\widetilde{A}_{G_5}$,hybrid
R-HSA-9024446,0.0003179422197328891,983.0,5,$\widetilde{A}_{G_5}$,hybrid
R-HSA-8866654,0.0003145874650377569,984.0,5,$\widetilde{A}_{G_5}$,hybrid
R-HSA-76046,0.00031131654411387333,985.0,5,$\widetilde{A}_{G_5}$,hybrid
R-HSA-74158,0.0003113165441138732,986.0,5,$\widetilde{A}_{G_5}$,hybrid
R-HSA-749476,0.0003113165441138731,987.0,5,$\widetilde{A}_{G_5}$,hybrid
R-HSA-77387,0.00030106429033863836,988.0,5,$\widetilde{A}_{G_5}$,hybrid
R-HSA-1474290,0.00028932101914990957,989.0,5,$\widetilde{A}_{G_5}$,hybrid
R-HSA-76071,0.00028627609144296965,990.0,5,$\widetilde{A}_{G_5}$,hybrid
R-HSA-3000157,0.000261610065928606,991.0,5,$\widetilde{A}_{G_5}$,hybrid
R-HSA-9639288,0.00025869650411105595,992.0,5,$\widetilde{A}_{G_5}$,hybrid
R-HSA-6811438,0.00025589595608289115,993.0,5,$\widetilde{A}_{G_5}$,hybrid
R-HSA-201451,0.0002467810528907847,994.0,5,$\widetilde{A}_{G_5}$,hybrid
R-HSA-1362409,0.00024034782453745212,995.0,5,$\widetilde{A}_{G_5}$,hybrid
R-HSA-1630316,0.00022573992310436546,996.0,5,$\widetilde{A}_{G_5}$,hybrid
R-HSA-9033241,0.00022142290115956666,997.0,5,$\widetilde{A}_{G_5}$,hybrid
R-HSA-1474228,0.0002196626723549696,998.0,5,$\widetilde{A}_{G_5}$,hybrid
R-HSA-163125,0.00021009347053076784,999.0,5,$\widetilde{A}_{G_5}$,hybrid
R-HSA-163841,0.00019097762852210768,1000.0,5,$\widetilde{A}_{G_5}$,hybrid
R-HSA-5668914,0.00017625500263101197,1001.0,5,$\widetilde{A}_{G_5}$,hybrid
R-HSA-5620922,6.141760873727716e-05,1002.0,5,$\widetilde{A}_{G_5}$,hybrid
