entity,score,rank,graphlet,graphlet_adj,score_method
R-HSA-5637812,0.002672603505186799,1.0,6,$\widetilde{A}_{G_6}$,centrality
R-HSA-5637810,0.002672603505186798,2.0,6,$\widetilde{A}_{G_6}$,centrality
R-HSA-9665348,0.002488006844554409,3.0,6,$\widetilde{A}_{G_6}$,centrality
R-HSA-5637815,0.002385251705748858,4.5,6,$\widetilde{A}_{G_6}$,centrality
R-HSA-1236382,0.002385251705748858,4.5,6,$\widetilde{A}_{G_6}$,centrality
R-HSA-8853334,0.002350527288246286,6.0,6,$\widetilde{A}_{G_6}$,centrality
R-HSA-5655291,0.0023254048843551686,7.0,6,$\widetilde{A}_{G_6}$,centrality
R-HSA-9634285,0.002314193677559448,8.0,6,$\widetilde{A}_{G_6}$,centrality
R-HSA-1963642,0.0022744226657027086,9.0,6,$\widetilde{A}_{G_6}$,centrality
R-HSA-3371511,0.002234747388848261,10.0,6,$\widetilde{A}_{G_6}$,centrality
R-HSA-2730905,0.002227324090934373,11.0,6,$\widetilde{A}_{G_6}$,centrality
R-HSA-9673770,0.002222968688921145,12.5,6,$\widetilde{A}_{G_6}$,centrality
R-HSA-9673767,0.002222968688921145,12.5,6,$\widetilde{A}_{G_6}$,centrality
R-HSA-5654716,0.0022191229219885897,14.0,6,$\widetilde{A}_{G_6}$,centrality
R-HSA-9664565,0.0021951783941712927,15.0,6,$\widetilde{A}_{G_6}$,centrality
R-HSA-180336,0.002180867813741397,16.0,6,$\widetilde{A}_{G_6}$,centrality
R-HSA-1963640,0.0021600640750532763,17.0,6,$\widetilde{A}_{G_6}$,centrality
R-HSA-9665686,0.0021563434774466393,18.0,6,$\widetilde{A}_{G_6}$,centrality
R-HSA-1250347,0.002142484854055494,19.0,6,$\widetilde{A}_{G_6}$,centrality
R-HSA-1227990,0.0021342879551593773,20.0,6,$\widetilde{A}_{G_6}$,centrality
R-HSA-1643713,0.0021118521949655177,21.0,6,$\widetilde{A}_{G_6}$,centrality
R-HSA-179812,0.002089025116297731,22.0,6,$\widetilde{A}_{G_6}$,centrality
R-HSA-9034015,0.0020491699928266555,23.0,6,$\widetilde{A}_{G_6}$,centrality
R-HSA-180292,0.0020460907220173526,24.0,6,$\widetilde{A}_{G_6}$,centrality
R-HSA-5654708,0.0020333644816373296,25.0,6,$\widetilde{A}_{G_6}$,centrality
R-HSA-5654689,0.0020130097161605554,26.0,6,$\widetilde{A}_{G_6}$,centrality
R-HSA-9027284,0.002010087960149665,27.0,6,$\widetilde{A}_{G_6}$,centrality
R-HSA-210993,0.002000858224610271,28.0,6,$\widetilde{A}_{G_6}$,centrality
R-HSA-5654712,0.0019983769373367196,29.0,6,$\widetilde{A}_{G_6}$,centrality
R-HSA-8853338,0.0019850902090010523,30.0,6,$\widetilde{A}_{G_6}$,centrality
R-HSA-5655332,0.0019850902090010514,31.0,6,$\widetilde{A}_{G_6}$,centrality
R-HSA-9703648,0.0019788445374714415,32.0,6,$\widetilde{A}_{G_6}$,centrality
R-HSA-9669938,0.001953715585021592,33.5,6,$\widetilde{A}_{G_6}$,centrality
R-HSA-9670439,0.001953715585021592,33.5,6,$\widetilde{A}_{G_6}$,centrality
R-HSA-9006115,0.001920279150012672,35.0,6,$\widetilde{A}_{G_6}$,centrality
R-HSA-5654688,0.0019029526651158128,36.0,6,$\widetilde{A}_{G_6}$,centrality
R-HSA-1250196,0.0018315450662503498,37.0,6,$\widetilde{A}_{G_6}$,centrality
R-HSA-9006335,0.0018079128843717656,38.0,6,$\widetilde{A}_{G_6}$,centrality
R-HSA-74749,0.001804249929346495,39.0,6,$\widetilde{A}_{G_6}$,centrality
R-HSA-9671555,0.0017946477528991461,40.0,6,$\widetilde{A}_{G_6}$,centrality
R-HSA-5654687,0.0017898441292839994,41.0,6,$\widetilde{A}_{G_6}$,centrality
R-HSA-912631,0.001780456261327541,42.0,6,$\widetilde{A}_{G_6}$,centrality
R-HSA-354194,0.0017762631669134895,43.0,6,$\widetilde{A}_{G_6}$,centrality
R-HSA-8851805,0.001765698980056227,44.0,6,$\widetilde{A}_{G_6}$,centrality
R-HSA-1433559,0.001757293691000762,45.0,6,$\widetilde{A}_{G_6}$,centrality
R-HSA-5654706,0.0017486462069690948,46.0,6,$\widetilde{A}_{G_6}$,centrality
R-HSA-3371568,0.00173985347922252,47.0,6,$\widetilde{A}_{G_6}$,centrality
R-HSA-5654696,0.0017344612928609816,48.0,6,$\widetilde{A}_{G_6}$,centrality
R-HSA-390450,0.0017144418573374204,49.0,6,$\widetilde{A}_{G_6}$,centrality
R-HSA-5654693,0.0017029511118544032,50.0,6,$\widetilde{A}_{G_6}$,centrality
R-HSA-912526,0.001696869462702988,51.0,6,$\widetilde{A}_{G_6}$,centrality
R-HSA-2424491,0.0016731771784500751,52.0,6,$\widetilde{A}_{G_6}$,centrality
R-HSA-186763,0.0016719466743881596,53.0,6,$\widetilde{A}_{G_6}$,centrality
R-HSA-9027276,0.0016631862799076794,54.0,6,$\widetilde{A}_{G_6}$,centrality
R-HSA-9613829,0.001648988189720687,55.0,6,$\widetilde{A}_{G_6}$,centrality
R-HSA-5684264,0.0016400064504049486,56.0,6,$\widetilde{A}_{G_6}$,centrality
R-HSA-5654743,0.0016399586235432801,57.0,6,$\widetilde{A}_{G_6}$,centrality
R-HSA-9703465,0.0016264156748244457,58.0,6,$\widetilde{A}_{G_6}$,centrality
R-HSA-389359,0.001617686290682744,59.0,6,$\widetilde{A}_{G_6}$,centrality
R-HSA-5654695,0.001613368812173282,60.0,6,$\widetilde{A}_{G_6}$,centrality
R-HSA-210990,0.0016125070731129224,61.0,6,$\widetilde{A}_{G_6}$,centrality
R-HSA-110312,0.0016040680396298313,62.0,6,$\widetilde{A}_{G_6}$,centrality
R-HSA-975163,0.0015767129258544526,63.0,6,$\widetilde{A}_{G_6}$,centrality
R-HSA-933541,0.0015726123919091784,64.0,6,$\widetilde{A}_{G_6}$,centrality
R-HSA-5654741,0.0015629958197919949,65.0,6,$\widetilde{A}_{G_6}$,centrality
R-HSA-1295596,0.0015516878738389113,66.0,6,$\widetilde{A}_{G_6}$,centrality
R-HSA-8864260,0.0015489376474843196,67.0,6,$\widetilde{A}_{G_6}$,centrality
R-HSA-6785631,0.001538552517590733,68.0,6,$\widetilde{A}_{G_6}$,centrality
R-HSA-5655862,0.0015259379964733283,69.0,6,$\widetilde{A}_{G_6}$,centrality
R-HSA-209560,0.0015244277888856912,70.0,6,$\widetilde{A}_{G_6}$,centrality
R-HSA-5654699,0.0015203952711368692,71.0,6,$\widetilde{A}_{G_6}$,centrality
R-HSA-512988,0.0015132298896447733,72.0,6,$\widetilde{A}_{G_6}$,centrality
R-HSA-75035,0.0015095021835420028,73.0,6,$\widetilde{A}_{G_6}$,centrality
R-HSA-933543,0.0015084082151671863,74.0,6,$\widetilde{A}_{G_6}$,centrality
R-HSA-918233,0.0015023554885045128,75.0,6,$\widetilde{A}_{G_6}$,centrality
R-HSA-881907,0.0014970427756379357,76.0,6,$\widetilde{A}_{G_6}$,centrality
R-HSA-391160,0.0014950836907233105,77.0,6,$\widetilde{A}_{G_6}$,centrality
R-HSA-8853659,0.001493759373350217,78.0,6,$\widetilde{A}_{G_6}$,centrality
R-HSA-1236978,0.0014931161468136208,79.0,6,$\widetilde{A}_{G_6}$,centrality
R-HSA-937072,0.0014847185415756633,80.0,6,$\widetilde{A}_{G_6}$,centrality
R-HSA-1059683,0.0014764564999026396,81.0,6,$\widetilde{A}_{G_6}$,centrality
R-HSA-5656121,0.0014679840866422724,82.0,6,$\widetilde{A}_{G_6}$,centrality
R-HSA-983695,0.0014674433201473268,83.0,6,$\widetilde{A}_{G_6}$,centrality
R-HSA-209543,0.0014653358626117543,84.0,6,$\widetilde{A}_{G_6}$,centrality
R-HSA-211733,0.0014644080227654553,85.5,6,$\widetilde{A}_{G_6}$,centrality
R-HSA-169911,0.0014644080227654553,85.5,6,$\widetilde{A}_{G_6}$,centrality
R-HSA-5625900,0.0014626406272607727,87.0,6,$\widetilde{A}_{G_6}$,centrality
R-HSA-8875555,0.0014604246063945664,88.0,6,$\widetilde{A}_{G_6}$,centrality
R-HSA-450408,0.0014574472561327883,89.0,6,$\widetilde{A}_{G_6}$,centrality
R-HSA-9682385,0.001456865048570957,90.0,6,$\widetilde{A}_{G_6}$,centrality
R-HSA-8983432,0.0014536123364193253,91.0,6,$\widetilde{A}_{G_6}$,centrality
R-HSA-349425,0.0014522919128030283,92.0,6,$\widetilde{A}_{G_6}$,centrality
R-HSA-1227986,0.001452260765719757,93.0,6,$\widetilde{A}_{G_6}$,centrality
R-HSA-110320,0.0014491906125664125,94.0,6,$\widetilde{A}_{G_6}$,centrality
R-HSA-389960,0.001447154294659834,95.0,6,$\widetilde{A}_{G_6}$,centrality
R-HSA-5654733,0.0014462156757458946,96.0,6,$\widetilde{A}_{G_6}$,centrality
R-HSA-8854050,0.0014413190503208397,97.0,6,$\widetilde{A}_{G_6}$,centrality
R-HSA-9013418,0.001439078251901387,98.0,6,$\widetilde{A}_{G_6}$,centrality
R-HSA-75815,0.0014311210040330881,99.0,6,$\widetilde{A}_{G_6}$,centrality
R-HSA-9604323,0.001430236077166469,100.0,6,$\widetilde{A}_{G_6}$,centrality
R-HSA-180534,0.0014301051204864167,101.0,6,$\widetilde{A}_{G_6}$,centrality
R-HSA-3371571,0.0014228475199123093,102.0,6,$\widetilde{A}_{G_6}$,centrality
R-HSA-174113,0.0014137763248766033,103.0,6,$\widetilde{A}_{G_6}$,centrality
R-HSA-372708,0.0014113278462035916,104.0,6,$\widetilde{A}_{G_6}$,centrality
R-HSA-69166,0.0014094246870416203,105.0,6,$\widetilde{A}_{G_6}$,centrality
R-HSA-5358565,0.001408506505272812,106.0,6,$\widetilde{A}_{G_6}$,centrality
R-HSA-5654700,0.0014039136929451872,107.0,6,$\widetilde{A}_{G_6}$,centrality
R-HSA-69601,0.0014004334253373994,108.0,6,$\widetilde{A}_{G_6}$,centrality
R-HSA-69610,0.001400433425337399,109.5,6,$\widetilde{A}_{G_6}$,centrality
R-HSA-69613,0.001400433425337399,109.5,6,$\widetilde{A}_{G_6}$,centrality
R-HSA-180585,0.001395131635724737,111.0,6,$\widetilde{A}_{G_6}$,centrality
R-HSA-937039,0.0013946258710671566,112.5,6,$\widetilde{A}_{G_6}$,centrality
R-HSA-975144,0.0013946258710671566,112.5,6,$\widetilde{A}_{G_6}$,centrality
R-HSA-8932339,0.0013944848797734204,114.0,6,$\widetilde{A}_{G_6}$,centrality
R-HSA-1433557,0.0013924514723198337,115.0,6,$\widetilde{A}_{G_6}$,centrality
R-HSA-68884,0.0013886326792413276,116.0,6,$\widetilde{A}_{G_6}$,centrality
R-HSA-167044,0.001387928870808006,117.0,6,$\widetilde{A}_{G_6}$,centrality
R-HSA-354192,0.0013841534701861727,118.0,6,$\widetilde{A}_{G_6}$,centrality
R-HSA-5676590,0.0013838048079274524,119.0,6,$\widetilde{A}_{G_6}$,centrality
R-HSA-2172127,0.0013816088234738118,120.0,6,$\widetilde{A}_{G_6}$,centrality
R-HSA-4641258,0.0013815336784124656,121.0,6,$\widetilde{A}_{G_6}$,centrality
R-HSA-5358606,0.0013811261647261055,122.0,6,$\widetilde{A}_{G_6}$,centrality
R-HSA-69541,0.0013772549194452325,123.0,6,$\widetilde{A}_{G_6}$,centrality
R-HSA-5607761,0.001377219086807806,124.0,6,$\widetilde{A}_{G_6}$,centrality
R-HSA-8941858,0.0013745536552491784,125.0,6,$\widetilde{A}_{G_6}$,centrality
R-HSA-2029481,0.0013740217289185935,126.0,6,$\widetilde{A}_{G_6}$,centrality
R-HSA-5610785,0.001373387536833877,127.0,6,$\widetilde{A}_{G_6}$,centrality
R-HSA-8876384,0.0013732201441645807,128.0,6,$\widetilde{A}_{G_6}$,centrality
R-HSA-2029485,0.0013730221295687644,129.0,6,$\widetilde{A}_{G_6}$,centrality
R-HSA-5610783,0.0013729641154611168,130.0,6,$\widetilde{A}_{G_6}$,centrality
R-HSA-1236394,0.0013724076949653756,131.0,6,$\widetilde{A}_{G_6}$,centrality
R-HSA-156902,0.001365793212625046,132.0,6,$\widetilde{A}_{G_6}$,centrality
R-HSA-2408557,0.0013640498342997519,133.0,6,$\widetilde{A}_{G_6}$,centrality
R-HSA-168927,0.0013621182139335972,134.0,6,$\widetilde{A}_{G_6}$,centrality
R-HSA-5362768,0.0013612941036299714,135.0,6,$\widetilde{A}_{G_6}$,centrality
R-HSA-6804758,0.0013588367187419702,136.0,6,$\widetilde{A}_{G_6}$,centrality
R-HSA-192823,0.0013567295276216505,137.0,6,$\widetilde{A}_{G_6}$,centrality
R-HSA-193639,0.0013566375663623424,138.0,6,$\widetilde{A}_{G_6}$,centrality
R-HSA-5654736,0.0013532899543685826,139.0,6,$\widetilde{A}_{G_6}$,centrality
R-HSA-69183,0.0013530380103881684,140.0,6,$\widetilde{A}_{G_6}$,centrality
R-HSA-5610780,0.001352850699034781,141.0,6,$\widetilde{A}_{G_6}$,centrality
R-HSA-5358508,0.0013481080883383028,142.0,6,$\widetilde{A}_{G_6}$,centrality
R-HSA-5654732,0.0013461864347157505,143.0,6,$\widetilde{A}_{G_6}$,centrality
R-HSA-156842,0.0013419397539925324,144.0,6,$\widetilde{A}_{G_6}$,centrality
R-HSA-9614399,0.0013413486334275884,145.0,6,$\widetilde{A}_{G_6}$,centrality
R-HSA-187577,0.001340492859748342,146.0,6,$\widetilde{A}_{G_6}$,centrality
R-HSA-177929,0.001339734283870729,147.0,6,$\widetilde{A}_{G_6}$,centrality
R-HSA-1839117,0.001339250398404723,148.0,6,$\widetilde{A}_{G_6}$,centrality
R-HSA-8863795,0.0013390457929290936,149.0,6,$\widetilde{A}_{G_6}$,centrality
R-HSA-76009,0.0013383123279148217,150.0,6,$\widetilde{A}_{G_6}$,centrality
R-HSA-5654726,0.0013372950502353576,151.0,6,$\widetilde{A}_{G_6}$,centrality
R-HSA-451927,0.0013372764484795698,152.0,6,$\widetilde{A}_{G_6}$,centrality
R-HSA-8875360,0.001337177574662987,153.0,6,$\widetilde{A}_{G_6}$,centrality
R-HSA-5387390,0.0013369199539456738,154.0,6,$\widetilde{A}_{G_6}$,centrality
R-HSA-5678895,0.0013344208169518027,155.0,6,$\widetilde{A}_{G_6}$,centrality
R-HSA-5357956,0.0013282796713324845,156.0,6,$\widetilde{A}_{G_6}$,centrality
R-HSA-4641257,0.0013280276337347325,157.0,6,$\widetilde{A}_{G_6}$,centrality
R-HSA-350562,0.0013245500306462697,158.0,6,$\widetilde{A}_{G_6}$,centrality
R-HSA-937041,0.0013229041660960076,159.0,6,$\widetilde{A}_{G_6}$,centrality
R-HSA-5689896,0.0013204900696391346,160.0,6,$\widetilde{A}_{G_6}$,centrality
R-HSA-975956,0.0013191832751885011,161.0,6,$\widetilde{A}_{G_6}$,centrality
R-HSA-8852276,0.0013161809424804393,162.0,6,$\widetilde{A}_{G_6}$,centrality
R-HSA-9707587,0.001316044936065652,163.0,6,$\widetilde{A}_{G_6}$,centrality
R-HSA-5658442,0.0013151082175960652,164.0,6,$\widetilde{A}_{G_6}$,centrality
R-HSA-427389,0.001314278011666101,165.0,6,$\widetilde{A}_{G_6}$,centrality
R-HSA-5619084,0.0013140848191632384,166.0,6,$\widetilde{A}_{G_6}$,centrality
R-HSA-933542,0.0013135771579145792,167.0,6,$\widetilde{A}_{G_6}$,centrality
R-HSA-8939902,0.0013133121070290118,168.0,6,$\widetilde{A}_{G_6}$,centrality
R-HSA-210744,0.0013118188653115832,169.0,6,$\widetilde{A}_{G_6}$,centrality
R-HSA-5655302,0.0013098239508992464,170.0,6,$\widetilde{A}_{G_6}$,centrality
R-HSA-2586552,0.0013004945215720866,171.0,6,$\widetilde{A}_{G_6}$,centrality
R-HSA-72764,0.0012982633407813,172.0,6,$\widetilde{A}_{G_6}$,centrality
R-HSA-2408522,0.0012976309296436235,173.0,6,$\widetilde{A}_{G_6}$,centrality
R-HSA-9607240,0.001292957973608649,174.0,6,$\widetilde{A}_{G_6}$,centrality
R-HSA-111447,0.001290668954172766,175.0,6,$\widetilde{A}_{G_6}$,centrality
R-HSA-72689,0.0012889106958852955,176.0,6,$\widetilde{A}_{G_6}$,centrality
R-HSA-110314,0.001287818741425822,177.0,6,$\widetilde{A}_{G_6}$,centrality
R-HSA-1170546,0.0012852938531443616,178.0,6,$\widetilde{A}_{G_6}$,centrality
R-HSA-186797,0.001283793168407413,179.0,6,$\widetilde{A}_{G_6}$,centrality
R-HSA-68949,0.0012807949225962594,180.0,6,$\widetilde{A}_{G_6}$,centrality
R-HSA-351202,0.00127917582733793,181.0,6,$\widetilde{A}_{G_6}$,centrality
R-HSA-69580,0.001278672702913601,182.0,6,$\widetilde{A}_{G_6}$,centrality
R-HSA-69563,0.0012786727029136008,183.0,6,$\widetilde{A}_{G_6}$,centrality
R-HSA-1169091,0.0012786495870457577,184.0,6,$\widetilde{A}_{G_6}$,centrality
R-HSA-2871796,0.0012764335154671611,185.0,6,$\widetilde{A}_{G_6}$,centrality
R-HSA-168273,0.0012724332006783586,186.0,6,$\widetilde{A}_{G_6}$,centrality
R-HSA-8866427,0.001267603634218698,187.0,6,$\widetilde{A}_{G_6}$,centrality
R-HSA-6804116,0.0012664792602578962,188.0,6,$\widetilde{A}_{G_6}$,centrality
R-HSA-6803529,0.0012651459113741268,189.0,6,$\widetilde{A}_{G_6}$,centrality
R-HSA-3270619,0.0012642751963147776,190.0,6,$\widetilde{A}_{G_6}$,centrality
R-HSA-1234176,0.0012641602273838423,191.0,6,$\widetilde{A}_{G_6}$,centrality
R-HSA-112399,0.0012614932126833911,192.0,6,$\widetilde{A}_{G_6}$,centrality
R-HSA-190861,0.001261360135091243,193.5,6,$\widetilde{A}_{G_6}$,centrality
R-HSA-190872,0.001261360135091243,193.5,6,$\widetilde{A}_{G_6}$,centrality
R-HSA-8955332,0.0012613601350912429,195.5,6,$\widetilde{A}_{G_6}$,centrality
R-HSA-190840,0.0012613601350912429,195.5,6,$\widetilde{A}_{G_6}$,centrality
R-HSA-73728,0.001258701099841849,197.0,6,$\widetilde{A}_{G_6}$,centrality
R-HSA-156827,0.001257926578455959,198.0,6,$\widetilde{A}_{G_6}$,centrality
R-HSA-114604,0.0012576202191385726,199.0,6,$\widetilde{A}_{G_6}$,centrality
R-HSA-69615,0.0012535206101933413,200.0,6,$\widetilde{A}_{G_6}$,centrality
R-HSA-68827,0.0012530363487564897,201.0,6,$\widetilde{A}_{G_6}$,centrality
R-HSA-174437,0.0012485830524727349,202.0,6,$\widetilde{A}_{G_6}$,centrality
R-HSA-9674555,0.00124748244716221,203.0,6,$\widetilde{A}_{G_6}$,centrality
R-HSA-2428924,0.0012470557536567368,204.5,6,$\widetilde{A}_{G_6}$,centrality
R-HSA-2404192,0.0012470557536567368,204.5,6,$\widetilde{A}_{G_6}$,centrality
R-HSA-74751,0.0012455179962662052,206.0,6,$\widetilde{A}_{G_6}$,centrality
R-HSA-72706,0.001244131945300503,207.0,6,$\widetilde{A}_{G_6}$,centrality
R-HSA-5358346,0.0012426230426985302,208.0,6,$\widetilde{A}_{G_6}$,centrality
R-HSA-373753,0.0012405373845246384,209.0,6,$\widetilde{A}_{G_6}$,centrality
R-HSA-9617629,0.001239963488050761,210.0,6,$\widetilde{A}_{G_6}$,centrality
R-HSA-9706574,0.0012331605213890488,211.0,6,$\widetilde{A}_{G_6}$,centrality
R-HSA-9633012,0.0012325120498773044,212.0,6,$\widetilde{A}_{G_6}$,centrality
R-HSA-9646399,0.0012305893614377892,213.0,6,$\widetilde{A}_{G_6}$,centrality
R-HSA-389957,0.0012295963479919457,214.0,6,$\widetilde{A}_{G_6}$,centrality
R-HSA-418885,0.0012291352580335712,215.0,6,$\widetilde{A}_{G_6}$,centrality
R-HSA-9710421,0.0012283809930622974,216.0,6,$\widetilde{A}_{G_6}$,centrality
R-HSA-5334118,0.0012272840491668541,217.0,6,$\widetilde{A}_{G_6}$,centrality
R-HSA-1234174,0.0012260764006616445,218.0,6,$\widetilde{A}_{G_6}$,centrality
R-HSA-69186,0.0012234107798251158,219.0,6,$\widetilde{A}_{G_6}$,centrality
R-HSA-68867,0.0012217788729369608,220.0,6,$\widetilde{A}_{G_6}$,centrality
R-HSA-9013422,0.001221760484098302,221.0,6,$\widetilde{A}_{G_6}$,centrality
R-HSA-9020558,0.0012198764031102417,222.0,6,$\widetilde{A}_{G_6}$,centrality
R-HSA-2219530,0.0012189297639859608,223.0,6,$\widetilde{A}_{G_6}$,centrality
R-HSA-2122947,0.0012186827979307022,224.0,6,$\widetilde{A}_{G_6}$,centrality
R-HSA-1799339,0.001215279798810287,225.0,6,$\widetilde{A}_{G_6}$,centrality
R-HSA-389356,0.0012128102139295862,226.0,6,$\widetilde{A}_{G_6}$,centrality
R-HSA-5099900,0.0012111080435279287,227.0,6,$\widetilde{A}_{G_6}$,centrality
R-HSA-9683701,0.0012100848427468085,228.0,6,$\widetilde{A}_{G_6}$,centrality
R-HSA-5693565,0.001208761121479768,229.0,6,$\widetilde{A}_{G_6}$,centrality
R-HSA-5693606,0.001207799484537448,230.0,6,$\widetilde{A}_{G_6}$,centrality
R-HSA-389958,0.0012060168143929152,231.0,6,$\widetilde{A}_{G_6}$,centrality
R-HSA-912446,0.0012052953201568452,232.0,6,$\widetilde{A}_{G_6}$,centrality
R-HSA-72695,0.0012046018808031089,233.0,6,$\widetilde{A}_{G_6}$,centrality
R-HSA-6804760,0.0012033889227456552,234.0,6,$\widetilde{A}_{G_6}$,centrality
R-HSA-3214842,0.0012012428399166173,235.0,6,$\widetilde{A}_{G_6}$,centrality
R-HSA-9615017,0.0012010316068112679,236.0,6,$\widetilde{A}_{G_6}$,centrality
R-HSA-8948751,0.0012006599208228364,237.0,6,$\widetilde{A}_{G_6}$,centrality
R-HSA-174414,0.0012004961001238366,238.0,6,$\widetilde{A}_{G_6}$,centrality
R-HSA-936964,0.0011995378557401034,239.0,6,$\widetilde{A}_{G_6}$,centrality
R-HSA-4608870,0.001198819491298856,240.0,6,$\widetilde{A}_{G_6}$,centrality
R-HSA-5693571,0.0011982963628870678,241.0,6,$\widetilde{A}_{G_6}$,centrality
R-HSA-5625886,0.0011980279878072385,242.0,6,$\widetilde{A}_{G_6}$,centrality
R-HSA-212300,0.0011967077684282006,243.0,6,$\widetilde{A}_{G_6}$,centrality
R-HSA-5696397,0.0011939866149007973,244.0,6,$\widetilde{A}_{G_6}$,centrality
R-HSA-445989,0.0011922129864853554,245.0,6,$\widetilde{A}_{G_6}$,centrality
R-HSA-6802948,0.001191729312986962,246.0,6,$\widetilde{A}_{G_6}$,centrality
R-HSA-174084,0.001191339309629296,247.0,6,$\widetilde{A}_{G_6}$,centrality
R-HSA-8851708,0.0011908331288725189,248.0,6,$\widetilde{A}_{G_6}$,centrality
R-HSA-2428928,0.0011904263874567718,249.0,6,$\widetilde{A}_{G_6}$,centrality
R-HSA-450531,0.0011896883403994924,250.0,6,$\widetilde{A}_{G_6}$,centrality
R-HSA-72649,0.0011882670369778516,251.0,6,$\widetilde{A}_{G_6}$,centrality
R-HSA-5651801,0.0011876315991121295,252.0,6,$\widetilde{A}_{G_6}$,centrality
R-HSA-5654727,0.001186458319437813,253.0,6,$\widetilde{A}_{G_6}$,centrality
R-HSA-2871837,0.0011841193712388252,254.0,6,$\widetilde{A}_{G_6}$,centrality
R-HSA-390471,0.0011819328679212335,255.0,6,$\widetilde{A}_{G_6}$,centrality
R-HSA-109704,0.0011794925595343473,256.0,6,$\widetilde{A}_{G_6}$,centrality
R-HSA-5357786,0.0011783881900706617,257.0,6,$\widetilde{A}_{G_6}$,centrality
R-HSA-5357905,0.001177476713221922,258.0,6,$\widetilde{A}_{G_6}$,centrality
R-HSA-182971,0.0011743964213290462,259.0,6,$\widetilde{A}_{G_6}$,centrality
R-HSA-196025,0.0011716354099455446,260.0,6,$\widetilde{A}_{G_6}$,centrality
R-HSA-174154,0.0011714042730178197,261.0,6,$\widetilde{A}_{G_6}$,centrality
R-HSA-6804114,0.0011713571226691884,262.0,6,$\widetilde{A}_{G_6}$,centrality
R-HSA-69473,0.0011707678974129674,263.0,6,$\widetilde{A}_{G_6}$,centrality
R-HSA-72662,0.0011695167347519954,264.0,6,$\widetilde{A}_{G_6}$,centrality
R-HSA-190873,0.0011689876986033499,265.0,6,$\widetilde{A}_{G_6}$,centrality
R-HSA-5621575,0.001168977832330139,266.0,6,$\widetilde{A}_{G_6}$,centrality
R-HSA-2173788,0.0011685175449445068,267.0,6,$\widetilde{A}_{G_6}$,centrality
R-HSA-177504,0.0011682506454165071,268.0,6,$\widetilde{A}_{G_6}$,centrality
R-HSA-2173789,0.0011670844632037456,269.0,6,$\widetilde{A}_{G_6}$,centrality
R-HSA-6802949,0.0011655264955969607,271.5,6,$\widetilde{A}_{G_6}$,centrality
R-HSA-6802946,0.0011655264955969607,271.5,6,$\widetilde{A}_{G_6}$,centrality
R-HSA-9649948,0.0011655264955969607,271.5,6,$\widetilde{A}_{G_6}$,centrality
R-HSA-6802955,0.0011655264955969607,271.5,6,$\widetilde{A}_{G_6}$,centrality
R-HSA-72702,0.0011633661590515765,274.0,6,$\widetilde{A}_{G_6}$,centrality
R-HSA-5358747,0.0011632905970890468,277.0,6,$\widetilde{A}_{G_6}$,centrality
R-HSA-4839743,0.0011632905970890468,277.0,6,$\widetilde{A}_{G_6}$,centrality
R-HSA-5339716,0.0011632905970890468,277.0,6,$\widetilde{A}_{G_6}$,centrality
R-HSA-5358751,0.0011632905970890468,277.0,6,$\widetilde{A}_{G_6}$,centrality
R-HSA-5358752,0.0011632905970890468,277.0,6,$\widetilde{A}_{G_6}$,centrality
R-HSA-5358749,0.0011632905970890466,280.0,6,$\widetilde{A}_{G_6}$,centrality
R-HSA-8878159,0.001158853054166056,281.0,6,$\widetilde{A}_{G_6}$,centrality
R-HSA-1839124,0.0011586939759733513,282.0,6,$\widetilde{A}_{G_6}$,centrality
R-HSA-8941856,0.001156641950429748,283.0,6,$\widetilde{A}_{G_6}$,centrality
R-HSA-176408,0.0011552748395271966,284.0,6,$\widetilde{A}_{G_6}$,centrality
R-HSA-174178,0.0011544144752532956,285.0,6,$\widetilde{A}_{G_6}$,centrality
R-HSA-195253,0.0011530913441730913,286.0,6,$\widetilde{A}_{G_6}$,centrality
R-HSA-9656223,0.0011515441641028782,287.0,6,$\widetilde{A}_{G_6}$,centrality
R-HSA-877312,0.0011496633142975034,288.0,6,$\widetilde{A}_{G_6}$,centrality
R-HSA-174184,0.0011492283225010313,289.0,6,$\widetilde{A}_{G_6}$,centrality
R-HSA-3232118,0.0011483037510877077,290.0,6,$\widetilde{A}_{G_6}$,centrality
R-HSA-69002,0.001146469725256911,291.0,6,$\widetilde{A}_{G_6}$,centrality
R-HSA-140534,0.0011445379367489646,292.0,6,$\widetilde{A}_{G_6}$,centrality
R-HSA-5687128,0.0011432425867208983,293.0,6,$\widetilde{A}_{G_6}$,centrality
R-HSA-69017,0.0011426502888631533,294.0,6,$\widetilde{A}_{G_6}$,centrality
R-HSA-2995383,0.001139504115912522,295.0,6,$\widetilde{A}_{G_6}$,centrality
R-HSA-179419,0.0011392095200220733,296.0,6,$\widetilde{A}_{G_6}$,centrality
R-HSA-9013694,0.0011381845148677704,297.0,6,$\widetilde{A}_{G_6}$,centrality
R-HSA-5140745,0.0011380602447662272,298.0,6,$\widetilde{A}_{G_6}$,centrality
R-HSA-5626467,0.0011338134069864725,299.0,6,$\widetilde{A}_{G_6}$,centrality
R-HSA-1834941,0.0011337015780458917,300.0,6,$\widetilde{A}_{G_6}$,centrality
R-HSA-1168372,0.001129353358113759,301.0,6,$\widetilde{A}_{G_6}$,centrality
R-HSA-8950505,0.0011293152650124225,302.0,6,$\widetilde{A}_{G_6}$,centrality
R-HSA-69202,0.0011270686065285019,303.0,6,$\widetilde{A}_{G_6}$,centrality
R-HSA-453276,0.001126309761545449,304.5,6,$\widetilde{A}_{G_6}$,centrality
R-HSA-174143,0.001126309761545449,304.5,6,$\widetilde{A}_{G_6}$,centrality
R-HSA-5213460,0.0011233773673162966,306.0,6,$\widetilde{A}_{G_6}$,centrality
R-HSA-5675482,0.0011233773673162964,307.0,6,$\widetilde{A}_{G_6}$,centrality
R-HSA-176814,0.0011223159189204634,308.0,6,$\widetilde{A}_{G_6}$,centrality
R-HSA-5673000,0.0011209088562440226,309.0,6,$\widetilde{A}_{G_6}$,centrality
R-HSA-176409,0.0011201368211575717,310.0,6,$\widetilde{A}_{G_6}$,centrality
R-HSA-190828,0.001120036934291773,311.0,6,$\widetilde{A}_{G_6}$,centrality
R-HSA-8849471,0.0011194633449532658,312.0,6,$\widetilde{A}_{G_6}$,centrality
R-HSA-201722,0.0011177457283824048,313.0,6,$\widetilde{A}_{G_6}$,centrality
R-HSA-5693607,0.0011141218566572725,314.0,6,$\widetilde{A}_{G_6}$,centrality
R-HSA-69190,0.0011132312315200637,315.0,6,$\widetilde{A}_{G_6}$,centrality
R-HSA-8943724,0.001112722624772605,316.0,6,$\widetilde{A}_{G_6}$,centrality
R-HSA-5654738,0.0011118896317118508,317.0,6,$\widetilde{A}_{G_6}$,centrality
R-HSA-69656,0.0011114413213759976,318.0,6,$\widetilde{A}_{G_6}$,centrality
R-HSA-381038,0.0011104358113467301,319.0,6,$\widetilde{A}_{G_6}$,centrality
R-HSA-399954,0.0011098337674160736,320.0,6,$\widetilde{A}_{G_6}$,centrality
R-HSA-8984722,0.001109094802926551,321.0,6,$\widetilde{A}_{G_6}$,centrality
R-HSA-382556,0.0011085232101261287,322.0,6,$\widetilde{A}_{G_6}$,centrality
R-HSA-9637690,0.0011043926769003568,323.0,6,$\widetilde{A}_{G_6}$,centrality
R-HSA-450321,0.001100353072300124,324.0,6,$\widetilde{A}_{G_6}$,centrality
R-HSA-110373,0.001095844824043639,325.0,6,$\widetilde{A}_{G_6}$,centrality
R-HSA-9005891,0.0010955865474419392,326.5,6,$\widetilde{A}_{G_6}$,centrality
R-HSA-9697154,0.0010955865474419392,326.5,6,$\widetilde{A}_{G_6}$,centrality
R-HSA-9005895,0.001095586547441939,328.5,6,$\widetilde{A}_{G_6}$,centrality
R-HSA-9675151,0.001095586547441939,328.5,6,$\widetilde{A}_{G_6}$,centrality
R-HSA-187687,0.0010951863095472996,330.0,6,$\widetilde{A}_{G_6}$,centrality
R-HSA-9013508,0.001093930628928633,331.0,6,$\widetilde{A}_{G_6}$,centrality
R-HSA-2465910,0.0010920872095288965,332.0,6,$\widetilde{A}_{G_6}$,centrality
R-HSA-69052,0.001091978227387438,333.0,6,$\widetilde{A}_{G_6}$,centrality
R-HSA-75893,0.0010903398885326052,334.0,6,$\widetilde{A}_{G_6}$,centrality
R-HSA-3371497,0.001090074823960915,335.0,6,$\widetilde{A}_{G_6}$,centrality
R-HSA-5627123,0.0010890598919629589,336.0,6,$\widetilde{A}_{G_6}$,centrality
R-HSA-5685938,0.001087803462618185,337.0,6,$\widetilde{A}_{G_6}$,centrality
R-HSA-1362277,0.001087556337081262,338.0,6,$\widetilde{A}_{G_6}$,centrality
R-HSA-9020956,0.0010858390962673193,339.0,6,$\widetilde{A}_{G_6}$,centrality
R-HSA-8953750,0.0010835636280396722,340.0,6,$\widetilde{A}_{G_6}$,centrality
R-HSA-6807004,0.001080250546908964,341.0,6,$\widetilde{A}_{G_6}$,centrality
R-HSA-9619483,0.0010801684555353,342.0,6,$\widetilde{A}_{G_6}$,centrality
R-HSA-5674135,0.0010798715036350517,343.0,6,$\widetilde{A}_{G_6}$,centrality
R-HSA-9020702,0.0010792070184441635,344.0,6,$\widetilde{A}_{G_6}$,centrality
R-HSA-157858,0.0010788979609720243,345.0,6,$\widetilde{A}_{G_6}$,centrality
R-HSA-432142,0.001078518397855665,346.0,6,$\widetilde{A}_{G_6}$,centrality
R-HSA-73893,0.001076754461162457,347.0,6,$\widetilde{A}_{G_6}$,centrality
R-HSA-2871809,0.0010758418697646693,348.0,6,$\widetilde{A}_{G_6}$,centrality
R-HSA-450302,0.001073777446668508,349.0,6,$\widetilde{A}_{G_6}$,centrality
R-HSA-168638,0.0010731828928506096,350.0,6,$\widetilde{A}_{G_6}$,centrality
R-HSA-9678108,0.001072121564509655,351.0,6,$\widetilde{A}_{G_6}$,centrality
R-HSA-3214815,0.0010719143501188482,352.0,6,$\widetilde{A}_{G_6}$,centrality
R-HSA-4755510,0.0010708794560097697,353.0,6,$\widetilde{A}_{G_6}$,centrality
R-HSA-912694,0.0010703649458407803,354.0,6,$\widetilde{A}_{G_6}$,centrality
R-HSA-427359,0.001069738535574501,355.0,6,$\widetilde{A}_{G_6}$,centrality
R-HSA-8848021,0.0010665045811915166,356.5,6,$\widetilde{A}_{G_6}$,centrality
R-HSA-9006927,0.0010665045811915166,356.5,6,$\widetilde{A}_{G_6}$,centrality
R-HSA-5656169,0.0010656931163432778,358.0,6,$\widetilde{A}_{G_6}$,centrality
R-HSA-5632684,0.0010636564869733816,359.0,6,$\widetilde{A}_{G_6}$,centrality
R-HSA-2470946,0.0010620785768858509,360.0,6,$\widetilde{A}_{G_6}$,centrality
R-HSA-9634638,0.0010612865480781645,361.0,6,$\widetilde{A}_{G_6}$,centrality
R-HSA-5250913,0.0010612546622311946,362.0,6,$\widetilde{A}_{G_6}$,centrality
R-HSA-389513,0.001060747291955042,363.0,6,$\widetilde{A}_{G_6}$,centrality
R-HSA-350054,0.0010556498557615487,364.0,6,$\widetilde{A}_{G_6}$,centrality
R-HSA-5693616,0.0010549892156268379,365.0,6,$\widetilde{A}_{G_6}$,centrality
R-HSA-202424,0.0010496978067642785,366.0,6,$\widetilde{A}_{G_6}$,centrality
R-HSA-5610787,0.001049286489781692,367.0,6,$\widetilde{A}_{G_6}$,centrality
R-HSA-3371556,0.001049209366316057,368.0,6,$\widetilde{A}_{G_6}$,centrality
R-HSA-6804757,0.0010476033644449718,369.5,6,$\widetilde{A}_{G_6}$,centrality
R-HSA-6806003,0.0010476033644449718,369.5,6,$\widetilde{A}_{G_6}$,centrality
R-HSA-9616222,0.0010475186205577505,371.0,6,$\widetilde{A}_{G_6}$,centrality
R-HSA-169893,0.0010470755956485272,372.0,6,$\widetilde{A}_{G_6}$,centrality
R-HSA-5601884,0.0010466047330668206,373.0,6,$\widetilde{A}_{G_6}$,centrality
R-HSA-110313,0.0010462694786608619,374.0,6,$\widetilde{A}_{G_6}$,centrality
R-HSA-8936459,0.0010448055908363128,375.0,6,$\widetilde{A}_{G_6}$,centrality
R-HSA-196299,0.0010446526945453929,376.0,6,$\widetilde{A}_{G_6}$,centrality
R-HSA-171306,0.0010446085866169757,377.0,6,$\widetilde{A}_{G_6}$,centrality
R-HSA-9635486,0.0010440383727264243,378.0,6,$\widetilde{A}_{G_6}$,centrality
R-HSA-8939236,0.0010426292964558824,379.0,6,$\widetilde{A}_{G_6}$,centrality
R-HSA-8964038,0.0010419126269725445,380.0,6,$\widetilde{A}_{G_6}$,centrality
R-HSA-5607764,0.0010405889150823342,381.0,6,$\widetilde{A}_{G_6}$,centrality
R-HSA-4839735,0.0010388009355184824,382.5,6,$\widetilde{A}_{G_6}$,centrality
R-HSA-5467348,0.0010388009355184824,382.5,6,$\widetilde{A}_{G_6}$,centrality
R-HSA-5467340,0.0010388009355184822,385.5,6,$\widetilde{A}_{G_6}$,centrality
R-HSA-5467337,0.0010388009355184822,385.5,6,$\widetilde{A}_{G_6}$,centrality
R-HSA-4839744,0.0010388009355184822,385.5,6,$\widetilde{A}_{G_6}$,centrality
R-HSA-4839748,0.0010388009355184822,385.5,6,$\widetilde{A}_{G_6}$,centrality
R-HSA-6804759,0.001038637101569242,388.0,6,$\widetilde{A}_{G_6}$,centrality
R-HSA-1500620,0.001038138598926308,389.0,6,$\widetilde{A}_{G_6}$,centrality
R-HSA-1474165,0.0010381385989263077,390.0,6,$\widetilde{A}_{G_6}$,centrality
R-HSA-2894862,0.0010374525343455705,391.0,6,$\widetilde{A}_{G_6}$,centrality
R-HSA-2644606,0.0010374525343455703,393.5,6,$\widetilde{A}_{G_6}$,centrality
R-HSA-2894858,0.0010374525343455703,393.5,6,$\widetilde{A}_{G_6}$,centrality
R-HSA-2644602,0.0010374525343455703,393.5,6,$\widetilde{A}_{G_6}$,centrality
R-HSA-2644603,0.0010374525343455703,393.5,6,$\widetilde{A}_{G_6}$,centrality
R-HSA-168928,0.001036250800803667,396.0,6,$\widetilde{A}_{G_6}$,centrality
R-HSA-202131,0.001035887460363561,397.0,6,$\widetilde{A}_{G_6}$,centrality
R-HSA-9614657,0.0010351783279822849,398.0,6,$\widetilde{A}_{G_6}$,centrality
R-HSA-1538133,0.0010350173903072167,399.0,6,$\widetilde{A}_{G_6}$,centrality
R-HSA-5625740,0.0010345489770910092,400.0,6,$\widetilde{A}_{G_6}$,centrality
R-HSA-5696394,0.0010344735985203107,401.0,6,$\widetilde{A}_{G_6}$,centrality
R-HSA-170968,0.0010342740246976664,402.0,6,$\widetilde{A}_{G_6}$,centrality
R-HSA-5685939,0.0010321754957706656,403.0,6,$\widetilde{A}_{G_6}$,centrality
R-HSA-9705462,0.001030927004317023,404.0,6,$\widetilde{A}_{G_6}$,centrality
R-HSA-2173795,0.0010292572215503774,405.0,6,$\widetilde{A}_{G_6}$,centrality
R-HSA-2219528,0.0010287857453769053,406.0,6,$\widetilde{A}_{G_6}$,centrality
R-HSA-176187,0.0010281797308308537,407.0,6,$\widetilde{A}_{G_6}$,centrality
R-HSA-5696400,0.001027310791019951,408.0,6,$\widetilde{A}_{G_6}$,centrality
R-HSA-3214858,0.0010255070253548954,409.0,6,$\widetilde{A}_{G_6}$,centrality
R-HSA-2559584,0.0010252212045057032,410.0,6,$\widetilde{A}_{G_6}$,centrality
R-HSA-1912408,0.0010250418252729895,411.0,6,$\widetilde{A}_{G_6}$,centrality
R-HSA-3899300,0.0010237089360987713,412.0,6,$\widetilde{A}_{G_6}$,centrality
R-HSA-428540,0.0010230078425439782,413.0,6,$\widetilde{A}_{G_6}$,centrality
R-HSA-9009391,0.0010217174043843204,414.0,6,$\widetilde{A}_{G_6}$,centrality
R-HSA-114452,0.0010205282865181147,415.0,6,$\widetilde{A}_{G_6}$,centrality
R-HSA-170834,0.0010205249987201097,416.0,6,$\widetilde{A}_{G_6}$,centrality
R-HSA-176407,0.0010200549995171076,417.0,6,$\widetilde{A}_{G_6}$,centrality
R-HSA-1810476,0.0010191635674179648,418.0,6,$\widetilde{A}_{G_6}$,centrality
R-HSA-167242,0.0010185550117922315,419.0,6,$\widetilde{A}_{G_6}$,centrality
R-HSA-190236,0.0010181845694366943,420.0,6,$\widetilde{A}_{G_6}$,centrality
R-HSA-8854691,0.0010172226980842039,421.0,6,$\widetilde{A}_{G_6}$,centrality
R-HSA-5689603,0.0010167635642302397,422.0,6,$\widetilde{A}_{G_6}$,centrality
R-HSA-68962,0.0010166470340662289,423.0,6,$\widetilde{A}_{G_6}$,centrality
R-HSA-5339562,0.0010162792869635483,424.0,6,$\widetilde{A}_{G_6}$,centrality
R-HSA-9614085,0.0010161465298554704,425.0,6,$\widetilde{A}_{G_6}$,centrality
R-HSA-9645723,0.0010152532571441127,426.0,6,$\widetilde{A}_{G_6}$,centrality
R-HSA-72165,0.0010142382956157697,427.0,6,$\widetilde{A}_{G_6}$,centrality
R-HSA-2173796,0.0010122742466110663,428.0,6,$\widetilde{A}_{G_6}$,centrality
R-HSA-9663891,0.001011941519434763,429.0,6,$\widetilde{A}_{G_6}$,centrality
R-HSA-9615933,0.0010116382304432364,430.0,6,$\widetilde{A}_{G_6}$,centrality
R-HSA-2299718,0.0010114013344482012,431.0,6,$\widetilde{A}_{G_6}$,centrality
R-HSA-6811558,0.0010104354927432623,432.0,6,$\widetilde{A}_{G_6}$,centrality
R-HSA-5218920,0.0010097690267256694,433.0,6,$\widetilde{A}_{G_6}$,centrality
R-HSA-73928,0.001009098672675148,434.0,6,$\widetilde{A}_{G_6}$,centrality
R-HSA-110329,0.0010090986726751477,435.5,6,$\widetilde{A}_{G_6}$,centrality
R-HSA-110328,0.0010090986726751477,435.5,6,$\widetilde{A}_{G_6}$,centrality
R-HSA-180746,0.001008685831563733,437.0,6,$\widetilde{A}_{G_6}$,centrality
R-HSA-6802952,0.0010076385390102235,438.0,6,$\widetilde{A}_{G_6}$,centrality
R-HSA-2559586,0.0010065380898735515,439.0,6,$\widetilde{A}_{G_6}$,centrality
R-HSA-9696273,0.0010061995707889278,440.0,6,$\widetilde{A}_{G_6}$,centrality
R-HSA-9022692,0.001004409093830464,441.0,6,$\widetilde{A}_{G_6}$,centrality
R-HSA-5693579,0.0010038920713742055,442.0,6,$\widetilde{A}_{G_6}$,centrality
R-HSA-6783589,0.0009995427793841544,443.0,6,$\widetilde{A}_{G_6}$,centrality
R-HSA-1221632,0.0009992041663108944,444.0,6,$\widetilde{A}_{G_6}$,centrality
R-HSA-1358803,0.0009967585061286407,445.0,6,$\widetilde{A}_{G_6}$,centrality
R-HSA-2173793,0.000996577213405587,446.0,6,$\widetilde{A}_{G_6}$,centrality
R-HSA-5668541,0.0009962184197039113,447.0,6,$\widetilde{A}_{G_6}$,centrality
R-HSA-167238,0.0009961253583008057,448.0,6,$\widetilde{A}_{G_6}$,centrality
R-HSA-167243,0.0009961253583008055,449.0,6,$\widetilde{A}_{G_6}$,centrality
R-HSA-389948,0.0009956141092749195,450.0,6,$\widetilde{A}_{G_6}$,centrality
R-HSA-176974,0.0009955521697382382,451.0,6,$\widetilde{A}_{G_6}$,centrality
R-HSA-176412,0.0009918554748214864,452.0,6,$\widetilde{A}_{G_6}$,centrality
R-HSA-5655253,0.0009913730200231312,453.0,6,$\widetilde{A}_{G_6}$,centrality
R-HSA-177243,0.0009912802302295715,454.0,6,$\widetilde{A}_{G_6}$,centrality
R-HSA-5689901,0.0009911148701432712,455.0,6,$\widetilde{A}_{G_6}$,centrality
R-HSA-445144,0.0009907526262650417,456.0,6,$\widetilde{A}_{G_6}$,centrality
R-HSA-3371378,0.0009907313957514027,458.0,6,$\widetilde{A}_{G_6}$,centrality
R-HSA-5218900,0.0009907313957514027,458.0,6,$\widetilde{A}_{G_6}$,centrality
R-HSA-69416,0.0009907313957514027,458.0,6,$\widetilde{A}_{G_6}$,centrality
R-HSA-186712,0.0009905323434795546,460.0,6,$\widetilde{A}_{G_6}$,centrality
R-HSA-3371453,0.0009900951749174272,461.0,6,$\widetilde{A}_{G_6}$,centrality
R-HSA-379716,0.000988558964192336,462.0,6,$\widetilde{A}_{G_6}$,centrality
R-HSA-380972,0.000986652607739274,463.0,6,$\widetilde{A}_{G_6}$,centrality
R-HSA-9013695,0.0009847621097675708,464.0,6,$\widetilde{A}_{G_6}$,centrality
R-HSA-5619507,0.0009845042643105623,465.5,6,$\widetilde{A}_{G_6}$,centrality
R-HSA-5617472,0.0009845042643105623,465.5,6,$\widetilde{A}_{G_6}$,centrality
R-HSA-982772,0.0009844982059224166,467.0,6,$\widetilde{A}_{G_6}$,centrality
R-HSA-1606322,0.0009842957059559797,468.0,6,$\widetilde{A}_{G_6}$,centrality
R-HSA-4086400,0.0009836475299746965,469.0,6,$\widetilde{A}_{G_6}$,centrality
R-HSA-5260271,0.000982592264381135,470.5,6,$\widetilde{A}_{G_6}$,centrality
R-HSA-5602358,0.000982592264381135,470.5,6,$\widetilde{A}_{G_6}$,centrality
R-HSA-110331,0.000981413554612251,473.5,6,$\widetilde{A}_{G_6}$,centrality
R-HSA-73929,0.000981413554612251,473.5,6,$\widetilde{A}_{G_6}$,centrality
R-HSA-110330,0.000981413554612251,473.5,6,$\widetilde{A}_{G_6}$,centrality
R-HSA-73927,0.000981413554612251,473.5,6,$\widetilde{A}_{G_6}$,centrality
R-HSA-375165,0.000980796758678965,476.0,6,$\widetilde{A}_{G_6}$,centrality
R-HSA-2029480,0.0009803284970399317,477.0,6,$\widetilde{A}_{G_6}$,centrality
R-HSA-141430,0.0009793162133564033,478.5,6,$\widetilde{A}_{G_6}$,centrality
R-HSA-141405,0.0009793162133564033,478.5,6,$\widetilde{A}_{G_6}$,centrality
R-HSA-9687136,0.0009788822686201163,480.0,6,$\widetilde{A}_{G_6}$,centrality
R-HSA-8986944,0.0009755140558521259,481.0,6,$\widetilde{A}_{G_6}$,centrality
R-HSA-5620971,0.0009720827229485324,482.0,6,$\widetilde{A}_{G_6}$,centrality
R-HSA-5696395,0.0009703992611299534,483.0,6,$\widetilde{A}_{G_6}$,centrality
R-HSA-6802957,0.0009639157577655029,484.0,6,$\widetilde{A}_{G_6}$,centrality
R-HSA-1236974,0.0009635944990041259,485.0,6,$\widetilde{A}_{G_6}$,centrality
R-HSA-6806834,0.0009624188034401791,486.0,6,$\widetilde{A}_{G_6}$,centrality
R-HSA-199418,0.0009618395254797068,487.0,6,$\widetilde{A}_{G_6}$,centrality
R-HSA-167290,0.0009613226022362688,488.5,6,$\widetilde{A}_{G_6}$,centrality
R-HSA-167287,0.0009613226022362688,488.5,6,$\widetilde{A}_{G_6}$,centrality
R-HSA-9609690,0.0009606580691005523,490.0,6,$\widetilde{A}_{G_6}$,centrality
R-HSA-6811436,0.0009605191447898922,491.0,6,$\widetilde{A}_{G_6}$,centrality
R-HSA-202430,0.0009601997928935047,492.0,6,$\widetilde{A}_{G_6}$,centrality
R-HSA-9670095,0.0009597389958552657,493.0,6,$\widetilde{A}_{G_6}$,centrality
R-HSA-5205685,0.0009582196408392602,494.0,6,$\widetilde{A}_{G_6}$,centrality
R-HSA-5205647,0.0009581915163968016,495.0,6,$\widetilde{A}_{G_6}$,centrality
R-HSA-437239,0.0009572311187772626,496.0,6,$\widetilde{A}_{G_6}$,centrality
R-HSA-168271,0.0009571545847751741,497.0,6,$\widetilde{A}_{G_6}$,centrality
R-HSA-163560,0.0009565780129193027,498.0,6,$\widetilde{A}_{G_6}$,centrality
R-HSA-159227,0.0009554898066245662,499.0,6,$\widetilde{A}_{G_6}$,centrality
R-HSA-4551638,0.0009553418284520221,500.0,6,$\widetilde{A}_{G_6}$,centrality
R-HSA-379724,0.0009518866415060327,501.0,6,$\widetilde{A}_{G_6}$,centrality
R-HSA-3214841,0.0009516863604038478,502.0,6,$\widetilde{A}_{G_6}$,centrality
R-HSA-69273,0.0009491147626176273,503.0,6,$\widetilde{A}_{G_6}$,centrality
R-HSA-202670,0.0009477358432307957,504.0,6,$\widetilde{A}_{G_6}$,centrality
R-HSA-1368082,0.0009468888372193554,505.0,6,$\widetilde{A}_{G_6}$,centrality
R-HSA-5627117,0.0009466586409185476,506.0,6,$\widetilde{A}_{G_6}$,centrality
R-HSA-983189,0.0009465106247964557,507.0,6,$\widetilde{A}_{G_6}$,centrality
R-HSA-9679191,0.0009452828034665354,508.0,6,$\widetilde{A}_{G_6}$,centrality
R-HSA-198323,0.0009441198629052255,509.0,6,$\widetilde{A}_{G_6}$,centrality
R-HSA-6782210,0.0009439371173124271,510.0,6,$\widetilde{A}_{G_6}$,centrality
R-HSA-1912422,0.0009437475646518741,511.0,6,$\widetilde{A}_{G_6}$,centrality
R-HSA-9035034,0.0009417469216983003,512.0,6,$\widetilde{A}_{G_6}$,centrality
R-HSA-205043,0.000941168076636784,513.0,6,$\widetilde{A}_{G_6}$,centrality
R-HSA-6781823,0.0009403150353909805,514.0,6,$\widetilde{A}_{G_6}$,centrality
R-HSA-3232142,0.000937122575479978,515.0,6,$\widetilde{A}_{G_6}$,centrality
R-HSA-9694516,0.0009360329408595652,516.0,6,$\widetilde{A}_{G_6}$,centrality
R-HSA-159230,0.0009359608576359307,517.0,6,$\widetilde{A}_{G_6}$,centrality
R-HSA-168643,0.0009355503205810047,518.0,6,$\widetilde{A}_{G_6}$,centrality
R-HSA-5218921,0.000933831836643219,519.0,6,$\widetilde{A}_{G_6}$,centrality
R-HSA-9020591,0.0009330025973803314,520.0,6,$\widetilde{A}_{G_6}$,centrality
R-HSA-1980143,0.0009294148049360374,521.0,6,$\widetilde{A}_{G_6}$,centrality
R-HSA-388841,0.0009282913455974755,522.0,6,$\widetilde{A}_{G_6}$,centrality
R-HSA-174048,0.0009275405526847189,523.0,6,$\widetilde{A}_{G_6}$,centrality
R-HSA-2468052,0.000926840702133114,524.0,6,$\widetilde{A}_{G_6}$,centrality
R-HSA-3928664,0.0009261326122946062,525.0,6,$\widetilde{A}_{G_6}$,centrality
R-HSA-170822,0.0009259339782280475,526.0,6,$\widetilde{A}_{G_6}$,centrality
R-HSA-5619107,0.0009259339782280474,527.5,6,$\widetilde{A}_{G_6}$,centrality
R-HSA-168325,0.0009259339782280474,527.5,6,$\widetilde{A}_{G_6}$,centrality
R-HSA-9664407,0.0009243176227136143,529.5,6,$\widetilde{A}_{G_6}$,centrality
R-HSA-9664422,0.0009243176227136143,529.5,6,$\widetilde{A}_{G_6}$,centrality
R-HSA-9664417,0.0009243176227136142,531.0,6,$\widetilde{A}_{G_6}$,centrality
R-HSA-5218859,0.0009240408871196094,532.0,6,$\widetilde{A}_{G_6}$,centrality
R-HSA-8853884,0.0009232896703959651,533.0,6,$\widetilde{A}_{G_6}$,centrality
R-HSA-179409,0.0009223515055703935,534.0,6,$\widetilde{A}_{G_6}$,centrality
R-HSA-6782135,0.0009219199742386373,535.0,6,$\widetilde{A}_{G_6}$,centrality
R-HSA-4615885,0.0009213676719731092,536.0,6,$\widetilde{A}_{G_6}$,centrality
R-HSA-6781827,0.0009212543042211067,537.0,6,$\widetilde{A}_{G_6}$,centrality
R-HSA-176033,0.0009207334843400278,538.0,6,$\widetilde{A}_{G_6}$,centrality
R-HSA-180910,0.0009207334843400277,539.0,6,$\widetilde{A}_{G_6}$,centrality
R-HSA-5250924,0.0009206115793964516,540.0,6,$\widetilde{A}_{G_6}$,centrality
R-HSA-4085377,0.0009201780307968127,541.0,6,$\widetilde{A}_{G_6}$,centrality
R-HSA-2029482,0.0009200219223988114,542.0,6,$\widetilde{A}_{G_6}$,centrality
R-HSA-168276,0.0009197854513734237,543.0,6,$\widetilde{A}_{G_6}$,centrality
R-HSA-202433,0.000918844796882949,544.0,6,$\widetilde{A}_{G_6}$,centrality
R-HSA-9617828,0.0009186256594360766,545.0,6,$\widetilde{A}_{G_6}$,centrality
R-HSA-5676594,0.0009186030107685559,546.0,6,$\widetilde{A}_{G_6}$,centrality
R-HSA-9029569,0.0009184914982678683,547.0,6,$\widetilde{A}_{G_6}$,centrality
R-HSA-6784531,0.0009160854001333223,548.0,6,$\widetilde{A}_{G_6}$,centrality
R-HSA-1266695,0.0009159249896817264,549.0,6,$\widetilde{A}_{G_6}$,centrality
R-HSA-389357,0.0009151319335973869,550.0,6,$\widetilde{A}_{G_6}$,centrality
R-HSA-5603041,0.0009146826267509841,551.0,6,$\widetilde{A}_{G_6}$,centrality
R-HSA-8876725,0.0009140306534963733,552.0,6,$\widetilde{A}_{G_6}$,centrality
R-HSA-9013420,0.0009138243883762398,553.0,6,$\widetilde{A}_{G_6}$,centrality
R-HSA-4655427,0.0009129747091646942,554.0,6,$\widetilde{A}_{G_6}$,centrality
R-HSA-389977,0.0009124958081559618,555.0,6,$\widetilde{A}_{G_6}$,centrality
R-HSA-166166,0.0009120309447391812,556.0,6,$\widetilde{A}_{G_6}$,centrality
R-HSA-937061,0.0009120309447391811,557.0,6,$\widetilde{A}_{G_6}$,centrality
R-HSA-174417,0.0009117319767499768,558.0,6,$\widetilde{A}_{G_6}$,centrality
R-HSA-8863678,0.0009094120893208665,559.5,6,$\widetilde{A}_{G_6}$,centrality
R-HSA-8862803,0.0009094120893208665,559.5,6,$\widetilde{A}_{G_6}$,centrality
R-HSA-8940973,0.0009084351024328387,561.0,6,$\widetilde{A}_{G_6}$,centrality
R-HSA-5357769,0.000906304011334992,562.0,6,$\widetilde{A}_{G_6}$,centrality
R-HSA-9615710,0.0009038811074691842,563.0,6,$\widetilde{A}_{G_6}$,centrality
R-HSA-6804756,0.0009031550397722778,564.0,6,$\widetilde{A}_{G_6}$,centrality
R-HSA-168164,0.0009020368033304742,565.0,6,$\widetilde{A}_{G_6}$,centrality
R-HSA-2559580,0.0009005878982857954,566.0,6,$\widetilde{A}_{G_6}$,centrality
R-HSA-936440,0.0008990985164291236,567.0,6,$\widetilde{A}_{G_6}$,centrality
R-HSA-5693554,0.0008986544503410473,568.0,6,$\widetilde{A}_{G_6}$,centrality
R-HSA-2173791,0.0008975193566893185,569.0,6,$\widetilde{A}_{G_6}$,centrality
R-HSA-3769402,0.0008968416031869153,570.0,6,$\widetilde{A}_{G_6}$,centrality
R-HSA-1226099,0.0008958658238416879,571.0,6,$\widetilde{A}_{G_6}$,centrality
R-HSA-73854,0.0008957964516046953,572.0,6,$\widetilde{A}_{G_6}$,centrality
R-HSA-450294,0.0008956398784934941,573.0,6,$\widetilde{A}_{G_6}$,centrality
R-HSA-1236975,0.0008951443193538252,574.0,6,$\widetilde{A}_{G_6}$,centrality
R-HSA-1251985,0.0008951418702373818,575.0,6,$\widetilde{A}_{G_6}$,centrality
R-HSA-69091,0.0008942874268842378,576.5,6,$\widetilde{A}_{G_6}$,centrality
R-HSA-69109,0.0008942874268842378,576.5,6,$\widetilde{A}_{G_6}$,centrality
R-HSA-2559585,0.0008938076579517704,578.0,6,$\widetilde{A}_{G_6}$,centrality
R-HSA-113501,0.0008933983156499712,579.0,6,$\widetilde{A}_{G_6}$,centrality
R-HSA-9013407,0.0008926072493712612,580.0,6,$\widetilde{A}_{G_6}$,centrality
R-HSA-159231,0.0008923767396090824,581.0,6,$\widetilde{A}_{G_6}$,centrality
R-HSA-9619665,0.0008916119724713282,582.0,6,$\widetilde{A}_{G_6}$,centrality
R-HSA-73864,0.0008915712855877069,583.0,6,$\widetilde{A}_{G_6}$,centrality
R-HSA-5602498,0.0008877875536525583,584.0,6,$\widetilde{A}_{G_6}$,centrality
R-HSA-9696270,0.0008870767862514306,585.0,6,$\widetilde{A}_{G_6}$,centrality
R-HSA-4570464,0.0008867422865253061,586.0,6,$\widetilde{A}_{G_6}$,centrality
R-HSA-2995410,0.00088594885202155,587.0,6,$\widetilde{A}_{G_6}$,centrality
R-HSA-381070,0.0008856301635605257,588.0,6,$\widetilde{A}_{G_6}$,centrality
R-HSA-8941326,0.0008853292293591394,589.0,6,$\widetilde{A}_{G_6}$,centrality
R-HSA-203927,0.0008828409154938594,590.0,6,$\widetilde{A}_{G_6}$,centrality
R-HSA-8875878,0.0008825941170806286,591.0,6,$\widetilde{A}_{G_6}$,centrality
R-HSA-8939243,0.0008805935848714133,592.0,6,$\widetilde{A}_{G_6}$,centrality
R-HSA-157579,0.000879970267030869,593.0,6,$\widetilde{A}_{G_6}$,centrality
R-HSA-9694635,0.0008794587069443893,594.0,6,$\widetilde{A}_{G_6}$,centrality
R-HSA-447115,0.0008794509411449276,595.0,6,$\widetilde{A}_{G_6}$,centrality
R-HSA-4420097,0.0008781747045024576,596.0,6,$\widetilde{A}_{G_6}$,centrality
R-HSA-159234,0.0008778251722752447,597.0,6,$\widetilde{A}_{G_6}$,centrality
R-HSA-5696399,0.0008748126005829966,598.0,6,$\widetilde{A}_{G_6}$,centrality
R-HSA-6796648,0.0008739779432303421,599.0,6,$\widetilde{A}_{G_6}$,centrality
R-HSA-9664323,0.0008735321258474775,600.0,6,$\widetilde{A}_{G_6}$,centrality
R-HSA-4419969,0.0008732042865026434,601.0,6,$\widetilde{A}_{G_6}$,centrality
R-HSA-111367,0.0008727518162682664,602.0,6,$\widetilde{A}_{G_6}$,centrality
R-HSA-1839126,0.0008718761080003485,603.0,6,$\widetilde{A}_{G_6}$,centrality
R-HSA-5619102,0.0008718095333714484,604.0,6,$\widetilde{A}_{G_6}$,centrality
R-HSA-165054,0.0008711047817866014,605.0,6,$\widetilde{A}_{G_6}$,centrality
R-HSA-168274,0.0008700566858200515,606.5,6,$\widetilde{A}_{G_6}$,centrality
R-HSA-168333,0.0008700566858200515,606.5,6,$\widetilde{A}_{G_6}$,centrality
R-HSA-69236,0.0008697954674433831,608.5,6,$\widetilde{A}_{G_6}$,centrality
R-HSA-69231,0.0008697954674433831,608.5,6,$\widetilde{A}_{G_6}$,centrality
R-HSA-180786,0.0008693789904335948,610.0,6,$\widetilde{A}_{G_6}$,centrality
R-HSA-171319,0.0008692823170895822,611.0,6,$\widetilde{A}_{G_6}$,centrality
R-HSA-73933,0.0008676976870887137,612.0,6,$\widetilde{A}_{G_6}$,centrality
R-HSA-159236,0.0008675690707879351,613.0,6,$\widetilde{A}_{G_6}$,centrality
R-HSA-9006936,0.0008660268200505765,614.0,6,$\widetilde{A}_{G_6}$,centrality
R-HSA-74752,0.0008659105033674587,615.0,6,$\widetilde{A}_{G_6}$,centrality
R-HSA-165159,0.0008655398475149581,616.0,6,$\widetilde{A}_{G_6}$,centrality
R-HSA-5685942,0.0008638399750812472,617.0,6,$\widetilde{A}_{G_6}$,centrality
R-HSA-166208,0.0008625603977028938,618.0,6,$\widetilde{A}_{G_6}$,centrality
R-HSA-9013424,0.0008611894938226978,619.0,6,$\widetilde{A}_{G_6}$,centrality
R-HSA-202427,0.0008604858709179295,620.0,6,$\widetilde{A}_{G_6}$,centrality
R-HSA-4090294,0.0008590728808892098,621.0,6,$\widetilde{A}_{G_6}$,centrality
R-HSA-5578749,0.000856539979881123,622.0,6,$\widetilde{A}_{G_6}$,centrality
R-HSA-1834949,0.0008545457943586346,623.0,6,$\widetilde{A}_{G_6}$,centrality
R-HSA-73884,0.0008536348638040975,624.0,6,$\widetilde{A}_{G_6}$,centrality
R-HSA-72086,0.0008523076811130934,625.0,6,$\widetilde{A}_{G_6}$,centrality
R-HSA-3301854,0.0008483676413843215,626.0,6,$\widetilde{A}_{G_6}$,centrality
R-HSA-383280,0.000848168130492526,627.0,6,$\widetilde{A}_{G_6}$,centrality
R-HSA-448424,0.0008478793093745742,628.0,6,$\widetilde{A}_{G_6}$,centrality
R-HSA-164938,0.0008476750620282395,629.0,6,$\widetilde{A}_{G_6}$,centrality
R-HSA-4641265,0.0008473881005942289,630.0,6,$\widetilde{A}_{G_6}$,centrality
R-HSA-72187,0.0008469350846369811,631.0,6,$\widetilde{A}_{G_6}$,centrality
R-HSA-450341,0.0008460213228359351,632.0,6,$\widetilde{A}_{G_6}$,centrality
R-HSA-167160,0.0008458251126071815,633.5,6,$\widetilde{A}_{G_6}$,centrality
R-HSA-77075,0.0008458251126071815,633.5,6,$\widetilde{A}_{G_6}$,centrality
R-HSA-6791312,0.0008443668662620943,635.0,6,$\widetilde{A}_{G_6}$,centrality
R-HSA-975138,0.0008436758761257879,636.0,6,$\widetilde{A}_{G_6}$,centrality
R-HSA-4791275,0.0008433785966561307,637.0,6,$\widetilde{A}_{G_6}$,centrality
R-HSA-168181,0.0008432050687103986,638.0,6,$\widetilde{A}_{G_6}$,centrality
R-HSA-168138,0.0008432050687103983,639.5,6,$\widetilde{A}_{G_6}$,centrality
R-HSA-975155,0.0008432050687103983,639.5,6,$\widetilde{A}_{G_6}$,centrality
R-HSA-8934903,0.0008421224592149932,641.0,6,$\widetilde{A}_{G_6}$,centrality
R-HSA-3108214,0.000841562516493663,642.0,6,$\widetilde{A}_{G_6}$,centrality
R-HSA-164952,0.0008399323560892002,643.0,6,$\widetilde{A}_{G_6}$,centrality
R-HSA-72202,0.0008391982572001674,644.0,6,$\widetilde{A}_{G_6}$,centrality
R-HSA-1445148,0.0008385052338876349,645.0,6,$\widetilde{A}_{G_6}$,centrality
R-HSA-167200,0.000838141343807315,647.0,6,$\widetilde{A}_{G_6}$,centrality
R-HSA-167246,0.000838141343807315,647.0,6,$\widetilde{A}_{G_6}$,centrality
R-HSA-167169,0.000838141343807315,647.0,6,$\widetilde{A}_{G_6}$,centrality
R-HSA-162658,0.0008376614353671684,649.0,6,$\widetilde{A}_{G_6}$,centrality
R-HSA-9662361,0.0008372066078498048,650.0,6,$\widetilde{A}_{G_6}$,centrality
R-HSA-5674400,0.0008357197007322212,651.0,6,$\widetilde{A}_{G_6}$,centrality
R-HSA-6803204,0.0008333654605502975,652.0,6,$\widetilde{A}_{G_6}$,centrality
R-HSA-4641262,0.0008327607502685014,653.0,6,$\widetilde{A}_{G_6}$,centrality
R-HSA-73856,0.0008324381351237335,654.0,6,$\widetilde{A}_{G_6}$,centrality
R-HSA-73762,0.0008315577289588384,655.0,6,$\widetilde{A}_{G_6}$,centrality
R-HSA-400253,0.0008300841881917808,656.0,6,$\widetilde{A}_{G_6}$,centrality
R-HSA-975871,0.0008292051879181232,657.5,6,$\widetilde{A}_{G_6}$,centrality
R-HSA-168176,0.0008292051879181232,657.5,6,$\widetilde{A}_{G_6}$,centrality
R-HSA-168142,0.0008292051879181231,659.0,6,$\widetilde{A}_{G_6}$,centrality
R-HSA-9024446,0.0008273087294144997,660.0,6,$\widetilde{A}_{G_6}$,centrality
R-HSA-9662360,0.0008271141429099651,661.0,6,$\widetilde{A}_{G_6}$,centrality
R-HSA-9659379,0.0008270147715444511,662.0,6,$\widetilde{A}_{G_6}$,centrality
R-HSA-77588,0.0008268236021405888,663.0,6,$\widetilde{A}_{G_6}$,centrality
R-HSA-5686938,0.000825127307902023,664.0,6,$\widetilde{A}_{G_6}$,centrality
R-HSA-191859,0.0008244855185845622,665.5,6,$\widetilde{A}_{G_6}$,centrality
R-HSA-194441,0.0008244855185845622,665.5,6,$\widetilde{A}_{G_6}$,centrality
R-HSA-73772,0.0008240249792694504,667.0,6,$\widetilde{A}_{G_6}$,centrality
R-HSA-6790901,0.0008232032126890554,668.0,6,$\widetilde{A}_{G_6}$,centrality
R-HSA-167152,0.0008223684143961868,669.0,6,$\widetilde{A}_{G_6}$,centrality
R-HSA-166663,0.0008223533142332392,670.0,6,$\widetilde{A}_{G_6}$,centrality
R-HSA-390466,0.000818345016354758,671.0,6,$\widetilde{A}_{G_6}$,centrality
R-HSA-2559582,0.000817609913025097,672.0,6,$\widetilde{A}_{G_6}$,centrality
R-HSA-70171,0.000817171345026221,673.0,6,$\widetilde{A}_{G_6}$,centrality
R-HSA-113418,0.0008162673181954878,674.5,6,$\widetilde{A}_{G_6}$,centrality
R-HSA-167158,0.0008162673181954878,674.5,6,$\widetilde{A}_{G_6}$,centrality
R-HSA-844456,0.000815506937417805,676.0,6,$\widetilde{A}_{G_6}$,centrality
R-HSA-5250941,0.0008126929424155521,677.0,6,$\widetilde{A}_{G_6}$,centrality
R-HSA-3928662,0.0008101816363509737,678.0,6,$\widetilde{A}_{G_6}$,centrality
R-HSA-2565942,0.0008090199936280499,679.0,6,$\widetilde{A}_{G_6}$,centrality
R-HSA-9668328,0.0008086449463803784,680.0,6,$\widetilde{A}_{G_6}$,centrality
R-HSA-5675221,0.0008058670222976726,681.0,6,$\widetilde{A}_{G_6}$,centrality
R-HSA-75153,0.0008046356267113229,682.0,6,$\widetilde{A}_{G_6}$,centrality
R-HSA-1362300,0.0008027788076918945,683.0,6,$\widetilde{A}_{G_6}$,centrality
R-HSA-9707616,0.0008023629997403341,684.0,6,$\widetilde{A}_{G_6}$,centrality
R-HSA-2980766,0.0008019809841103895,685.0,6,$\widetilde{A}_{G_6}$,centrality
R-HSA-9013507,0.0008015848739875677,686.0,6,$\widetilde{A}_{G_6}$,centrality
R-HSA-532668,0.0008011077623244482,687.0,6,$\widetilde{A}_{G_6}$,centrality
R-HSA-6785807,0.0008010264689775675,688.0,6,$\widetilde{A}_{G_6}$,centrality
R-HSA-8979227,0.0008008540493890165,689.0,6,$\widetilde{A}_{G_6}$,centrality
R-HSA-427413,0.0008007180779573309,690.0,6,$\widetilde{A}_{G_6}$,centrality
R-HSA-9706369,0.0008001842051663425,691.0,6,$\widetilde{A}_{G_6}$,centrality
R-HSA-168188,0.0007999219399680353,692.5,6,$\widetilde{A}_{G_6}$,centrality
R-HSA-166058,0.0007999219399680353,692.5,6,$\widetilde{A}_{G_6}$,centrality
R-HSA-5389840,0.0007992081739256088,694.0,6,$\widetilde{A}_{G_6}$,centrality
R-HSA-5419276,0.0007970094596329842,695.0,6,$\widetilde{A}_{G_6}$,centrality
R-HSA-9012852,0.0007968518697951041,696.0,6,$\widetilde{A}_{G_6}$,centrality
R-HSA-5368286,0.0007953663181458081,697.0,6,$\widetilde{A}_{G_6}$,centrality
R-HSA-70326,0.0007949703841362517,698.0,6,$\widetilde{A}_{G_6}$,centrality
R-HSA-111465,0.0007949005712039551,699.0,6,$\widetilde{A}_{G_6}$,centrality
R-HSA-1660499,0.0007948063336244263,700.0,6,$\widetilde{A}_{G_6}$,centrality
R-HSA-109606,0.0007941104683243437,701.0,6,$\widetilde{A}_{G_6}$,centrality
R-HSA-168179,0.000792914692793403,702.0,6,$\widetilde{A}_{G_6}$,centrality
R-HSA-181438,0.0007929146927934029,703.0,6,$\widetilde{A}_{G_6}$,centrality
R-HSA-6814122,0.0007808690551500901,704.0,6,$\widetilde{A}_{G_6}$,centrality
R-HSA-391251,0.0007794750928667506,705.0,6,$\widetilde{A}_{G_6}$,centrality
R-HSA-6783310,0.0007790668645501441,706.0,6,$\widetilde{A}_{G_6}$,centrality
R-HSA-9687139,0.0007784199582622201,707.0,6,$\widetilde{A}_{G_6}$,centrality
R-HSA-429947,0.0007756727974877016,708.0,6,$\widetilde{A}_{G_6}$,centrality
R-HSA-264870,0.0007752523290327976,709.0,6,$\widetilde{A}_{G_6}$,centrality
R-HSA-9675126,0.0007746631926869307,710.0,6,$\widetilde{A}_{G_6}$,centrality
R-HSA-211000,0.0007729548455440793,711.0,6,$\widetilde{A}_{G_6}$,centrality
R-HSA-70263,0.0007727844632541809,712.0,6,$\widetilde{A}_{G_6}$,centrality
R-HSA-5628897,0.0007723579032325242,713.0,6,$\widetilde{A}_{G_6}$,centrality
R-HSA-442982,0.0007710323306431409,714.0,6,$\widetilde{A}_{G_6}$,centrality
R-HSA-5368287,0.0007698234812638829,715.0,6,$\widetilde{A}_{G_6}$,centrality
R-HSA-9661069,0.0007694997698275531,716.5,6,$\widetilde{A}_{G_6}$,centrality
R-HSA-9659787,0.0007694997698275531,716.5,6,$\widetilde{A}_{G_6}$,centrality
R-HSA-2028269,0.0007687744908987346,718.0,6,$\widetilde{A}_{G_6}$,centrality
R-HSA-70268,0.0007670046482529734,719.0,6,$\widetilde{A}_{G_6}$,centrality
R-HSA-373760,0.0007668554139969333,720.0,6,$\widetilde{A}_{G_6}$,centrality
R-HSA-1169410,0.0007657419413475808,721.0,6,$\widetilde{A}_{G_6}$,centrality
R-HSA-5693568,0.0007650639584775921,722.0,6,$\widetilde{A}_{G_6}$,centrality
R-HSA-1169408,0.0007627553401581295,723.0,6,$\widetilde{A}_{G_6}$,centrality
R-HSA-445355,0.0007606087816428679,724.0,6,$\widetilde{A}_{G_6}$,centrality
R-HSA-3928663,0.0007605073538694419,725.0,6,$\widetilde{A}_{G_6}$,centrality
R-HSA-5625970,0.0007597360145993093,726.0,6,$\widetilde{A}_{G_6}$,centrality
R-HSA-438064,0.0007580167483772623,727.0,6,$\widetilde{A}_{G_6}$,centrality
R-HSA-3215018,0.000757884631585402,728.0,6,$\widetilde{A}_{G_6}$,centrality
R-HSA-112382,0.0007577336430804871,729.5,6,$\widetilde{A}_{G_6}$,centrality
R-HSA-75955,0.0007577336430804871,729.5,6,$\widetilde{A}_{G_6}$,centrality
R-HSA-8856825,0.000753837363854719,731.0,6,$\widetilde{A}_{G_6}$,centrality
R-HSA-193692,0.0007511271306954792,732.0,6,$\widetilde{A}_{G_6}$,centrality
R-HSA-5693537,0.0007495785389047631,733.0,6,$\widetilde{A}_{G_6}$,centrality
R-HSA-8949215,0.0007494578128256029,734.0,6,$\widetilde{A}_{G_6}$,centrality
R-HSA-5663213,0.0007478256718203344,735.0,6,$\widetilde{A}_{G_6}$,centrality
R-HSA-416572,0.0007475245495468448,736.0,6,$\widetilde{A}_{G_6}$,centrality
R-HSA-6788467,0.0007464045475119947,737.0,6,$\widetilde{A}_{G_6}$,centrality
R-HSA-774815,0.0007459260008559232,738.5,6,$\widetilde{A}_{G_6}$,centrality
R-HSA-606279,0.0007459260008559232,738.5,6,$\widetilde{A}_{G_6}$,centrality
R-HSA-9620244,0.0007451373066498621,740.0,6,$\widetilde{A}_{G_6}$,centrality
R-HSA-983231,0.0007447778761726443,741.0,6,$\widetilde{A}_{G_6}$,centrality
R-HSA-400685,0.0007431030631937325,742.0,6,$\widetilde{A}_{G_6}$,centrality
R-HSA-432720,0.0007428886506926414,743.0,6,$\widetilde{A}_{G_6}$,centrality
R-HSA-113510,0.0007409407991425099,744.0,6,$\widetilde{A}_{G_6}$,centrality
R-HSA-8856688,0.0007397267912116398,745.0,6,$\widetilde{A}_{G_6}$,centrality
R-HSA-69205,0.0007369118841653304,746.0,6,$\widetilde{A}_{G_6}$,centrality
R-HSA-6811434,0.0007365422152443852,747.0,6,$\widetilde{A}_{G_6}$,centrality
R-HSA-442742,0.0007359647563056347,748.0,6,$\widetilde{A}_{G_6}$,centrality
R-HSA-9013026,0.0007348216185953253,749.0,6,$\widetilde{A}_{G_6}$,centrality
R-HSA-2132295,0.0007324302723712739,750.0,6,$\widetilde{A}_{G_6}$,centrality
R-HSA-8854518,0.0007317951577328878,751.0,6,$\widetilde{A}_{G_6}$,centrality
R-HSA-450604,0.0007316895534490431,752.0,6,$\widetilde{A}_{G_6}$,centrality
R-HSA-380259,0.0007302279428682292,753.5,6,$\widetilde{A}_{G_6}$,centrality
R-HSA-380284,0.0007302279428682292,753.5,6,$\widetilde{A}_{G_6}$,centrality
R-HSA-2682334,0.000729775053193441,755.0,6,$\widetilde{A}_{G_6}$,centrality
R-HSA-3928665,0.0007295075747231693,756.0,6,$\widetilde{A}_{G_6}$,centrality
R-HSA-9610379,0.0007270380803401015,757.0,6,$\widetilde{A}_{G_6}$,centrality
R-HSA-9696264,0.0007263213610101295,758.0,6,$\widetilde{A}_{G_6}$,centrality
R-HSA-156711,0.0007225671801748131,759.0,6,$\widetilde{A}_{G_6}$,centrality
R-HSA-198753,0.0007221068940494347,760.0,6,$\widetilde{A}_{G_6}$,centrality
R-HSA-380320,0.00072183104872902,761.0,6,$\widetilde{A}_{G_6}$,centrality
R-HSA-8949664,0.0007204466529413703,762.0,6,$\widetilde{A}_{G_6}$,centrality
R-HSA-977225,0.0007196504906706923,763.0,6,$\widetilde{A}_{G_6}$,centrality
R-HSA-202040,0.0007177876597528214,764.0,6,$\widetilde{A}_{G_6}$,centrality
R-HSA-1500931,0.0007167491608938341,765.0,6,$\widetilde{A}_{G_6}$,centrality
R-HSA-8964043,0.0007148461951272116,766.0,6,$\widetilde{A}_{G_6}$,centrality
R-HSA-901042,0.0007134636891616755,767.0,6,$\widetilde{A}_{G_6}$,centrality
R-HSA-72306,0.0007110769217660472,768.0,6,$\widetilde{A}_{G_6}$,centrality
R-HSA-9013106,0.0007096675540140147,769.0,6,$\widetilde{A}_{G_6}$,centrality
R-HSA-418592,0.0007093994477137579,770.0,6,$\widetilde{A}_{G_6}$,centrality
R-HSA-211859,0.0007081163158754729,771.5,6,$\widetilde{A}_{G_6}$,centrality
R-HSA-211945,0.0007081163158754729,771.5,6,$\widetilde{A}_{G_6}$,centrality
R-HSA-75067,0.0007076859229945366,773.0,6,$\widetilde{A}_{G_6}$,centrality
R-HSA-2426168,0.0007065093645217685,774.0,6,$\widetilde{A}_{G_6}$,centrality
R-HSA-171007,0.00070459811218797,775.0,6,$\widetilde{A}_{G_6}$,centrality
R-HSA-901032,0.0007035102740478326,776.0,6,$\widetilde{A}_{G_6}$,centrality
R-HSA-180024,0.0007033954536670319,777.0,6,$\widetilde{A}_{G_6}$,centrality
R-HSA-167172,0.000702453812355995,778.0,6,$\widetilde{A}_{G_6}$,centrality
R-HSA-381340,0.0007003715716322945,779.0,6,$\widetilde{A}_{G_6}$,centrality
R-HSA-77595,0.0006994488520725534,780.0,6,$\widetilde{A}_{G_6}$,centrality
R-HSA-3214847,0.0006964425051756854,781.0,6,$\widetilde{A}_{G_6}$,centrality
R-HSA-446353,0.0006962626970188769,782.0,6,$\widetilde{A}_{G_6}$,centrality
R-HSA-442755,0.0006920727071217408,783.0,6,$\widetilde{A}_{G_6}$,centrality
R-HSA-392518,0.0006907262222282742,784.0,6,$\widetilde{A}_{G_6}$,centrality
R-HSA-6807878,0.0006887609867576967,785.0,6,$\widetilde{A}_{G_6}$,centrality
R-HSA-450385,0.0006883289260498113,786.0,6,$\widetilde{A}_{G_6}$,centrality
R-HSA-71403,0.000688096542176548,787.0,6,$\widetilde{A}_{G_6}$,centrality
R-HSA-392170,0.0006875784808077477,788.0,6,$\widetilde{A}_{G_6}$,centrality
R-HSA-622312,0.0006873981682900266,789.0,6,$\widetilde{A}_{G_6}$,centrality
R-HSA-373752,0.0006857109329044448,790.0,6,$\widetilde{A}_{G_6}$,centrality
R-HSA-674695,0.0006852756188718813,791.0,6,$\widetilde{A}_{G_6}$,centrality
R-HSA-5633008,0.0006839342462881842,792.0,6,$\widetilde{A}_{G_6}$,centrality
R-HSA-8866654,0.0006816080672229313,793.0,6,$\widetilde{A}_{G_6}$,centrality
R-HSA-9660826,0.0006799473780129998,794.5,6,$\widetilde{A}_{G_6}$,centrality
R-HSA-9664424,0.0006799473780129998,794.5,6,$\widetilde{A}_{G_6}$,centrality
R-HSA-164940,0.0006795385655660076,796.0,6,$\widetilde{A}_{G_6}$,centrality
R-HSA-380270,0.0006788313531860401,797.5,6,$\widetilde{A}_{G_6}$,centrality
R-HSA-380287,0.0006788313531860401,797.5,6,$\widetilde{A}_{G_6}$,centrality
R-HSA-445095,0.0006776458027573901,799.0,6,$\widetilde{A}_{G_6}$,centrality
R-HSA-174411,0.0006768733714873602,800.0,6,$\widetilde{A}_{G_6}$,centrality
R-HSA-8874081,0.0006761506884563121,801.0,6,$\widetilde{A}_{G_6}$,centrality
R-HSA-450282,0.000675062542829322,802.0,6,$\widetilde{A}_{G_6}$,centrality
R-HSA-456926,0.0006742771929804133,803.0,6,$\widetilde{A}_{G_6}$,centrality
R-HSA-163359,0.0006725208474263881,804.0,6,$\widetilde{A}_{G_6}$,centrality
R-HSA-418990,0.0006707970983346351,805.0,6,$\widetilde{A}_{G_6}$,centrality
R-HSA-390522,0.000670170266924957,806.0,6,$\widetilde{A}_{G_6}$,centrality
R-HSA-73779,0.0006679818880059157,807.0,6,$\widetilde{A}_{G_6}$,centrality
R-HSA-75953,0.0006679818880059155,809.5,6,$\widetilde{A}_{G_6}$,centrality
R-HSA-76042,0.0006679818880059155,809.5,6,$\widetilde{A}_{G_6}$,centrality
R-HSA-73776,0.0006679818880059155,809.5,6,$\widetilde{A}_{G_6}$,centrality
R-HSA-167162,0.0006679818880059155,809.5,6,$\widetilde{A}_{G_6}$,centrality
R-HSA-167161,0.0006679818880059154,812.0,6,$\widetilde{A}_{G_6}$,centrality
R-HSA-428930,0.0006676330030534008,813.0,6,$\widetilde{A}_{G_6}$,centrality
R-HSA-8866652,0.00066378089694918,814.0,6,$\widetilde{A}_{G_6}$,centrality
R-HSA-432040,0.0006637801680468129,815.0,6,$\widetilde{A}_{G_6}$,centrality
R-HSA-445717,0.0006637801680468126,816.0,6,$\widetilde{A}_{G_6}$,centrality
R-HSA-202733,0.0006627626613327473,817.0,6,$\widetilde{A}_{G_6}$,centrality
R-HSA-392517,0.0006625940309001458,818.0,6,$\widetilde{A}_{G_6}$,centrality
R-HSA-9013409,0.0006607885015320178,819.0,6,$\widetilde{A}_{G_6}$,centrality
R-HSA-429958,0.0006593183754908931,820.0,6,$\widetilde{A}_{G_6}$,centrality
R-HSA-917937,0.0006570118643380447,821.0,6,$\widetilde{A}_{G_6}$,centrality
R-HSA-380994,0.0006555262726075811,822.0,6,$\widetilde{A}_{G_6}$,centrality
R-HSA-166658,0.0006541101716440052,823.0,6,$\widetilde{A}_{G_6}$,centrality
R-HSA-162588,0.0006511867381666697,824.0,6,$\widetilde{A}_{G_6}$,centrality
R-HSA-429914,0.0006492551305983023,825.0,6,$\widetilde{A}_{G_6}$,centrality
R-HSA-450513,0.0006462191427087762,826.0,6,$\widetilde{A}_{G_6}$,centrality
R-HSA-8964616,0.0006431973878894932,827.0,6,$\widetilde{A}_{G_6}$,centrality
R-HSA-8964315,0.0006424717932045531,828.0,6,$\widetilde{A}_{G_6}$,centrality
R-HSA-400042,0.0006399188892314327,829.0,6,$\widetilde{A}_{G_6}$,centrality
R-HSA-9648002,0.0006397064872265745,830.0,6,$\widetilde{A}_{G_6}$,centrality
R-HSA-193704,0.0006396625967971741,831.0,6,$\widetilde{A}_{G_6}$,centrality
R-HSA-392851,0.0006396003409227776,832.0,6,$\widetilde{A}_{G_6}$,centrality
R-HSA-193648,0.0006386726971527679,833.0,6,$\widetilde{A}_{G_6}$,centrality
R-HSA-8852135,0.0006381439796049118,834.0,6,$\widetilde{A}_{G_6}$,centrality
R-HSA-400206,0.0006367432876929615,835.0,6,$\widetilde{A}_{G_6}$,centrality
R-HSA-9694548,0.0006340035990028048,836.0,6,$\widetilde{A}_{G_6}$,centrality
R-HSA-5362517,0.0006319664845844657,837.0,6,$\widetilde{A}_{G_6}$,centrality
R-HSA-1989781,0.0006296610197187619,838.0,6,$\widetilde{A}_{G_6}$,centrality
R-HSA-9709957,0.0006283559205404803,839.0,6,$\widetilde{A}_{G_6}$,centrality
R-HSA-983170,0.0006262530104499014,840.0,6,$\widetilde{A}_{G_6}$,centrality
R-HSA-198725,0.0006245571668556634,841.0,6,$\widetilde{A}_{G_6}$,centrality
R-HSA-9609523,0.0006243646857116608,842.0,6,$\widetilde{A}_{G_6}$,centrality
R-HSA-71406,0.0006228506161545033,843.0,6,$\widetilde{A}_{G_6}$,centrality
R-HSA-6807505,0.0006204504567992352,844.0,6,$\widetilde{A}_{G_6}$,centrality
R-HSA-525793,0.0006201209849705893,845.0,6,$\widetilde{A}_{G_6}$,centrality
R-HSA-2980736,0.0006199994420343617,846.0,6,$\widetilde{A}_{G_6}$,centrality
R-HSA-432722,0.000619744061194731,847.0,6,$\widetilde{A}_{G_6}$,centrality
R-HSA-1655829,0.0006185165601987745,848.0,6,$\widetilde{A}_{G_6}$,centrality
R-HSA-381042,0.0006183932937696227,849.0,6,$\widetilde{A}_{G_6}$,centrality
R-HSA-977444,0.000618004776351702,850.0,6,$\widetilde{A}_{G_6}$,centrality
R-HSA-977443,0.0006180047763517019,851.0,6,$\widetilde{A}_{G_6}$,centrality
R-HSA-991365,0.0006180047763517018,852.0,6,$\widetilde{A}_{G_6}$,centrality
R-HSA-399955,0.0006170176486179071,853.0,6,$\widetilde{A}_{G_6}$,centrality
R-HSA-399956,0.0006166838919338952,854.0,6,$\widetilde{A}_{G_6}$,centrality
R-HSA-8957322,0.0006150277793516095,855.0,6,$\widetilde{A}_{G_6}$,centrality
R-HSA-381119,0.0006141793900653203,856.0,6,$\widetilde{A}_{G_6}$,centrality
R-HSA-373755,0.000613254553667259,857.0,6,$\widetilde{A}_{G_6}$,centrality
R-HSA-418217,0.0006091290736226903,858.0,6,$\widetilde{A}_{G_6}$,centrality
R-HSA-381033,0.000604717530163881,859.0,6,$\widetilde{A}_{G_6}$,centrality
R-HSA-9013406,0.0006045276844407472,860.0,6,$\widetilde{A}_{G_6}$,centrality
R-HSA-9031628,0.0006009766882305015,861.0,6,$\widetilde{A}_{G_6}$,centrality
R-HSA-9013404,0.0005990851825912544,862.0,6,$\widetilde{A}_{G_6}$,centrality
R-HSA-204998,0.0005981229035568016,863.0,6,$\widetilde{A}_{G_6}$,centrality
R-HSA-9013408,0.0005978543225409839,864.0,6,$\widetilde{A}_{G_6}$,centrality
R-HSA-5668599,0.00059750540390027,865.0,6,$\widetilde{A}_{G_6}$,centrality
R-HSA-114608,0.0005965966473316473,866.0,6,$\widetilde{A}_{G_6}$,centrality
R-HSA-500657,0.0005962704379545579,867.0,6,$\widetilde{A}_{G_6}$,centrality
R-HSA-1483206,0.000595818709429407,868.0,6,$\widetilde{A}_{G_6}$,centrality
R-HSA-163210,0.0005932737760234283,869.0,6,$\widetilde{A}_{G_6}$,centrality
R-HSA-111996,0.0005930881010520882,870.0,6,$\widetilde{A}_{G_6}$,centrality
R-HSA-112409,0.0005919075776827751,871.0,6,$\widetilde{A}_{G_6}$,centrality
R-HSA-1368108,0.0005916833605253006,872.0,6,$\widetilde{A}_{G_6}$,centrality
R-HSA-73780,0.0005904042008156693,873.0,6,$\widetilde{A}_{G_6}$,centrality
R-HSA-73980,0.0005904042008156692,874.0,6,$\widetilde{A}_{G_6}$,centrality
R-HSA-76005,0.0005863145606668205,875.0,6,$\widetilde{A}_{G_6}$,centrality
R-HSA-977606,0.0005861765129173212,876.0,6,$\widetilde{A}_{G_6}$,centrality
R-HSA-392451,0.000585133253873567,877.0,6,$\widetilde{A}_{G_6}$,centrality
R-HSA-111931,0.0005845318152157926,878.0,6,$\widetilde{A}_{G_6}$,centrality
R-HSA-141444,0.0005844324553171223,879.5,6,$\widetilde{A}_{G_6}$,centrality
R-HSA-141424,0.0005844324553171223,879.5,6,$\widetilde{A}_{G_6}$,centrality
R-HSA-8949613,0.0005812360407908443,881.0,6,$\widetilde{A}_{G_6}$,centrality
R-HSA-397795,0.0005794709264630438,882.0,6,$\widetilde{A}_{G_6}$,centrality
R-HSA-73863,0.000579077615499064,883.0,6,$\widetilde{A}_{G_6}$,centrality
R-HSA-5620912,0.0005744770747579645,884.0,6,$\widetilde{A}_{G_6}$,centrality
R-HSA-917729,0.0005714653691331464,885.0,6,$\widetilde{A}_{G_6}$,centrality
R-HSA-421270,0.0005713462433493499,886.0,6,$\widetilde{A}_{G_6}$,centrality
R-HSA-909733,0.0005697994004951919,887.0,6,$\widetilde{A}_{G_6}$,centrality
R-HSA-1489509,0.0005695085178426486,888.0,6,$\widetilde{A}_{G_6}$,centrality
R-HSA-1296041,0.0005692972908514871,890.0,6,$\widetilde{A}_{G_6}$,centrality
R-HSA-997272,0.0005692972908514871,890.0,6,$\widetilde{A}_{G_6}$,centrality
R-HSA-1296065,0.0005692972908514871,890.0,6,$\widetilde{A}_{G_6}$,centrality
R-HSA-1296071,0.000569297290851487,892.5,6,$\widetilde{A}_{G_6}$,centrality
R-HSA-1296059,0.000569297290851487,892.5,6,$\widetilde{A}_{G_6}$,centrality
R-HSA-111997,0.0005665493833322648,894.5,6,$\widetilde{A}_{G_6}$,centrality
R-HSA-111933,0.0005665493833322648,894.5,6,$\widetilde{A}_{G_6}$,centrality
R-HSA-3000170,0.0005648464303170324,896.0,6,$\widetilde{A}_{G_6}$,centrality
R-HSA-199992,0.0005631809540811419,897.0,6,$\widetilde{A}_{G_6}$,centrality
R-HSA-1980145,0.0005614082384581891,898.0,6,$\widetilde{A}_{G_6}$,centrality
R-HSA-204005,0.0005597511445789046,899.0,6,$\widetilde{A}_{G_6}$,centrality
R-HSA-389661,0.0005595202091600544,900.0,6,$\widetilde{A}_{G_6}$,centrality
R-HSA-76066,0.0005570836496195673,901.0,6,$\widetilde{A}_{G_6}$,centrality
R-HSA-9013423,0.0005564574211097772,902.0,6,$\widetilde{A}_{G_6}$,centrality
R-HSA-201451,0.0005562656280221547,903.0,6,$\widetilde{A}_{G_6}$,centrality
R-HSA-418597,0.0005559263563303359,904.0,6,$\widetilde{A}_{G_6}$,centrality
R-HSA-6805567,0.0005553466777682677,905.5,6,$\widetilde{A}_{G_6}$,centrality
R-HSA-6809371,0.0005553466777682677,905.5,6,$\widetilde{A}_{G_6}$,centrality
R-HSA-381676,0.0005515433490783939,907.0,6,$\widetilde{A}_{G_6}$,centrality
R-HSA-112040,0.0005497531110683826,908.0,6,$\widetilde{A}_{G_6}$,centrality
R-HSA-9664420,0.0005493460478303528,909.5,6,$\widetilde{A}_{G_6}$,centrality
R-HSA-9673324,0.0005493460478303528,909.5,6,$\widetilde{A}_{G_6}$,centrality
R-HSA-111885,0.0005486121937088851,911.0,6,$\widetilde{A}_{G_6}$,centrality
R-HSA-2122948,0.0005473810379538063,912.0,6,$\widetilde{A}_{G_6}$,centrality
R-HSA-9013405,0.0005461558316599987,913.0,6,$\widetilde{A}_{G_6}$,centrality
R-HSA-5620924,0.0005456311417238829,914.0,6,$\widetilde{A}_{G_6}$,centrality
R-HSA-418346,0.0005453250490404896,915.0,6,$\widetilde{A}_{G_6}$,centrality
R-HSA-111471,0.0005427896397064233,916.0,6,$\widetilde{A}_{G_6}$,centrality
R-HSA-2151201,0.0005422424660745744,917.0,6,$\widetilde{A}_{G_6}$,centrality
R-HSA-6783783,0.0005419708058339423,918.0,6,$\widetilde{A}_{G_6}$,centrality
R-HSA-4086398,0.0005402981545630991,919.0,6,$\widetilde{A}_{G_6}$,centrality
R-HSA-6804115,0.0005402384180857339,920.0,6,$\widetilde{A}_{G_6}$,centrality
R-HSA-5607763,0.0005382584713174712,921.0,6,$\widetilde{A}_{G_6}$,centrality
R-HSA-76061,0.000537777052456272,922.0,6,$\widetilde{A}_{G_6}$,centrality
R-HSA-430039,0.0005374339202254035,923.0,6,$\widetilde{A}_{G_6}$,centrality
R-HSA-877300,0.0005362819615727422,924.0,6,$\widetilde{A}_{G_6}$,centrality
R-HSA-174824,0.0005362643347843078,925.0,6,$\widetilde{A}_{G_6}$,centrality
R-HSA-9662851,0.0005356235609308925,926.5,6,$\widetilde{A}_{G_6}$,centrality
R-HSA-9664433,0.0005356235609308925,926.5,6,$\widetilde{A}_{G_6}$,centrality
R-HSA-446728,0.000535275972716034,928.0,6,$\widetilde{A}_{G_6}$,centrality
R-HSA-399721,0.0005336825203515538,929.5,6,$\widetilde{A}_{G_6}$,centrality
R-HSA-399719,0.0005336825203515538,929.5,6,$\widetilde{A}_{G_6}$,centrality
R-HSA-451326,0.0005315582269293861,931.0,6,$\widetilde{A}_{G_6}$,centrality
R-HSA-1592230,0.0005311375279883474,932.0,6,$\widetilde{A}_{G_6}$,centrality
R-HSA-420092,0.0005284171405367964,933.0,6,$\widetilde{A}_{G_6}$,centrality
R-HSA-5694530,0.0005279591780618983,934.0,6,$\widetilde{A}_{G_6}$,centrality
R-HSA-1268020,0.0005272825554642653,935.0,6,$\widetilde{A}_{G_6}$,centrality
R-HSA-112043,0.0005236368174516103,936.0,6,$\widetilde{A}_{G_6}$,centrality
R-HSA-416482,0.000521019384069992,937.0,6,$\widetilde{A}_{G_6}$,centrality
R-HSA-163685,0.0005179384601172571,938.0,6,$\widetilde{A}_{G_6}$,centrality
R-HSA-111458,0.0005158763963917929,939.5,6,$\widetilde{A}_{G_6}$,centrality
R-HSA-9627069,0.0005158763963917929,939.5,6,$\widetilde{A}_{G_6}$,centrality
R-HSA-1483255,0.000512757249843198,941.0,6,$\widetilde{A}_{G_6}$,centrality
R-HSA-8957275,0.0005119532209726067,942.0,6,$\widetilde{A}_{G_6}$,centrality
R-HSA-416476,0.00050883296223999,943.0,6,$\widetilde{A}_{G_6}$,centrality
R-HSA-2672351,0.0005078668051361649,944.0,6,$\widetilde{A}_{G_6}$,centrality
R-HSA-422356,0.0005058611793030905,945.0,6,$\widetilde{A}_{G_6}$,centrality
R-HSA-1502540,0.000500475350467951,946.0,6,$\widetilde{A}_{G_6}$,centrality
R-HSA-3299685,0.000500108162010764,947.0,6,$\widetilde{A}_{G_6}$,centrality
R-HSA-9617324,0.0004973595059319975,948.0,6,$\widetilde{A}_{G_6}$,centrality
R-HSA-1181150,0.0004946430870815406,949.0,6,$\widetilde{A}_{G_6}$,centrality
R-HSA-111461,0.0004927064300123845,950.0,6,$\widetilde{A}_{G_6}$,centrality
R-HSA-418555,0.0004811795378256012,951.0,6,$\widetilde{A}_{G_6}$,centrality
R-HSA-9660821,0.0004775163419467684,952.0,6,$\widetilde{A}_{G_6}$,centrality
R-HSA-210991,0.00047730536471417653,953.0,6,$\widetilde{A}_{G_6}$,centrality
R-HSA-6799198,0.00047268129214948036,954.0,6,$\widetilde{A}_{G_6}$,centrality
R-HSA-264876,0.00046639771058126225,955.0,6,$\widetilde{A}_{G_6}$,centrality
R-HSA-397014,0.000465307160950214,956.0,6,$\widetilde{A}_{G_6}$,centrality
R-HSA-5635838,0.00046482299279217555,957.0,6,$\widetilde{A}_{G_6}$,centrality
R-HSA-5578775,0.0004640345997948398,958.0,6,$\widetilde{A}_{G_6}$,centrality
R-HSA-2979096,0.0004625799489431097,959.0,6,$\widetilde{A}_{G_6}$,centrality
R-HSA-5620916,0.0004583260919515667,960.0,6,$\widetilde{A}_{G_6}$,centrality
R-HSA-8982491,0.00045453497100945013,961.0,6,$\widetilde{A}_{G_6}$,centrality
R-HSA-9639288,0.00045283185096437953,962.0,6,$\widetilde{A}_{G_6}$,centrality
R-HSA-749476,0.0004477250082236158,963.5,6,$\widetilde{A}_{G_6}$,centrality
R-HSA-76046,0.0004477250082236158,963.5,6,$\widetilde{A}_{G_6}$,centrality
R-HSA-74158,0.00044772500822361574,965.0,6,$\widetilde{A}_{G_6}$,centrality
R-HSA-419037,0.00044682883902650563,966.0,6,$\widetilde{A}_{G_6}$,centrality
R-HSA-76071,0.0004385573779562277,967.0,6,$\widetilde{A}_{G_6}$,centrality
R-HSA-4641263,0.0004335866757527912,968.0,6,$\widetilde{A}_{G_6}$,centrality
R-HSA-9013700,0.00043356916115309794,969.0,6,$\widetilde{A}_{G_6}$,centrality
R-HSA-1483257,0.0004310203370084828,970.0,6,$\widetilde{A}_{G_6}$,centrality
R-HSA-611105,0.00042530694692825615,971.0,6,$\widetilde{A}_{G_6}$,centrality
R-HSA-8854214,0.00042230560688041174,972.0,6,$\widetilde{A}_{G_6}$,centrality
R-HSA-3000171,0.00041424568603996885,973.0,6,$\widetilde{A}_{G_6}$,centrality
R-HSA-373080,0.00039004510435752105,974.0,6,$\widetilde{A}_{G_6}$,centrality
R-HSA-70221,0.000384763463750772,975.0,6,$\widetilde{A}_{G_6}$,centrality
R-HSA-2187338,0.0003814703334505338,976.0,6,$\widetilde{A}_{G_6}$,centrality
R-HSA-381426,0.0003749128742479611,977.0,6,$\widetilde{A}_{G_6}$,centrality
R-HSA-196854,0.0003724698915317962,978.0,6,$\widetilde{A}_{G_6}$,centrality
R-HSA-9609736,0.0003720267659294139,979.0,6,$\widetilde{A}_{G_6}$,centrality
R-HSA-9033241,0.0003700243978131446,980.0,6,$\widetilde{A}_{G_6}$,centrality
R-HSA-216083,0.0003625127386150712,981.0,6,$\widetilde{A}_{G_6}$,centrality
R-HSA-428157,0.00035913444251053163,982.0,6,$\widetilde{A}_{G_6}$,centrality
R-HSA-983712,0.00035856958059838647,983.0,6,$\widetilde{A}_{G_6}$,centrality
R-HSA-388844,0.0003513336678201693,984.0,6,$\widetilde{A}_{G_6}$,centrality
R-HSA-8876198,0.00034589307191159463,985.0,6,$\widetilde{A}_{G_6}$,centrality
R-HSA-6794361,0.00034291653241851533,986.0,6,$\widetilde{A}_{G_6}$,centrality
R-HSA-6811438,0.00034161589784182327,987.0,6,$\widetilde{A}_{G_6}$,centrality
R-HSA-2129379,0.00034152312415134295,988.0,6,$\widetilde{A}_{G_6}$,centrality
R-HSA-3781865,0.00033806804804473926,989.0,6,$\widetilde{A}_{G_6}$,centrality
R-HSA-8873719,0.0003322145442967195,990.0,6,$\widetilde{A}_{G_6}$,centrality
R-HSA-6794362,0.00033095843652980797,991.0,6,$\widetilde{A}_{G_6}$,centrality
R-HSA-198933,0.00033040901760738494,992.0,6,$\widetilde{A}_{G_6}$,centrality
R-HSA-3000178,0.00032432081941914155,993.0,6,$\widetilde{A}_{G_6}$,centrality
R-HSA-5620920,0.00031751666007338994,994.0,6,$\widetilde{A}_{G_6}$,centrality
R-HSA-1566948,0.00031394838521180184,995.0,6,$\widetilde{A}_{G_6}$,centrality
R-HSA-5576891,0.00031150693229796053,996.0,6,$\widetilde{A}_{G_6}$,centrality
R-HSA-6811440,0.00030794052981915365,997.0,6,$\widetilde{A}_{G_6}$,centrality
R-HSA-3000157,0.00029965266336520253,998.0,6,$\widetilde{A}_{G_6}$,centrality
R-HSA-1650814,0.00029063074713919405,999.0,6,$\widetilde{A}_{G_6}$,centrality
R-HSA-5668914,0.00028979709785271275,1000.0,6,$\widetilde{A}_{G_6}$,centrality
R-HSA-1474290,0.0002807529073347191,1001.0,6,$\widetilde{A}_{G_6}$,centrality
R-HSA-77387,0.00026926270573813746,1002.0,6,$\widetilde{A}_{G_6}$,centrality
R-HSA-264642,0.00026695437858279214,1004.5,6,$\widetilde{A}_{G_6}$,centrality
R-HSA-181429,0.00026695437858279214,1004.5,6,$\widetilde{A}_{G_6}$,centrality
R-HSA-181430,0.00026695437858279214,1004.5,6,$\widetilde{A}_{G_6}$,centrality
R-HSA-212676,0.00026695437858279214,1004.5,6,$\widetilde{A}_{G_6}$,centrality
R-HSA-210500,0.0002516592063389805,1007.0,6,$\widetilde{A}_{G_6}$,centrality
R-HSA-9603798,0.00025026584976386073,1008.0,6,$\widetilde{A}_{G_6}$,centrality
R-HSA-1362409,0.0002499654855701713,1009.0,6,$\widetilde{A}_{G_6}$,centrality
R-HSA-112310,0.000247999872937006,1010.0,6,$\widetilde{A}_{G_6}$,centrality
R-HSA-1474228,0.00024088101681191574,1011.0,6,$\widetilde{A}_{G_6}$,centrality
R-HSA-373076,0.00023808469597170004,1012.0,6,$\widetilde{A}_{G_6}$,centrality
R-HSA-163125,0.00023804247241001732,1013.0,6,$\widetilde{A}_{G_6}$,centrality
R-HSA-1630316,0.00023466494204186787,1014.0,6,$\widetilde{A}_{G_6}$,centrality
R-HSA-917977,0.00022816929376198055,1015.0,6,$\widetilde{A}_{G_6}$,centrality
R-HSA-1222556,0.00022223295113564585,1016.0,6,$\widetilde{A}_{G_6}$,centrality
R-HSA-2022090,0.00021920124558328692,1017.0,6,$\widetilde{A}_{G_6}$,centrality
R-HSA-425407,0.0002026023519591173,1018.0,6,$\widetilde{A}_{G_6}$,centrality
R-HSA-140877,0.00019588753395749614,1019.0,6,$\widetilde{A}_{G_6}$,centrality
R-HSA-375276,0.00017274410928956154,1020.0,6,$\widetilde{A}_{G_6}$,centrality
R-HSA-5173105,0.00016432369053124527,1021.0,6,$\widetilde{A}_{G_6}$,centrality
R-HSA-2022377,0.00015484836035407903,1022.0,6,$\widetilde{A}_{G_6}$,centrality
R-HSA-5620922,0.00014861979505424486,1023.0,6,$\widetilde{A}_{G_6}$,centrality
R-HSA-8948216,0.0001473309231321505,1024.0,6,$\widetilde{A}_{G_6}$,centrality
R-HSA-1442490,0.00014429347819183038,1025.0,6,$\widetilde{A}_{G_6}$,centrality
R-HSA-1592389,0.0001332227388408799,1026.0,6,$\widetilde{A}_{G_6}$,centrality
R-HSA-163841,0.0001210641725339441,1027.0,6,$\widetilde{A}_{G_6}$,centrality
